/* XPM */
static char *HOVMOELLERDATA[]={
"32 32 7 1",
"c c #000000",
"d c #007fff",
"a c #777777",
"b c #ccccff",
"e c #d9b777",
"# c #ff00ff",
". c #ffffff",
"................................",
"................................",
"................................",
"................................",
".....###........................",
"......###.......................",
"........###.....................",
".........###aaaaaaaaaaa.........",
".....aaaabb###bbbbbbbbbaaaa.....",
"..aaabbbbbbbb##bbbbbbbbbbbbaaa..",
".abbbbbbbbbbbb##bbbbbbbbbbbbbba.",
"abbbbbbbbbbbbbb##bbbbbbbbbbbbbba",
"bbbbbbbbbaaaaaaa##aaaaabbbbbbbbb",
"bbbbbaaaabbbbbbbb##bbbbaaaabbbbb",
"bbaaabbbbbbbbbbbbb##bbbbbbbaaabb",
"babbbbbbbbbbbbbbbbb##bbbbbbbbbab",
"abbbbbbbbbbbbbbbbbbb##bbbbbbbbba",
"bbbbbbbbbaaaaaaaaaaaa#abbbbbbbbb",
"bbbbbaaaabbbbbbbbbbbb##aaaabbbbb",
"bbaaabbbbbbbbbbbbbbbbb##bbbaaabb",
"babbbbbbbbbbbbbbbbbbbbb##bb#bbab",
"abbbbbbbbbbbbbbbbbbbbbb##b##bbba",
"bbbbbbbbbaaaaaaaaaaaaaa#####bbbb",
"bbbbbaaaabbbbbbbbbbbbbbb####bbbb",
"bbaaabbbbbbbbbbbbbbbbbb#####aabb",
"babbbbbbbbbbbbbbbbbbbb######bbab",
"abbbbbbbbbbbbbbbbbbbb#######bbba",
"bbbbbbbbbccccccccccccccbbbbbbbbb",
"bbbbbccccddddddeeeeeeeecccccbbbb",
"bbcccdddddddddeeeeeeeeeeeeecccbb",
"bcddddddddddeeeeeeeeeeeeeeeeeecb",
"cddddddddddeeeeeeeeeeeeeeeeeeeec"};
