<?xml version="1.0" encoding="UTF-8" standalone="no"?>
<svg
   xmlns:dc="http://purl.org/dc/elements/1.1/"
   xmlns:cc="http://creativecommons.org/ns#"
   xmlns:rdf="http://www.w3.org/1999/02/22-rdf-syntax-ns#"
   xmlns:svg="http://www.w3.org/2000/svg"
   xmlns="http://www.w3.org/2000/svg"
   xmlns:xlink="http://www.w3.org/1999/xlink"
   xmlns:sodipodi="http://sodipodi.sourceforge.net/DTD/sodipodi-0.dtd"
   xmlns:inkscape="http://www.inkscape.org/namespaces/inkscape"
   viewBox="0 0 34.133335 34.133335"
   style="display:inline"
   sodipodi:docname="HOME.svg"
   inkscape:version="1.0 (4035a4f, 2020-05-01)"
   version="1.1"
   id="svg2"
   height="36.40889"
   width="36.40889">
  <defs
     id="defs4">
    <inkscape:perspective
       id="perspective77"
       inkscape:persp3d-origin="17.066667 : 15.92889 : 1"
       inkscape:vp_z="34.133334 : 21.617779 : 1"
       inkscape:vp_y="0 : 1066.6668 : 0"
       inkscape:vp_x="0 : 21.617779 : 1"
       sodipodi:type="inkscape:persp3d" />
    <linearGradient
       id="linearGradient4494">
      <stop
         id="stop4496"
         offset="0"
         style="stop-color:#bfbfbf;stop-opacity:1;" />
      <stop
         id="stop4498"
         offset="1"
         style="stop-color:#4e4e4e;stop-opacity:1;" />
    </linearGradient>
    <linearGradient
       id="linearGradient3753">
      <stop
         id="stop3755"
         offset="0"
         style="stop-color:#539ec0;stop-opacity:1;" />
      <stop
         style="stop-color:#6798c4;stop-opacity:1;"
         offset="0.5"
         id="stop3713" />
      <stop
         id="stop3757"
         offset="1"
         style="stop-color:#5391d7;stop-opacity:1;" />
    </linearGradient>
    <linearGradient
       inkscape:collect="always"
       xlink:href="#linearGradient3753"
       id="linearGradient2910"
       gradientUnits="userSpaceOnUse"
       gradientTransform="matrix(0.55845763,0,0,0.55794702,-1.3287357,-1.8666085)"
       x1="20.381924"
       y1="25.776665"
       x2="36.550461"
       y2="-0.56834435" />
    <linearGradient
       y2="28.643499"
       x2="21.214657"
       y1="55.657021"
       x1="57.456539"
       gradientTransform="matrix(0.97812443,0,0,0.96376754,-22.733194,1017.6339)"
       gradientUnits="userSpaceOnUse"
       id="linearGradient3908"
       xlink:href="#linearGradient5915"
       inkscape:collect="always" />
    <linearGradient
       id="linearGradient5915">
      <stop
         style="stop-color:#0b3591;stop-opacity:1;"
         offset="0"
         id="stop5917" />
      <stop
         style="stop-color:#81aecf;stop-opacity:1;"
         offset="1"
         id="stop5919" />
    </linearGradient>
    <linearGradient
       gradientTransform="matrix(0.48530728,0,0,0.49093759,-47.142318,1039.6734)"
       gradientUnits="userSpaceOnUse"
       y2="20.168556"
       x2="6.6376882"
       y1="53.744427"
       x1="42.063648"
       id="linearGradient3771"
       xlink:href="#linearGradient3765"
       inkscape:collect="always" />
    <linearGradient
       id="linearGradient3765">
      <stop
         id="stop3767"
         offset="0"
         style="stop-color:#2f56ab;stop-opacity:1;" />
      <stop
         id="stop3769"
         offset="1"
         style="stop-color:#3c79ab;stop-opacity:1;" />
    </linearGradient>
    <linearGradient
       gradientTransform="matrix(0.48530728,0,0,0.49093759,-47.079698,1040.0432)"
       gradientUnits="userSpaceOnUse"
       y2="20.009457"
       x2="-7.6111097"
       y1="61.835026"
       x1="71.889565"
       id="linearGradient3788"
       xlink:href="#linearGradient3782"
       inkscape:collect="always" />
    <linearGradient
       id="linearGradient3782">
      <stop
         id="stop3784"
         offset="0"
         style="stop-color:#6a6d71;stop-opacity:1;" />
      <stop
         id="stop3786"
         offset="1"
         style="stop-color:#606164;stop-opacity:1;" />
    </linearGradient>
    <linearGradient
       y2="59.972881"
       x2="10.400817"
       y1="8.7720575"
       x1="35.657509"
       gradientTransform="matrix(0.51031759,0,0,-0.10859702,5.7447143,12.683803)"
       gradientUnits="userSpaceOnUse"
       id="linearGradient3776"
       xlink:href="#linearGradient3775"
       inkscape:collect="always" />
    <linearGradient
       id="linearGradient3775">
      <stop
         style="stop-color:#f5f5f5;stop-opacity:1;"
         offset="0"
         id="stop3777" />
      <stop
         style="stop-color:#d3d8da;stop-opacity:1;"
         offset="1"
         id="stop3779" />
    </linearGradient>
    <linearGradient
       inkscape:collect="always"
       xlink:href="#linearGradient3775"
       id="linearGradient6551"
       gradientUnits="userSpaceOnUse"
       gradientTransform="matrix(0.25426475,0,0,-0.05410769,-44.741535,1046.252)"
       x1="35.657509"
       y1="8.7720575"
       x2="10.400817"
       y2="59.972881" />
    <linearGradient
       gradientTransform="translate(-29.197995,-11.160401)"
       gradientUnits="userSpaceOnUse"
       y2="1033.8058"
       x2="16.796991"
       y1="1055.2544"
       x1="14.476191"
       id="linearGradient4500-8"
       xlink:href="#linearGradient3753-9"
       inkscape:collect="always" />
    <linearGradient
       id="linearGradient3753-9">
      <stop
         id="stop3755-8"
         offset="0"
         style="stop-color:#539ec0;stop-opacity:1;" />
      <stop
         style="stop-color:#6798c4;stop-opacity:1;"
         offset="0.5"
         id="stop3713-3" />
      <stop
         id="stop3757-5"
         offset="1"
         style="stop-color:#5391d7;stop-opacity:1;" />
    </linearGradient>
    <linearGradient
       id="linearGradient3728">
      <stop
         id="stop3730"
         offset="0"
         style="stop-color:#f1f3fb;stop-opacity:1;" />
      <stop
         id="stop3732"
         offset="1"
         style="stop-color:#273df9;stop-opacity:0;" />
    </linearGradient>
    <linearGradient
       id="linearGradient3756">
      <stop
         style="stop-color:#519aed;stop-opacity:1;"
         offset="0"
         id="stop3758" />
      <stop
         style="stop-color:#e9dddd;stop-opacity:0;"
         offset="1"
         id="stop3760" />
    </linearGradient>
    <linearGradient
       y2="31.085577"
       x2="15.413333"
       y1="12.89746"
       x1="15.413333"
       gradientUnits="userSpaceOnUse"
       id="linearGradient3691"
       xlink:href="#linearGradient3614"
       inkscape:collect="always" />
    <linearGradient
       id="linearGradient3614">
      <stop
         id="stop3616"
         offset="0"
         style="stop-color:#2c71d9;stop-opacity:1;" />
      <stop
         id="stop3618"
         offset="1"
         style="stop-color:#ececec;stop-opacity:1;" />
    </linearGradient>
    <linearGradient
       y2="31.085577"
       x2="15.413333"
       y1="2.2337441"
       x1="15.413333"
       gradientUnits="userSpaceOnUse"
       id="linearGradient3693"
       xlink:href="#linearGradient3602"
       inkscape:collect="always" />
    <linearGradient
       id="linearGradient3602">
      <stop
         id="stop3604"
         offset="0"
         style="stop-color:#f5f5f5;stop-opacity:1;" />
      <stop
         id="stop3606"
         offset="1"
         style="stop-color:#141bc6;stop-opacity:1;" />
    </linearGradient>
    <linearGradient
       y2="18.883736"
       x2="15.941438"
       y1="3.4795053"
       x1="15.413333"
       gradientTransform="matrix(1.1228948,0,0,-1.210218,1.8048354,72.453625)"
       gradientUnits="userSpaceOnUse"
       id="linearGradient3710-5"
       xlink:href="#linearGradient3728-2"
       inkscape:collect="always" />
    <linearGradient
       id="linearGradient3728-2">
      <stop
         id="stop3730-3"
         offset="0"
         style="stop-color:#113684;stop-opacity:1;" />
      <stop
         id="stop3732-2"
         offset="1"
         style="stop-color:#273df9;stop-opacity:0;" />
    </linearGradient>
    <linearGradient
       y2="18.883736"
       x2="15.941438"
       y1="3.4853487"
       x1="24.437176"
       gradientTransform="matrix(1.1228948,0,0,-1.210218,1.8048354,72.453625)"
       gradientUnits="userSpaceOnUse"
       id="linearGradient3720-4"
       xlink:href="#linearGradient3756-6"
       inkscape:collect="always" />
    <linearGradient
       id="linearGradient3756-6">
      <stop
         style="stop-color:#519aed;stop-opacity:1;"
         offset="0"
         id="stop3758-6" />
      <stop
         style="stop-color:#0c3a87;stop-opacity:0;"
         offset="1"
         id="stop3760-6" />
    </linearGradient>
    <linearGradient
       inkscape:collect="always"
       xlink:href="#linearGradient3614-9"
       id="linearGradient6782-2"
       gradientUnits="userSpaceOnUse"
       x1="15.413333"
       y1="12.89746"
       x2="15.413333"
       y2="31.085577" />
    <linearGradient
       id="linearGradient3614-9">
      <stop
         id="stop3616-0"
         offset="0"
         style="stop-color:#1a52b9;stop-opacity:1;" />
      <stop
         id="stop3618-4"
         offset="1"
         style="stop-color:#7da0d8;stop-opacity:1;" />
    </linearGradient>
    <linearGradient
       inkscape:collect="always"
       xlink:href="#linearGradient3602-3"
       id="linearGradient6784-9"
       gradientUnits="userSpaceOnUse"
       x1="15.413333"
       y1="2.2337441"
       x2="15.413333"
       y2="31.085577" />
    <linearGradient
       id="linearGradient3602-3">
      <stop
         id="stop3604-1"
         offset="0"
         style="stop-color:#7da0ff;stop-opacity:1;" />
      <stop
         id="stop3606-1"
         offset="1"
         style="stop-color:#16459c;stop-opacity:1;" />
    </linearGradient>
    <linearGradient
       inkscape:collect="always"
       xlink:href="#linearGradient3614-9"
       id="linearGradient6868"
       gradientUnits="userSpaceOnUse"
       x1="15.413333"
       y1="10.246381"
       x2="15.261118"
       y2="31.015812" />
    <linearGradient
       inkscape:collect="always"
       xlink:href="#linearGradient3602-3"
       id="linearGradient6870"
       gradientUnits="userSpaceOnUse"
       x1="15.413333"
       y1="2.2337441"
       x2="15.261118"
       y2="31.015812" />
  </defs>
  <sodipodi:namedview
     inkscape:document-rotation="0"
     inkscape:snap-to-guides="false"
     inkscape:snap-grids="false"
     inkscape:guide-bbox="true"
     showguides="true"
     inkscape:window-maximized="0"
     inkscape:window-y="113"
     inkscape:window-x="1214"
     inkscape:window-height="795"
     inkscape:window-width="1440"
     showgrid="true"
     inkscape:current-layer="layer1"
     inkscape:document-units="px"
     inkscape:cy="18.204445"
     inkscape:cx="6.6197983"
     inkscape:zoom="16.616821"
     inkscape:pageshadow="2"
     inkscape:pageopacity="0.0"
     borderopacity="1.0"
     bordercolor="#666666"
     pagecolor="#ffffff"
     id="base">
    <inkscape:grid
       spacingy="1.0666667"
       spacingx="1.0666667"
       originy="0"
       originx="0"
       snapvisiblegridlinesonly="true"
       enabled="true"
       visible="true"
       empspacing="5"
       id="grid2985"
       type="xygrid" />
  </sodipodi:namedview>
  <metadata
     id="metadata7">
    <rdf:RDF>
      <cc:Work
         rdf:about="">
        <dc:format>image/svg+xml</dc:format>
        <dc:type
           rdf:resource="http://purl.org/dc/dcmitype/StillImage" />
        <dc:title />
        <cc:license
           rdf:resource="Apache License 2.0" />
        <dc:creator>
          <cc:Agent>
            <dc:title />
          </cc:Agent>
        </dc:creator>
        <dc:publisher>
          <cc:Agent>
            <dc:title>ECMWF</dc:title>
          </cc:Agent>
        </dc:publisher>
        <dc:language>en-GB</dc:language>
        <dc:subject>
          <rdf:Bag>
            <rdf:li>Metview icon</rdf:li>
          </rdf:Bag>
        </dc:subject>
        <dc:description>Metview icon</dc:description>
      </cc:Work>
    </rdf:RDF>
  </metadata>
  <g
     inkscape:label="bg"
     id="layer3"
     inkscape:groupmode="layer" />
  <g
     style="display:inline"
     transform="translate(0,-1020.3622)"
     id="layer1"
     inkscape:groupmode="layer"
     inkscape:label="Layer 1">
    <path
       sodipodi:nodetypes="ccccccc"
       inkscape:connector-curvature="0"
       id="path6943"
       d="m -0.09022506,1033.2486 3.19970496,3.5934 12.9992101,-9.7552 13.309483,9.8567 2.672054,-3.6424 -15.981537,-11.5429 z"
       style="fill:#71c9fb;fill-opacity:1;stroke:none" />
    <path
       inkscape:connector-curvature="0"
       id="path6945"
       d="m -24.701754,1035.9211 -0.0802,10.7469 h 5.694235 l -0.0802,-6.4161 4.812029,-0.08 0.0802,6.4963 3.127819,0.08 -0.240601,-10.5063 -6.817043,-6.3358 z"
       style="fill:none;stroke:none" />
    <path
       sodipodi:nodetypes="cccccccccc"
       inkscape:connector-curvature="0"
       id="path6949"
       d="m 5.7920614,1036.1315 v 13.9199 H 16.10869 v -8.8581 h 6.447891 v 8.8581 h 3.868736 v -13.9199 l -10.316627,-7.5926 z"
       style="fill:#71c9fb;fill-opacity:1;stroke:none" />
  </g>
  <g
     style="display:inline"
     inkscape:label="fg"
     id="layer2"
     inkscape:groupmode="layer" />
</svg>
