<?xml version="1.0" encoding="UTF-8" standalone="no"?>
<svg
   xmlns:dc="http://purl.org/dc/elements/1.1/"
   xmlns:cc="http://creativecommons.org/ns#"
   xmlns:rdf="http://www.w3.org/1999/02/22-rdf-syntax-ns#"
   xmlns:svg="http://www.w3.org/2000/svg"
   xmlns="http://www.w3.org/2000/svg"
   xmlns:sodipodi="http://sodipodi.sourceforge.net/DTD/sodipodi-0.dtd"
   xmlns:inkscape="http://www.inkscape.org/namespaces/inkscape"
   viewBox="0 0 59.999997 59.999997"
   style="display:inline"
   inkscape:export-ydpi="49.238422"
   inkscape:export-xdpi="49.238422"
   inkscape:output_extension="org.inkscape.output.svg.inkscape"
   sodipodi:docname="TABLEREADER.svg"
   version="1.0"
   inkscape:version="1.0 (4035a4f, 2020-05-01)"
   sodipodi:version="0.32"
   id="svg2"
   height="64"
   width="64">
  <defs
     id="defs4">
    <inkscape:perspective
       id="perspective3004"
       inkscape:persp3d-origin="31.999998 : 21.599999 : 1"
       inkscape:vp_z="63.999997 : 32.266666 : 1"
       inkscape:vp_y="0 : 999.99995 : 0"
       inkscape:vp_x="0 : 32.266666 : 1"
       sodipodi:type="inkscape:persp3d" />
    <marker
       style="overflow:visible"
       id="Arrow1Lstart"
       refX="0"
       refY="0"
       orient="auto"
       inkscape:stockid="Arrow1Lstart">
      <path
         transform="matrix(0.8,0,0,0.8,10,0)"
         style="fill-rule:evenodd;stroke:#000000;stroke-width:1pt;marker-start:none"
         d="M 0,0 5,-5 -12.5,0 5,5 Z"
         id="path3176" />
    </marker>
  </defs>
  <sodipodi:namedview
     showguides="false"
     inkscape:document-rotation="0"
     inkscape:window-maximized="0"
     showgrid="true"
     inkscape:window-y="49"
     inkscape:window-x="104"
     inkscape:window-height="947"
     inkscape:window-width="1504"
     height="64px"
     width="64px"
     inkscape:current-layer="layer3"
     inkscape:document-units="px"
     inkscape:cy="32"
     inkscape:cx="32"
     inkscape:zoom="9.421875"
     inkscape:pageshadow="2"
     inkscape:pageopacity="1"
     objecttolerance="10"
     guidetolerance="10"
     gridtolerance="10000"
     borderopacity="1.0"
     bordercolor="#666666"
     pagecolor="#ffffff"
     id="base">
    <inkscape:grid
       id="grid16219"
       type="xygrid" />
  </sodipodi:namedview>
  <metadata
     id="metadata7">
    <rdf:RDF>
      <cc:Work
         rdf:about="">
        <dc:format>image/svg+xml</dc:format>
        <dc:type
           rdf:resource="http://purl.org/dc/dcmitype/StillImage" />
        <dc:title></dc:title>
        <cc:license
           rdf:resource="Apache License 2.0" />
        <dc:creator>
          <cc:Agent>
            <dc:title />
          </cc:Agent>
        </dc:creator>
        <dc:publisher>
          <cc:Agent>
            <dc:title>ECMWF</dc:title>
          </cc:Agent>
        </dc:publisher>
        <dc:language>en-GB</dc:language>
        <dc:subject>
          <rdf:Bag>
            <rdf:li>Metview icon</rdf:li>
          </rdf:Bag>
        </dc:subject>
        <dc:description>Metview icon</dc:description>
      </cc:Work>
    </rdf:RDF>
  </metadata>
  <g
     inkscape:label="bg"
     id="layer3"
     inkscape:groupmode="layer">
    <rect
       style="display:inline;opacity:1;fill:#f2f2f2;fill-opacity:1;stroke:none;stroke-width:0.83966;stroke-linecap:round;stroke-linejoin:round;paint-order:markers fill stroke"
       id="rect13196"
       width="35.319454"
       height="30.20631"
       x="24.061892"
       y="29.208158" />
    <rect
       style="display:inline;opacity:1;fill:#c1d0e9;fill-opacity:1;stroke:#afc6e9;stroke-width:1.11271;stroke-linecap:square;stroke-linejoin:miter;stroke-miterlimit:4;stroke-dasharray:none;stroke-opacity:1"
       id="rect13194"
       width="6.7135172"
       height="35.479637"
       x="26.249998"
       y="-58.917133"
       ry="0"
       transform="rotate(90)" />
    <rect
       ry="0"
       y="32.834446"
       x="23.463448"
       height="26.0893"
       width="6.893856"
       id="rect5217"
       style="display:inline;opacity:1;fill:#c1d0e9;fill-opacity:1;stroke:#afc6e9;stroke-width:0.966899;stroke-linecap:square;stroke-linejoin:miter;stroke-miterlimit:4;stroke-dasharray:none;stroke-opacity:1" />
    <text
       transform="scale(1.0403947,0.96117366)"
       id="text2195"
       y="41.682571"
       x="23.800413"
       style="font-style:normal;font-weight:normal;font-size:6.57203px;line-height:0%;font-family:'Bitstream Vera Sans';display:inline;fill:#1a1a1a;fill-opacity:1;stroke:none;stroke-width:0.547669"
       xml:space="preserve"><tspan
         style="font-size:6.57203px;line-height:1.25;fill:#1a1a1a;stroke-width:0.547669"
         y="41.682571"
         x="23.800413"
         id="tspan2197"
         sodipodi:role="line">1</tspan></text>
    <text
       transform="scale(1.0403947,0.96117366)"
       id="text2199"
       y="50.097099"
       x="23.844488"
       style="font-style:normal;font-weight:normal;font-size:6.57203px;line-height:0%;font-family:'Bitstream Vera Sans';display:inline;fill:#1a1a1a;fill-opacity:1;stroke:none;stroke-width:0.547669"
       xml:space="preserve"><tspan
         style="font-size:6.57203px;line-height:1.25;fill:#1a1a1a;stroke-width:0.547669"
         y="50.097099"
         x="23.844488"
         id="tspan2201"
         sodipodi:role="line">2</tspan></text>
    <text
       transform="scale(1.0403947,0.96117366)"
       id="text2203"
       y="58.521076"
       x="23.952539"
       style="font-style:normal;font-weight:normal;font-size:6.57203px;line-height:0%;font-family:'Bitstream Vera Sans';display:inline;fill:#1a1a1a;fill-opacity:1;stroke:none;stroke-width:0.547669"
       xml:space="preserve"><tspan
         style="font-size:6.57203px;line-height:1.25;fill:#1a1a1a;stroke-width:0.547669"
         y="58.521076"
         x="23.952539"
         id="tspan2205"
         sodipodi:role="line">3</tspan></text>
    <text
       transform="scale(1.0403947,0.96117366)"
       id="text2183"
       y="33.420719"
       x="31.553125"
       style="font-style:normal;font-weight:normal;font-size:6.57203px;line-height:0%;font-family:'Bitstream Vera Sans';display:inline;fill:#1a1a1a;fill-opacity:1;stroke:none;stroke-width:0.547669"
       xml:space="preserve"><tspan
         style="font-size:6.57203px;line-height:1.25;fill:#1a1a1a;stroke-width:0.547669"
         y="33.420719"
         x="31.553125"
         id="tspan2185"
         sodipodi:role="line">A</tspan></text>
    <text
       transform="scale(1.0403947,0.96117366)"
       id="text2187"
       y="33.420719"
       x="39.942936"
       style="font-style:normal;font-weight:normal;font-size:6.57203px;line-height:0%;font-family:'Bitstream Vera Sans';display:inline;fill:#1a1a1a;fill-opacity:1;stroke:none;stroke-width:0.547669"
       xml:space="preserve"><tspan
         style="font-size:6.57203px;line-height:1.25;fill:#1a1a1a;stroke-width:0.547669"
         y="33.420719"
         x="39.942936"
         id="tspan2189"
         sodipodi:role="line">B</tspan></text>
    <text
       transform="scale(1.0403947,0.96117366)"
       id="text2191"
       y="33.239368"
       x="48.205891"
       style="font-style:normal;font-weight:normal;font-size:6.57203px;line-height:0%;font-family:'Bitstream Vera Sans';display:inline;fill:#1a1a1a;fill-opacity:1;stroke:none;stroke-width:0.547669"
       xml:space="preserve"><tspan
         style="font-size:6.57203px;line-height:1.25;fill:#1a1a1a;stroke-width:0.547669"
         y="33.239368"
         x="48.205891"
         id="tspan2193"
         sodipodi:role="line">C</tspan></text>
    <path
       id="path2207"
       d="m 25.018725,33.672078 c 33.682315,0 33.682315,0 33.682315,0"
       style="display:inline;fill:none;stroke:#1a1a1a;stroke-width:0.543607px;stroke-linecap:butt;stroke-linejoin:miter;stroke-opacity:1" />
    <path
       id="path2173"
       d="m 31.250653,27.420386 v 31.334197 0"
       style="display:inline;fill:none;stroke:#1a1a1a;stroke-width:0.56273px;stroke-linecap:butt;stroke-linejoin:miter;stroke-opacity:1"
       sodipodi:nodetypes="ccc" />
    <path
       id="path2175"
       d="m 39.666456,27.419953 0.130979,31.377495 v 0"
       style="display:inline;fill:none;stroke:#1a1a1a;stroke-width:0.562697px;stroke-linecap:butt;stroke-linejoin:miter;stroke-opacity:1"
       sodipodi:nodetypes="ccc" />
    <path
       id="path2177"
       d="M 48.344415,27.359792 V 58.839446"
       style="display:inline;fill:none;stroke:#1a1a1a;stroke-width:0.563459px;stroke-linecap:butt;stroke-linejoin:miter;stroke-opacity:1"
       sodipodi:nodetypes="cc" />
    <path
       id="path2179"
       d="m 56.956841,27.359447 -0.0655,31.607635"
       style="display:inline;fill:none;stroke:#1a1a1a;stroke-width:0.564247px;stroke-linecap:butt;stroke-linejoin:miter;stroke-opacity:1"
       sodipodi:nodetypes="cc" />
    <path
       id="path5221"
       d="m 24.791045,41.810442 c 33.953964,0 33.953964,0 33.953964,0"
       style="display:inline;fill:none;stroke:#1a1a1a;stroke-width:0.551787px;stroke-linecap:butt;stroke-linejoin:miter;stroke-opacity:1" />
    <path
       inkscape:transform-center-y="-4.2957892"
       inkscape:transform-center-x="12.130387"
       id="path5223"
       d="m 24.791045,49.865045 c 33.862109,0 33.862109,0 33.862109,0"
       style="display:inline;fill:none;stroke:#1a1a1a;stroke-width:0.551043px;stroke-linecap:butt;stroke-linejoin:miter;stroke-opacity:1" />
  </g>
  <g
     style="display:inline"
     inkscape:label="circle"
     id="layer2"
     inkscape:groupmode="layer">
    <path
       inkscape:export-ydpi="49.449646"
       inkscape:export-xdpi="49.449646"
       id="path2192"
       d="m 3.5268166,2.9433594 c 22.7231824,0 22.7231824,0 22.7231824,0"
       style="fill:#407840;fill-opacity:1;fill-rule:evenodd;stroke:#f9f9f9;stroke-width:1.076;stroke-linecap:butt;stroke-linejoin:miter;stroke-miterlimit:4;stroke-dasharray:none;stroke-opacity:1" />
    <path
       inkscape:export-ydpi="49.449646"
       inkscape:export-xdpi="49.449646"
       inkscape:transform-center-x="-4.6909084"
       inkscape:transform-center-y="1.3895948"
       id="path2194"
       d="m 3.5268166,6.7647452 c 22.7231824,0 22.7231824,0 22.7231824,0"
       style="fill:#407840;fill-opacity:1;fill-rule:evenodd;stroke:#f9f9f9;stroke-width:1.076;stroke-linecap:butt;stroke-linejoin:miter;stroke-miterlimit:4;stroke-dasharray:none;stroke-opacity:1" />
    <path
       inkscape:export-ydpi="49.449646"
       inkscape:export-xdpi="49.449646"
       id="path2196"
       d="m 3.5268166,10.75983 c 22.7231824,0 22.7231824,0 22.7231824,0"
       style="fill:#407840;fill-opacity:1;fill-rule:evenodd;stroke:#f9f9f9;stroke-width:1.076;stroke-linecap:butt;stroke-linejoin:miter;stroke-miterlimit:4;stroke-dasharray:none;stroke-opacity:1" />
    <path
       inkscape:export-ydpi="49.449646"
       inkscape:export-xdpi="49.449646"
       id="path2198"
       d="m 3.5268166,14.754914 c 22.7231824,0 22.7231824,0 22.7231824,0"
       style="fill:#407840;fill-opacity:1;fill-rule:evenodd;stroke:#f9f9f9;stroke-width:1.076;stroke-linecap:butt;stroke-linejoin:miter;stroke-miterlimit:4;stroke-dasharray:none;stroke-opacity:1" />
    <path
       inkscape:export-ydpi="49.449646"
       inkscape:export-xdpi="49.449646"
       id="path4376"
       d="m 3.5268166,18.749999 c 22.7231824,0 22.7231824,0 22.7231824,0"
       style="fill:#407840;fill-opacity:1;fill-rule:evenodd;stroke:#f9f9f9;stroke-width:1.076;stroke-linecap:butt;stroke-linejoin:miter;stroke-miterlimit:4;stroke-dasharray:none;stroke-opacity:1" />
    <path
       id="path16300"
       d="m 32.812498,7.4999991 h 15 V 18.749999"
       style="fill:none;stroke:#f9f9f9;stroke-width:1.87499991;stroke-linecap:butt;stroke-linejoin:round;stroke-opacity:1;stroke-miterlimit:4;stroke-dasharray:none" />
    <path
       id="path16302"
       d="m 42.436255,15.612561 5.376243,5.012438 5.376244,-5.012438 z"
       style="fill:#f2f2f2;stroke:none;stroke-width:0.947775px;stroke-linecap:butt;stroke-linejoin:miter;stroke-opacity:1" />
  </g>
</svg>
