/* XPM */
static char * MetPlus_xpm[] = {
"32 32 480 2",
"  	c #000000",
". 	c #FFFFFF",
"+ 	c #D6D6FF",
"@ 	c #E1E1FF",
"# 	c #C8C8FF",
"$ 	c #CFCFFF",
"% 	c #DFDFFF",
"& 	c #CECEFF",
"* 	c #D7D7FF",
"= 	c #BFBFFF",
"- 	c #C5C5FF",
"; 	c #CDCDFF",
"> 	c #BCBCFF",
", 	c #C4C4FF",
"' 	c #C3C3FF",
") 	c #B3B3FF",
"! 	c #D4D4FF",
"~ 	c #C6C6FF",
"{ 	c #C9C9FF",
"] 	c #BEBEFF",
"^ 	c #D1D1FF",
"/ 	c #D0D0FF",
"( 	c #E4E3FF",
"_ 	c #D9D9FF",
": 	c #D7D8FF",
"< 	c #E5E4FF",
"[ 	c #F7F3FF",
"} 	c #ECDFFF",
"| 	c #D5D9D0",
"1 	c #E6DFE8",
"2 	c #F3EDEC",
"3 	c #FDF3F4",
"4 	c #C8CED8",
"5 	c #CBCBD4",
"6 	c #B8C1C4",
"7 	c #35AAB7",
"8 	c #C0D2E0",
"9 	c #53A0B0",
"0 	c #A2D8D0",
"a 	c #61AAC9",
"b 	c #C1B8D2",
"c 	c #4AD8CD",
"d 	c #B9C2D9",
"e 	c #8FB9C4",
"f 	c #71BFCE",
"g 	c #A4B7B1",
"h 	c #7AD5D1",
"i 	c #A1D5D1",
"j 	c #37A0C0",
"k 	c #A4CBD9",
"l 	c #2FA9C0",
"m 	c #97CAD5",
"n 	c #41A6BE",
"o 	c #9AD0D2",
"p 	c #4EB8D8",
"q 	c #66B5B6",
"r 	c #FBFBF9",
"s 	c #97B7BB",
"t 	c #F9E5DD",
"u 	c #57CBC7",
"v 	c #F6FDF2",
"w 	c #35ADC2",
"x 	c #93C4D3",
"y 	c #2FCAC3",
"z 	c #CAECE6",
"A 	c #00C0D8",
"B 	c #BCBCD2",
"C 	c #7CE4D8",
"D 	c #40B3CF",
"E 	c #5DBFBA",
"F 	c #30EBE7",
"G 	c #91CCE1",
"H 	c #09CAC5",
"I 	c #FFFFF7",
"J 	c #63C7C0",
"K 	c #B1D5F9",
"L 	c #4FE6D9",
"M 	c #8A97C4",
"N 	c #21DFDD",
"O 	c #3BA7BF",
"P 	c #F9F7F6",
"Q 	c #FEFDFE",
"R 	c #AFC1C0",
"S 	c #FFFDFD",
"T 	c #67CDCE",
"U 	c #E3F6F3",
"V 	c #C4CDE0",
"W 	c #77B5CF",
"X 	c #32C7BF",
"Y 	c #EEDFDB",
"Z 	c #00CAE3",
"` 	c #EACBCE",
" .	c #7DF0E7",
"..	c #7BAFC8",
"+.	c #7AD4CB",
"@.	c #46ECE2",
"#.	c #A0C3DB",
"$.	c #85CFC9",
"%.	c #F7F8F8",
"&.	c #89CAC7",
"*.	c #FFF9F6",
"=.	c #43E1D9",
"-.	c #F0C0CE",
";.	c #2FF4E7",
">.	c #1D9EB8",
",.	c #F4F4F1",
"'.	c #F9FDFB",
").	c #FFFEFF",
"!.	c #37D7D5",
"~.	c #A6CDCE",
"{.	c #BDEDEA",
"].	c #FFF3EA",
"^.	c #B8C0E6",
"/.	c #83CAC5",
"(.	c #FFF6F2",
"_.	c #00CDC9",
":.	c #FFE4E2",
"<.	c #66E8E4",
"[.	c #9ECCD4",
"}.	c #5DCCDF",
"|.	c #57CCD2",
"1.	c #94CAE1",
"2.	c #89D2CB",
"3.	c #DAF3F1",
"4.	c #AFD1D2",
"5.	c #EBF6F4",
"6.	c #60C4C3",
"7.	c #FFE0DF",
"8.	c #66E3DB",
"9.	c #0B9DB7",
"0.	c #F4F4F3",
"a.	c #34C8C8",
"b.	c #E3DAD8",
"c.	c #E5F1F0",
"d.	c #F8EDEB",
"e.	c #F6EAE5",
"f.	c #53E9E5",
"g.	c #FFFDFE",
"h.	c #57B5B5",
"i.	c #FFE9E9",
"j.	c #72D8D7",
"k.	c #B5DED5",
"l.	c #5FB4E5",
"m.	c #48B4C0",
"n.	c #A0C7DA",
"o.	c #CBE9E1",
"p.	c #F8F8F8",
"q.	c #A2CECE",
"r.	c #DDF4F2",
"s.	c #57C5C5",
"t.	c #FFDCDC",
"u.	c #75E5DF",
"v.	c #15AFC7",
"w.	c #FAF7F7",
"x.	c #59C8C9",
"y.	c #F5F3F4",
"z.	c #F6F4F5",
"A.	c #79BFC0",
"B.	c #68A1A2",
"C.	c #FFF0F1",
"D.	c #9ED4D4",
"E.	c #97D5D0",
"F.	c #DBE8EE",
"G.	c #68BAD7",
"H.	c #78AEC0",
"I.	c #B1DDDA",
"J.	c #8BC5C6",
"K.	c #D9EEEF",
"L.	c #8BCFD0",
"M.	c #CFE4E5",
"N.	c #78BFBC",
"O.	c #40A1BD",
"P.	c #F9FDEF",
"Q.	c #FFFFF1",
"R.	c #FFFFFB",
"S.	c #FFFFFD",
"T.	c #F8FFF6",
"U.	c #FBFEFC",
"V.	c #FFFFFE",
"W.	c #F3F5EF",
"X.	c #F9EDEA",
"Y.	c #FFFEFA",
"Z.	c #FFFFFC",
"`.	c #FBF2F9",
" +	c #FFF6ED",
".+	c #FFFEF9",
"++	c #F6F4F0",
"@+	c #ECF2EE",
"#+	c #FEFFFC",
"$+	c #FDEAE4",
"%+	c #E9EBEF",
"&+	c #D3D1FD",
"*+	c #BFBBFA",
"=+	c #C2BFFC",
"-+	c #B8B0F7",
";+	c #BCB7FA",
">+	c #D4D3FB",
",+	c #C4C2FE",
"'+	c #BBB1F7",
")+	c #FFDADF",
"!+	c #FFEDEB",
"~+	c #FFF2F4",
"{+	c #FFEFEE",
"]+	c #FFEBEA",
"^+	c #FFE5E3",
"/+	c #FFEEED",
"(+	c #FFE8EA",
"_+	c #FFF7F7",
":+	c #FFF5F4",
"<+	c #FDFDF4",
"[+	c #F5F6E5",
"}+	c #FFFFF2",
"|+	c #FCFFF5",
"1+	c #DAE1D7",
"2+	c #F5FCFA",
"3+	c #DEDFF3",
"4+	c #EDF1EE",
"5+	c #FAFCF8",
"6+	c #E0EAE6",
"7+	c #E8E9EA",
"8+	c #EEF2F1",
"9+	c #EAEFED",
"0+	c #ECEFF0",
"a+	c #E8E9EB",
"b+	c #E9EBEC",
"c+	c #FBFFFF",
"d+	c #F8F7F4",
"e+	c #CCD0D1",
"f+	c #EFEFEE",
"g+	c #F7F8F7",
"h+	c #DCE1DB",
"i+	c #E3E5FE",
"j+	c #DDD2E9",
"k+	c #E4E0DA",
"l+	c #FFEDFF",
"m+	c #A0D6D0",
"n+	c #FAECED",
"o+	c #F3F3F2",
"p+	c #EDEEEC",
"q+	c #F0EEF0",
"r+	c #D3D3D3",
"s+	c #DCDDDE",
"t+	c #FDFFFF",
"u+	c #FCF9F9",
"v+	c #EAEBEA",
"w+	c #A6D4D5",
"x+	c #E2E0E1",
"y+	c #F8F3F1",
"z+	c #F5EDE2",
"A+	c #FCDBED",
"B+	c #C9BED3",
"C+	c #F3E5D9",
"D+	c #A3BBF1",
"E+	c #73DED4",
"F+	c #FFEFEF",
"G+	c #F7F6F5",
"H+	c #F1F1F0",
"I+	c #F3F2F3",
"J+	c #D7D7D6",
"K+	c #D4D4D3",
"L+	c #F4F5F4",
"M+	c #FDFAFA",
"N+	c #ECEDEC",
"O+	c #67D4D2",
"P+	c #DAEBE3",
"Q+	c #FFFFF9",
"R+	c #A1D9E0",
"S+	c #D2E3EC",
"T+	c #BAC7D7",
"U+	c #90B7CD",
"V+	c #FCFDFC",
"W+	c #9BE2D5",
"X+	c #9BAAD9",
"Y+	c #5FE8DF",
"Z+	c #FFECE7",
"`+	c #FFFDFB",
" @	c #F1F1EF",
".@	c #DEDFE0",
"+@	c #F5F8F7",
"@@	c #D9D9D8",
"#@	c #F5F5F5",
"$@	c #FFFFFA",
"%@	c #31B5B7",
"&@	c #A3B8D2",
"*@	c #F7FFF8",
"=@	c #6F96AF",
"-@	c #829ACC",
";@	c #A6FBEF",
">@	c #91B0C4",
",@	c #EBE9E5",
"'@	c #66CBD5",
")@	c #D4E6E8",
"!@	c #42D7EA",
"~@	c #AADED6",
"{@	c #DAF3EF",
"]@	c #F4ECE6",
"^@	c #E6E4E0",
"/@	c #E7E5E0",
"(@	c #ECDEE7",
"_@	c #236C82",
":@	c #F2C0D6",
"<@	c #0A8AA6",
"[@	c #86BBB0",
"}@	c #B6A9B5",
"|@	c #5491AC",
"1@	c #3CBBB9",
"2@	c #00ACAA",
"3@	c #87D4CA",
"4@	c #1C8091",
"5@	c #F9D2E8",
"6@	c #246E7E",
"7@	c #F0CFDF",
"8@	c #0083A3",
"9@	c #3EA498",
"0@	c #1D82A8",
"a@	c #1290A4",
"b@	c #78B7CC",
"c@	c #D9C7D2",
"d@	c #66A5BA",
"e@	c #7AA6BC",
"f@	c #CDD6E0",
"g@	c #8EADBA",
"h@	c #E5D5E2",
"i@	c #8C99AA",
"j@	c #96BECD",
"k@	c #DAD9DB",
"l@	c #F6F5FF",
"m@	c #F9F8FF",
"n@	c #FEFEFF",
"o@	c #FCFCFF",
"p@	c #FBFBFF",
"q@	c #FDFCFF",
"r@	c #EEEEFF",
"s@	c #F0F0FF",
"t@	c #F1F1FF",
"u@	c #FBFAFF",
"v@	c #F3F3FF",
"w@	c #D8D7F5",
"x@	c #DCDBF7",
"y@	c #C8C7F6",
"z@	c #CBCBF6",
"A@	c #D0D0F6",
"B@	c #C8C5F6",
"C@	c #D0CFF6",
"D@	c #D5D4F6",
"E@	c #C7C7F6",
"F@	c #E0DFF6",
"G@	c #B4B4F6",
"H@	c #DFDCF6",
"I@	c #EFEFF6",
"J@	c #D1D1F6",
"K@	c #E9E8F6",
"L@	c #CAC7F6",
"M@	c #E6E5F6",
"N@	c #D3D3F6",
"O@	c #E0DDF6",
"P@	c #CACAF5",
"Q@	c #DAD9FF",
"R@	c #DAD8FF",
"S@	c #E6DCFF",
"T@	c #E3D9FF",
"U@	c #FCFBF6",
"V@	c #DDDACB",
"W@	c #FFFFED",
"X@	c #37A0B8",
"Y@	c #F8F6F7",
"Z@	c #FAFDFC",
"`@	c #FFFEFE",
" #	c #F2F7F3",
".#	c #E8E2E3",
"+#	c #F4F8F3",
"@#	c #9AC0C2",
"##	c #DBE8E3",
"$#	c #58A5CA",
"%#	c #62BDC1",
"&#	c #0093A1",
"*#	c #CFE8FF",
"=#	c #FAF8F9",
"-#	c #FCFFFE",
";#	c #EAE7E5",
">#	c #7CACB3",
",#	c #8FCCD5",
"'#	c #A1D8DE",
")#	c #6BA4B4",
"!#	c #7EB7C5",
"~#	c #207E7C",
"{#	c #F6FFFD",
"]#	c #E6EEF4",
"^#	c #13758D",
"/#	c #BAC8DE",
"(#	c #98B3D1",
"_#	c #D6C6D8",
":#	c #8199AA",
"<#	c #FFF6FF",
"[#	c #97D7CC",
"}#	c #D4B2CD",
"|#	c #F1F8F4",
"1#	c #FFFDF5",
"2#	c #FFE9FF",
"3#	c #6697B6",
"4#	c #C1BDD7",
"5#	c #B5B2C6",
"6#	c #FFDFF3",
"7#	c #ECDBEC",
"8#	c #EAD6F9",
"9#	c #A3B9C9",
"0#	c #E6D7EC",
"a#	c #FFF4FB",
"b#	c #F9D6EA",
"c#	c #BDBFBF",
"d#	c #FFFBFF",
"e#	c #8FE7F8",
"f#	c #829DB7",
"g#	c #5AACB4",
"h#	c #A7AFD2",
"i#	c #999EB6",
"j#	c #E4D8EE",
"k#	c #297F96",
"l#	c #879AB1",
"m#	c #CDC4DD",
"n#	c #699CB3",
"o#	c #A9DADE",
"p#	c #3B789D",
"q#	c #9FCCE2",
"r#	c #2790B1",
"s#	c #91C7DE",
"t#	c #65B0BB",
"u#	c #4088A0",
"v#	c #96DAD9",
"w#	c #006294",
"x#	c #BBF3ED",
"y#	c #46C4C0",
"z#	c #80C2C2",
"A#	c #C9C9C6",
"B#	c #F3F3E3",
"C#	c #E0F7F0",
"D#	c #F8F6E9",
"E#	c #9FD7C9",
"F#	c #FFFFF8",
"G#	c #C1CCBB",
"H#	c #FFFFF3",
"I#	c #FDF9EB",
"J#	c #CBF2E7",
"K#	c #EEEDDC",
"L#	c #F4F1ED",
"M#	c #EFECEA",
"N#	c #FAEFFF",
"O#	c #F2F1FF",
"P#	c #EAECFF",
"Q#	c #E3E2FF",
"R#	c #D0D1FF",
"S#	c #FFD9D1",
"T#	c #FFD4CD",
"U#	c #F5FFFF",
"V#	c #C0C6FF",
"W#	c #EBE9FF",
"X#	c #F6F6FF",
"Y#	c #CDCAFF",
"Z#	c #F1F3FF",
"`#	c #E1DFFF",
" $	c #F8FAFD",
".$	c #D4D6FF",
"+$	c #CFCEFF",
"@$	c #D3D0FF",
"#$	c #E5E2FF",
"$$	c #E9EDFE",
"%$	c #C7C8FF",
"&$	c #E2E9FF",
"*$	c #FFD9D5",
"=$	c #FFD4D5",
"-$	c #FCF7F5",
";$	c #E0E0FF",
">$	c #F3F2FF",
",$	c #CFD2FF",
"'$	c #CBD7FF",
")$	c #FFD5D0",
"!$	c #FFDAD4",
"~$	c #FFE3DA",
"{$	c #C6C5FF",
"]$	c #DEDEFF",
"                                                                ",
"  . . . . . . . . . . . . . . . . . . . . . . . . . . . . . .   ",
"  . + @ # $ % & * = - ; > , ' & ) ! ~ { ) ] ^ @ / ^ ^ ^ ^ ; .   ",
"  . ( _ : % < [ } . . . . . . . . . . . . . . . . . . . . . .   ",
"  . | 1 2 3 4 5 6 7 8 9 0 a b c d e f g h i j k l m n o p q .   ",
"  . r . . . . s t u v w x y z A B C D E F G H I J K L M N O .   ",
"  . P . Q . . R S T U V W X Y Z `  ...+.@.#.$.%.&.*.=.-.;.>..   ",
"  . ,.. '.).. !.. ~.{.].^./.(._.:.<.[.}.|.1.2.3.4.5.6.7.8.9..   ",
"  . 0.. '.Q . a.. b.c.d.e.f.g.h.i.j.k.l.m.n.o.p.q.r.s.t.u.v..   ",
"  . w.. . . . x.. y.z.. . A.. B.C.D.E.F.G.H.I.. J.K.L.M.N.O..   ",
"  . P.I Q.I R.Q.S.S.T.U.V.W.. X.. Y.Z.. `. +.+. ++. @+#+$+%+.   ",
"  . &+*+=+-+;+>+,+'+)+. !+S.S V.~+{+]+^+. . /+(+. ]+V._+:+. .   ",
"  . <+. . [+. . }+|+1+2+3+. . . 4+5+6+7+8+. 9+0+. a+. b+. c+.   ",
"  . d+. . e+. . f+g+h+i+j+. ).. k+l+m+n+o+. p+q+. r+. s+. t+.   ",
"  . u+v+. w+x+. y+Y.z+A+B+. ).. C+D+E+F+G+. H+I+. J+. K+L+. .   ",
"  . M+N+. O+P+. Q+R+S+T+U+. V+. W+X+Y+Z+`+ @L+.@+@@@. J+#@. .   ",
"  . . $@. %@&@. *@=@-@;@>@. ,@. '@)@!@~@{@R.. ]@. ^@. /@S.. .   ",
"  . (@_@:@<@[@}@|@1@2@3@4@5@6@7@8@9@0@a@b@c@d@e@f@g@h@i@j@k@.   ",
"  . . . . . . . . . . . . . . . . . . . . . . . . . . . . . .   ",
"  . l@m@. . n@. ).o@. p@. . q@r@n@m@s@t@o@u@v@t@. . . . . . .   ",
"  . w@x@y@z@y@A@B@C@D@E@F@G@H@F@I@J@K@L@M@N@O@P@Q@R@R@S@S@T@.   ",
"  . U@. V.. . V.. . V.. . . . . . . . . . . . . . V@W@. X@Q+.   ",
"  . Y@. Z@`@`@t+. . . . . .  #. . .#. . +#. @###. $#%#. &#*#.   ",
"  . =#. -#. . . ;#>#. ,#'#. )#!#. ~#{#]#^#. /#(#. _#:#<#[#}#.   ",
"  . Z.|#. . 1#. 2#3#. 4#5#. 6#7#.+8#9#0#. a#b#. c#d#e#f#. g#.   ",
"  . . h#i#j#k#l#m#. n#o#. p#. q#r#. s#t#. u#v#. w#. x#y#. z#.   ",
"  . A#S.. B#. . C#. . D#. E#. F#G#. R.H#. I#J#. K#. $@L#. M#.   ",
"  . N#O#P#Q#R#. S#T#U#V#W#X#Y#Z#`#!  $.$+$. @$#$$$%$&$*$=$-$.   ",
"  . ;$;$. . >$,$'$)$!$~$. . . . {$; ]$. . . . . . . . . . . .   ",
"  . . . . . . . . . . . . . . . . . . . . . . . . . . . . . .   ",
"  . . . . . . . . . . . . . . . . . . . . . . . . . . . . . .   ",
"                                                                "};
