/* XPM */
static char * DATACOVERAGE_icon[] = {
"32 32 5 1",
" 	c #FFFFFFFFFFFF",
".	c #B3B3FFFFFFFF",
"X	c #6C6CA5A56767",
"o	c #FFFF00000000",
"O	c #00000000FFFF",
"           ..........           ",
"         ..............         ",
"       X............XoooX       ",
"      XXX..........XXoooXX      ",
"     XXX..........XXXoooXX.     ",
"    XXXXX.........XXXXXXXXXX    ",
"   XXXXX...........XXXXXXXXXX   ",
"  XXXX.........X...XXXXXX....X  ",
"  XXX.........XoooXXXXXXX...XX  ",
" XX.........XXXoooXXXXXX....X.X ",
" ...........XXXoooXXXXXX....XXX ",
"......XX....XXXXXXXXXXXXXX..XXXX",
".......X....XXXXXXXXXXXXXXXX.XXX",
"...........XXX.XXXXXXXXXXXX.XXXX",
"...........XXX..XXXXXXXXXXoooXXX",
"XXX........XXX.XXXXXX.XXXXoooXXX",
"..XX....XX.....XXXXXX...XXooo..X",
"...X.....XX.X.XXXXXX....XX.....X",
".........X...XXXXXXXX..........X",
"............XXXXXXXXXX.........X",
".....OOO....XXXXXX.XXXX........X",
".....OOO...XXXXXXX..XXXXX......X",
" ....OOO..XXXXXXXXX...XXXX....XX",
" ...........XXXXXXX....XX....XX ",
"  ..........XXXXXX..X..X.....XX ",
"  ...........XXXX...OOOX.....X  ",
"   ...........XX....OOO.....XX  ",
"    ..........XXXX..OOO....XX   ",
"     ........XXXXX.......XXX    ",
"      .......XXXXX....XXXXX     ",
"        ......XXX....XXXX       ",
"          .....X...XXXX         "};
