<?xml version="1.0" encoding="UTF-8" standalone="no"?>
<!-- Created with Inkscape (http://www.inkscape.org/) -->

<svg
   xmlns:dc="http://purl.org/dc/elements/1.1/"
   xmlns:cc="http://creativecommons.org/ns#"
   xmlns:rdf="http://www.w3.org/1999/02/22-rdf-syntax-ns#"
   xmlns:svg="http://www.w3.org/2000/svg"
   xmlns="http://www.w3.org/2000/svg"
   xmlns:xlink="http://www.w3.org/1999/xlink"
   xmlns:sodipodi="http://sodipodi.sourceforge.net/DTD/sodipodi-0.dtd"
   xmlns:inkscape="http://www.inkscape.org/namespaces/inkscape"
   inkscape:export-ydpi="180"
   inkscape:export-xdpi="180"
   width="32"
   height="32"
   id="svg11300"
   sodipodi:version="0.32"
   inkscape:version="0.91 r13725"
   sodipodi:docname="DIVROT_MIR.svg"
   inkscape:output_extension="org.inkscape.output.svg.inkscape"
   version="1.0"
   style="display:inline">
  <sodipodi:namedview
     stroke="#3465a4"
     fill="#729fcf"
     id="base"
     pagecolor="#ffffff"
     bordercolor="#666666"
     borderopacity="0.25490196"
     inkscape:pageopacity="0.0"
     inkscape:pageshadow="2"
     inkscape:zoom="13.28125"
     inkscape:cx="19.059552"
     inkscape:cy="16.527546"
     inkscape:current-layer="layer1"
     showgrid="true"
     inkscape:grid-bbox="false"
     inkscape:document-units="px"
     inkscape:showpageshadow="false"
     inkscape:window-width="1366"
     inkscape:window-height="1003"
     inkscape:window-x="2308"
     inkscape:window-y="47"
     gridtolerance="50"
     inkscape:grid-points="false"
     showguides="true"
     inkscape:guide-bbox="true"
     objecttolerance="0.4"
     inkscape:object-paths="true"
     width="32px"
     height="32px"
     inkscape:window-maximized="0"
     inkscape:snap-grids="false"
     inkscape:snap-to-guides="false">
    <sodipodi:guide
       orientation="horizontal"
       position="50.977307"
       id="guide9112" />
    <inkscape:grid
       type="xygrid"
       id="grid2849"
       empspacing="5"
       visible="true"
       enabled="true"
       snapvisiblegridlinesonly="true" />
  </sodipodi:namedview>
  <metadata
     id="metadata7">
    <rdf:RDF>
      <cc:Work
         rdf:about="">
        <dc:format>image/svg+xml</dc:format>
        <dc:type
           rdf:resource="http://purl.org/dc/dcmitype/StillImage" />
        <dc:title />
        <cc:license
           rdf:resource="Apache License 2.0" />
        <dc:creator>
          <cc:Agent>
            <dc:title />
          </cc:Agent>
        </dc:creator>
        <dc:publisher>
          <cc:Agent>
            <dc:title>ECMWF</dc:title>
          </cc:Agent>
        </dc:publisher>
        <dc:language>en-GB</dc:language>
        <dc:subject>
          <rdf:Bag>
            <rdf:li>Metview icon</rdf:li>
          </rdf:Bag>
        </dc:subject>
        <dc:description>Metview icon</dc:description>
      </cc:Work>
    </rdf:RDF>
  </metadata>
  <defs
     id="defs3">
    <linearGradient
       id="linearGradient3901">
      <stop
         style="stop-color:#9f9f9f;stop-opacity:1;"
         offset="0"
         id="stop3903" />
      <stop
         style="stop-color:#c3c3c3;stop-opacity:1;"
         offset="1"
         id="stop3905" />
    </linearGradient>
    <linearGradient
       id="linearGradient3642">
      <stop
         style="stop-color:#e14848;stop-opacity:1;"
         offset="0"
         id="stop3644" />
      <stop
         style="stop-color:#fa1511;stop-opacity:1;"
         offset="1"
         id="stop3646" />
    </linearGradient>
    <linearGradient
       inkscape:collect="always"
       xlink:href="#linearGradient3901"
       id="linearGradient3907"
       x1="3.7705307"
       y1="28.708662"
       x2="25.957588"
       y2="3.7863109"
       gradientUnits="userSpaceOnUse"
       gradientTransform="translate(0.75294117,-0.22588235)" />
    <linearGradient
       inkscape:collect="always"
       xlink:href="#linearGradient3901"
       id="linearGradient3033"
       gradientUnits="userSpaceOnUse"
       gradientTransform="translate(0.37647062,-8.4329411)"
       x1="3.7705307"
       y1="28.708662"
       x2="32.884647"
       y2="10.638075" />
    <linearGradient
       inkscape:collect="always"
       xlink:href="#linearGradient3901-7"
       id="linearGradient3033-1"
       gradientUnits="userSpaceOnUse"
       gradientTransform="translate(-0.45176467,-7.6047059)"
       x1="3.7705307"
       y1="28.708662"
       x2="32.884647"
       y2="10.638075" />
    <linearGradient
       id="linearGradient3901-7">
      <stop
         style="stop-color:#9f9f9f;stop-opacity:1;"
         offset="0"
         id="stop3903-4" />
      <stop
         style="stop-color:#c3c3c3;stop-opacity:1;"
         offset="1"
         id="stop3905-0" />
    </linearGradient>
    <linearGradient
       inkscape:collect="always"
       xlink:href="#linearGradient3901-7"
       id="linearGradient3050"
       gradientUnits="userSpaceOnUse"
       gradientTransform="translate(-0.45176467,-7.6047059)"
       x1="3.7705307"
       y1="28.708662"
       x2="32.884647"
       y2="10.638075" />
    <linearGradient
       id="linearGradient3052">
      <stop
         style="stop-color:#9f9f9f;stop-opacity:1;"
         offset="0"
         id="stop3054" />
      <stop
         style="stop-color:#c3c3c3;stop-opacity:1;"
         offset="1"
         id="stop3056" />
    </linearGradient>
    <linearGradient
       inkscape:collect="always"
       xlink:href="#linearGradient3901-7"
       id="linearGradient3058"
       gradientUnits="userSpaceOnUse"
       gradientTransform="translate(-0.45176467,-7.6047059)"
       x1="3.7705307"
       y1="28.708662"
       x2="32.884647"
       y2="10.638075" />
    <linearGradient
       id="linearGradient3060">
      <stop
         style="stop-color:#9f9f9f;stop-opacity:1;"
         offset="0"
         id="stop3062" />
      <stop
         style="stop-color:#c3c3c3;stop-opacity:1;"
         offset="1"
         id="stop3064" />
    </linearGradient>
    <linearGradient
       inkscape:collect="always"
       xlink:href="#linearGradient3901"
       id="linearGradient3912"
       gradientUnits="userSpaceOnUse"
       gradientTransform="translate(0.90352941,-15.058823)"
       x1="3.7705307"
       y1="28.708662"
       x2="32.884647"
       y2="10.638075" />
    <linearGradient
       inkscape:collect="always"
       xlink:href="#linearGradient3901"
       id="linearGradient3922"
       gradientUnits="userSpaceOnUse"
       gradientTransform="translate(-23.004635,-34.416627)"
       x1="3.7705307"
       y1="28.708662"
       x2="32.884647"
       y2="10.638075" />
    <linearGradient
       inkscape:collect="always"
       xlink:href="#linearGradient3901"
       id="linearGradient3926"
       gradientUnits="userSpaceOnUse"
       gradientTransform="translate(0.30117647,-14.908235)"
       x1="3.7705307"
       y1="28.708662"
       x2="32.884647"
       y2="10.638075" />
    <linearGradient
       inkscape:collect="always"
       xlink:href="#linearGradient3901"
       id="linearGradient3934"
       gradientUnits="userSpaceOnUse"
       gradientTransform="matrix(0.91976073,0,0,0.91976074,24.614192,-15.789587)"
       x1="3.7705307"
       y1="28.708662"
       x2="32.884647"
       y2="10.638075" />
    <linearGradient
       inkscape:collect="always"
       xlink:href="#linearGradient3901"
       id="linearGradient3938"
       gradientUnits="userSpaceOnUse"
       gradientTransform="translate(0.6023529,-17.317647)"
       x1="3.7705307"
       y1="28.708662"
       x2="32.884647"
       y2="10.638075" />
    <linearGradient
       inkscape:collect="always"
       xlink:href="#linearGradient3901"
       id="linearGradient3950"
       gradientUnits="userSpaceOnUse"
       gradientTransform="translate(-14.166259,-43.97898)"
       x1="3.7705307"
       y1="28.708662"
       x2="32.884647"
       y2="10.638075" />
    <linearGradient
       inkscape:collect="always"
       xlink:href="#linearGradient3901"
       id="linearGradient3952"
       gradientUnits="userSpaceOnUse"
       gradientTransform="translate(12.724706,-2.8611767)"
       x1="3.7705307"
       y1="28.708662"
       x2="32.884647"
       y2="10.638075" />
    <linearGradient
       inkscape:collect="always"
       xlink:href="#linearGradient3901"
       id="linearGradient3956"
       gradientUnits="userSpaceOnUse"
       gradientTransform="matrix(0.96425122,0,0,0.96425122,14.956098,-7.4054492)"
       x1="3.7705307"
       y1="28.708662"
       x2="32.884647"
       y2="10.638075" />
    <linearGradient
       inkscape:collect="always"
       xlink:href="#linearGradient3901"
       id="linearGradient3964"
       gradientUnits="userSpaceOnUse"
       gradientTransform="translate(9.1858826,-17.468235)"
       x1="3.7705307"
       y1="28.708662"
       x2="32.884647"
       y2="10.638075" />
    <linearGradient
       inkscape:collect="always"
       xlink:href="#linearGradient3901-2"
       id="linearGradient3964-8"
       gradientUnits="userSpaceOnUse"
       gradientTransform="translate(31.782035,-2.5775897)"
       x1="3.7705307"
       y1="28.708662"
       x2="32.884647"
       y2="10.638075" />
    <linearGradient
       id="linearGradient3901-2">
      <stop
         style="stop-color:#9f9f9f;stop-opacity:1;"
         offset="0"
         id="stop3903-45" />
      <stop
         style="stop-color:#c3c3c3;stop-opacity:1;"
         offset="1"
         id="stop3905-5" />
    </linearGradient>
    <linearGradient
       inkscape:collect="always"
       xlink:href="#linearGradient3901-2"
       id="linearGradient3984"
       gradientUnits="userSpaceOnUse"
       gradientTransform="translate(9.1858826,-17.468235)"
       x1="3.7705307"
       y1="28.708662"
       x2="32.884647"
       y2="10.638075" />
    <linearGradient
       id="linearGradient3986">
      <stop
         style="stop-color:#9f9f9f;stop-opacity:1;"
         offset="0"
         id="stop3988" />
      <stop
         style="stop-color:#c3c3c3;stop-opacity:1;"
         offset="1"
         id="stop3990" />
    </linearGradient>
    <linearGradient
       inkscape:collect="always"
       xlink:href="#linearGradient3901-2"
       id="linearGradient3992"
       gradientUnits="userSpaceOnUse"
       gradientTransform="translate(9.1858826,-17.468235)"
       x1="3.7705307"
       y1="28.708662"
       x2="32.884647"
       y2="10.638075" />
    <linearGradient
       id="linearGradient3994">
      <stop
         style="stop-color:#9f9f9f;stop-opacity:1;"
         offset="0"
         id="stop3996" />
      <stop
         style="stop-color:#c3c3c3;stop-opacity:1;"
         offset="1"
         id="stop3998" />
    </linearGradient>
    <linearGradient
       inkscape:collect="always"
       xlink:href="#linearGradient3901-2"
       id="linearGradient3956-1"
       gradientUnits="userSpaceOnUse"
       gradientTransform="matrix(0.96425122,0,0,0.96425122,38.780414,13.41449)"
       x1="3.7705307"
       y1="28.708662"
       x2="32.884647"
       y2="10.638075" />
    <linearGradient
       id="linearGradient4001">
      <stop
         style="stop-color:#9f9f9f;stop-opacity:1;"
         offset="0"
         id="stop4003" />
      <stop
         style="stop-color:#c3c3c3;stop-opacity:1;"
         offset="1"
         id="stop4005" />
    </linearGradient>
    <linearGradient
       inkscape:collect="always"
       xlink:href="#linearGradient3901-2"
       id="linearGradient4007"
       gradientUnits="userSpaceOnUse"
       gradientTransform="matrix(0.96425119,0,0,0.96425119,15.346526,-0.94383193)"
       x1="3.7705307"
       y1="28.708662"
       x2="32.884647"
       y2="10.638075" />
    <linearGradient
       id="linearGradient4009">
      <stop
         style="stop-color:#9f9f9f;stop-opacity:1;"
         offset="0"
         id="stop4011" />
      <stop
         style="stop-color:#c3c3c3;stop-opacity:1;"
         offset="1"
         id="stop4013" />
    </linearGradient>
    <linearGradient
       inkscape:collect="always"
       xlink:href="#linearGradient3901-2"
       id="linearGradient3950-7"
       gradientUnits="userSpaceOnUse"
       gradientTransform="translate(-37.138883,-65.570801)"
       x1="3.7705307"
       y1="28.708662"
       x2="32.884647"
       y2="10.638075" />
    <linearGradient
       id="linearGradient4016">
      <stop
         style="stop-color:#9f9f9f;stop-opacity:1;"
         offset="0"
         id="stop4018" />
      <stop
         style="stop-color:#c3c3c3;stop-opacity:1;"
         offset="1"
         id="stop4020" />
    </linearGradient>
    <linearGradient
       inkscape:collect="always"
       xlink:href="#linearGradient3901-2"
       id="linearGradient4022"
       gradientUnits="userSpaceOnUse"
       gradientTransform="translate(-14.54273,-50.680156)"
       x1="3.7705307"
       y1="28.708662"
       x2="32.884647"
       y2="10.638075" />
    <linearGradient
       id="linearGradient4024">
      <stop
         style="stop-color:#9f9f9f;stop-opacity:1;"
         offset="0"
         id="stop4026" />
      <stop
         style="stop-color:#c3c3c3;stop-opacity:1;"
         offset="1"
         id="stop4028" />
    </linearGradient>
    <linearGradient
       inkscape:collect="always"
       xlink:href="#linearGradient3901-2"
       id="linearGradient3934-1"
       gradientUnits="userSpaceOnUse"
       gradientTransform="matrix(0.91976073,0,0,0.91976074,49.181617,-2.093757)"
       x1="3.7705307"
       y1="28.708662"
       x2="32.884647"
       y2="10.638075" />
    <linearGradient
       id="linearGradient4031">
      <stop
         style="stop-color:#9f9f9f;stop-opacity:1;"
         offset="0"
         id="stop4033" />
      <stop
         style="stop-color:#c3c3c3;stop-opacity:1;"
         offset="1"
         id="stop4035" />
    </linearGradient>
    <linearGradient
       inkscape:collect="always"
       xlink:href="#linearGradient3901-2"
       id="linearGradient4037"
       gradientUnits="userSpaceOnUse"
       gradientTransform="matrix(0.91976073,0,0,0.91976074,24.614192,-15.789587)"
       x1="3.7705307"
       y1="28.708662"
       x2="32.884647"
       y2="10.638075" />
    <linearGradient
       id="linearGradient4039">
      <stop
         style="stop-color:#9f9f9f;stop-opacity:1;"
         offset="0"
         id="stop4041" />
      <stop
         style="stop-color:#c3c3c3;stop-opacity:1;"
         offset="1"
         id="stop4043" />
    </linearGradient>
    <linearGradient
       inkscape:collect="always"
       xlink:href="#linearGradient3901-2"
       id="linearGradient4045"
       gradientUnits="userSpaceOnUse"
       gradientTransform="matrix(0.91976073,0,0,0.91976074,24.614192,-15.789587)"
       x1="3.7705307"
       y1="28.708662"
       x2="32.884647"
       y2="10.638075" />
    <linearGradient
       id="linearGradient4047">
      <stop
         style="stop-color:#9f9f9f;stop-opacity:1;"
         offset="0"
         id="stop4049" />
      <stop
         style="stop-color:#c3c3c3;stop-opacity:1;"
         offset="1"
         id="stop4051" />
    </linearGradient>
    <linearGradient
       inkscape:collect="always"
       xlink:href="#linearGradient3901-2"
       id="linearGradient3922-1"
       gradientUnits="userSpaceOnUse"
       gradientTransform="translate(-45.600788,-49.307272)"
       x1="3.7705307"
       y1="28.708662"
       x2="32.884647"
       y2="10.638075" />
    <linearGradient
       id="linearGradient4054">
      <stop
         style="stop-color:#9f9f9f;stop-opacity:1;"
         offset="0"
         id="stop4056" />
      <stop
         style="stop-color:#c3c3c3;stop-opacity:1;"
         offset="1"
         id="stop4058" />
    </linearGradient>
    <linearGradient
       inkscape:collect="always"
       xlink:href="#linearGradient3901-2"
       id="linearGradient4060"
       gradientUnits="userSpaceOnUse"
       gradientTransform="translate(-23.004635,-34.416627)"
       x1="3.7705307"
       y1="28.708662"
       x2="32.884647"
       y2="10.638075" />
    <linearGradient
       id="linearGradient4062">
      <stop
         style="stop-color:#9f9f9f;stop-opacity:1;"
         offset="0"
         id="stop4064" />
      <stop
         style="stop-color:#c3c3c3;stop-opacity:1;"
         offset="1"
         id="stop4066" />
    </linearGradient>
    <linearGradient
       inkscape:collect="always"
       xlink:href="#linearGradient3901-2"
       id="linearGradient3938-5"
       gradientUnits="userSpaceOnUse"
       gradientTransform="translate(0.6023529,-17.317647)"
       x1="3.7705307"
       y1="28.708662"
       x2="32.884647"
       y2="10.638075" />
    <linearGradient
       id="linearGradient4069">
      <stop
         style="stop-color:#9f9f9f;stop-opacity:1;"
         offset="0"
         id="stop4071" />
      <stop
         style="stop-color:#c3c3c3;stop-opacity:1;"
         offset="1"
         id="stop4073" />
    </linearGradient>
    <linearGradient
       inkscape:collect="always"
       xlink:href="#linearGradient3901-2"
       id="linearGradient4075"
       gradientUnits="userSpaceOnUse"
       gradientTransform="translate(0.6023529,-17.317647)"
       x1="3.7705307"
       y1="28.708662"
       x2="32.884647"
       y2="10.638075" />
    <linearGradient
       id="linearGradient4077">
      <stop
         style="stop-color:#9f9f9f;stop-opacity:1;"
         offset="0"
         id="stop4079" />
      <stop
         style="stop-color:#c3c3c3;stop-opacity:1;"
         offset="1"
         id="stop4081" />
    </linearGradient>
    <linearGradient
       inkscape:collect="always"
       xlink:href="#linearGradient3901-2"
       id="linearGradient4083"
       gradientUnits="userSpaceOnUse"
       gradientTransform="translate(0.6023529,-17.317647)"
       x1="3.7705307"
       y1="28.708662"
       x2="32.884647"
       y2="10.638075" />
    <linearGradient
       id="linearGradient4085">
      <stop
         style="stop-color:#9f9f9f;stop-opacity:1;"
         offset="0"
         id="stop4087" />
      <stop
         style="stop-color:#c3c3c3;stop-opacity:1;"
         offset="1"
         id="stop4089" />
    </linearGradient>
    <linearGradient
       inkscape:collect="always"
       xlink:href="#linearGradient3901-2"
       id="linearGradient4091"
       gradientUnits="userSpaceOnUse"
       gradientTransform="translate(0.6023529,-17.317647)"
       x1="3.7705307"
       y1="28.708662"
       x2="32.884647"
       y2="10.638075" />
    <linearGradient
       id="linearGradient4093">
      <stop
         style="stop-color:#9f9f9f;stop-opacity:1;"
         offset="0"
         id="stop4095" />
      <stop
         style="stop-color:#c3c3c3;stop-opacity:1;"
         offset="1"
         id="stop4097" />
    </linearGradient>
    <linearGradient
       inkscape:collect="always"
       xlink:href="#linearGradient3901-2"
       id="linearGradient4099"
       gradientUnits="userSpaceOnUse"
       gradientTransform="translate(0.6023529,-17.317647)"
       x1="3.7705307"
       y1="28.708662"
       x2="32.884647"
       y2="10.638075" />
    <linearGradient
       id="linearGradient4101">
      <stop
         style="stop-color:#9f9f9f;stop-opacity:1;"
         offset="0"
         id="stop4103" />
      <stop
         style="stop-color:#c3c3c3;stop-opacity:1;"
         offset="1"
         id="stop4105" />
    </linearGradient>
    <linearGradient
       y2="10.638075"
       x2="32.884647"
       y1="28.708662"
       x1="3.7705307"
       gradientTransform="translate(23.198505,-2.4270017)"
       gradientUnits="userSpaceOnUse"
       id="linearGradient4126"
       xlink:href="#linearGradient3901-2"
       inkscape:collect="always" />
    <filter
       inkscape:collect="always"
       id="filter4645"
       x="-0.12713787"
       width="1.2542757"
       y="-0.12079295"
       height="1.2415859">
      <feGaussianBlur
         inkscape:collect="always"
         stdDeviation="0.26099062"
         id="feGaussianBlur4647" />
    </filter>
    <filter
       inkscape:collect="always"
       id="filter4649">
      <feGaussianBlur
         inkscape:collect="always"
         stdDeviation="0.26099062"
         id="feGaussianBlur4651" />
    </filter>
    <filter
       inkscape:collect="always"
       id="filter4653">
      <feGaussianBlur
         inkscape:collect="always"
         stdDeviation="0.26099062"
         id="feGaussianBlur4655" />
    </filter>
    <filter
       inkscape:collect="always"
       id="filter4657">
      <feGaussianBlur
         inkscape:collect="always"
         stdDeviation="0.26099062"
         id="feGaussianBlur4659" />
    </filter>
    <filter
       inkscape:collect="always"
       id="filter4661">
      <feGaussianBlur
         inkscape:collect="always"
         stdDeviation="0.26099062"
         id="feGaussianBlur4663" />
    </filter>
    <filter
       inkscape:collect="always"
       id="filter4665"
       x="-0.08488758"
       width="1.1697752"
       y="-0.22302175"
       height="1.4460435">
      <feGaussianBlur
         inkscape:collect="always"
         stdDeviation="0.26099062"
         id="feGaussianBlur4667" />
    </filter>
    <filter
       inkscape:collect="always"
       id="filter4669"
       x="-0.12038486"
       width="1.2407697"
       y="-0.072920709"
       height="1.1458414">
      <feGaussianBlur
         inkscape:collect="always"
         stdDeviation="0.26099062"
         id="feGaussianBlur4671" />
    </filter>
  </defs>
  <g
     inkscape:groupmode="layer"
     id="layer1"
     inkscape:label="shadow">
    <text
       sodipodi:linespacing="125%"
       id="text3845-2"
       y="13.008294"
       x="1.2126235"
       style="font-style:normal;font-variant:normal;font-weight:normal;font-stretch:normal;font-size:16px;line-height:125%;font-family:Arial;-inkscape-font-specification:Arial;letter-spacing:0px;word-spacing:0px;display:inline;fill:#000000;fill-opacity:1;stroke:none;filter:url(#filter4669)"
       xml:space="preserve"><tspan
         sodipodi:role="line"
         id="tspan3916-7"
         x="1.2126235"
         y="13.008294"
         style="fill:#000000"><tspan
           style="font-size:12px;fill:#000000"
           id="tspan3936-6"><tspan
             style="font-size:14px;fill:#000000"
             id="tspan3966-1"><tspan
               style="font-size:12px;fill:#000000"
               id="tspan3968-4">k </tspan></tspan></tspan></tspan></text>
    <text
       xml:space="preserve"
       style="font-style:normal;font-weight:normal;font-size:8px;line-height:125%;font-family:Sans;letter-spacing:0px;word-spacing:0px;display:inline;fill:#000000;fill-opacity:1;stroke:none;filter:url(#filter4665)"
       x="25.934084"
       y="17.681778"
       id="text3906-2"
       sodipodi:linespacing="125%"
       transform="matrix(0.9056962,0,0,1.104123,-22.061177,-14.531765)"><tspan
         sodipodi:role="line"
         id="tspan3910-3"
         x="25.934084"
         y="17.681778">→</tspan></text>
    <text
       xml:space="preserve"
       style="font-style:normal;font-variant:normal;font-weight:normal;font-stretch:normal;font-size:12px;line-height:125%;font-family:Arial;-inkscape-font-specification:Arial;letter-spacing:0px;word-spacing:0px;display:inline;fill:#000000;fill-opacity:1;stroke:none;filter:url(#filter4661)"
       x="-45.525494"
       y="-19.340216"
       id="text3918-2"
       sodipodi:linespacing="125%"
       transform="matrix(-1,0,0,-1,-22.061177,-14.531765)"><tspan
         id="tspan3920-2"
         sodipodi:role="line"
         style="font-size:12px;fill:#000000"
         x="-45.525494"
         y="-19.340216">∆</tspan></text>
    <text
       xml:space="preserve"
       style="font-style:normal;font-variant:normal;font-weight:normal;font-stretch:normal;font-size:11.03712845px;line-height:125%;font-family:Arial;-inkscape-font-specification:Arial;letter-spacing:0px;word-spacing:0px;display:inline;fill:#000000;fill-opacity:1;stroke:none;filter:url(#filter4657)"
       x="49.25087"
       y="25.468767"
       id="text3928-1"
       sodipodi:linespacing="125%"
       transform="matrix(0.91976072,0,0,1.0872393,-22.061177,-14.531765)"><tspan
         style="font-size:11.03712845px;fill:#000000"
         y="25.468767"
         x="49.25087"
         id="tspan3930-6"
         sodipodi:role="line"><tspan
           id="tspan3932-8"
           style="font-size:11.03712845px;fill:#000000">Ψ </tspan></tspan></text>
    <text
       transform="matrix(-1,0,0,-1,-22.437648,-21.232941)"
       sodipodi:linespacing="125%"
       id="text3940-5"
       y="-35.603745"
       x="-37.063587"
       style="font-style:normal;font-variant:normal;font-weight:normal;font-stretch:normal;font-size:12px;line-height:125%;font-family:Arial;-inkscape-font-specification:Arial;letter-spacing:0px;word-spacing:0px;display:inline;fill:#000000;fill-opacity:1;stroke:none;filter:url(#filter4653)"
       xml:space="preserve"><tspan
         y="-35.603745"
         x="-37.063587"
         style="font-size:12px;fill:#000000"
         sodipodi:role="line"
         id="tspan3942-7">∆</tspan></text>
    <text
       sodipodi:linespacing="125%"
       id="text3944-6"
       y="42.310265"
       x="38.853016"
       style="font-style:normal;font-variant:normal;font-weight:normal;font-stretch:normal;font-size:11.5710144px;line-height:125%;font-family:Arial;-inkscape-font-specification:Arial;letter-spacing:0px;word-spacing:0px;display:inline;fill:#000000;fill-opacity:1;stroke:none;filter:url(#filter4649)"
       xml:space="preserve"
       transform="matrix(0.96425116,0,0,1.0370742,-22.437648,-21.232941)"><tspan
         sodipodi:role="line"
         id="tspan3954-1"
         x="38.853016"
         y="42.310265"
         style="font-size:11.5710144px;fill:#000000">Φ</tspan></text>
    <text
       xml:space="preserve"
       style="font-style:normal;font-variant:normal;font-weight:normal;font-stretch:normal;font-size:10px;line-height:125%;font-family:Arial;-inkscape-font-specification:Arial;letter-spacing:0px;word-spacing:0px;display:inline;fill:#000000;fill-opacity:1;stroke:none;filter:url(#filter4645)"
       x="9.796154"
       y="12.857707"
       id="text3958-8"
       sodipodi:linespacing="125%"><tspan
         style="font-size:10px;fill:#000000"
         y="12.857707"
         x="9.796154"
         id="tspan3960-9"
         sodipodi:role="line"><tspan
           id="tspan3962-2"
           style="font-size:10px;fill:#000000">x </tspan></tspan></text>
    <g
       id="g3417"
       transform="matrix(0.78342032,0,0,0.69749745,2.4415495,21.144828)">
      <rect
         rx="0.32522699"
         y="1.7764758"
         x="1.9105903"
         height="13"
         width="31"
         id="rect3411"
         style="opacity:1;fill:#e3e2db;fill-opacity:1;stroke:#e3e2db;stroke-width:2.08100009;stroke-miterlimit:4;stroke-dasharray:none;stroke-dashoffset:0;stroke-opacity:1" />
      <text
         transform="scale(0.98769802,1.0124552)"
         sodipodi:linespacing="125%"
         id="text3404"
         y="13.956435"
         x="2.8921459"
         style="font-style:normal;font-weight:normal;font-size:16.12913132px;line-height:125%;font-family:'Bitstream Vera Sans';letter-spacing:0px;word-spacing:0px;display:inline;fill:#008000;fill-opacity:1;stroke:#112b00;stroke-width:1.04501891px;stroke-linecap:butt;stroke-linejoin:miter;stroke-opacity:1"
         xml:space="preserve"><tspan
           style="font-weight:bold;stroke:#112b00;stroke-width:1.04501891px"
           y="13.956435"
           x="2.8921459"
           id="tspan3406"
           sodipodi:role="line">MIR</tspan></text>
    </g>
  </g>
  <g
     inkscape:groupmode="layer"
     id="layer3"
     inkscape:label="frame"
     style="display:inline">
    <text
       sodipodi:linespacing="125%"
       id="text3845"
       y="12.649412"
       x="0.67764723"
       style="font-style:normal;font-variant:normal;font-weight:normal;font-stretch:normal;font-size:16px;line-height:125%;font-family:Arial;-inkscape-font-specification:Arial;letter-spacing:0px;word-spacing:0px;fill:url(#linearGradient3938);fill-opacity:1;stroke:none"
       xml:space="preserve"><tspan
         sodipodi:role="line"
         id="tspan3916"
         x="0.67764723"
         y="12.649412"
         style="fill:url(#linearGradient3938)"><tspan
           style="font-size:12px;fill:url(#linearGradient3938)"
           id="tspan3936"><tspan
             style="font-size:14px;fill:url(#linearGradient3938)"
             id="tspan3966"><tspan
               style="font-size:12px;fill:url(#linearGradient3938)"
               id="tspan3968">k </tspan></tspan></tspan></tspan></text>
    <text
       xml:space="preserve"
       style="font-style:normal;font-weight:normal;font-size:8px;line-height:125%;font-family:Sans;letter-spacing:0px;word-spacing:0px;fill:#999999;fill-opacity:1;stroke:none"
       x="0.98515171"
       y="4.1953769"
       id="text3906"
       sodipodi:linespacing="125%"
       transform="scale(0.9056962,1.104123)"><tspan
         sodipodi:role="line"
         id="tspan3910"
         x="0.98515171"
         y="4.1953769">→</tspan></text>
    <text
       xml:space="preserve"
       style="font-style:normal;font-variant:normal;font-weight:normal;font-stretch:normal;font-size:12px;line-height:125%;font-family:Arial;-inkscape-font-specification:Arial;letter-spacing:0px;word-spacing:0px;fill:url(#linearGradient3922);fill-opacity:1;stroke:none"
       x="-22.92934"
       y="-4.4495707"
       id="text3918"
       sodipodi:linespacing="125%"
       transform="scale(-1,-1)"><tspan
         id="tspan3920"
         sodipodi:role="line"
         style="font-size:12px;fill:url(#linearGradient3922)"
         x="-22.92934"
         y="-4.4495707">∆</tspan></text>
    <text
       xml:space="preserve"
       style="font-style:normal;font-variant:normal;font-weight:normal;font-stretch:normal;font-size:11.03712845px;line-height:125%;font-family:Arial;-inkscape-font-specification:Arial;letter-spacing:0px;word-spacing:0px;fill:url(#linearGradient3934);fill-opacity:1;stroke:none"
       x="24.683443"
       y="11.772938"
       id="text3928"
       sodipodi:linespacing="125%"
       transform="scale(0.91976072,1.0872393)"><tspan
         style="font-size:11.03712845px;fill:url(#linearGradient3934)"
         y="11.772938"
         x="24.683443"
         id="tspan3930"
         sodipodi:role="line"><tspan
           id="tspan3932"
           style="font-size:11.03712845px;fill:url(#linearGradient3934)">Ψ </tspan></tspan></text>
    <text
       transform="scale(-1,-1)"
       sodipodi:linespacing="125%"
       id="text3940"
       y="-14.011926"
       x="-14.090965"
       style="font-style:normal;font-variant:normal;font-weight:normal;font-stretch:normal;font-size:12px;line-height:125%;font-family:Arial;-inkscape-font-specification:Arial;letter-spacing:0px;word-spacing:0px;fill:url(#linearGradient3950);fill-opacity:1;stroke:none"
       xml:space="preserve"><tspan
         y="-14.011926"
         x="-14.090965"
         style="font-size:12px;fill:url(#linearGradient3950)"
         sodipodi:role="line"
         id="tspan3942">∆</tspan></text>
    <text
       sodipodi:linespacing="125%"
       id="text3944"
       y="21.490326"
       x="15.028702"
       style="font-style:normal;font-variant:normal;font-weight:normal;font-stretch:normal;font-size:11.5710144px;line-height:125%;font-family:Arial;-inkscape-font-specification:Arial;letter-spacing:0px;word-spacing:0px;fill:url(#linearGradient3956);fill-opacity:1;stroke:none"
       xml:space="preserve"
       transform="scale(0.96425116,1.0370742)"><tspan
         sodipodi:role="line"
         id="tspan3954"
         x="15.028702"
         y="21.490326"
         style="font-size:11.5710144px;fill:url(#linearGradient3956)">Φ</tspan></text>
    <text
       xml:space="preserve"
       style="font-style:normal;font-variant:normal;font-weight:normal;font-stretch:normal;font-size:10px;line-height:125%;font-family:Arial;-inkscape-font-specification:Arial;letter-spacing:0px;word-spacing:0px;fill:url(#linearGradient3964);fill-opacity:1;stroke:none"
       x="9.2611771"
       y="12.498825"
       id="text3958"
       sodipodi:linespacing="125%"><tspan
         style="font-size:10px;fill:url(#linearGradient3964)"
         y="12.498825"
         x="9.2611771"
         id="tspan3960"
         sodipodi:role="line"><tspan
           id="tspan3962"
           style="font-size:10px;fill:url(#linearGradient3964)">x </tspan></tspan></text>
  </g>
</svg>
