/* XPM */
static char * AVERAGEVIEW_xpm[] = {
"32 32 10 1",
" 	c None",
".	c #989898",
"+	c #FFFFFF",
"@	c #BCBCBC",
"#	c #BABABA",
"$	c #E9E9FB",
"%	c #EC92EB",
"&	c #7F7F7F",
"*	c #92BEEC",
"=	c #E4D8C2",
"................................",
".++++++++++++++++++++++++++++++.",
".+@@@@@@@@@@@@@@@@@@@@@@@@@@@@+.",
".+@++++++++++++++++++++++++++@+.",
".+@++++++++++++++++++++++++++@+.",
".+@++++++++++++++++++++++++++@+.",
".+@++++++++++++++++++++++++++@+.",
".+@++++++##############++++++@+.",
".+@++####$$$$$$$$$$$$$$####++@+.",
".+@##$$$$$$$$$$$$$$$$$$$$$$##@+.",
".+@$$$$$$$$$$$$$$$$$$$$$$$$$$@+.",
".+@$$$$$$$$%$$$$$$$$%$$$$$$$$@+.",
".+@$$$$$$##%%######%%##$$$$$$@+.",
".+@$$####$$%%%$$$$%%%$$####$$@+.",
".+@%%%%%%%%%%%%$$%%%%%%%%%%%%@+.",
".+@$$$$$$$$%%%$$$$%%%$$$$$$$$@+.",
".+@$$$$$$$$%%$$$$$$%%$$$$$$$$@+.",
".+@$$$$$$##%########%##$$$$$$@+.",
".+@$$####$$$$$$$$$$$$$$####$$@+.",
".+@##$$$$$$$$$$$$$$$$$$$$$$##@+.",
".+@$$$$$$$$$$$$$$$$$$$$$$$$$$@+.",
".+@$$$$$$$$$$$$$$$$$$$$$$$$$$@+.",
".+@$$$$$$##############$$$$$$@+.",
".+@$$####$$$$$$$$$$$$$$####$$@+.",
".+@##$$$$$$$$$$$$$$$$$$$$$$##@+.",
".+@$$$$$$$$$$$$$$$$$$$$$$$$$$@+.",
".+@$$$$$$$$$$$$$$$$$$$$$$$$$$@+.",
".+@$$$$$$&&&&&&&&&&&&&&$$$$$$@+.",
".+@$$&&&&******========&&&&&$@+.",
".+@@@@@@@@@@@@@@@@@@@@@@@@@@@@+.",
".++++++++++++++++++++++++++++++.",
"................................"};
