<?xml version="1.0" encoding="UTF-8" standalone="no"?>
<!-- Created with Inkscape (http://www.inkscape.org/) -->

<svg
   xmlns:dc="http://purl.org/dc/elements/1.1/"
   xmlns:cc="http://creativecommons.org/ns#"
   xmlns:rdf="http://www.w3.org/1999/02/22-rdf-syntax-ns#"
   xmlns:svg="http://www.w3.org/2000/svg"
   xmlns="http://www.w3.org/2000/svg"
   xmlns:sodipodi="http://sodipodi.sourceforge.net/DTD/sodipodi-0.dtd"
   xmlns:inkscape="http://www.inkscape.org/namespaces/inkscape"
   width="64"
   height="64"
   id="svg2"
   sodipodi:version="0.32"
   inkscape:version="0.47 r22583"
   version="1.0"
   sodipodi:docname="BINNING.svg"
   inkscape:output_extension="org.inkscape.output.svg.inkscape"
   style="display:inline">
  <defs
     id="defs4">
    <inkscape:perspective
       sodipodi:type="inkscape:persp3d"
       inkscape:vp_x="0 : 32 : 1"
       inkscape:vp_y="0 : 1000 : 0"
       inkscape:vp_z="64 : 32 : 1"
       inkscape:persp3d-origin="32 : 21.333333 : 1"
       id="perspective3035" />
  </defs>
  <sodipodi:namedview
     id="base"
     pagecolor="#ffffff"
     bordercolor="#666666"
     borderopacity="1.0"
     gridtolerance="10000"
     guidetolerance="10"
     objecttolerance="10"
     inkscape:pageopacity="0.0"
     inkscape:pageshadow="2"
     inkscape:zoom="14.106061"
     inkscape:cx="19.654327"
     inkscape:cy="21.591383"
     inkscape:document-units="px"
     inkscape:current-layer="layer4"
     width="64px"
     height="64px"
     inkscape:window-width="1536"
     inkscape:window-height="1134"
     inkscape:window-x="2005"
     inkscape:window-y="-11"
     showgrid="true"
     inkscape:snap-grids="false"
     inkscape:window-maximized="0">
    <inkscape:grid
       type="xygrid"
       id="grid2848"
       empspacing="5"
       visible="true"
       enabled="true"
       snapvisiblegridlinesonly="true" />
  </sodipodi:namedview>
  <metadata
     id="metadata7">
    <rdf:RDF>
      <cc:Work
         rdf:about="">
        <dc:format>image/svg+xml</dc:format>
        <dc:type
           rdf:resource="http://purl.org/dc/dcmitype/StillImage" />
        <dc:title />
        <cc:license
           rdf:resource="Apache License 2.0" />
        <dc:creator>
          <cc:Agent>
            <dc:title />
          </cc:Agent>
        </dc:creator>
        <dc:publisher>
          <cc:Agent>
            <dc:title>ECMWF</dc:title>
          </cc:Agent>
        </dc:publisher>
        <dc:language>en-GB</dc:language>
        <dc:subject>
          <rdf:Bag>
            <rdf:li>Metview icon</rdf:li>
          </rdf:Bag>
        </dc:subject>
        <dc:description>Metview icon</dc:description>
      </cc:Work>
    </rdf:RDF>
  </metadata>
  <g
     inkscape:groupmode="layer"
     id="layer5"
     inkscape:label="frame"
     style="display:inline">
    <rect
       style="fill:#e6eaec;fill-opacity:1;stroke:#696e78;stroke-width:1.80000007;stroke-miterlimit:4;stroke-opacity:1;stroke-dasharray:none"
       id="rect3833"
       width="62.467182"
       height="62.242748"
       x="0.85069817"
       y="0.90655333" />
  </g>
  <g
     inkscape:groupmode="layer"
     id="layer4"
     inkscape:label="bg"
     style="display:inline">
    <rect
       style="opacity:0.38172045;fill:#74a9d1;fill-opacity:1;stroke:none;display:inline"
       id="rect3822"
       width="26.138727"
       height="15.967694"
       x="17.730919"
       y="46.233124" />
    <rect
       style="opacity:0.38172045;fill:#2161c7;fill-opacity:1;stroke:none;display:inline"
       id="rect3826"
       width="26.123205"
       height="26.743126"
       x="17.943594"
       y="19.010782"
       rx="0" />
    <rect
       rx="0"
       y="19.081675"
       x="44.315235"
       height="27.097662"
       width="18.411552"
       id="rect3828"
       style="opacity:0.38172045;fill:#74a9d1;fill-opacity:1;stroke:none;display:inline" />
    <rect
       style="opacity:0.38172045;fill:#74a9d1;fill-opacity:1;stroke:none;display:inline"
       id="rect3830"
       width="18.411552"
       height="16.960176"
       x="44.17345"
       y="1.8550371"
       rx="0" />
    <rect
       rx="0"
       ry="0"
       y="46.516689"
       x="1.7803285"
       height="15.684128"
       width="16.143023"
       id="rect3835"
       style="opacity:0.38172045;fill:#74a9d1;fill-opacity:1;stroke:none;display:inline" />
  </g>
  <g
     inkscape:groupmode="layer"
     id="layer2"
     inkscape:label="circle"
     style="display:inline">
    <path
       style="fill:none;stroke:#3a5bcb;stroke-width:1.79999995;stroke-linecap:butt;stroke-linejoin:miter;stroke-miterlimit:4;stroke-opacity:1;stroke-dasharray:none"
       d="m 18.044576,1.7748251 c 0,60.4503469 0,60.4503469 0,60.4503469 l 0,0"
       id="path2173" />
    <path
       style="fill:none;stroke:#3a5bcb;stroke-width:1.79999995;stroke-linecap:butt;stroke-linejoin:miter;stroke-miterlimit:4;stroke-opacity:1;stroke-dasharray:none"
       d="m 44.116542,1.7757744 c 0,60.5902336 0,60.5902336 0,60.5902336"
       id="path2179" />
    <path
       inkscape:transform-center-y="-7.6505747"
       inkscape:transform-center-x="20.422423"
       id="path3793"
       d="m 1.6845705,46.039889 c 60.8100435,0 60.8100435,0 60.8100435,0"
       style="fill:none;stroke:#3a5bcb;stroke-width:1.79999995;stroke-linecap:butt;stroke-linejoin:miter;stroke-miterlimit:4;stroke-opacity:1;stroke-dasharray:none" />
    <path
       style="fill:none;stroke:#3a5bcb;stroke-width:1.79999995;stroke-linecap:butt;stroke-linejoin:miter;stroke-miterlimit:4;stroke-opacity:1;stroke-dasharray:none"
       d="m 1.7534714,19.030221 c 60.6722416,0 60.6722416,0 60.6722416,0"
       id="path3795"
       inkscape:transform-center-x="20.376143"
       inkscape:transform-center-y="-7.6505747" />
  </g>
</svg>
