<?xml version="1.0" encoding="UTF-8" standalone="no"?>
<svg
   xmlns:dc="http://purl.org/dc/elements/1.1/"
   xmlns:cc="http://creativecommons.org/ns#"
   xmlns:rdf="http://www.w3.org/1999/02/22-rdf-syntax-ns#"
   xmlns:svg="http://www.w3.org/2000/svg"
   xmlns="http://www.w3.org/2000/svg"
   xmlns:xlink="http://www.w3.org/1999/xlink"
   xmlns:sodipodi="http://sodipodi.sourceforge.net/DTD/sodipodi-0.dtd"
   xmlns:inkscape="http://www.inkscape.org/namespaces/inkscape"
   viewBox="0 0 32 32"
   inkscape:export-ydpi="360"
   inkscape:export-xdpi="360"
   style="display:inline"
   sodipodi:docname="FLEXTRA_RUN.svg"
   inkscape:version="1.0 (4035a4f, 2020-05-01)"
   version="1.1"
   id="svg2"
   height="34.133335"
   width="34.133335">
  <defs
     id="defs4">
    <linearGradient
       id="linearGradient3749"
       inkscape:collect="always">
      <stop
         id="stop3751"
         offset="0"
         style="stop-color:#2f3d85;stop-opacity:1;" />
      <stop
         id="stop3753"
         offset="1"
         style="stop-color:#2f3d85;stop-opacity:0;" />
    </linearGradient>
    <linearGradient
       id="linearGradient3741"
       inkscape:collect="always">
      <stop
         id="stop3743"
         offset="0"
         style="stop-color:#2f3d85;stop-opacity:1;" />
      <stop
         id="stop3745"
         offset="1"
         style="stop-color:#2f3d85;stop-opacity:0;" />
    </linearGradient>
    <linearGradient
       id="linearGradient3733"
       inkscape:collect="always">
      <stop
         id="stop3735"
         offset="0"
         style="stop-color:#2f528a;stop-opacity:1" />
      <stop
         id="stop3737"
         offset="1"
         style="stop-color:#3f5e91;stop-opacity:0;" />
    </linearGradient>
    <linearGradient
       gradientUnits="userSpaceOnUse"
       y2="102.62679"
       x2="110.16354"
       y1="102.62679"
       x1="78.128151"
       id="linearGradient3739"
       xlink:href="#linearGradient3733"
       inkscape:collect="always" />
    <linearGradient
       gradientUnits="userSpaceOnUse"
       y2="99.79335"
       x2="127.85975"
       y1="99.79335"
       x1="98.523994"
       id="linearGradient3747"
       xlink:href="#linearGradient3741"
       inkscape:collect="always" />
    <linearGradient
       gradientUnits="userSpaceOnUse"
       y2="63.179432"
       x2="119.71897"
       y1="84.507774"
       x1="88.325951"
       id="linearGradient3755"
       xlink:href="#linearGradient3749"
       inkscape:collect="always" />
    <linearGradient
       id="linearGradient3622-8">
      <stop
         id="stop3624-3"
         offset="0"
         style="stop-color:#c6cee3;stop-opacity:1;" />
      <stop
         id="stop3626-2"
         offset="1"
         style="stop-color:#eaeef9;stop-opacity:0;" />
    </linearGradient>
    <linearGradient
       id="linearGradient3622-95">
      <stop
         id="stop3624-5"
         offset="0"
         style="stop-color:#c6cee3;stop-opacity:1;" />
      <stop
         id="stop3626-7"
         offset="1"
         style="stop-color:#eaeef9;stop-opacity:0;" />
    </linearGradient>
    <radialGradient
       gradientUnits="userSpaceOnUse"
       r="1.5355394"
       fy="23.04089"
       fx="15.794774"
       cy="23.04089"
       cx="15.794774"
       id="radialGradient3656-4"
       xlink:href="#linearGradient3648-8"
       inkscape:collect="always" />
    <linearGradient
       id="linearGradient3648-8">
      <stop
         id="stop3650-8"
         offset="0"
         style="stop-color:#acc6d2;stop-opacity:1;" />
      <stop
         id="stop3652-2"
         offset="1"
         style="stop-color:#498ca2;stop-opacity:1;" />
    </linearGradient>
    <linearGradient
       gradientTransform="matrix(0.7675676,0,0,1,5.0632296,-0.88802268)"
       gradientUnits="userSpaceOnUse"
       y2="16.274597"
       x2="29.822767"
       y1="16.533602"
       x1="22.977591"
       id="linearGradient3706-4"
       xlink:href="#linearGradient3700-5"
       inkscape:collect="always" />
    <linearGradient
       id="linearGradient3700-5">
      <stop
         id="stop3702-5"
         offset="0"
         style="stop-color:#727272;stop-opacity:1;" />
      <stop
         id="stop3704-1"
         offset="1"
         style="stop-color:#a5a5a5;stop-opacity:1;" />
    </linearGradient>
    <linearGradient
       gradientTransform="matrix(0.9235808,0,0,1,1.6029976,-32.888023)"
       gradientUnits="userSpaceOnUse"
       y2="40.467396"
       x2="29.933771"
       y1="40.467396"
       x1="12.987333"
       id="linearGradient3714-7"
       xlink:href="#linearGradient3708-1"
       inkscape:collect="always" />
    <linearGradient
       id="linearGradient3708-1">
      <stop
         id="stop3710-1"
         offset="0"
         style="stop-color:#838383;stop-opacity:1;" />
      <stop
         id="stop3712-5"
         offset="1"
         style="stop-color:#b3b3b3;stop-opacity:1;" />
    </linearGradient>
    <linearGradient
       inkscape:collect="always"
       xlink:href="#linearGradient3716-7"
       id="linearGradient3965"
       gradientUnits="userSpaceOnUse"
       gradientTransform="matrix(0.91240876,0,0,1,3.4559832,-32.677214)"
       x1="12.98733"
       y1="51.049667"
       x2="23.125591"
       y2="51.049667" />
    <linearGradient
       id="linearGradient3716-7">
      <stop
         id="stop3718-6"
         offset="0"
         style="stop-color:#a5a5a5;stop-opacity:1;" />
      <stop
         id="stop3720-1"
         offset="1"
         style="stop-color:#bbbbbb;stop-opacity:1;" />
    </linearGradient>
    <linearGradient
       inkscape:collect="always"
       xlink:href="#linearGradient3716-7"
       id="linearGradient4645"
       gradientUnits="userSpaceOnUse"
       gradientTransform="matrix(0.91240876,0,0,1,1.7480916,-32.888023)"
       x1="12.98733"
       y1="51.049667"
       x2="23.125591"
       y2="51.049667" />
  </defs>
  <sodipodi:namedview
     inkscape:document-rotation="0"
     inkscape:window-maximized="0"
     inkscape:window-y="25"
     inkscape:window-x="583"
     inkscape:window-height="1095"
     inkscape:window-width="1620"
     inkscape:snap-grids="false"
     width="64px"
     showgrid="true"
     inkscape:current-layer="layer5"
     inkscape:document-units="px"
     inkscape:cy="17.083297"
     inkscape:cx="17.065271"
     inkscape:zoom="26.462778"
     inkscape:pageshadow="2"
     inkscape:pageopacity="0.0"
     borderopacity="1.0"
     bordercolor="#666666"
     pagecolor="#ffffff"
     id="base">
    <inkscape:grid
       spacingy="1"
       spacingx="1"
       originy="0"
       originx="0"
       snapvisiblegridlinesonly="true"
       enabled="true"
       visible="true"
       empspacing="5"
       id="grid2816"
       type="xygrid" />
  </sodipodi:namedview>
  <metadata
     id="metadata7">
    <rdf:RDF>
      <cc:Work
         rdf:about="">
        <dc:format>image/svg+xml</dc:format>
        <dc:type
           rdf:resource="http://purl.org/dc/dcmitype/StillImage" />
        <dc:title />
        <cc:license
           rdf:resource="Apache License 2.0" />
        <dc:creator>
          <cc:Agent>
            <dc:title />
          </cc:Agent>
        </dc:creator>
        <dc:publisher>
          <cc:Agent>
            <dc:title>ECMWF</dc:title>
          </cc:Agent>
        </dc:publisher>
        <dc:language>en-GB</dc:language>
        <dc:subject>
          <rdf:Bag>
            <rdf:li>Metview icon</rdf:li>
          </rdf:Bag>
        </dc:subject>
        <dc:description>Metview icon</dc:description>
      </cc:Work>
    </rdf:RDF>
  </metadata>
  <g
     transform="translate(0,-32)"
     style="display:inline"
     inkscape:label="frame"
     id="layer5"
     inkscape:groupmode="layer">
    <rect
       y="32.384819"
       x="0.44522339"
       height="31.261541"
       width="31.226377"
       id="rect3195"
       style="display:inline;fill:#dddedf;fill-opacity:1;stroke:#4e7ac6;stroke-width:0.8;stroke-linecap:butt;stroke-linejoin:miter;stroke-miterlimit:4;stroke-dasharray:none;stroke-dashoffset:0;stroke-opacity:1" />
  </g>
  <g
     inkscape:label="box"
     id="layer3"
     inkscape:groupmode="layer">
    <rect
       transform="rotate(90)"
       y="-9.5841379"
       x="0.41998568"
       height="9.1780224"
       width="31.191208"
       id="rect2924"
       style="display:inline;fill:#d7ddeb;fill-opacity:1;fill-rule:evenodd;stroke:#4e7ac6;stroke-width:0.8;stroke-linecap:butt;stroke-linejoin:miter;stroke-miterlimit:4;stroke-dasharray:none;stroke-dashoffset:0;stroke-opacity:1" />
  </g>
  <g
     transform="translate(0,-32)"
     style="display:inline"
     inkscape:label="text"
     id="layer4"
     inkscape:groupmode="layer">
    <flowRoot
       transform="translate(0,32)"
       style="font-style:normal;font-weight:normal;line-height:0.01%;fill:#000000;fill-opacity:1;stroke:none"
       id="flowRoot4691"
       xml:space="preserve"><flowRegion
         id="flowRegion4693"><rect
           y="-5.8902793"
           x="-0.074004449"
           height="14.985902"
           width="10.360623"
           id="rect4695" /></flowRegion><flowPara
         style="font-size:12px;line-height:1.25"
         id="flowPara4697"> </flowPara></flowRoot>
    <text
       transform="translate(0,32)"
       id="text2893"
       y="6.0483518"
       x="8.2637367"
       style="font-style:normal;font-weight:normal;line-height:0%;font-family:'Courier New KOI-8';-inkscape-font-specification:'Courier New KOI-8';fill:#000000;fill-opacity:1;stroke:none"
       xml:space="preserve"><tspan
         style="font-size:12px;line-height:1.25"
         y="6.0483518"
         x="8.2637367"
         id="tspan2895"
         sodipodi:role="line"> </tspan><tspan
         style="font-size:12px;line-height:1.25"
         y="21.048351"
         x="8.2637367"
         id="tspan2897"
         sodipodi:role="line"> </tspan></text>
    <text
       transform="translate(0,32)"
       id="text2899"
       y="6.0131869"
       x="7.7362638"
       style="font-style:normal;font-weight:normal;line-height:0%;font-family:'Courier New KOI-8';-inkscape-font-specification:'Courier New KOI-8';fill:#000000;fill-opacity:1;stroke:none"
       xml:space="preserve"><tspan
         style="font-size:12px;line-height:1.25"
         y="6.0131869"
         x="7.7362638"
         id="tspan2903"
         sodipodi:role="line"> </tspan></text>
    <text
       id="text3036-3"
       y="51.289948"
       x="1.8130463"
       style="font-style:normal;font-weight:normal;line-height:0%;font-family:'Courier New KOI-8';-inkscape-font-specification:'Courier New KOI-8';letter-spacing:0px;word-spacing:0px;writing-mode:lr-tb;display:inline;fill:#216778;fill-opacity:1;stroke:none"
       xml:space="preserve"><tspan
         id="tspan3054-7"
         style="font-size:8.227px;line-height:85%;font-family:'Arial Black';-inkscape-font-specification:'Arial Black';writing-mode:lr-tb;fill:#216778"
         y="51.289948"
         x="1.8130463"
         sodipodi:role="line">R</tspan></text>
    <text
       id="text3036-8-0"
       y="44.133442"
       x="1.9664611"
       style="font-style:normal;font-weight:normal;line-height:0%;font-family:'Courier New KOI-8';-inkscape-font-specification:'Courier New KOI-8';letter-spacing:0px;word-spacing:0px;writing-mode:lr-tb;display:inline;fill:#216778;fill-opacity:1;stroke:none"
       xml:space="preserve"><tspan
         style="font-size:8.227px;line-height:85%;font-family:'Arial Black';-inkscape-font-specification:'Arial Black';writing-mode:lr-tb;fill:#216778"
         id="tspan3042-0-9"
         y="44.133442"
         x="1.9664611"
         sodipodi:role="line">T</tspan><tspan
         id="tspan3054-4-5"
         style="font-size:8.227px;line-height:85%;font-family:'Arial Black';-inkscape-font-specification:'Arial Black';writing-mode:lr-tb;fill:#216778"
         y="51.126392"
         x="1.9664611"
         sodipodi:role="line"> </tspan></text>
    <text
       id="text3036-6-9"
       y="58.526814"
       x="1.8924588"
       style="font-style:normal;font-weight:normal;line-height:0%;font-family:'Courier New KOI-8';-inkscape-font-specification:'Courier New KOI-8';letter-spacing:0px;word-spacing:0px;writing-mode:lr-tb;display:inline;fill:#216778;fill-opacity:1;stroke:none"
       xml:space="preserve"><tspan
         id="tspan3054-5-5"
         style="font-size:8.227px;line-height:85%;font-family:'Arial Black';-inkscape-font-specification:'Arial Black';writing-mode:lr-tb;fill:#216778"
         y="58.526814"
         x="1.8924588"
         sodipodi:role="line">A</tspan></text>
  </g>
  <g
     style="display:inline"
     inkscape:label="server"
     id="layer2"
     inkscape:groupmode="layer">
    <path
       inkscape:connector-curvature="0"
       sodipodi:nodetypes="czccacc"
       id="rect2870-42"
       d="m 13.597846,8.2823913 c 0,0 2.380431,0.969574 3.91227,1.282181 1.531839,0.3126058 5.27045,0.4958127 5.27045,0.4958127 l 0.06752,17.980513 c 0,0 -3.772018,-0.256764 -5.61367,-0.685905 -1.244221,-0.289928 -3.636568,-1.267745 -3.636568,-1.267745 V 8.2823913 Z"
       style="display:inline;fill:url(#linearGradient4645);fill-opacity:1;fill-rule:evenodd;stroke:none" />
    <path
       inkscape:connector-curvature="0"
       sodipodi:nodetypes="ccczcc"
       id="rect2870-4-3"
       d="m 22.243711,5.0263073 7.005543,1.2599809 -6.492942,3.8461498 c 0,0 -3.713429,-0.2615439 -5.242549,-0.5826297 -1.529121,-0.321086 -3.915914,-1.223016 -3.915914,-1.223016 z"
       style="display:inline;fill:url(#linearGradient3714-7);fill-opacity:1;fill-rule:evenodd;stroke:none" />
    <path
       inkscape:connector-curvature="0"
       sodipodi:nodetypes="ccccc"
       id="rect3690-2"
       d="m 22.700087,10.095437 6.401161,-3.7370958 -0.0852,17.1684428 -6.259161,4.440114 z"
       style="display:inline;fill:url(#linearGradient3706-4);fill-opacity:1;fill-rule:evenodd;stroke:none" />
    <circle
       r="1.5355394"
       cy="23.101271"
       cx="16.631927"
       transform="matrix(1.1400126,-0.10213105,0.12685752,1.4160157,-4.3527264,-9.0773861)"
       id="path3724-2"
       style="display:inline;fill:url(#radialGradient3656-4);fill-opacity:1;fill-rule:evenodd;stroke:#335596;stroke-width:0.391963;stroke-miterlimit:3.3;stroke-dasharray:none;stroke-opacity:1" />
    <path
       inkscape:connector-curvature="0"
       sodipodi:nodetypes="czcczcc"
       id="path3726-1"
       d="m 13.59785,10.57645 c 0,0 2.693952,1.050538 4.218108,1.369035 1.524156,0.318497 4.921126,0.518014 4.921126,0.518014 l -1e-6,1.59104 c 0,0 -3.620824,-0.225659 -5.143132,-0.555014 -1.522308,-0.329354 -3.959101,-1.295033 -3.959101,-1.295033 z"
       style="display:inline;fill:#3771c8;stroke:none" />
    <path
       inkscape:connector-curvature="0"
       style="display:inline;fill:#3771c8;stroke:none"
       d="m 13.59785,13.943536 c 0,0 2.693952,1.050538 4.218108,1.369035 1.524156,0.318497 4.921126,0.518014 4.921126,0.518014 l -1e-6,1.59104 c 0,0 -3.620824,-0.225659 -5.143132,-0.555014 -1.522308,-0.329354 -3.959101,-1.295033 -3.959101,-1.295033 z"
       id="path3728-6"
       sodipodi:nodetypes="czcczcc" />
  </g>
</svg>
