<?xml version="1.0" encoding="UTF-8" standalone="no"?>
<svg
   xmlns:dc="http://purl.org/dc/elements/1.1/"
   xmlns:cc="http://creativecommons.org/ns#"
   xmlns:rdf="http://www.w3.org/1999/02/22-rdf-syntax-ns#"
   xmlns:svg="http://www.w3.org/2000/svg"
   xmlns="http://www.w3.org/2000/svg"
   xmlns:xlink="http://www.w3.org/1999/xlink"
   xmlns:sodipodi="http://sodipodi.sourceforge.net/DTD/sodipodi-0.dtd"
   xmlns:inkscape="http://www.inkscape.org/namespaces/inkscape"
   width="64px"
   height="64px"
   id="svg2985"
   version="1.1"
   inkscape:version="1.0 (4035a4f, 2020-05-01)"
   sodipodi:docname="FOLDER.svg"
   sodipodi:version="0.32"
   inkscape:output_extension="org.inkscape.output.svg.inkscape">
  <title
     id="title2993">Metview icon</title>
  <defs
     id="defs2987">
    <linearGradient
       inkscape:collect="always"
       id="linearGradient3302">
      <stop
         style="stop-color:#a3dcfc;stop-opacity:1"
         offset="0"
         id="stop3294" />
      <stop
         id="stop3296"
         offset="0.03659103"
         style="stop-color:#5fc2fa;stop-opacity:1" />
      <stop
         id="stop3298"
         offset="0.92480004"
         style="stop-color:#71c9fb;stop-opacity:1;" />
      <stop
         style="stop-color:#0ca3f7;stop-opacity:1"
         offset="1"
         id="stop3300" />
    </linearGradient>
    <linearGradient
       id="linearGradient3084"
       inkscape:collect="always">
      <stop
         id="stop3080"
         offset="0"
         style="stop-color:#3f9ed5;stop-opacity:1" />
      <stop
         id="stop3082"
         offset="1"
         style="stop-color:#007dcc;stop-opacity:1" />
    </linearGradient>
    <linearGradient
       id="linearGradient3072"
       inkscape:collect="always">
      <stop
         id="stop3068"
         offset="0"
         style="stop-color:#a3dcfc;stop-opacity:1" />
      <stop
         style="stop-color:#71c9fb;stop-opacity:1;"
         offset="0.03659103"
         id="stop3098" />
      <stop
         style="stop-color:#71c9fb;stop-opacity:1;"
         offset="0.92480004"
         id="stop3096" />
      <stop
         id="stop3070"
         offset="1"
         style="stop-color:#0ca3f7;stop-opacity:1" />
    </linearGradient>
    <linearGradient
       id="linearGradient5915">
      <stop
         id="stop5917"
         offset="0"
         style="stop-color:#e9a552;stop-opacity:1;" />
      <stop
         id="stop5919"
         offset="1"
         style="stop-color:#e7d28b;stop-opacity:1;" />
    </linearGradient>
    <linearGradient
       id="linearGradient3782">
      <stop
         style="stop-color:#6a6d71;stop-opacity:1;"
         offset="0"
         id="stop3784" />
      <stop
         style="stop-color:#606164;stop-opacity:1;"
         offset="1"
         id="stop3786" />
    </linearGradient>
    <linearGradient
       id="linearGradient3765">
      <stop
         style="stop-color:#e8c25e;stop-opacity:1;"
         offset="0"
         id="stop3767" />
      <stop
         style="stop-color:#f7e198;stop-opacity:1;"
         offset="1"
         id="stop3769" />
    </linearGradient>
    <linearGradient
       id="linearGradient3775">
      <stop
         id="stop3777"
         offset="0"
         style="stop-color:#f5f5f5;stop-opacity:1;" />
      <stop
         id="stop3779"
         offset="1"
         style="stop-color:#d3d8da;stop-opacity:1;" />
    </linearGradient>
    <linearGradient
       gradientUnits="userSpaceOnUse"
       y2="57.750645"
       x2="32.353863"
       y1="15.593647"
       x1="32.021355"
       id="linearGradient3074"
       xlink:href="#linearGradient3072"
       inkscape:collect="always" />
    <linearGradient
       gradientTransform="matrix(0.97711732,0,0,1.0007782,0.41161003,-0.00930629)"
       gradientUnits="userSpaceOnUse"
       y2="16.872433"
       x2="32.279873"
       y1="7.0430803"
       x1="31.876974"
       id="linearGradient3086"
       xlink:href="#linearGradient3084"
       inkscape:collect="always" />
    <linearGradient
       gradientUnits="userSpaceOnUse"
       y2="36.42321"
       x2="5.5699658"
       y1="36.42321"
       x1="2.2935154"
       id="linearGradient3222"
       xlink:href="#linearGradient3072"
       inkscape:collect="always" />
    <linearGradient
       gradientTransform="matrix(1,0,0,0.9914098,-4.1397154,0.14729413)"
       y2="36.340416"
       x2="5.5699658"
       y1="36.42321"
       x1="2.2935154"
       gradientUnits="userSpaceOnUse"
       id="linearGradient3292"
       xlink:href="#linearGradient3302"
       inkscape:collect="always" />
    <filter
       height="1.0779709"
       y="-0.038985439"
       width="1.0550567"
       x="-0.02752834"
       id="filter3326"
       style="color-interpolation-filters:sRGB"
       inkscape:collect="always">
      <feGaussianBlur
         id="feGaussianBlur3328"
         stdDeviation="0.7032132"
         inkscape:collect="always" />
    </filter>
    <filter
       height="1.0652703"
       y="-0.032635156"
       width="1.0474059"
       x="-0.023702962"
       id="filter3474"
       style="color-interpolation-filters:sRGB"
       inkscape:collect="always">
      <feGaussianBlur
         id="feGaussianBlur3476"
         stdDeviation="0.57614024"
         inkscape:collect="always" />
    </filter>
  </defs>
  <sodipodi:namedview
     inkscape:snap-global="false"
     id="base"
     pagecolor="#ffffff"
     bordercolor="#666666"
     borderopacity="1.0"
     inkscape:pageopacity="1"
     inkscape:pageshadow="2"
     inkscape:zoom="12.078125"
     inkscape:cx="32"
     inkscape:cy="32"
     inkscape:current-layer="layer3"
     showgrid="true"
     inkscape:document-units="px"
     inkscape:grid-bbox="true"
     inkscape:window-width="1479"
     inkscape:window-height="963"
     inkscape:window-x="330"
     inkscape:window-y="136"
     inkscape:window-maximized="0"
     inkscape:snap-from-guide="false"
     objecttolerance="2"
     gridtolerance="2"
     guidetolerance="2"
     inkscape:snap-grids="false"
     inkscape:snap-to-guides="false"
     showguides="true"
     inkscape:guide-bbox="true"
     inkscape:document-rotation="0">
    <inkscape:grid
       type="xygrid"
       id="grid2995"
       empspacing="5"
       visible="true"
       enabled="true"
       snapvisiblegridlinesonly="true" />
    <sodipodi:guide
       position="25.309438,66.293907"
       orientation="0,-1"
       id="guide1620" />
  </sodipodi:namedview>
  <metadata
     id="metadata7">
    <rdf:RDF>
      <cc:Work
         rdf:about="">
        <dc:format>image/svg+xml</dc:format>
        <dc:type
           rdf:resource="http://purl.org/dc/dcmitype/StillImage" />
        <dc:title>Metview icon</dc:title>
        <cc:license
           rdf:resource="Apache License 2.0" />
        <dc:creator>
          <cc:Agent>
            <dc:title />
          </cc:Agent>
        </dc:creator>
        <dc:publisher>
          <cc:Agent>
            <dc:title>ECMWF</dc:title>
          </cc:Agent>
        </dc:publisher>
        <dc:language>en-GB</dc:language>
        <dc:subject>
          <rdf:Bag>
            <rdf:li>Metview icon</rdf:li>
          </rdf:Bag>
        </dc:subject>
        <dc:description>Metview icon</dc:description>
      </cc:Work>
    </rdf:RDF>
  </metadata>
  <g
     style="display:inline"
     inkscape:groupmode="layer"
     id="layer3"
     inkscape:label="bg">
    <path
       transform="matrix(1.0138472,0,0,1.0112749,-0.02283421,-1.7606501)"
       sodipodi:nodetypes="ccccc"
       inkscape:connector-curvature="0"
       id="path2995-8"
       d="m 2.3766183,17.667127 0.11493,42.182586 58.1508567,-0.01491 c 0,0 0.09407,-42.366005 0.06448,-42.354629 z"
       style="display:inline;fill:#4d4d4d;fill-opacity:1;stroke:none;stroke-width:2;stroke-linecap:round;stroke-linejoin:round;stroke-miterlimit:4;stroke-dasharray:none;stroke-opacity:1;filter:url(#filter3474)" />
  </g>
  <g
     inkscape:groupmode="layer"
     id="layer2"
     inkscape:label="back"
     style="display:inline">
    <path
       sodipodi:nodetypes="cscsssccscc"
       inkscape:connector-curvature="0"
       id="path3773"
       d="m 14.715633,18.150533 c 0,0 -10.6374172,1.597929 -10.6374172,0.365224 V 7.6686031 C 4.5044393,4.4808165 7.2056626,4.9637005 8.8421975,4.9637005 H 21.377807 c 3.638613,0 4.778287,5.0347769 7.341463,5.0347769 h 14.275635 12.986633 c 2.564155,-0.025158 4.107573,0.058306 4.135126,2.6006506 l 0.06411,5.916629 z"
       style="fill:url(#linearGradient3086);fill-opacity:1;stroke:#3a7fd3;stroke-width:0.968769;stroke-linecap:butt;stroke-linejoin:round;stroke-miterlimit:4;stroke-dasharray:none;stroke-opacity:1" />
  </g>
  <g
     style="display:inline"
     id="layer1"
     inkscape:label="Layer 1"
     inkscape:groupmode="layer">
    <path
       style="fill:url(#linearGradient3074);fill-opacity:1;stroke:none;stroke-width:2;stroke-linecap:round;stroke-linejoin:round;stroke-miterlimit:4;stroke-dasharray:none;stroke-opacity:1"
       d="m 2.8022767,15.983003 0.1149296,42.182586 58.1508577,-0.01491 c 0,0 0.09407,-42.366005 0.06448,-42.354629 z"
       id="path2995"
       inkscape:connector-curvature="0"
       sodipodi:nodetypes="ccccc" />
  </g>
</svg>
