/* XPM */
static char * GDDRIVER_xpm[] = {
"32 32 47 1",
" 	c #FFFFFFFFFFFF",
".	c #00008B8B0000",
"X	c #E5E5E5E5E5E5",
"o	c #999999999999",
"O	c #E8E8E8E8E8E8",
"+	c #E0E0E0E0E8E8",
"@	c #D0D0D0D0E0E0",
"#	c #C8C8C8C8D8D8",
"$	c #C0C0C0C0D0D0",
"%	c #B8B8B8B8C8C8",
"&	c #F8F8F8F8F8F8",
"*	c #C0C0C8C8D8D8",
"=	c #C0C0C0C0D8D8",
"-	c #F0F0F0F0F0F0",
";	c #E0E0E0E0F0F0",
":	c #D8D8E0E0F0F0",
">	c #D8D8D8D8E8E8",
",	c #C8C8C8C8D0D0",
"<	c #E0E0E0E0F8F8",
"1	c #E0E0E8E8F8F8",
"2	c #D0D0D0D0D8D8",
"3	c #E8E8E8E8F0F0",
"4	c #D8D8D8D8E0E0",
"5	c #D0D0D8D8E8E8",
"6	c #D0D0D8D8D8D8",
"7	c #E0E0E8E8F0F0",
"8	c #D0D0D0D0E8E8",
"9	c #C0C0C0C0C8C8",
"0	c #F0F0F0F0F8F8",
"q	c #909090909898",
"w	c #A0A0A8A8A8A8",
"e	c #888890909090",
"r	c #C8C8D8D8E8E8",
"t	c #C0C0D0D0E8E8",
"y	c #D8D8D8D8F0F0",
"u	c #F0F0F8F8F8F8",
"i	c #9898FBFB9898",
"p	c #0000CDCD0000",
"a	c #D0D0D8D8F0F0",
"s	c #E8E8F0F0F8F8",
"d	c #0000FFFF0000",
"f	c #C8C8D0D0E8E8",
"g	c #C0C0C8C8E8E8",
"h	c #9090EEEE9090",
"j	c #E8E8E8E8F8F8",
"k	c #D0D0D8D8E0E0",
"l	c #C8C8D0D0E0E0",
"           ......X.....         ",
"           ......X..X..         ",
"         oo..OXOOX..+O..        ",
"        o@@..XXOOX..XX..        ",
"       o#$@..O...X..  ..ooooooo ",
"      o%@O&..O...&..  ..#**=*ooo",
"     o%+-&&..&&..&..&&..;;;;:>>o",
"    o,O&&&&..&&.. ..&...<<<11;>o",
"   o23&&&&&...... .....<;;<<<:>o",
"  o4-&&&&&&...... .....X;;;;;5>o",
" o4-&&&&&&&&&&&&&&&&&&67;::;;8>o",
"o%O&&&&&&&&&&&&&&&&&&&91:::::>oo",
"oo40&&&&&&&&&&&&&&&qwe:rtry:y>o ",
" o#3&&&&&&&&uuuuuu0ipppp.pa:y>o ",
" o#@0&uuuuuuuuuiiisd.....pffg>o ",
"  o#+0uuuuuu00ip.pdd.ddp.pp..p  ",
"  o##300u000sip......ddp......h ",
"   o#>000sjjdp.pdddddddppppp..h ",
"   o##7sj111dp.pddddddddddddp..h",
"    o#kj1<<:dpp.dddddddddddp...h",
"    o##;1;;d.pppddiiiiiidddp..hh",
"     o#@;;:d.dpdddihpppidddp..hh",
"     o##:<:d.pddddip  pidddp....",
"      o#8;yd.pddddip  pidddddd..",
"      o#*:yd...pddipppiidddddd.h",
"       o#5yd...pddiiiiiiddp....d",
"       o##yddd.pddddddddddp....d",
"        o#>yd..pdddddddddp....h ",
"        o#l:d..ppppppppdp...hd  ",
"         o#*d...............d   ",
"         o##&ddh..........h&    ",
"          oo0&uhh.hhhh..hd      "};
