<?xml version="1.0" encoding="UTF-8" standalone="no"?>
<svg
   xmlns:dc="http://purl.org/dc/elements/1.1/"
   xmlns:cc="http://creativecommons.org/ns#"
   xmlns:rdf="http://www.w3.org/1999/02/22-rdf-syntax-ns#"
   xmlns:svg="http://www.w3.org/2000/svg"
   xmlns="http://www.w3.org/2000/svg"
   xmlns:sodipodi="http://sodipodi.sourceforge.net/DTD/sodipodi-0.dtd"
   xmlns:inkscape="http://www.inkscape.org/namespaces/inkscape"
   width="64px"
   height="64px"
   id="svg4537"
   version="1.1"
   inkscape:version="1.0 (4035a4f, 2020-05-01)"
   sodipodi:docname="GEOJSON.svg">
  <defs
     id="defs4539">
    <linearGradient
       id="linearGradient1768">
      <stop
         style="stop-color:#4d66da;stop-opacity:1"
         offset="0"
         id="stop1764" />
      <stop
         style="stop-color:#a7cedb;stop-opacity:1;"
         offset="1"
         id="stop1766" />
    </linearGradient>
    <linearGradient
       id="linearGradient1762">
      <stop
         style="stop-color:#4766da;stop-opacity:1"
         offset="0"
         id="stop1758" />
      <stop
         style="stop-color:#a7cedb;stop-opacity:1;"
         offset="1"
         id="stop1760" />
    </linearGradient>
    <linearGradient
       id="linearGradient3640">
      <stop
         style="stop-color:#e9ecf0;stop-opacity:1"
         offset="0"
         id="stop3642" />
      <stop
         style="stop-color:#f2fbfc;stop-opacity:1"
         offset="1"
         id="stop3644" />
    </linearGradient>
  </defs>
  <sodipodi:namedview
     inkscape:lockguides="false"
     id="base"
     pagecolor="#ffffff"
     bordercolor="#666666"
     borderopacity="1.0"
     inkscape:pageopacity="0.0"
     inkscape:pageshadow="2"
     inkscape:zoom="9.7961359"
     inkscape:cx="42.420493"
     inkscape:cy="34.869675"
     inkscape:current-layer="layer2"
     showgrid="true"
     inkscape:document-units="px"
     inkscape:grid-bbox="true"
     inkscape:window-width="1673"
     inkscape:window-height="924"
     inkscape:window-x="360"
     inkscape:window-y="32"
     inkscape:window-maximized="0"
     objecttolerance="14"
     gridtolerance="10"
     inkscape:document-rotation="0"
     inkscape:snap-to-guides="false"
     inkscape:snap-grids="false">
    <inkscape:grid
       type="xygrid"
       id="grid4547"
       empspacing="5"
       visible="true"
       enabled="true"
       snapvisiblegridlinesonly="true" />
  </sodipodi:namedview>
  <metadata
     id="metadata7">
    <rdf:RDF>
      <cc:Work
         rdf:about="">
        <dc:format>image/svg+xml</dc:format>
        <dc:type
           rdf:resource="http://purl.org/dc/dcmitype/StillImage" />
        <dc:title></dc:title>
        <cc:license
           rdf:resource="Apache License 2.0" />
        <dc:creator>
          <cc:Agent>
            <dc:title />
          </cc:Agent>
        </dc:creator>
        <dc:publisher>
          <cc:Agent>
            <dc:title>ECMWF</dc:title>
          </cc:Agent>
        </dc:publisher>
        <dc:language>en-GB</dc:language>
        <dc:subject>
          <rdf:Bag>
            <rdf:li>Metview icon</rdf:li>
          </rdf:Bag>
        </dc:subject>
        <dc:description>Metview icon</dc:description>
      </cc:Work>
    </rdf:RDF>
  </metadata>
  <g
     style="display:inline"
     sodipodi:insensitive="true"
     inkscape:label="bg"
     id="layer3"
     inkscape:groupmode="layer">
    <rect
       ry="7.8874402"
       y="0.73760134"
       x="0.52423406"
       height="62.912628"
       width="63.125919"
       id="rect1775"
       style="fill:#f9f9f9;fill-opacity:1;stroke:#b3b3b3;stroke-width:1.00736;stroke-linecap:square;stroke-linejoin:round;stroke-miterlimit:4;stroke-dasharray:1.00736, 1.00736;stroke-dashoffset:0;paint-order:markers fill stroke" />
  </g>
  <g
     sodipodi:insensitive="true"
     style="display:none"
     id="layer1"
     inkscape:label="Layer 1"
     inkscape:groupmode="layer">
    <path
       style="fill:#f2f2f2;fill-opacity:1;stroke:#161617;stroke-width:1.01643;stroke-linejoin:round;stroke-miterlimit:4;stroke-dasharray:none;stroke-opacity:1"
       d="m 49.003157,2.7961158 0.08309,14.1309752 11.594035,-0.01099 0.329861,44.606595 -45.236172,0.06688 -0.0022,-58.7934691 33.231396,-2.1e-6 11.743998,14.0531112"
       id="rect5379-7"
       sodipodi:nodetypes="cccccccs" />
    <rect
       style="fill:#3771c8;fill-opacity:1;stroke:none;stroke-width:0.643691;stroke-linejoin:round"
       id="rect972"
       width="55.299896"
       height="24.581669"
       x="0.99352652"
       y="25.886509"
       ry="1.1705557" />
    <text
       xml:space="preserve"
       style="font-style:normal;font-variant:normal;font-weight:bold;font-stretch:normal;font-size:10.6667px;line-height:0%;font-family:sans-serif;-inkscape-font-specification:'sans-serif Bold';text-align:start;writing-mode:lr-tb;text-anchor:start;fill:#ffffff;fill-opacity:1;stroke:none;stroke-width:0.906836"
       x="1.1887897"
       y="42.227871"
       id="text5099"
       transform="scale(0.96863239,1.0323834)"><tspan
         sodipodi:role="line"
         id="tspan2837"
         x="1.1887897"
         y="42.227871"
         style="font-style:normal;font-variant:normal;font-weight:bold;font-stretch:normal;font-size:10.6667px;line-height:1.25;font-family:sans-serif;-inkscape-font-specification:'sans-serif Bold';fill:#ffffff;stroke-width:0.906836">GEOJSON</tspan></text>
    <path
       style="fill:#d6d6ce;fill-opacity:1;stroke:none;stroke-width:1.55882"
       d="M 49.003157,2.7961158 60.680282,16.916101 49.086247,16.927091 Z"
       id="rect3652"
       sodipodi:nodetypes="cccc" />
  </g>
  <g
     style="display:inline"
     inkscape:label="top"
     id="layer2"
     inkscape:groupmode="layer">
    <rect
       rx="0"
       ry="0"
       y="29.594097"
       x="-40.09417"
       height="31.231421"
       width="36.658115"
       id="rect2342"
       style="fill:#f9f9f9;fill-opacity:1;stroke:#b3b3b3;stroke-width:0.875419;stroke-linecap:square;stroke-linejoin:round;stroke-dasharray:0.875419, 0.875419;paint-order:markers fill stroke" />
    <text
       xml:space="preserve"
       style="font-style:normal;font-variant:normal;font-weight:normal;font-stretch:normal;font-size:39.461px;line-height:1.25;font-family:sans-serif;-inkscape-font-specification:sans-serif;fill:#2c5aa0;stroke-width:1.84973"
       x="-111.57479"
       y="40.022362"
       id="text2350"
       transform="scale(-0.84710307,1.1804939)"><tspan
         sodipodi:role="line"
         id="tspan2348"
         x="-111.57479"
         y="40.022362"
         style="font-style:normal;font-variant:normal;font-weight:normal;font-stretch:normal;font-family:sans-serif;-inkscape-font-specification:sans-serif;fill:#2c5aa0;stroke-width:1.84973">{ </tspan></text>
    <path
       sodipodi:nodetypes="czcsc"
       id="path2383"
       d="m 17.660023,10.642491 c 0,0 -8.5581325,-2.5968336 -8.5748075,10.303166 -0.01667,12.9 -6.941513,11.438949 -6.941513,11.438949 0,0 7.672152,-1.469386 7.65608,15.25193 -0.0082,8.525228 8.1664835,6.327927 8.1664835,6.327927"
       style="fill:none;stroke:#2c5aa0;stroke-width:2.67443;stroke-linecap:butt;stroke-linejoin:miter;stroke-miterlimit:4;stroke-dasharray:none;stroke-opacity:1" />
    <path
       style="fill:none;stroke:#2c5aa0;stroke-width:2.67443;stroke-linecap:butt;stroke-linejoin:miter;stroke-miterlimit:4;stroke-dasharray:none;stroke-opacity:1"
       d="m 17.660023,10.642491 c 0,0 -8.5581325,-2.5968336 -8.5748075,10.303166 -0.01667,12.9 -6.941513,11.438949 -6.941513,11.438949 0,0 7.672152,-1.469386 7.65608,15.25193 -0.0082,8.525228 8.1664835,6.327927 8.1664835,6.327927"
       id="path2387"
       sodipodi:nodetypes="czcsc" />
    <path
       sodipodi:nodetypes="czcsc"
       id="path2389"
       d="m 46.313779,10.744572 c 0,0 8.558133,-2.5968335 8.574808,10.303166 0.01667,12.9 6.941513,11.438949 6.941513,11.438949 0,0 -7.672152,-1.469386 -7.65608,15.25193 0.0082,8.525228 -8.166484,6.327927 -8.166484,6.327927"
       style="fill:none;stroke:#2c5aa0;stroke-width:2.67443;stroke-linecap:butt;stroke-linejoin:miter;stroke-miterlimit:4;stroke-dasharray:none;stroke-opacity:1" />
  </g>
  <g
     sodipodi:insensitive="true"
     style="display:inline"
     inkscape:label="globe"
     id="layer4"
     inkscape:groupmode="layer">
    <ellipse
       style="display:inline;fill:#3771c8;fill-opacity:1;stroke:none;stroke-width:1.03935"
       id="path4257-7"
       transform="matrix(0.99993459,0.01143729,0,1,0,0)"
       cx="31.631977"
       cy="31.755398"
       rx="18.04883"
       ry="18.086266" />
    <path
       style="display:inline;fill:#f2f2f2;fill-opacity:1;fill-rule:evenodd;stroke:#2c5aa0;stroke-width:0.52492;stroke-linecap:butt;stroke-linejoin:miter;stroke-miterlimit:4;stroke-dasharray:none;stroke-opacity:1"
       d="m 39.908056,15.839539 v 1.8448 H 39.302648 38.09183 c 0,0 0,0 -0.605407,-0.614935 -0.60541,-0.614932 -1.816225,0.614935 -1.816225,0.614935 l -0.605411,0.614932 c 0,0 -1.210814,-0.614932 -2.421631,1.844801 -1.210819,2.459733 0.605407,0.614934 0.605407,0.614934 l 1.210818,-0.614934 v 1.229868 l -0.605408,1.229865 -0.60541,0.614936 -1.210815,-0.614936 -1.210819,-0.614933 h -0.605408 v 0.614933 l -1.210815,0.614936 h -0.60541 l -1.210815,0.614931 0.605408,1.229866 c 0,0 -0.605408,0 -1.210818,0 -0.605406,0 0,1.229865 0,1.229865 h 1.210818 1.210817 l 0.605407,-0.614932 v -0.614933 h 1.210816 0.605408 l 1.210819,1.229865 0.605407,1.229865 1.210818,0.614935 h 0.605406 c 0,0 0,-0.614935 0,-1.229867 0,-0.614933 0.605411,-0.614933 0.605411,-0.614933 l 0.605407,-1.229865 h 1.210818 l 1.210817,0.614933 v 0.614932 l -1.210817,0.614933 v 0.614932 h 0.605407 l -0.605407,0.614935 -1.210818,0.614934 -1.210818,1.229864 -1.816224,0.614934 -1.210815,-0.614934 -0.605411,-0.614931 -1.210816,-0.614933 -1.210815,-1.229869 h -1.816225 -1.210816 c 0,0 -0.720985,-0.365072 -1.816227,1.229869 -1.62101,2.360586 -0.605409,0 -1.210815,1.844798 -0.60541,1.844801 -0.60541,2.459733 -0.60541,2.459733 l 0.60541,1.229864 0.605406,1.844799 1.816226,0.614931 1.816226,0.614932 h 1.816225 l 1.210815,1.229869 0.605408,1.844798 v 1.844801 l 0.605408,3.689598 0.605411,0.614931 1.816225,1.229868 c 0,0 2.421632,1.229865 3.02704,0 0.60541,-1.229868 0.60541,-1.229868 0.60541,-1.229868 v -1.229865 -1.229864 l 0.605407,-1.229867 v -1.229866 l 1.210818,-1.229868 v -1.229865 l 1.210817,-1.229866 0.662164,-0.999266 0.548651,-0.845533 v -1.229865 c 0,0 0,-0.614934 -1.210815,0 -1.210817,0.614931 -1.816225,0.614931 -1.816225,0.614931 l -0.60541,-1.229865 v -0.614933 l 0.60541,-0.614931 1.210816,-0.614932 h 1.210815 l 0.605409,0.614932 0.605409,0.614931 1.210817,-0.614931 0.605408,0.614931 h 1.210817 1.210816 l 0.605408,1.229867 v 0.614931 l 0.605409,1.229865 h 0.605409 l 1.210817,-1.844796 0.605407,-4.919465 -1.210818,-4.919463 -1.816224,-3.074666 -3.632449,-4.304533 z"
       id="path3662-8" />
    <path
       style="display:inline;fill:#f2f2f2;fill-opacity:1;fill-rule:evenodd;stroke:#2c5aa0;stroke-width:0.60405px;stroke-linecap:butt;stroke-linejoin:miter;stroke-opacity:1"
       d="m 22.50324,16.442414 -2.420902,1.808627 -1.210454,3.014381 0.605226,0.602874 h 0.605228 l 1.210452,-0.602874 1.21045,-0.602878 1.210456,-1.20575 0.605222,-1.205753 V 17.648167 17.04529 Z"
       id="path3656-4"
       sodipodi:nodetypes="cccccccccccc" />
    <path
       sodipodi:nodetypes="cccccccccccc"
       id="path3874-7"
       d="m 27.434712,20.187832 -0.156725,1.115524 0.482937,1.113709 0.319835,-9.06e-4 0.159461,-0.159748 0.15855,-0.478341 0.158548,-0.478341 -0.0018,-0.637184 -0.161289,-0.477423 -0.160373,-0.158841 -0.160372,-0.158845 z"
       style="display:inline;fill:#e6e6e6;fill-opacity:1;fill-rule:evenodd;stroke:#2c5aa0;stroke-width:0.60405px;stroke-linecap:butt;stroke-linejoin:miter;stroke-opacity:1" />
    <ellipse
       style="display:inline;fill:none;stroke:#2c5aa0;stroke-width:1.19139;stroke-linecap:butt;stroke-linejoin:miter;stroke-miterlimit:4;stroke-dasharray:none;stroke-opacity:1"
       id="path2883-1"
       transform="matrix(0.99993538,0.01136857,0,1,0,0)"
       cx="32.188938"
       cy="31.751232"
       rx="18.157955"
       ry="18.086266" />
  </g>
</svg>
