<?xml version="1.0" encoding="UTF-8" standalone="no"?>
<svg
   xmlns:dc="http://purl.org/dc/elements/1.1/"
   xmlns:cc="http://creativecommons.org/ns#"
   xmlns:rdf="http://www.w3.org/1999/02/22-rdf-syntax-ns#"
   xmlns:svg="http://www.w3.org/2000/svg"
   xmlns="http://www.w3.org/2000/svg"
   xmlns:xlink="http://www.w3.org/1999/xlink"
   xmlns:sodipodi="http://sodipodi.sourceforge.net/DTD/sodipodi-0.dtd"
   xmlns:inkscape="http://www.inkscape.org/namespaces/inkscape"
   style="display:inline"
   version="1.1"
   inkscape:export-ydpi="45"
   inkscape:export-xdpi="45"
   inkscape:export-filename="GEOPOINTS.png"
   inkscape:output_extension="org.inkscape.output.svg.inkscape"
   sodipodi:docname="GEOPOINTS.svg"
   inkscape:version="1.0 (4035a4f, 2020-05-01)"
   sodipodi:version="0.32"
   id="svg3688"
   height="64"
   width="64">
  <defs
     id="defs3690">
    <linearGradient
       id="linearGradient3640">
      <stop
         style="stop-color:#a5c3ea;stop-opacity:1;"
         offset="0"
         id="stop3642" />
      <stop
         style="stop-color:#f2fbfc;stop-opacity:1"
         offset="1"
         id="stop3644" />
    </linearGradient>
    <linearGradient
       id="linearGradient4229">
      <stop
         id="stop4231"
         offset="0"
         style="stop-color:#8866da;stop-opacity:1;" />
      <stop
         id="stop4233"
         offset="1"
         style="stop-color:#a7cedb;stop-opacity:1;" />
    </linearGradient>
    <linearGradient
       gradientTransform="matrix(1.0003011,0,0,1.02,0.74429032,-1.12)"
       gradientUnits="userSpaceOnUse"
       y2="32.444443"
       x2="61.434502"
       y1="32.444443"
       x1="14.5655"
       id="linearGradient3684"
       xlink:href="#linearGradient4229"
       inkscape:collect="always" />
    <linearGradient
       gradientTransform="translate(2.063452,-4.412783)"
       gradientUnits="userSpaceOnUse"
       y2="14.912783"
       x2="17.436548"
       y1="14.912783"
       x1="7.4365482"
       id="linearGradient4227"
       xlink:href="#linearGradient4229"
       inkscape:collect="always" />
    <linearGradient
       gradientTransform="translate(-0.8853253,0.618821)"
       gradientUnits="userSpaceOnUse"
       y2="34.659901"
       x2="8.3853254"
       y1="34.659901"
       x1="2.3853252"
       id="linearGradient4235"
       xlink:href="#linearGradient4229"
       inkscape:collect="always" />
    <linearGradient
       gradientUnits="userSpaceOnUse"
       y2="34.875"
       x2="34.875"
       y1="34.875"
       x1="7.75"
       id="linearGradient4283"
       xlink:href="#linearGradient3640"
       inkscape:collect="always" />
    <linearGradient
       y2="14.912783"
       x2="17.436548"
       y1="14.912783"
       x1="7.4365482"
       gradientTransform="matrix(0.26347355,-0.26497911,0.26497911,0.26347355,17.717064,13.161987)"
       gradientUnits="userSpaceOnUse"
       id="linearGradient3876"
       xlink:href="#linearGradient4229"
       inkscape:collect="always" />
  </defs>
  <sodipodi:namedview
     inkscape:document-rotation="0"
     inkscape:window-maximized="0"
     inkscape:guide-bbox="true"
     showguides="true"
     inkscape:window-y="25"
     inkscape:window-x="0"
     inkscape:window-height="796"
     inkscape:window-width="1440"
     inkscape:grid-bbox="true"
     inkscape:document-units="px"
     showgrid="true"
     inkscape:current-layer="layer4"
     inkscape:cy="32"
     inkscape:cx="32"
     inkscape:zoom="9.46875"
     inkscape:pageshadow="2"
     inkscape:pageopacity="0.0"
     borderopacity="1.0"
     bordercolor="#666666"
     pagecolor="#ffffff"
     id="base">
    <inkscape:grid
       id="grid3709"
       type="xygrid" />
    <sodipodi:guide
       id="guide3751"
       position="-20.22335,27.77665"
       orientation="1,0" />
  </sodipodi:namedview>
  <metadata
     id="metadata3693">
    <rdf:RDF>
      <cc:Work
         rdf:about="">
        <dc:format>image/svg+xml</dc:format>
        <dc:type
           rdf:resource="http://purl.org/dc/dcmitype/StillImage" />
        <dc:title />
      </cc:Work>
      <cc:Work
         rdf:about="">
        <dc:format>image/svg+xml</dc:format>
        <dc:type
           rdf:resource="http://purl.org/dc/dcmitype/StillImage" />
      </cc:Work>
    </rdf:RDF>
  </metadata>
  <g
     style="display:inline"
     inkscape:label="inner"
     id="layer4"
     inkscape:groupmode="layer">
    <path
       transform="matrix(2.1986858,0.02524672,0,1.3464236,-15.779742,-15.494592)"
       d="m 34.875,34.875 a 13.5625,22.28125 0 1 1 -27.125,0 13.5625,22.28125 0 1 1 27.125,0 z"
       sodipodi:ry="22.28125"
       sodipodi:rx="13.5625"
       sodipodi:cy="34.875"
       sodipodi:cx="21.3125"
       id="path4257"
       style="fill:url(#linearGradient4283);fill-opacity:1;stroke:none;display:inline"
       sodipodi:type="arc" />
  </g>
  <g
     style="display:inline"
     inkscape:groupmode="layer"
     inkscape:label="map"
     id="layer1">
    <path
       id="path3662"
       d="m 44.757538,5 0,3.0600001 -1.000302,0 -2.000601,0 c 0,0 0,0 -1.000301,-1.0200001 C 39.756031,6.0200001 37.75543,8.0600001 37.75543,8.0600001 l -1.000301,1.02 c 0,0 -2.000602,-1.02 -4.001204,3.0599999 -2.000602,4.08 1.000301,1.020001 1.000301,1.020001 L 35.754829,12.14 l 0,2.040001 L 34.754527,16.22 33.754226,17.240001 31.753624,16.22 l -2.000603,-1.019999 -1.000301,0 0,1.019999 -2.000601,1.020001 -1.000302,0 -2.000601,1.019999 1.0003,2.039999 c 0,0 -1.0003,0 -2.000603,0 -1.0003,0 0,2.040001 0,2.040001 l 2.000603,0 2.000603,0 1.000301,-1.02 0,-1.020001 2.000601,0 1.000302,0 2.000602,2.040001 1.000301,2.039999 2.000603,1.020001 1.0003,0 c 0,0 0,-1.020001 0,-2.04 0,-1.02 1.000301,-1.02 1.000301,-1.02 l 1.000301,-2.040001 2.000603,0 2.000602,1.020001 0,1.02 -2.000602,1.02 0,1.019999 1.000301,0 -1.000301,1.020001 -2.000603,1.02 -2.000602,2.04 -3.000903,1.02 -2.000602,-1.02 -1.000301,-1.02 -2.000603,-1.02 -2.000601,-2.040001 -3.000903,0 -2.000603,0 c 0,0 -1.191265,-0.605554 -3.000903,2.040001 -2.678352,3.915548 -1.0003,0 -2.000603,3.06 -1.0003,3.060002 -1.0003,4.08 -1.0003,4.08 l 1.0003,2.04 1.000303,3.059999 3.000903,1.020001 3.000903,1.02 3.000903,0 2.000601,2.039999 1.000301,3.060001 0,3.060001 1.000302,6.119999 1.000301,1.02 3.000903,2.04 c 0,0 4.001204,2.04 5.001504,0 C 40.756334,56 40.756334,56 40.756334,56 l 0,-2.039999 0,-2.04 1.000301,-2.040001 0,-2.039999 2.000601,-2.040001 0,-2.04 2.000604,-2.040001 1.094078,-1.657498 0.906523,-1.402502 0,-2.039999 c 0,0 0,-1.02 -2.000601,0 -2.000604,1.019999 -3.000904,1.019999 -3.000904,1.019999 L 41.756635,35.6 l 0,-1.02 1.000301,-1.02 2.000602,-1.019998 2.000601,0 1.000302,1.019998 1.000301,1.02 2.000603,-1.02 1.0003,1.02 2.000602,0 2.000602,0 1.0003,2.04 0,1.019999 1.000303,2.040001 1.0003,0 2.000604,-3.06 1.000299,-8.16 L 59.762053,20.299999 56.761149,15.200001 50.759345,8.0600001 44.757538,5 z"
       style="fill:url(#linearGradient3684);fill-opacity:1;fill-rule:evenodd;stroke:#2a2d64;stroke-width:0.86900002;stroke-linecap:butt;stroke-linejoin:miter;stroke-miterlimit:4;stroke-opacity:1;stroke-dasharray:none;display:inline" />
    <path
       sodipodi:nodetypes="cccccccccccc"
       id="path3656"
       d="m 16,6 -4,3 -2,5 1,1 1,0 2,-1 2,-1 2,-2 1,-2 0,-1 0,-1 -3,-1 z"
       style="fill:url(#linearGradient4227);fill-opacity:1;fill-rule:evenodd;stroke:#2a2d64;stroke-width:1px;stroke-linecap:butt;stroke-linejoin:miter;stroke-opacity:1;display:inline" />
    <path
       sodipodi:nodetypes="ccccccccccsc"
       id="path3660"
       d="M 3.9375,30.5625 C 3.4003906,30.61133 3,31 3,31 L 2,35 4,40 4,39 5,37 6,36 7,34 7,33 6,32 C 6,32 6,32 5,31 4.625,30.625 4.2597656,30.533203 3.9375,30.5625 z"
       style="fill:url(#linearGradient4235);fill-opacity:1;fill-rule:evenodd;stroke:#2a2d64;stroke-width:1px;stroke-linecap:butt;stroke-linejoin:miter;stroke-opacity:1;display:inline" />
    <path
       style="fill:url(#linearGradient3876);fill-opacity:1;fill-rule:evenodd;stroke:#2a2d64;stroke-width:1px;stroke-linecap:butt;stroke-linejoin:miter;stroke-opacity:1;display:inline"
       d="m 24.148146,12.212586 -0.258957,1.850337 0.797948,1.847326 0.528453,-0.0015 0.263474,-0.26498 0.261968,-0.793431 L 26.003,14.056906 26,13 l -0.266485,-0.791926 -0.264979,-0.263473 -0.264979,-0.263474 -1.0554,0.531464 z"
       id="path3874"
       sodipodi:nodetypes="cccccccccccc" />
  </g>
  <g
     style="display:inline"
     inkscape:label="frame"
     id="layer3"
     inkscape:groupmode="layer">
    <path
       transform="matrix(2.2119815,0.02524672,0,1.3464236,-15.142857,-15.494593)"
       d="m 34.875,34.875 a 13.5625,22.28125 0 1 1 -27.125,0 13.5625,22.28125 0 1 1 27.125,0 z"
       sodipodi:ry="22.28125"
       sodipodi:rx="13.5625"
       sodipodi:cy="34.875"
       sodipodi:cx="21.3125"
       id="path2883"
       style="fill:none;stroke:#5162bc;stroke-width:1.14283538;stroke-linecap:butt;stroke-linejoin:miter;stroke-miterlimit:4;stroke-opacity:1;stroke-dasharray:none;display:inline"
       sodipodi:type="arc" />
  </g>
</svg>
