<?xml version="1.0" encoding="UTF-8" standalone="no"?>
<svg
   xmlns:dc="http://purl.org/dc/elements/1.1/"
   xmlns:cc="http://creativecommons.org/ns#"
   xmlns:rdf="http://www.w3.org/1999/02/22-rdf-syntax-ns#"
   xmlns:svg="http://www.w3.org/2000/svg"
   xmlns="http://www.w3.org/2000/svg"
   xmlns:sodipodi="http://sodipodi.sourceforge.net/DTD/sodipodi-0.dtd"
   xmlns:inkscape="http://www.inkscape.org/namespaces/inkscape"
   viewBox="0 0 64 64"
   style="display:inline"
   inkscape:output_extension="org.inkscape.output.svg.inkscape"
   sodipodi:docname="INPUTVISUALISER.svg"
   version="1.0"
   inkscape:version="1.0 (4035a4f, 2020-05-01)"
   sodipodi:version="0.32"
   id="svg2"
   height="68.26667"
   width="68.26667">
  <defs
     id="defs4">
    <rect
       x="-10.049587"
       y="25.38843"
       width="40.198347"
       height="28.244628"
       id="rect9391" />
    <inkscape:perspective
       id="perspective5543"
       inkscape:persp3d-origin="31.999998 : 25.600002 : 1"
       inkscape:vp_z="63.999997 : 36.266669 : 1"
       inkscape:vp_y="0 : 999.99995 : 0"
       inkscape:vp_x="0 : 36.266669 : 1"
       sodipodi:type="inkscape:persp3d" />
  </defs>
  <sodipodi:namedview
     inkscape:document-rotation="0"
     inkscape:window-maximized="0"
     showgrid="false"
     inkscape:window-y="25"
     inkscape:window-x="118"
     inkscape:window-height="927"
     inkscape:window-width="1525"
     height="64px"
     width="64px"
     inkscape:current-layer="layer2"
     inkscape:document-units="px"
     inkscape:cy="36.423323"
     inkscape:cx="-16.492963"
     inkscape:zoom="5.9403471"
     inkscape:pageshadow="2"
     inkscape:pageopacity="0.0"
     objecttolerance="10"
     guidetolerance="10"
     gridtolerance="10000"
     borderopacity="1.0"
     bordercolor="#666666"
     pagecolor="#ffffff"
     id="base" />
  <metadata
     id="metadata7">
    <rdf:RDF>
      <cc:Work
         rdf:about="">
        <dc:format>image/svg+xml</dc:format>
        <dc:type
           rdf:resource="http://purl.org/dc/dcmitype/StillImage" />
        <dc:title />
        <cc:license
           rdf:resource="Apache License 2.0" />
        <dc:creator>
          <cc:Agent>
            <dc:title />
          </cc:Agent>
        </dc:creator>
        <dc:publisher>
          <cc:Agent>
            <dc:title>ECMWF</dc:title>
          </cc:Agent>
        </dc:publisher>
        <dc:language>en-GB</dc:language>
        <dc:subject>
          <rdf:Bag>
            <rdf:li>Metview icon</rdf:li>
          </rdf:Bag>
        </dc:subject>
        <dc:description>Metview icon</dc:description>
      </cc:Work>
    </rdf:RDF>
  </metadata>
  <g
     style="display:inline"
     inkscape:label="circle"
     id="layer2"
     inkscape:groupmode="layer">
    <text
       id="text6928"
       y="13.431299"
       x="2.7761655"
       style="font-style:normal;font-weight:normal;line-height:0%;font-family:'Bitstream Vera Sans';fill:#1a1a1a;fill-opacity:1;stroke:none;"
       xml:space="preserve"><tspan
         style="font-size:13px;line-height:1.25;fill:#1a1a1a;"
         y="13.431299"
         x="2.7761655"
         id="tspan6930"
         sodipodi:role="line">4/8/15/1</tspan><tspan
         style="font-size:13px;line-height:1.25;fill:#1a1a1a;"
         id="tspan6932"
         y="29.681297"
         x="2.7761655"
         sodipodi:role="line" /><tspan
         style="font-size:13px;line-height:1.25;fill:#1a1a1a;"
         id="tspan6936"
         y="37.518967"
         x="2.7761655"
         sodipodi:role="line" /></text>
    <text
       xml:space="preserve"
       id="text9389"
       style="line-height:1.25;font-family:sans-serif;font-size:19.99999894999999839px;white-space:pre;shape-inside:url(#rect9391);" />
    <text
       xml:space="preserve"
       style="font-style:normal;font-weight:normal;line-height:0%;font-family:'Bitstream Vera Sans';fill:#1a1a1a;fill-opacity:1;stroke:none;"
       x="2.51565"
       y="31.754229"
       id="text9403"><tspan
         sodipodi:role="line"
         id="tspan9397"
         x="2.51565"
         y="31.754229"
         style="font-size:13px;line-height:1.25;fill:#1a1a1a;">6/7/9/91</tspan><tspan
         sodipodi:role="line"
         x="2.51565"
         y="48.004227"
         id="tspan9399"
         style="font-size:13px;line-height:1.25;fill:#1a1a1a;" /><tspan
         sodipodi:role="line"
         x="2.51565"
         y="55.8419"
         id="tspan9401"
         style="font-size:13px;line-height:1.25;fill:#1a1a1a;" /></text>
    <text
       id="text9411"
       y="51.206062"
       x="1.9946187"
       style="font-style:normal;font-weight:normal;line-height:0%;font-family:'Bitstream Vera Sans';fill:#1a1a1a;fill-opacity:1;stroke:none;"
       xml:space="preserve"><tspan
         style="font-size:13px;line-height:1.25;fill:#1a1a1a;"
         y="51.206062"
         x="1.9946187"
         id="tspan9405"
         sodipodi:role="line">11/4/2/8</tspan><tspan
         style="font-size:13px;line-height:1.25;fill:#1a1a1a;"
         id="tspan9407"
         y="67.456055"
         x="1.9946187"
         sodipodi:role="line" /><tspan
         style="font-size:13px;line-height:1.25;fill:#1a1a1a;"
         id="tspan9409"
         y="75.293732"
         x="1.9946187"
         sodipodi:role="line" /></text>
  </g>
  <g
     sodipodi:insensitive="true"
     style="display:inline"
     inkscape:label="text"
     id="layer3"
     inkscape:groupmode="layer">
    <flowRoot
       style="line-height:0.01%;font-family:'Bitstream Vera Sans'"
       id="flowRoot3142"
       xml:space="preserve"><flowRegion
         id="flowRegion3144"><rect
           style="font-family:Bitstream Vera Sans"
           y="26.188505"
           x="21.333334"
           height="14.565517"
           width="24.422989"
           id="rect3146" /></flowRegion><flowPara
         style="line-height:1.25"
         id="flowPara3148">SassdfsfdffsSQ</flowPara></flowRoot>
    <flowRoot
       style="line-height:0.01%;font-family:'Bitstream Vera Sans Mono'"
       id="flowRoot3150"
       xml:space="preserve"><flowRegion
         id="flowRegion3152"><rect
           style="font-family:Bitstream Vera Sans Mono"
           y="27.954023"
           x="23.834482"
           height="12.8"
           width="18.096552"
           id="rect3154" /></flowRegion><flowPara
         style="line-height:1.25"
         id="flowPara3156">SQ</flowPara></flowRoot>
    <g
       transform="matrix(2.1061635,0,0,2.1061635,-2.6698689,-2.7501989)"
       id="g6326"
       style="display:inline">
      <rect
         style="fill:#666666;fill-opacity:1;fill-rule:evenodd;stroke:#10140d;stroke-width:0.858165;stroke-linecap:butt;stroke-linejoin:miter;stroke-miterlimit:4;stroke-dasharray:none;stroke-opacity:1"
         id="rect4235"
         width="3.6325176"
         height="1.53139"
         x="20.200878"
         y="25.690905"
         ry="0.76569498"
         rx="0" />
      <rect
         style="fill:#b6c6cc;fill-opacity:1;fill-rule:evenodd;stroke:#10140d;stroke-width:0.959;stroke-linecap:butt;stroke-linejoin:miter;stroke-miterlimit:4;stroke-dasharray:none;stroke-opacity:1"
         id="rect4233"
         width="17.032545"
         height="2.7717004"
         x="13.411453"
         y="27.350697"
         ry="1.2517357" />
      <g
         id="g6294">
        <rect
           ry="1.2467414"
           y="13.338168"
           x="12.631559"
           height="12.378362"
           width="18.368809"
           id="rect4231"
           style="fill:#e7e4e0;fill-opacity:1;fill-rule:evenodd;stroke:#10140d;stroke-width:1.00859;stroke-linecap:butt;stroke-linejoin:miter;stroke-miterlimit:4;stroke-dasharray:none;stroke-opacity:1" />
        <path
           sodipodi:nodetypes="ccccc"
           id="path5224"
           d="m 17.43489,21.539066 3.397568,-5.990449 1.162327,4.559894 2.548176,-2.145833 c 0.998408,0.849393 1.708776,1.410744 2.995225,2.548177"
           style="fill:none;stroke:#e52626;stroke-width:1px;stroke-linecap:round;stroke-linejoin:round;stroke-opacity:1" />
        <path
           id="path5226"
           d="m 14.752598,15.056863 c 0.0447,8.449216 0.0447,8.538626 0.0447,8.538626"
           style="fill:none;stroke:#1f283c;stroke-width:1px;stroke-linecap:butt;stroke-linejoin:miter;stroke-opacity:1" />
        <path
           id="path5228"
           d="m 14.308883,23.726271 15.014163,-0.03804"
           style="fill:none;stroke:#1f283c;stroke-width:1.00667px;stroke-linecap:butt;stroke-linejoin:miter;stroke-opacity:1" />
      </g>
    </g>
  </g>
</svg>
