<?xml version="1.0" encoding="UTF-8" standalone="no"?>
<svg
   xmlns:dc="http://purl.org/dc/elements/1.1/"
   xmlns:cc="http://creativecommons.org/ns#"
   xmlns:rdf="http://www.w3.org/1999/02/22-rdf-syntax-ns#"
   xmlns:svg="http://www.w3.org/2000/svg"
   xmlns="http://www.w3.org/2000/svg"
   xmlns:sodipodi="http://sodipodi.sourceforge.net/DTD/sodipodi-0.dtd"
   xmlns:inkscape="http://www.inkscape.org/namespaces/inkscape"
   sodipodi:docname="JPEG.svg"
   inkscape:version="1.0 (4035a4f, 2020-05-01)"
   version="1.1"
   id="svg4537"
   height="64px"
   width="64px">
  <defs
     id="defs4539" />
  <sodipodi:namedview
     inkscape:snap-grids="false"
     inkscape:snap-to-guides="false"
     inkscape:document-rotation="0"
     gridtolerance="10"
     objecttolerance="14"
     inkscape:window-maximized="0"
     inkscape:window-y="23"
     inkscape:window-x="27"
     inkscape:window-height="1101"
     inkscape:window-width="1687"
     inkscape:grid-bbox="true"
     inkscape:document-units="px"
     showgrid="true"
     inkscape:current-layer="layer1"
     inkscape:cy="38.018461"
     inkscape:cx="35.522352"
     inkscape:zoom="14.951605"
     inkscape:pageshadow="2"
     inkscape:pageopacity="0.0"
     borderopacity="1.0"
     bordercolor="#666666"
     pagecolor="#ffffff"
     id="base">
    <inkscape:grid
       snapvisiblegridlinesonly="true"
       enabled="true"
       visible="true"
       empspacing="5"
       id="grid4547"
       type="xygrid" />
  </sodipodi:namedview>
  <metadata
     id="metadata7">
    <rdf:RDF>
      <cc:Work
         rdf:about="">
        <dc:format>image/svg+xml</dc:format>
        <dc:type
           rdf:resource="http://purl.org/dc/dcmitype/StillImage" />
        <dc:title></dc:title>
        <cc:license
           rdf:resource="Apache License 2.0" />
        <dc:creator>
          <cc:Agent>
            <dc:title />
          </cc:Agent>
        </dc:creator>
        <dc:publisher>
          <cc:Agent>
            <dc:title>ECMWF</dc:title>
          </cc:Agent>
        </dc:publisher>
        <dc:language>en-GB</dc:language>
        <dc:subject>
          <rdf:Bag>
            <rdf:li>Metview icon</rdf:li>
          </rdf:Bag>
        </dc:subject>
        <dc:description>Metview icon</dc:description>
      </cc:Work>
    </rdf:RDF>
  </metadata>
  <g
     inkscape:groupmode="layer"
     inkscape:label="Layer 1"
     id="layer1">
    <path
       sodipodi:nodetypes="cccccccs"
       id="rect5379-7"
       d="m 49.003157,2.7961158 0.08309,14.1309752 11.594035,-0.01099 0.329861,44.606595 -45.236172,0.06688 -0.0022,-58.7934691 33.231396,-2.1e-6 11.743998,14.0531112"
       style="fill:#f2f2f2;fill-opacity:1;stroke:#161617;stroke-width:1.01643;stroke-linejoin:round;stroke-miterlimit:4;stroke-dasharray:none;stroke-opacity:1" />
    <rect
       ry="1.1705557"
       y="25.886509"
       x="0.99352652"
       height="24.581669"
       width="54.631073"
       id="rect972"
       style="fill:#217844;fill-opacity:1;stroke:none;stroke-width:0.639787;stroke-linejoin:round" />
    <text
       transform="scale(0.96863239,1.0323834)"
       id="text5099"
       y="45.013603"
       x="6.2293181"
       style="font-style:normal;font-variant:normal;font-weight:bold;font-stretch:normal;font-size:22.6667px;line-height:0%;font-family:sans-serif;-inkscape-font-specification:'sans-serif Bold';text-align:start;writing-mode:lr-tb;text-anchor:start;fill:#ffffff;fill-opacity:1;stroke:none;stroke-width:0.906836"
       xml:space="preserve"><tspan
         style="font-style:normal;font-variant:normal;font-weight:bold;font-stretch:normal;font-size:22.6667px;line-height:1.25;font-family:sans-serif;-inkscape-font-specification:'sans-serif Bold';fill:#ffffff;stroke-width:0.906836"
         y="45.013603"
         x="6.2293181"
         id="tspan2837"
         sodipodi:role="line">JPG</tspan></text>
    <path
       sodipodi:nodetypes="cccc"
       id="rect3652"
       d="M 49.003157,2.7961158 60.680282,16.916101 49.086247,16.927091 Z"
       style="fill:#d6d6ce;fill-opacity:1;stroke:none;stroke-width:1.55882" />
  </g>
</svg>
