/* XPM */
static char * LLMATRIX_icon[] = {
"32 32 3 1",
" 	c #00000000FFFF",
".	c #FFFFFFFFFFFF",
"X	c #000000000000",
"                                ",
" ......X....X.. ....... X...... ",
" ......X....X.. ....... X...... ",
" ......X....X.. ....... X...... ",
" .....X ....X.. ....... .X.....X",
" .....X .....X. ....... .X.....X",
" .....X .....X. ....... ..XX.XX ",
" .....X .....X. ....... ....X.. ",
" .....X .....X. ....... ....... ",
" ......X......X ....... ....... ",
" ......X......X ....... ....... ",
"                                ",
" ......X.......X....... ....... ",
" ......X....... X...... ....... ",
" ...... X...... .X..... ....... ",
" ...... X...... ..X.... ....... ",
" ...... .X..... ...XX.. ....... ",
" ...... .X..... .....XX ....... ",
" ...... ..X.... ....... XXX...XX",
" ...... ..X.... ....... ...XXX. ",
" ...... ...X... ....... ....... ",
"                                ",
" ...... ....X.. ....... ....... ",
" ...... .....X. ....... ....... ",
" ...... ......XX....... ....... ",
" ...... ....... X...... ....... ",
" ...... ....... .XX.... ....... ",
" ...... ....... ...XX.. ....... ",
" ...... ....... .....XX ....... ",
" ...... ....... ....... XXXX... ",
" ...... ....... ....... ....XXXX",
"                                "};
