/* XPM */
static char * PAXIS_icon[] = {
"32 32 9 1",
" 	c #FFFFFFFFFFFF",
".	c #FFFFFFFF0000",
"X	c #FFFFFFFFCCCC",
"o	c #00000000FFFF",
"O	c #000000000000",
"+	c #FFFF0000DADA",
"@	c #D9D9B7B77777",
"#	c #FFFFE2E2ABAB",
"$	c #E0E06C6C0000",
"   .............................",
"  ..XXXXXXXXXXXXXXXXXXXXXXXXXXX.",
" ...XXXXXXXXXXXXXXXXXXXXXXXXXXX.",
"....oXXXXXXXXXXXXXXXXXXXXXXOOOX.",
".XXoooXXXXXXXXXXXXXXXXXXXXO++OX.",
".XXXoXXXXXXXXXXXXXXXXXXXXO.O+OX.",
".XXXoXXXXXXXXXXXXXXXXXXXO.@OOXX.",
".XXXoXXXXXXXXXXXXXXXXXXO.@OOXXX.",
".XXoooXXXoXXXXXoXXXOOOO.@OOXoXX.",
".XXXoXXXXXXXXXXXXXO#@O.@OOXXXXX.",
".XXXoXXXXXXXXXXXXO#@O.@OOXXXXXX.",
".XXXoXXXXXXXXXXXO#@O.@OO@OXXXXX.",
".XXXoXXXXXXXXXXO#@O.@OO@@#OXXXX.",
".XXXoXXXXXXXXXO#@O.@OOO@###OXXX.",
".XXoooXXXoXXXXO@O.@OOXO$####OOO.",
".XXXoXXXXXXXXXXO.OOOOOX#####@OO.",
".XXXoXXXXXXXXXO.OX##########@OO.",
".XXXoXXXXXXXXXO@OOO@@@######@OO.",
".XXXoXXXXXXXXOOOXXXOOO@@@@##@OO.",
".XXoooXXXoXXXXXXoXXXXXOOOO@@@OO.",
".XXXoXXXXXXXXXXXXXXXXXXXXXOOOOO.",
".XXXoXXXXXXXXXXXXXXXXXXXXXXXXOO.",
".XXXoXXXXXXXXXXXXXXXXXXXXXXXXXX.",
".XXXoXXXXXXXXXXXXXXXXXXXXXXXXXX.",
".XXXoXXXXoXXXXXXoXXXXXoXXXXXoXX.",
".XXXooooooooooooooooooooooooooX.",
".XXXoXXXXoXXXXXXoXXXXXoXXXXXoXX.",
".XXXXXXXXXXXXXXXXXXXXXXXXXXXXXX.",
".XXXXXXXXXXXXXXXXXXXXXXXXXXXXXX.",
".XXXXXXXXXXXXXXXXXXXXXXXXXXXXXX.",
"................................",
"                                "};
