<?xml version="1.0" encoding="UTF-8" standalone="no"?>
<!-- Created with Inkscape (http://www.inkscape.org/) -->

<svg
   xmlns:dc="http://purl.org/dc/elements/1.1/"
   xmlns:cc="http://creativecommons.org/ns#"
   xmlns:rdf="http://www.w3.org/1999/02/22-rdf-syntax-ns#"
   xmlns:svg="http://www.w3.org/2000/svg"
   xmlns="http://www.w3.org/2000/svg"
   xmlns:xlink="http://www.w3.org/1999/xlink"
   xmlns:sodipodi="http://sodipodi.sourceforge.net/DTD/sodipodi-0.dtd"
   xmlns:inkscape="http://www.inkscape.org/namespaces/inkscape"
   inkscape:export-ydpi="180"
   inkscape:export-xdpi="180"
   width="32"
   height="32"
   id="svg11300"
   sodipodi:version="0.32"
   inkscape:version="0.47 r22583"
   sodipodi:docname="MLEGEND.svg"
   inkscape:output_extension="org.inkscape.output.svg.inkscape"
   version="1.0"
   style="display:inline">
  <sodipodi:namedview
     stroke="#3465a4"
     fill="#729fcf"
     id="base"
     pagecolor="#ffffff"
     bordercolor="#666666"
     borderopacity="0.25490196"
     inkscape:pageopacity="0.0"
     inkscape:pageshadow="2"
     inkscape:zoom="24.3125"
     inkscape:cx="4.5216609"
     inkscape:cy="15.260101"
     inkscape:current-layer="layer10"
     showgrid="true"
     inkscape:grid-bbox="false"
     inkscape:document-units="px"
     inkscape:showpageshadow="false"
     inkscape:window-width="1789"
     inkscape:window-height="1096"
     inkscape:window-x="1956"
     inkscape:window-y="57"
     gridtolerance="50"
     inkscape:grid-points="false"
     showguides="true"
     inkscape:guide-bbox="true"
     objecttolerance="0.4"
     inkscape:object-paths="true"
     width="32px"
     height="32px"
     inkscape:window-maximized="0"
     inkscape:snap-grids="false"
     inkscape:snap-to-guides="false">
    <sodipodi:guide
       orientation="horizontal"
       position="50.977307"
       id="guide9112" />
    <inkscape:grid
       type="xygrid"
       id="grid2849" />
  </sodipodi:namedview>
  <metadata
     id="metadata7">
    <rdf:RDF>
      <cc:Work
         rdf:about="">
        <dc:format>image/svg+xml</dc:format>
        <dc:type
           rdf:resource="http://purl.org/dc/dcmitype/StillImage" />
        <dc:title />
        <cc:license
           rdf:resource="Apache License 2.0" />
        <dc:creator>
          <cc:Agent>
            <dc:title />
          </cc:Agent>
        </dc:creator>
        <dc:publisher>
          <cc:Agent>
            <dc:title>ECMWF</dc:title>
          </cc:Agent>
        </dc:publisher>
        <dc:language>en-GB</dc:language>
        <dc:subject>
          <rdf:Bag>
            <rdf:li>Metview icon</rdf:li>
          </rdf:Bag>
        </dc:subject>
        <dc:description>Metview icon</dc:description>
      </cc:Work>
    </rdf:RDF>
  </metadata>
  <defs
     id="defs3">
    <linearGradient
       inkscape:collect="always"
       id="linearGradient3744">
      <stop
         style="stop-color:#4d4d4d;stop-opacity:1;"
         offset="0"
         id="stop3746" />
      <stop
         style="stop-color:#4d4d4d;stop-opacity:0;"
         offset="1"
         id="stop3748" />
    </linearGradient>
    <linearGradient
       inkscape:collect="always"
       id="linearGradient3736">
      <stop
         style="stop-color:#4d4d4d;stop-opacity:1;"
         offset="0"
         id="stop3738" />
      <stop
         style="stop-color:#4d4d4d;stop-opacity:0;"
         offset="1"
         id="stop3740" />
    </linearGradient>
    <linearGradient
       inkscape:collect="always"
       id="linearGradient3728">
      <stop
         style="stop-color:#4d4d4d;stop-opacity:1;"
         offset="0"
         id="stop3730" />
      <stop
         style="stop-color:#4d4d4d;stop-opacity:0;"
         offset="1"
         id="stop3732" />
    </linearGradient>
    <linearGradient
       inkscape:collect="always"
       id="linearGradient3718">
      <stop
         style="stop-color:#4d4d4d;stop-opacity:1;"
         offset="0"
         id="stop3720" />
      <stop
         style="stop-color:#4d4d4d;stop-opacity:0;"
         offset="1"
         id="stop3722" />
    </linearGradient>
    <linearGradient
       inkscape:collect="always"
       id="linearGradient3710">
      <stop
         style="stop-color:#4d4d4d;stop-opacity:1;"
         offset="0"
         id="stop3712" />
      <stop
         style="stop-color:#4d4d4d;stop-opacity:0;"
         offset="1"
         id="stop3714" />
    </linearGradient>
    <linearGradient
       inkscape:collect="always"
       id="linearGradient3702">
      <stop
         style="stop-color:#4d4d4d;stop-opacity:1;"
         offset="0"
         id="stop3704" />
      <stop
         style="stop-color:#4d4d4d;stop-opacity:0;"
         offset="1"
         id="stop3706" />
    </linearGradient>
    <inkscape:perspective
       sodipodi:type="inkscape:persp3d"
       inkscape:vp_x="0 : 16 : 1"
       inkscape:vp_y="0 : 1000 : 0"
       inkscape:vp_z="32 : 16 : 1"
       inkscape:persp3d-origin="16 : 10.666667 : 1"
       id="perspective48" />
    <linearGradient
       id="linearGradient3869">
      <stop
         style="stop-color:#fffa02;stop-opacity:1;"
         offset="0"
         id="stop3871" />
      <stop
         style="stop-color:#dddb31;stop-opacity:1;"
         offset="1"
         id="stop3873" />
    </linearGradient>
    <linearGradient
       inkscape:collect="always"
       xlink:href="#linearGradient3869"
       id="linearGradient3875"
       x1="19.671978"
       y1="7.6915169"
       x2="22.446272"
       y2="10.200515"
       gradientUnits="userSpaceOnUse"
       gradientTransform="translate(0,2.6735219)" />
    <linearGradient
       id="linearGradient3889-8-5">
      <stop
         style="stop-color:#cfc0af;stop-opacity:1;"
         offset="0"
         id="stop3891-0-0" />
      <stop
         style="stop-color:#ffe2ab;stop-opacity:1;"
         offset="1"
         id="stop3893-2-6" />
    </linearGradient>
    <linearGradient
       id="linearGradient3889-7-1-2">
      <stop
         style="stop-color:#cfc0af;stop-opacity:1;"
         offset="0"
         id="stop3891-7-1-5" />
      <stop
         style="stop-color:#ffe2ab;stop-opacity:1;"
         offset="1"
         id="stop3893-5-0-8" />
    </linearGradient>
    <linearGradient
       y2="11.078368"
       x2="22.297274"
       y1="8.1580601"
       x1="7.6711636"
       gradientTransform="translate(-0.90317401,2.3529619)"
       gradientUnits="userSpaceOnUse"
       id="linearGradient4175"
       xlink:href="#linearGradient3889-7-1-2"
       inkscape:collect="always" />
    <linearGradient
       inkscape:collect="always"
       xlink:href="#linearGradient3889-8-5"
       id="linearGradient4197"
       gradientUnits="userSpaceOnUse"
       gradientTransform="translate(-0.22485567,2.640781)"
       x1="8.2786636"
       y1="12.442157"
       x2="29.438562"
       y2="12.071977" />
    <linearGradient
       inkscape:collect="always"
       xlink:href="#linearGradient3702"
       id="linearGradient3708"
       x1="12.010284"
       y1="7.5681234"
       x2="20.154243"
       y2="7.5681234"
       gradientUnits="userSpaceOnUse"
       gradientTransform="translate(-0.2799524,0.50093719)" />
    <linearGradient
       inkscape:collect="always"
       xlink:href="#linearGradient3710"
       id="linearGradient3716"
       x1="11.969152"
       y1="11.064269"
       x2="20.030849"
       y2="11.064269"
       gradientUnits="userSpaceOnUse"
       gradientTransform="translate(-0.2799524,0.50093719)" />
    <linearGradient
       inkscape:collect="always"
       xlink:href="#linearGradient3718"
       id="linearGradient3726"
       x1="12.00995"
       y1="15.094787"
       x2="20.071646"
       y2="15.094787"
       gradientUnits="userSpaceOnUse"
       gradientTransform="translate(-0.2799524,0.50093719)" />
    <linearGradient
       inkscape:collect="always"
       xlink:href="#linearGradient3728"
       id="linearGradient3734"
       x1="12.00995"
       y1="19.125635"
       x2="20.071646"
       y2="19.125635"
       gradientUnits="userSpaceOnUse"
       gradientTransform="translate(-0.2799524,0.50093719)" />
    <linearGradient
       inkscape:collect="always"
       xlink:href="#linearGradient3736"
       id="linearGradient3742"
       x1="12.00995"
       y1="23.074222"
       x2="20.071646"
       y2="23.074222"
       gradientUnits="userSpaceOnUse"
       gradientTransform="translate(-0.2799524,0.50093719)" />
    <linearGradient
       inkscape:collect="always"
       xlink:href="#linearGradient3744"
       id="linearGradient3750"
       x1="12.051081"
       y1="26.652626"
       x2="20.112777"
       y2="26.652626"
       gradientUnits="userSpaceOnUse"
       gradientTransform="translate(-0.2799524,0.50093719)" />
  </defs>
  <g
     inkscape:groupmode="layer"
     id="layer3"
     inkscape:label="frame"
     style="display:inline"
     sodipodi:insensitive="true">
    <path
       style="fill:#e6e6e6;fill-opacity:1;stroke:#747171;stroke-width:0.89999998;stroke-linecap:butt;stroke-linejoin:miter;stroke-miterlimit:4;stroke-opacity:1;stroke-dashoffset:0"
       d="m 4.5449877,0.41131106 27.0025713,0 0,31.15167094 -31.13624794,0 L 0.45244217,4.4293064 4.5449877,0.41131106 z"
       id="rect2911"
       sodipodi:nodetypes="cccccc" />
    <path
       transform="matrix(1.1649572,0,0,0.98026068,2.3928109,-0.98849455)"
       style="fill:#747171;fill-opacity:1;fill-rule:evenodd;stroke:none"
       d="M 2.2778942,1.4589838 2.271022,6.1828486 -1.6478691,6.1426841 2.2778942,1.4589838 z"
       id="path4199"
       sodipodi:nodetypes="cccc" />
    <rect
       style="fill:url(#linearGradient3708);fill-opacity:1;fill-rule:evenodd;stroke:none"
       id="rect3667"
       width="8.1439581"
       height="1.4807197"
       x="11.730331"
       y="7.3287001" />
    <rect
       y="10.824846"
       x="11.689199"
       height="1.4807198"
       width="8.0616961"
       id="rect3669"
       style="fill:url(#linearGradient3716);fill-opacity:1;fill-rule:evenodd;stroke:none" />
    <rect
       style="fill:url(#linearGradient3726);fill-opacity:1;fill-rule:evenodd;stroke:none"
       id="rect3694"
       width="8.0616961"
       height="1.4807198"
       x="11.729997"
       y="14.855365" />
    <rect
       y="18.886211"
       x="11.729997"
       height="1.4807198"
       width="8.0616961"
       id="rect3696"
       style="fill:url(#linearGradient3734);fill-opacity:1;fill-rule:evenodd;stroke:none" />
    <rect
       style="fill:url(#linearGradient3742);fill-opacity:1;fill-rule:evenodd;stroke:none"
       id="rect3698"
       width="8.0616961"
       height="1.4807198"
       x="11.729997"
       y="22.834799" />
    <rect
       y="26.413202"
       x="11.771128"
       height="1.4807198"
       width="8.0616961"
       id="rect3700"
       style="fill:url(#linearGradient3750);fill-opacity:1;fill-rule:evenodd;stroke:none" />
  </g>
  <g
     inkscape:groupmode="layer"
     id="layer2"
     inkscape:label="text"
     sodipodi:insensitive="true" />
  <g
     inkscape:groupmode="layer"
     id="layer1"
     inkscape:label="cells"
     sodipodi:insensitive="true">
    <rect
       style="fill:#ff0000;stroke:none"
       id="rect3652"
       width="4.9767642"
       height="3.9806123"
       x="4.6759219"
       y="5.7748237" />
    <rect
       y="9.6320419"
       x="4.7127423"
       height="3.9897172"
       width="4.9797902"
       id="rect3654"
       style="fill:#ff7f2a;stroke:none" />
    <rect
       style="fill:#ffff00;stroke:none"
       id="rect3656"
       width="5.1232882"
       height="3.9485862"
       x="4.6068211"
       y="13.621759" />
    <rect
       y="17.529211"
       x="4.6068211"
       height="3.9897172"
       width="5.0872245"
       id="rect3658"
       style="fill:#00ff00;stroke:none" />
    <rect
       style="fill:#00ffff;stroke:none"
       id="rect3660"
       width="4.9767642"
       height="3.9485862"
       x="4.7533445"
       y="21.518929" />
    <rect
       style="fill:#0000ff;stroke:none"
       id="rect3664"
       width="5.1608644"
       height="3.9897172"
       x="4.6413732"
       y="25.220726" />
  </g>
  <g
     inkscape:groupmode="layer"
     id="layer17"
     inkscape:label="legend"
     style="display:inline"
     sodipodi:insensitive="true">
    <rect
       style="fill:none;stroke:#272424;stroke-width:0.69999999;stroke-linecap:butt;stroke-linejoin:miter;stroke-miterlimit:4;stroke-opacity:1;stroke-dasharray:none;stroke-dashoffset:0"
       id="rect3647"
       width="5.1199708"
       height="23.444733"
       x="4.7183294"
       y="5.9302435" />
    <path
       style="fill:none;stroke:#272424;stroke-width:0.5;stroke-linecap:butt;stroke-linejoin:miter;stroke-miterlimit:4;stroke-opacity:1;stroke-dasharray:none"
       d="M 4.8123393,9.6246787 C 4.9768638,9.6320419 9.748072,9.5835476 9.748072,9.5835476"
       id="path3752" />
    <path
       id="path3754"
       d="m 4.8123393,13.737789 c 0.1645245,0.0074 4.9357327,-0.04113 4.9357327,-0.04113"
       style="fill:none;stroke:#272424;stroke-width:0.5;stroke-linecap:butt;stroke-linejoin:miter;stroke-miterlimit:4;stroke-opacity:1;stroke-dasharray:none" />
    <path
       style="fill:none;stroke:#272424;stroke-width:0.5;stroke-linecap:butt;stroke-linejoin:miter;stroke-miterlimit:4;stroke-opacity:1;stroke-dasharray:none"
       d="m 4.7300771,17.611476 c 0.1645245,0.0074 4.9357327,-0.04113 4.9357327,-0.04113"
       id="path3756" />
    <path
       id="path3758"
       d="m 4.7583128,21.518931 c 0.1645245,0.0074 4.9357327,-0.04113 4.9357327,-0.04113"
       style="fill:none;stroke:#272424;stroke-width:0.5;stroke-linecap:butt;stroke-linejoin:miter;stroke-miterlimit:4;stroke-opacity:1;stroke-dasharray:none" />
    <path
       style="fill:none;stroke:#272424;stroke-width:0.5;stroke-linecap:butt;stroke-linejoin:miter;stroke-miterlimit:4;stroke-opacity:1;stroke-dasharray:none"
       d="m 4.7533445,25.302993 c 0.1645245,0.0074 4.9357327,-0.04113 4.9357327,-0.04113"
       id="path3760" />
  </g>
  <g
     inkscape:groupmode="layer"
     id="layer13"
     inkscape:label="pencil"
     style="display:inline"
     sodipodi:insensitive="true">
    <path
       style="fill:url(#linearGradient3875);fill-opacity:1;stroke:#030000;stroke-width:0.80000001;stroke-linecap:butt;stroke-linejoin:miter;stroke-miterlimit:4;stroke-opacity:1;stroke-dasharray:none"
       d="M 26.447301,4.2365039 14.601542,15.712082 13.203084,19.167096 16.822622,17.727506 28.421594,6.2107969 c 0,0 -0.401184,-0.8947574 -0.74036,-1.2339332 C 27.342058,4.6376879 26.447301,4.2365039 26.447301,4.2365039 z"
       id="path3867"
       sodipodi:nodetypes="cccccsc" />
    <path
       style="fill:#483737;fill-opacity:1;stroke:none"
       d="M 28.092546,6.0795626 16.492052,17.645244 15.958869,17.05799 27.594818,5.3059127 28.092546,6.0795626 z"
       id="path3877"
       sodipodi:nodetypes="ccccc" />
    <path
       style="fill:#c8a656;fill-opacity:1;stroke:none"
       d="M 14.848329,16 14.066838,18.262211 16.452443,17.562982 14.848329,16 z"
       id="path3883"
       sodipodi:nodetypes="cccc" />
    <path
       style="fill:none;stroke:#000000;stroke-width:1px;stroke-linecap:butt;stroke-linejoin:miter;stroke-opacity:1"
       d="m 14.478149,15.712082 0,0 z"
       id="path3885" />
    <path
       style="fill:#050505;fill-opacity:1;stroke:none"
       d="M 14.1491,17.11054 13.737789,18.59126 15.095115,18.138818 14.1491,17.11054 z"
       id="path3887"
       sodipodi:nodetypes="cccc" />
  </g>
  <g
     inkscape:groupmode="layer"
     id="layer10"
     inkscape:label="hand"
     style="display:inline">
    <rect
       style="opacity:0.53603599;fill:none;stroke:none"
       id="rect2939"
       width="2.2622108"
       height="7.7326479"
       x="28.956299"
       y="14.066838" />
    <path
       style="fill:url(#linearGradient4197);fill-opacity:1;stroke:#000000;stroke-width:0.7;stroke-linecap:butt;stroke-linejoin:miter;stroke-miterlimit:4;stroke-opacity:1;stroke-dasharray:none;display:inline"
       d="m 22.323384,12.381427 -0.01309,1.314107 c 0,0 -0.279375,0.695239 -0.498394,0.842143 -0.583486,0.391362 -1.682438,0.804466 -1.682438,0.804466 l -1.190713,-10e-7 c -0.520389,-0.02751 0.340234,-0.122332 -1.842144,-0.110299 l -0.542738,0.447381 c -0.176833,0.145764 -0.193333,0.469266 -0.123393,0.6875 0.08204,0.255999 0.596717,0.743084 0.596717,0.743084 0.01713,0.213098 1.145554,0.158656 1.615606,0.258523 l 1.113512,-0.06997 0.866726,0.176814 1.00482,0.516549 1.021369,0.5625 0.78125,0.5 1.28125,0.625 c 0,0 0.662175,0.409145 1.057439,0.565714 0.56167,0.222485 1.214086,0.501457 1.809287,0.397975 l 1.533097,-0.266547 -0.0099,-5.272494 -2.717125,-2.309286 -1.616967,-2.095598 c -0.392361,-0.371601 -0.311068,-0.542784 -0.713999,-0.116283 -0.362038,0.383215 -1.373301,1.442067 -1.730172,1.798722 z"
       id="path3960-0-4"
       sodipodi:nodetypes="ccscccssccccccccssccccsc" />
    <path
       style="fill:url(#linearGradient4175);fill-opacity:1;stroke:#000000;stroke-width:0.7;stroke-linecap:butt;stroke-linejoin:miter;stroke-miterlimit:4;stroke-opacity:1;stroke-dasharray:none;display:inline"
       d="m 21.10281,7.9392058 c 0,0 -0.864273,-0.2489256 -1.443927,0.044344 -0.70956,0.3589859 -2.635122,2.1909542 -2.635122,2.1909542 l -1.389702,1.256427 c 0,0 -1.104461,0.780354 -1.329048,1.292738 -0.140325,0.320144 -0.692423,1.042346 -0.434287,1.278035 0,0 0.242673,0.235308 0.772976,0.309047 0.530303,0.07374 1.389701,-0.638095 1.389701,-0.638095 l 1.53125,-1.374999 1.269762,-0.741726 0.491726,-0.355238 0.278036,-0.217143 2.443099,-2.6426181 C 21.265106,7.977479 21.10281,7.9392058 21.10281,7.9392058 z"
       id="path3983-4"
       sodipodi:nodetypes="csccscsccccccc" />
    <rect
       style="fill:#0d0b06;fill-opacity:1;fill-rule:evenodd;stroke:none"
       id="rect4212"
       width="2.1388175"
       height="7.4035988"
       x="28.997429"
       y="14.395887" />
    <path
       style="fill:none;stroke:#000000;stroke-width:0.09999999;stroke-linecap:butt;stroke-linejoin:miter;stroke-miterlimit:4;stroke-opacity:1;stroke-dasharray:none"
       d="m 18.378759,15.800996 -0.110147,1.037779 -0.734318,-0.01777 c 0,0 -0.389617,-0.174751 -0.477307,-0.328567 -0.07209,-0.126452 0,-0.418174 0,-0.418174 0,-0.155527 0.200218,-0.282651 0.367159,-0.358436 0.07557,-0.0343 0.25701,-0.02987 0.25701,-0.02987 l 0.697603,0.115036 z"
       id="path4268"
       sodipodi:nodetypes="cccssscc" />
    <path
       style="fill:#d6b370;fill-opacity:1;stroke:none"
       d="m 28.791774,19.660665 0,-1.686372 -2.467866,0.04113 -1.398458,-0.452442 c 0,0 -0.964908,-0.709613 -1.521851,-0.904884 -0.470245,-0.164874 -1.033801,-0.288768 -1.562982,-0.37018 l -1.069409,-0.164524 -0.987146,0 -1.316196,0.04113 0.08226,0.658097 0.946016,0.08226 0.987147,0.04113 1.028277,0.493573 c 0,0 0.584391,0.442159 0.904885,0.616967 0.339801,0.185339 1.069408,0.452442 1.069408,0.452442 l 1.231113,0.745142 c 0.388462,0.23512 0.810343,0.414981 1.236754,0.571053 0.387323,0.141765 1.151671,0.205656 1.151671,0.205656 0,0 0.316298,0.185743 0.452442,0.164523 0.44292,-0.06904 1.233933,-0.534704 1.233933,-0.534704 z"
       id="path4270"
       sodipodi:nodetypes="ccccsscccccccscsscsc" />
    <path
       style="fill:#d6b370;stroke:none"
       d="M 15.012853,14.066839 C 14.724935,13.957156 14.437018,13.847473 14.1491,13.73779 c 0.594291,-0.536642 1.20232,-1.058562 1.766868,-1.627073 0.444514,-0.42915 0.918257,-0.706724 1.394946,-1.100871 0.281295,-0.253216 0.653857,-0.536296 0.965672,-0.751322 0.400107,-0.2877824 0.660647,-0.7231253 1.092134,-0.9640169 0.186134,-0.1067083 0.365481,-0.2354848 0.555742,-0.3287765 0.268538,-0.013427 0.66047,0.014277 0.929008,8.501e-4 0.06855,0.082262 0.01371,-10e-8 0.08226,0.082262 -0.67532,0.6623462 -1.139403,1.2493283 -1.859339,1.9896283 -0.560573,0.378314 -1.225501,0.972045 -1.756925,1.391749 -0.281334,0.219002 -0.669402,0.492245 -0.905317,0.763248 -0.204423,0.198705 -0.394669,0.209803 -0.60788,0.39732 -0.264473,0.158684 -0.528946,0.317367 -0.793419,0.476051 z"
       id="path4274"
       sodipodi:nodetypes="cccsssccccsscc" />
    <path
       style="fill:#d6b370;stroke:none"
       d="m 22.99229,12.215938 0.658096,-0.699228 c 0,0 0.02532,1.169686 -0.123393,1.727506 -0.113731,0.426608 -0.575836,1.192802 -0.575836,1.192802 l -1.110539,0.575836 c 0,0 0.682272,-0.768009 0.822621,-1.275065 0.140349,-0.507056 -0.08226,-1.11054 -0.08226,-1.11054 l 0.411311,-0.411311 z"
       id="path3659"
       sodipodi:nodetypes="ccscczcc" />
  </g>
</svg>
