/* XPM */
static char * VPROFVIEW_xpm[] = {
"32 32 6 1",
" 	c #404040404040",
".	c #FFFFFFFFFFFF",
"X	c #000000000000",
"o	c #FFFF0000FFFF",
"O	c #777777777777",
"+	c #CCCCCCCCFFFF",
"                                ",
" .............................. ",
" .                            . ",
" .XXX.......oo............... . ",
" . X..........o.............. . ",
" . X..........oo............. . ",
" .XXX..........ooo........... . ",
" . X.....OOOOOOOOoOOOOO...... . ",
" . X.OOOO++++++++o+++++OOOO.. . ",
" .XXX++++++++++++o+++++++++OO . ",
" . X+++++++++++++o+++++++++++ . ",
" . X+++++++++++++o+++++++++++ . ",
" . XX++++OOOOOOoooOOOOO++++++ . ",
" . X+OOOO+++++oo+++++++OOOO++ . ",
" . XO++++++oooo++++++++++++OO . ",
" .XXX++++++o+++++++++++++++++ . ",
" . X+++++++o+++++++++++++++++ . ",
" . X+++++OOoOOOOOOOOOOO++++++ . ",
" .XXXOOOO++oo++++++++++OOOO++ . ",
" . XO+++++++ooo++++++++++++OO . ",
" . X+++++++++++oooo++++++++++ . ",
" .XXX+++++++++++++ooo++++++++ . ",
" . X+++++OOOOOOOOOOOooo++++++ . ",
" . X+OOOO+++++++++++++ooOOO++ . ",
" .XXX++++++++++++++++++oo++OO . ",
" . X++++++++++++++++++++o++++ . ",
" . X++X++X++X++X++X++X++X++X+ . ",
" . XXXXXXXXXXXXXXXXXXXXXXXXXXX. ",
" .    X  X  X  X  X  X  X  X  . ",
" .............................. ",
" .............................. ",
"X                               "};
