/* XPM */
static char * AVERAGEVIEW_xpm[] = {
"32 32 9 1",
" 	c #333333333333",
".	c #FFFFFFFFFFFF",
"X	c #7A7A7A7A7A7A",
"o	c #777777777777",
"O	c #CCCCCCCCFFFF",
"+	c #FFFF0000FFFF",
"@	c #000000000000",
"#	c #00007F7FFFFF",
"$	c #D9D9B7B77777",
"                                ",
" .............................. ",
" .XXXXXXXXXXXXXXXXXXXXXXXXXXXX. ",
" .X..........................X. ",
" .X..........................X. ",
" .X..........................X. ",
" .X..........................X. ",
" .X......oooooooooooooo......X. ",
" .X..ooooOOOOOOOOOOOOOOoooo..X. ",
" .XooOOOOOOOOOOOOOOOOOOOOOOooX. ",
" .XOOOOOOOOOOOOOOOOOOOOOOOOOOX. ",
" .XOOOOOOOO+OOOOOOOO+OOOOOOOOX. ",
" .XOOOOOOoo++oooooo++ooOOOOOOX. ",
" .XOOooooOO+++OOOO+++OOooooOOX. ",
" .X++++++++++++OO++++++++++++X. ",
" .XOOOOOOOO+++OOOO+++OOOOOOOOX. ",
" .XOOOOOOOO++OOOOOO++OOOOOOOOX. ",
" .XOOOOOOoo+oooooooo+ooOOOOOOX. ",
" .XOOooooOOOOOOOOOOOOOOooooOOX. ",
" .XooOOOOOOOOOOOOOOOOOOOOOOooX. ",
" .XOOOOOOOOOOOOOOOOOOOOOOOOOOX. ",
" .XOOOOOOOOOOOOOOOOOOOOOOOOOOX. ",
" .XOOOOOOooooooooooooooOOOOOOX. ",
" .XOOooooOOOOOOOOOOOOOOooooOOX. ",
" .XooOOOOOOOOOOOOOOOOOOOOOOooX. ",
" .XOOOOOOOOOOOOOOOOOOOOOOOOOOX. ",
" .XOOOOOOOOOOOOOOOOOOOOOOOOOOX. ",
" .XOOOOOO@@@@@@@@@@@@@@OOOOOOX. ",
" .XOO@@@@######$$$$$$$$@@@@@OX. ",
" .XXXXXXXXXXXXXXXXXXXXXXXXXXXX. ",
" .............................. ",
"                                "};
