<?xml version="1.0" encoding="UTF-8" standalone="no"?>
<!-- Created with Inkscape (http://www.inkscape.org/) -->

<svg
   xmlns:dc="http://purl.org/dc/elements/1.1/"
   xmlns:cc="http://creativecommons.org/ns#"
   xmlns:rdf="http://www.w3.org/1999/02/22-rdf-syntax-ns#"
   xmlns:svg="http://www.w3.org/2000/svg"
   xmlns="http://www.w3.org/2000/svg"
   xmlns:xlink="http://www.w3.org/1999/xlink"
   xmlns:sodipodi="http://sodipodi.sourceforge.net/DTD/sodipodi-0.dtd"
   xmlns:inkscape="http://www.inkscape.org/namespaces/inkscape"
   width="32"
   height="32"
   id="svg2"
   version="1.1"
   inkscape:version="0.47 r22583"
   sodipodi:docname="RTTOV_INPUT_DATA.svg"
   style="display:inline"
   inkscape:export-xdpi="360"
   inkscape:export-ydpi="360">
  <defs
     id="defs4">
    <inkscape:perspective
       sodipodi:type="inkscape:persp3d"
       inkscape:vp_x="0 : 16 : 1"
       inkscape:vp_y="0 : 1000 : 0"
       inkscape:vp_z="32 : 16 : 1"
       inkscape:persp3d-origin="16 : 10.666667 : 1"
       id="perspective3228" />
    <linearGradient
       id="linearGradient3697">
      <stop
         style="stop-color:#0055d4;stop-opacity:1;"
         offset="0"
         id="stop3699" />
      <stop
         style="stop-color:#3c6fbd;stop-opacity:1;"
         offset="1"
         id="stop3701" />
    </linearGradient>
    <linearGradient
       id="linearGradient3689">
      <stop
         style="stop-color:#0066ff;stop-opacity:1;"
         offset="0"
         id="stop3691" />
      <stop
         style="stop-color:#3f84eb;stop-opacity:1;"
         offset="1"
         id="stop3693" />
    </linearGradient>
    <linearGradient
       id="linearGradient3909">
      <stop
         style="stop-color:#2a7fff;stop-opacity:1;"
         offset="0"
         id="stop3911" />
      <stop
         style="stop-color:#63a1ff;stop-opacity:1;"
         offset="1"
         id="stop3913" />
    </linearGradient>
    <linearGradient
       inkscape:collect="always"
       xlink:href="#linearGradient3909"
       id="linearGradient3915"
       x1="2.108496"
       y1="7.6282678"
       x2="8.558013"
       y2="7.6282678"
       gradientUnits="userSpaceOnUse"
       gradientTransform="matrix(0.68715665,0,0,0.98858445,-1.3390267,-0.29005207)" />
    <linearGradient
       inkscape:collect="always"
       xlink:href="#linearGradient3689"
       id="linearGradient3695"
       x1="0.99223268"
       y1="16.589376"
       x2="7.4417505"
       y2="16.589376"
       gradientUnits="userSpaceOnUse"
       gradientTransform="matrix(0.68715665,0,0,0.98858445,-0.57197942,-0.53527867)" />
    <linearGradient
       inkscape:collect="always"
       xlink:href="#linearGradient3697"
       id="linearGradient3703"
       x1="0.99223369"
       y1="25.271418"
       x2="7.5037656"
       y2="25.271418"
       gradientUnits="userSpaceOnUse"
       gradientTransform="matrix(0.68715665,0,0,0.98858445,-0.57197942,-0.53527867)" />
    <inkscape:perspective
       id="perspective3239"
       inkscape:persp3d-origin="0.5 : 0.33333333 : 1"
       inkscape:vp_z="1 : 0.5 : 1"
       inkscape:vp_y="0 : 1000 : 0"
       inkscape:vp_x="0 : 0.5 : 1"
       sodipodi:type="inkscape:persp3d" />
    <inkscape:perspective
       id="perspective3645"
       inkscape:persp3d-origin="0.5 : 0.33333333 : 1"
       inkscape:vp_z="1 : 0.5 : 1"
       inkscape:vp_y="0 : 1000 : 0"
       inkscape:vp_x="0 : 0.5 : 1"
       sodipodi:type="inkscape:persp3d" />
  </defs>
  <sodipodi:namedview
     id="base"
     pagecolor="#ffffff"
     bordercolor="#666666"
     borderopacity="1.0"
     inkscape:pageopacity="0.0"
     inkscape:pageshadow="2"
     inkscape:zoom="18.609565"
     inkscape:cx="14.195766"
     inkscape:cy="9.6395155"
     inkscape:document-units="px"
     inkscape:current-layer="layer4"
     showgrid="true"
     width="64px"
     inkscape:snap-grids="false"
     inkscape:window-width="1885"
     inkscape:window-height="1144"
     inkscape:window-x="1916"
     inkscape:window-y="31"
     inkscape:window-maximized="1"
     gridtolerance="6"
     showguides="true"
     inkscape:guide-bbox="true">
    <inkscape:grid
       type="xygrid"
       id="grid2816"
       empspacing="5"
       visible="true"
       enabled="true"
       snapvisiblegridlinesonly="true" />
  </sodipodi:namedview>
  <metadata
     id="metadata7">
    <rdf:RDF>
      <cc:Work
         rdf:about="">
        <dc:format>image/svg+xml</dc:format>
        <dc:type
           rdf:resource="http://purl.org/dc/dcmitype/StillImage" />
        <dc:title />
        <cc:license
           rdf:resource="Apache License 2.0" />
        <dc:creator>
          <cc:Agent>
            <dc:title />
          </cc:Agent>
        </dc:creator>
        <dc:publisher>
          <cc:Agent>
            <dc:title>ECMWF</dc:title>
          </cc:Agent>
        </dc:publisher>
        <dc:language>en-GB</dc:language>
        <dc:subject>
          <rdf:Bag>
            <rdf:li>Metview icon</rdf:li>
          </rdf:Bag>
        </dc:subject>
        <dc:description>Metview icon</dc:description>
      </cc:Work>
    </rdf:RDF>
  </metadata>
  <g
     inkscape:groupmode="layer"
     id="layer2"
     inkscape:label="bg"
     style="display:inline">
    <rect
       style="opacity:0.8699187;fill:#00222b;fill-opacity:1;fill-rule:nonzero;stroke:#00222b;stroke-width:0.81597477;stroke-linecap:round;stroke-linejoin:round;stroke-miterlimit:4;stroke-opacity:1;stroke-dasharray:none"
       id="rect2194"
       width="3.9452662"
       height="3.8084145"
       x="12.487254"
       y="5.803278" />
    <rect
       style="opacity:0.8699187;fill:#6f918a;fill-opacity:1;fill-rule:nonzero;stroke:#6f918a;stroke-width:0.81597477;stroke-linecap:round;stroke-linejoin:round;stroke-miterlimit:4;stroke-opacity:1;stroke-dasharray:none"
       id="rect2200"
       width="4.2641201"
       height="3.852392"
       x="25.261992"
       y="5.7844133"
       inkscape:transform-center-y="1.4356597"
       inkscape:transform-center-x="0.42783523" />
    <rect
       style="opacity:0.8699187;fill:#004455;fill-opacity:1;fill-rule:nonzero;stroke:#004455;stroke-width:0.81597477;stroke-linecap:round;stroke-linejoin:round;stroke-miterlimit:4;stroke-opacity:1;stroke-dasharray:none"
       id="rect2204"
       width="3.7840588"
       height="3.8084145"
       x="12.487254"
       y="11.656127"
       inkscape:transform-center-x="-2.042434"
       inkscape:transform-center-y="1.3100971" />
    <rect
       style="opacity:0.49322492;fill:#b7c8c4;fill-opacity:1;fill-rule:nonzero;stroke:#b7c8c4;stroke-width:0.81597477;stroke-linecap:round;stroke-linejoin:round;stroke-miterlimit:4;stroke-opacity:1;stroke-dasharray:none"
       id="rect2206"
       width="3.7840588"
       height="3.8084145"
       x="18.935553"
       y="17.392906"
       inkscape:transform-center-y="1.41927"
       inkscape:transform-center-x="0.37966755" />
    <rect
       style="opacity:0.8699187;fill:#93aca7;fill-opacity:1;fill-rule:nonzero;stroke:#93aca7;stroke-width:0.81597477;stroke-linecap:round;stroke-linejoin:round;stroke-miterlimit:4;stroke-opacity:1;stroke-dasharray:none"
       id="rect2210"
       width="4.2641201"
       height="3.852392"
       x="18.798134"
       y="11.701126"
       inkscape:transform-center-y="1.4356606"
       inkscape:transform-center-x="0.42783364" />
    <rect
       style="opacity:0.8699187;fill:#93aca7;fill-opacity:1;fill-rule:nonzero;stroke:#93aca7;stroke-width:0.81597477;stroke-linecap:round;stroke-linejoin:round;stroke-miterlimit:4;stroke-opacity:1;stroke-dasharray:none"
       id="rect2214"
       width="4.2641201"
       height="3.852392"
       x="12.311663"
       y="17.400082"
       inkscape:transform-center-x="3.9116254"
       inkscape:transform-center-y="0.77304619" />
    <rect
       style="opacity:0.8699187;fill:#dbe3e2;fill-opacity:1;fill-rule:nonzero;stroke:#dbe3e2;stroke-width:0.81597477;stroke-linecap:round;stroke-linejoin:round;stroke-miterlimit:4;stroke-opacity:1;stroke-dasharray:none"
       id="rect2216"
       width="3.9954412"
       height="3.852392"
       x="25.616791"
       y="17.188105"
       inkscape:transform-center-x="3.6651563"
       inkscape:transform-center-y="0.77304794" />
    <rect
       inkscape:transform-center-y="1.3100971"
       inkscape:transform-center-x="-2.1584489"
       y="5.798924"
       x="18.881815"
       height="3.8084145"
       width="3.999002"
       id="rect3949"
       style="opacity:0.8699187;fill:#004455;fill-opacity:1;fill-rule:nonzero;stroke:#004455;stroke-width:0.81597477;stroke-linecap:round;stroke-linejoin:round;stroke-miterlimit:4;stroke-opacity:1;stroke-dasharray:none" />
    <rect
       inkscape:transform-center-x="0.37966755"
       inkscape:transform-center-y="1.41927"
       y="11.643175"
       x="25.598793"
       height="3.8084145"
       width="3.7840588"
       id="rect3951"
       style="opacity:0.49322492;fill:#b7c8c4;fill-opacity:1;fill-rule:nonzero;stroke:#b7c8c4;stroke-width:0.81597477;stroke-linecap:round;stroke-linejoin:round;stroke-miterlimit:4;stroke-opacity:1;stroke-dasharray:none" />
  </g>
  <g
     inkscape:groupmode="layer"
     id="layer3"
     inkscape:label="text"
     style="display:inline">
    <text
       xml:space="preserve"
       style="font-size:6.85956478px;font-style:normal;font-weight:normal;opacity:0.8699187;fill:#241c1c;fill-opacity:1;stroke:none;display:inline;font-family:Bitstream Vera Sans"
       x="10.327188"
       y="26.423189"
       id="text2228-4"
       transform="scale(0.93116886,1.0739191)"><tspan
         sodipodi:role="line"
         id="tspan2230-6"
         x="10.327188"
         y="26.423189">netCDF</tspan></text>
  </g>
  <g
     inkscape:groupmode="layer"
     id="layer4"
     inkscape:label="rt"
     style="display:inline">
    <g
       transform="matrix(0.86170977,0,0,0.818236,0.15494323,2.1581421)"
       style="font-size:17.80623245px;font-style:normal;font-weight:normal;text-align:start;line-height:125%;writing-mode:lr-tb;text-anchor:start;opacity:0.8699187;fill:#5599ff;fill-opacity:1;stroke:none;display:inline;font-family:ARIAL;-inkscape-font-specification:ARIAL"
       id="text3107-5">
      <text
         xml:space="preserve"
         style="font-size:15px;font-style:normal;font-weight:normal;fill:#5599ff;fill-opacity:1;stroke:#161a54;stroke-width:0.71454811;stroke-miterlimit:4;stroke-opacity:1;stroke-dasharray:none;font-family:Courier New KOI-8;-inkscape-font-specification:Courier New KOI-8"
         x="0.95808423"
         y="25.765697"
         id="text2849"
         transform="scale(0.96529438,1.0359534)"><tspan
           sodipodi:role="line"
           id="tspan2851"
           x="0.95808423"
           y="25.765697"
           style="font-size:15px;fill:#5599ff;fill-opacity:1;stroke:#161a54;stroke-width:0.71454811;stroke-miterlimit:4;stroke-opacity:1;stroke-dasharray:none;font-family:Arial Black;-inkscape-font-specification:Arial Black">T</tspan></text>
      <text
         transform="scale(0.96529438,1.0359534)"
         id="text3633"
         y="12.084261"
         x="0.076647066"
         style="font-size:15px;font-style:normal;font-weight:normal;fill:#5599ff;fill-opacity:1;stroke:#161a54;stroke-width:0.71454811;stroke-miterlimit:4;stroke-opacity:1;stroke-dasharray:none;font-family:Courier New KOI-8;-inkscape-font-specification:Courier New KOI-8"
         xml:space="preserve"><tspan
           style="font-size:15px;fill:#5599ff;fill-opacity:1;stroke:#161a54;stroke-width:0.71454811;stroke-miterlimit:4;stroke-opacity:1;stroke-dasharray:none;font-family:Arial Black;-inkscape-font-specification:Arial Black"
           y="12.084261"
           x="0.076647066"
           id="tspan3635"
           sodipodi:role="line">R</tspan></text>
    </g>
  </g>
</svg>
