<?xml version="1.0" encoding="UTF-8" standalone="no"?>
<svg
   xmlns:dc="http://purl.org/dc/elements/1.1/"
   xmlns:cc="http://creativecommons.org/ns#"
   xmlns:rdf="http://www.w3.org/1999/02/22-rdf-syntax-ns#"
   xmlns:svg="http://www.w3.org/2000/svg"
   xmlns="http://www.w3.org/2000/svg"
   xmlns:sodipodi="http://sodipodi.sourceforge.net/DTD/sodipodi-0.dtd"
   xmlns:inkscape="http://www.inkscape.org/namespaces/inkscape"
   viewBox="0 0 64 64"
   style="display:inline"
   inkscape:export-ydpi="45"
   inkscape:export-xdpi="45"
   inkscape:output_extension="org.inkscape.output.svg.inkscape"
   sodipodi:docname="NETCDF.svg"
   version="1.0"
   inkscape:version="1.0 (4035a4f, 2020-05-01)"
   sodipodi:version="0.32"
   id="svg2"
   height="68.26667"
   width="68.26667">
  <defs
     id="defs4">
    <inkscape:perspective
       id="perspective3344"
       inkscape:persp3d-origin="31.999998 : 25.600002 : 1"
       inkscape:vp_z="63.999997 : 36.266669 : 1"
       inkscape:vp_y="0 : 999.99995 : 0"
       inkscape:vp_x="0 : 36.266669 : 1"
       sodipodi:type="inkscape:persp3d" />
  </defs>
  <sodipodi:namedview
     inkscape:document-rotation="0"
     inkscape:window-maximized="0"
     showgrid="false"
     inkscape:window-y="119"
     inkscape:window-x="621"
     inkscape:window-height="904"
     inkscape:window-width="1269"
     height="64px"
     width="64px"
     inkscape:current-layer="layer2"
     inkscape:document-units="px"
     inkscape:cy="34.133335"
     inkscape:cx="34.133335"
     inkscape:zoom="10.458984"
     inkscape:pageshadow="2"
     inkscape:pageopacity="1"
     objecttolerance="10"
     guidetolerance="10"
     gridtolerance="10000"
     borderopacity="1.0"
     bordercolor="#666666"
     pagecolor="#ffffff"
     id="base" />
  <metadata
     id="metadata7">
    <rdf:RDF>
      <cc:Work
         rdf:about="">
        <dc:format>image/svg+xml</dc:format>
        <dc:type
           rdf:resource="http://purl.org/dc/dcmitype/StillImage" />
        <dc:title />
        <cc:license
           rdf:resource="Apache License 2.0" />
        <dc:creator>
          <cc:Agent>
            <dc:title />
          </cc:Agent>
        </dc:creator>
        <dc:publisher>
          <cc:Agent>
            <dc:title>ECMWF</dc:title>
          </cc:Agent>
        </dc:publisher>
        <dc:language>en-GB</dc:language>
        <dc:subject>
          <rdf:Bag>
            <rdf:li>Metview icon</rdf:li>
          </rdf:Bag>
        </dc:subject>
        <dc:description>Metview icon</dc:description>
      </cc:Work>
    </rdf:RDF>
  </metadata>
  <g
     inkscape:label="circle"
     id="layer2"
     inkscape:groupmode="layer">
    <rect
       y="9.5274172"
       x="3.4585123"
       height="10.264623"
       width="10.264623"
       id="rect2194"
       style="opacity:0.869919;fill:#00222b;fill-opacity:1;fill-rule:nonzero;stroke:#00222b;stroke-width:0.815975;stroke-linecap:round;stroke-linejoin:round;stroke-miterlimit:4;stroke-dasharray:none;stroke-opacity:1" />
    <rect
       inkscape:transform-center-y="3.5310345"
       inkscape:transform-center-x="-5.5402987"
       y="9.5274172"
       x="19.201042"
       height="10.264623"
       width="10.264623"
       id="rect2198"
       style="opacity:0.869919;fill:#004455;fill-opacity:1;fill-rule:nonzero;stroke:#004455;stroke-width:0.815975;stroke-linecap:round;stroke-linejoin:round;stroke-miterlimit:4;stroke-dasharray:none;stroke-opacity:1" />
    <rect
       inkscape:transform-center-x="1.0298851"
       inkscape:transform-center-y="3.8252874"
       y="9.5274172"
       x="34.50219"
       height="10.264623"
       width="10.264623"
       id="rect2200"
       style="opacity:0.869919;fill:#6f918a;fill-opacity:1;fill-rule:nonzero;stroke:#6f918a;stroke-width:0.815975;stroke-linecap:round;stroke-linejoin:round;stroke-miterlimit:4;stroke-dasharray:none;stroke-opacity:1" />
    <rect
       inkscape:export-ydpi="45"
       inkscape:export-xdpi="45"
       inkscape:transform-center-y="2.0597701"
       inkscape:transform-center-x="9.416092"
       y="9.5274172"
       x="49.067707"
       height="10.264623"
       width="10.264623"
       id="rect2202"
       style="opacity:0.869919;fill:#dbe3e2;fill-opacity:1;fill-rule:nonzero;stroke:#dbe3e2;stroke-width:0.815975;stroke-linecap:round;stroke-linejoin:round;stroke-miterlimit:4;stroke-dasharray:none;stroke-opacity:1" />
    <rect
       inkscape:transform-center-y="3.5310345"
       inkscape:transform-center-x="-5.5402987"
       y="24.433304"
       x="3.4585123"
       height="10.264623"
       width="10.264623"
       id="rect2204"
       style="opacity:0.869919;fill:#004455;fill-opacity:1;fill-rule:nonzero;stroke:#004455;stroke-width:0.815975;stroke-linecap:round;stroke-linejoin:round;stroke-miterlimit:4;stroke-dasharray:none;stroke-opacity:1" />
    <rect
       inkscape:transform-center-x="1.0298851"
       inkscape:transform-center-y="3.8252874"
       y="40.316158"
       x="3.4585123"
       height="10.264623"
       width="10.264623"
       id="rect2206"
       style="opacity:0.493225;fill:#b7c8c4;fill-opacity:1;fill-rule:nonzero;stroke:#b7c8c4;stroke-width:0.815975;stroke-linecap:round;stroke-linejoin:round;stroke-miterlimit:4;stroke-dasharray:none;stroke-opacity:1" />
    <rect
       inkscape:transform-center-x="1.0298851"
       inkscape:transform-center-y="3.8252874"
       y="24.433304"
       x="19.201042"
       height="10.264623"
       width="10.264623"
       id="rect2210"
       style="opacity:0.869919;fill:#93aca7;fill-opacity:1;fill-rule:nonzero;stroke:#93aca7;stroke-width:0.815975;stroke-linecap:round;stroke-linejoin:round;stroke-miterlimit:4;stroke-dasharray:none;stroke-opacity:1" />
    <rect
       inkscape:transform-center-y="2.0597701"
       inkscape:transform-center-x="9.416092"
       y="40.348301"
       x="19.380314"
       height="10.264623"
       width="10.264623"
       id="rect2212"
       style="opacity:0.493225;fill:#dbe3e2;fill-opacity:1;fill-rule:nonzero;stroke:#dbe3e2;stroke-width:0.815975;stroke-linecap:round;stroke-linejoin:round;stroke-miterlimit:4;stroke-dasharray:none;stroke-opacity:1" />
    <rect
       inkscape:transform-center-y="2.0597701"
       inkscape:transform-center-x="9.416092"
       y="24.727554"
       x="34.50219"
       height="10.264623"
       width="10.264623"
       id="rect2214"
       style="opacity:0.869919;fill:#93aca7;fill-opacity:1;fill-rule:nonzero;stroke:#93aca7;stroke-width:0.815975;stroke-linecap:round;stroke-linejoin:round;stroke-miterlimit:4;stroke-dasharray:none;stroke-opacity:1" />
    <rect
       inkscape:transform-center-y="2.0597701"
       inkscape:transform-center-x="9.416092"
       y="25.021809"
       x="49.067707"
       height="10.264623"
       width="10.264623"
       id="rect2216"
       style="opacity:0.869919;fill:#dbe3e2;fill-opacity:1;fill-rule:nonzero;stroke:#dbe3e2;stroke-width:0.815975;stroke-linecap:round;stroke-linejoin:round;stroke-miterlimit:4;stroke-dasharray:none;stroke-opacity:1" />
    <rect
       inkscape:transform-center-y="2.0597701"
       inkscape:transform-center-x="9.416092"
       y="40.028706"
       x="34.50219"
       height="10.264623"
       width="10.264623"
       id="rect2218"
       style="opacity:0.493225;fill:#dbe3e2;fill-opacity:1;fill-rule:nonzero;stroke:#dbe3e2;stroke-width:0.815975;stroke-linecap:round;stroke-linejoin:round;stroke-miterlimit:4;stroke-dasharray:none;stroke-opacity:1" />
    <rect
       inkscape:transform-center-y="2.0597701"
       inkscape:transform-center-x="9.416092"
       y="39.587326"
       x="49.067707"
       height="10.264623"
       width="10.264623"
       id="rect2220"
       style="opacity:0.493225;fill:#dbe3e2;fill-opacity:1;fill-rule:nonzero;stroke:#dbe3e2;stroke-width:0.815975;stroke-linecap:round;stroke-linejoin:round;stroke-miterlimit:4;stroke-dasharray:none;stroke-opacity:1" />
    <text
       id="text2228"
       y="50.990242"
       x="3.7674315"
       style="font-style:normal;font-weight:normal;line-height:0%;font-family:'Bitstream Vera Sans';opacity:0.869919;fill:#000000;fill-opacity:1;stroke:none"
       xml:space="preserve"><tspan
         style="font-size:15.244px;line-height:1.25"
         y="50.990242"
         x="3.7674315"
         id="tspan2230"
         sodipodi:role="line">netCDF</tspan></text>
  </g>
</svg>
