<?xml version="1.0" encoding="UTF-8" standalone="no"?>
<!-- Created with Inkscape (http://www.inkscape.org/) -->

<svg
   xmlns:dc="http://purl.org/dc/elements/1.1/"
   xmlns:cc="http://creativecommons.org/ns#"
   xmlns:rdf="http://www.w3.org/1999/02/22-rdf-syntax-ns#"
   xmlns:svg="http://www.w3.org/2000/svg"
   xmlns="http://www.w3.org/2000/svg"
   xmlns:sodipodi="http://sodipodi.sourceforge.net/DTD/sodipodi-0.dtd"
   xmlns:inkscape="http://www.inkscape.org/namespaces/inkscape"
   width="64"
   height="64"
   id="svg2"
   sodipodi:version="0.32"
   inkscape:version="0.47 r22583"
   version="1.0"
   sodipodi:docname="NETCDFPLUS.svg"
   inkscape:output_extension="org.inkscape.output.svg.inkscape"
   inkscape:export-xdpi="45"
   inkscape:export-ydpi="45">
  <defs
     id="defs4" />
  <sodipodi:namedview
     id="base"
     pagecolor="#ffffff"
     bordercolor="#666666"
     borderopacity="1.0"
     gridtolerance="10000"
     guidetolerance="10"
     objecttolerance="10"
     inkscape:pageopacity="1"
     inkscape:pageshadow="2"
     inkscape:zoom="6.796875"
     inkscape:cx="15.08046"
     inkscape:cy="29.873382"
     inkscape:document-units="px"
     inkscape:current-layer="layer2"
     width="64px"
     height="64px"
     inkscape:window-width="772"
     inkscape:window-height="646"
     inkscape:window-x="680"
     inkscape:window-y="122"
     showgrid="false"
     inkscape:window-maximized="0" />
  <metadata
     id="metadata7">
    <rdf:RDF>
      <cc:Work
         rdf:about="">
        <dc:format>image/svg+xml</dc:format>
        <dc:type
           rdf:resource="http://purl.org/dc/dcmitype/StillImage" />
        <dc:title />
        <cc:license
           rdf:resource="Apache License 2.0" />
        <dc:creator>
          <cc:Agent>
            <dc:title />
          </cc:Agent>
        </dc:creator>
        <dc:publisher>
          <cc:Agent>
            <dc:title>ECMWF</dc:title>
          </cc:Agent>
        </dc:publisher>
        <dc:language>en-GB</dc:language>
        <dc:subject>
          <rdf:Bag>
            <rdf:li>Metview icon</rdf:li>
          </rdf:Bag>
        </dc:subject>
        <dc:description>Metview icon</dc:description>
      </cc:Work>
    </rdf:RDF>
  </metadata>
  <g
     inkscape:groupmode="layer"
     id="layer2"
     inkscape:label="circle">
    <rect
       style="opacity:0.8699187;fill:#00222b;fill-opacity:1;fill-rule:nonzero;stroke:#00222b;stroke-width:0.81597477;stroke-linecap:round;stroke-linejoin:round;stroke-miterlimit:4;stroke-dasharray:none;stroke-opacity:1"
       id="rect2194"
       width="10.264623"
       height="10.264623"
       x="3.5481482"
       y="9.9755964" />
    <rect
       style="opacity:0.8699187;fill:#004455;fill-opacity:1;fill-rule:nonzero;stroke:#004455;stroke-width:0.81597477;stroke-linecap:round;stroke-linejoin:round;stroke-miterlimit:4;stroke-dasharray:none;stroke-opacity:1"
       id="rect2198"
       width="10.264623"
       height="10.264623"
       x="19.290678"
       y="9.9755964"
       inkscape:transform-center-x="-5.5402987"
       inkscape:transform-center-y="3.5310345" />
    <rect
       style="opacity:0.8699187;fill:#6f918a;fill-opacity:1;fill-rule:nonzero;stroke:#6f918a;stroke-width:0.81597477;stroke-linecap:round;stroke-linejoin:round;stroke-miterlimit:4;stroke-dasharray:none;stroke-opacity:1"
       id="rect2200"
       width="10.264623"
       height="10.264623"
       x="34.591827"
       y="9.9755964"
       inkscape:transform-center-y="3.8252874"
       inkscape:transform-center-x="1.0298851" />
    <rect
       style="opacity:0.8699187;fill:#dbe3e2;fill-opacity:1;fill-rule:nonzero;stroke:#dbe3e2;stroke-width:0.81597477;stroke-linecap:round;stroke-linejoin:round;stroke-miterlimit:4;stroke-dasharray:none;stroke-opacity:1"
       id="rect2202"
       width="10.264623"
       height="10.264623"
       x="49.157345"
       y="9.9755964"
       inkscape:transform-center-x="9.416092"
       inkscape:transform-center-y="2.0597701"
       inkscape:export-xdpi="45"
       inkscape:export-ydpi="45" />
    <rect
       style="opacity:0.8699187;fill:#004455;fill-opacity:1;fill-rule:nonzero;stroke:#004455;stroke-width:0.81597477;stroke-linecap:round;stroke-linejoin:round;stroke-miterlimit:4;stroke-dasharray:none;stroke-opacity:1"
       id="rect2204"
       width="10.264623"
       height="10.264623"
       x="3.5481482"
       y="24.881483"
       inkscape:transform-center-x="-5.5402987"
       inkscape:transform-center-y="3.5310345" />
    <rect
       style="opacity:0.49322492;fill:#b7c8c4;fill-opacity:1;fill-rule:nonzero;stroke:#b7c8c4;stroke-width:0.81597477;stroke-linecap:round;stroke-linejoin:round;stroke-miterlimit:4;stroke-dasharray:none;stroke-opacity:1"
       id="rect2206"
       width="10.264623"
       height="10.264623"
       x="3.5481482"
       y="41.212517"
       inkscape:transform-center-y="3.8252874"
       inkscape:transform-center-x="1.0298851" />
    <rect
       style="opacity:0.8699187;fill:#93aca7;fill-opacity:1;fill-rule:nonzero;stroke:#93aca7;stroke-width:0.81597477;stroke-linecap:round;stroke-linejoin:round;stroke-miterlimit:4;stroke-dasharray:none;stroke-opacity:1"
       id="rect2210"
       width="10.264623"
       height="10.264623"
       x="19.290678"
       y="24.881483"
       inkscape:transform-center-y="3.8252874"
       inkscape:transform-center-x="1.0298851" />
    <rect
       style="opacity:0.49322492;fill:#dbe3e2;fill-opacity:1;fill-rule:nonzero;stroke:#dbe3e2;stroke-width:0.81597477;stroke-linecap:round;stroke-linejoin:round;stroke-miterlimit:4;stroke-dasharray:none;stroke-opacity:1"
       id="rect2212"
       width="10.264623"
       height="10.264623"
       x="19.290678"
       y="41.065388"
       inkscape:transform-center-x="9.416092"
       inkscape:transform-center-y="2.0597701" />
    <rect
       style="opacity:0.8699187;fill:#93aca7;fill-opacity:1;fill-rule:nonzero;stroke:#93aca7;stroke-width:0.81597477;stroke-linecap:round;stroke-linejoin:round;stroke-miterlimit:4;stroke-dasharray:none;stroke-opacity:1"
       id="rect2214"
       width="10.264623"
       height="10.264623"
       x="34.591827"
       y="25.175734"
       inkscape:transform-center-x="9.416092"
       inkscape:transform-center-y="2.0597701" />
    <rect
       style="opacity:0.8699187;fill:#dbe3e2;fill-opacity:1;fill-rule:nonzero;stroke:#dbe3e2;stroke-width:0.81597477;stroke-linecap:round;stroke-linejoin:round;stroke-miterlimit:4;stroke-dasharray:none;stroke-opacity:1"
       id="rect2216"
       width="10.264623"
       height="10.264623"
       x="49.157345"
       y="25.469988"
       inkscape:transform-center-x="9.416092"
       inkscape:transform-center-y="2.0597701" />
    <rect
       style="opacity:0.49322492;fill:#dbe3e2;fill-opacity:1;fill-rule:nonzero;stroke:#dbe3e2;stroke-width:0.81597477;stroke-linecap:round;stroke-linejoin:round;stroke-miterlimit:4;stroke-dasharray:none;stroke-opacity:1"
       id="rect2218"
       width="10.264623"
       height="10.264623"
       x="34.591827"
       y="40.476883"
       inkscape:transform-center-x="9.416092"
       inkscape:transform-center-y="2.0597701" />
    <rect
       style="opacity:0.49322493;fill:#dbe3e2;fill-opacity:1;fill-rule:nonzero;stroke:#dbe3e2;stroke-width:0.81597477;stroke-linecap:round;stroke-linejoin:round;stroke-miterlimit:4;stroke-dasharray:none;stroke-opacity:1"
       id="rect2220"
       width="10.264623"
       height="10.264623"
       x="49.157345"
       y="40.035503"
       inkscape:transform-center-x="9.416092"
       inkscape:transform-center-y="2.0597701" />
    <g
       style="display:inline"
       id="g6326"
       transform="matrix(2.2375662,0,0,2.0356045,-5.9321915,-2.0574251)">
      <rect
         rx="0"
         ry="0.76569498"
         y="25.690905"
         x="20.200878"
         height="1.53139"
         width="3.6325176"
         id="rect4235"
         style="opacity:1;fill:#666666;fill-opacity:1;fill-rule:evenodd;stroke:#10140d;stroke-width:0.85816514;stroke-linecap:butt;stroke-linejoin:miter;stroke-miterlimit:4;stroke-dasharray:none;stroke-opacity:1" />
      <rect
         ry="1.2517357"
         y="27.350697"
         x="13.411453"
         height="2.7717004"
         width="17.032545"
         id="rect4233"
         style="fill:#b6c6cc;fill-opacity:1;fill-rule:evenodd;stroke:#10140d;stroke-width:0.95899999;stroke-linecap:butt;stroke-linejoin:miter;stroke-miterlimit:4;stroke-dasharray:none;stroke-opacity:1" />
      <g
         id="g6294">
        <rect
           style="fill:#e7e4e0;fill-opacity:1;fill-rule:evenodd;stroke:#10140d;stroke-width:1.00858581;stroke-linecap:butt;stroke-linejoin:miter;stroke-miterlimit:4;stroke-dasharray:none;stroke-opacity:1"
           id="rect4231"
           width="18.368809"
           height="12.378362"
           x="12.631559"
           y="13.338168"
           ry="1.2467414" />
        <path
           style="fill:none;fill-rule:evenodd;stroke:#e52626;stroke-width:1px;stroke-linecap:round;stroke-linejoin:round;stroke-opacity:1"
           d="M 17.43489,21.539066 L 20.832458,15.548617 L 21.994785,20.108511 L 24.542961,17.962678 C 25.541369,18.812071 26.251737,19.373422 27.538186,20.510855"
           id="path5224"
           sodipodi:nodetypes="ccccc" />
        <path
           style="fill:none;fill-rule:evenodd;stroke:#1f283c;stroke-width:1px;stroke-linecap:butt;stroke-linejoin:miter;stroke-opacity:1"
           d="M 14.752598,15.056863 C 14.797303,23.506079 14.797303,23.595489 14.797303,23.595489"
           id="path5226" />
        <path
           style="fill:none;fill-rule:evenodd;stroke:#1f283c;stroke-width:1.00666595px;stroke-linecap:butt;stroke-linejoin:miter;stroke-opacity:1"
           d="M 14.308883,23.726271 L 29.323046,23.688232"
           id="path5228" />
      </g>
    </g>
  </g>
</svg>
