<?xml version="1.0" encoding="UTF-8" standalone="no"?>
<svg
   xmlns:dc="http://purl.org/dc/elements/1.1/"
   xmlns:cc="http://creativecommons.org/ns#"
   xmlns:rdf="http://www.w3.org/1999/02/22-rdf-syntax-ns#"
   xmlns:svg="http://www.w3.org/2000/svg"
   xmlns="http://www.w3.org/2000/svg"
   xmlns:sodipodi="http://sodipodi.sourceforge.net/DTD/sodipodi-0.dtd"
   xmlns:inkscape="http://www.inkscape.org/namespaces/inkscape"
   width="64px"
   height="64px"
   id="svg4537"
   version="1.1"
   inkscape:version="1.0 (4035a4f, 2020-05-01)"
   sodipodi:docname="PDF.svg">
  <defs
     id="defs4539" />
  <sodipodi:namedview
     id="base"
     pagecolor="#ffffff"
     bordercolor="#666666"
     borderopacity="1.0"
     inkscape:pageopacity="0.0"
     inkscape:pageshadow="2"
     inkscape:zoom="14.951605"
     inkscape:cx="29.309013"
     inkscape:cy="39.763996"
     inkscape:current-layer="layer1"
     showgrid="true"
     inkscape:document-units="px"
     inkscape:grid-bbox="true"
     inkscape:window-width="1687"
     inkscape:window-height="1101"
     inkscape:window-x="27"
     inkscape:window-y="23"
     inkscape:window-maximized="0"
     objecttolerance="14"
     gridtolerance="10"
     inkscape:document-rotation="0"
     inkscape:snap-to-guides="false"
     inkscape:snap-grids="false">
    <inkscape:grid
       type="xygrid"
       id="grid4547"
       empspacing="5"
       visible="true"
       enabled="true"
       snapvisiblegridlinesonly="true" />
  </sodipodi:namedview>
  <metadata
     id="metadata7">
    <rdf:RDF>
      <cc:Work
         rdf:about="">
        <dc:format>image/svg+xml</dc:format>
        <dc:type
           rdf:resource="http://purl.org/dc/dcmitype/StillImage" />
        <dc:title />
        <cc:license
           rdf:resource="Apache License 2.0" />
        <dc:creator>
          <cc:Agent>
            <dc:title />
          </cc:Agent>
        </dc:creator>
        <dc:publisher>
          <cc:Agent>
            <dc:title>ECMWF</dc:title>
          </cc:Agent>
        </dc:publisher>
        <dc:language>en-GB</dc:language>
        <dc:subject>
          <rdf:Bag>
            <rdf:li>Metview icon</rdf:li>
          </rdf:Bag>
        </dc:subject>
        <dc:description>Metview icon</dc:description>
      </cc:Work>
    </rdf:RDF>
  </metadata>
  <g
     id="layer1"
     inkscape:label="Layer 1"
     inkscape:groupmode="layer">
    <path
       style="fill:#f2f2f2;fill-opacity:1;stroke:#161617;stroke-width:1;stroke-linejoin:round;stroke-miterlimit:4;stroke-dasharray:none;stroke-opacity:1"
       d="m 47.689522,4 0.07995,12.933116 12.728517,-0.01701 -0.07342,43.870888 -44.251512,0.06688 L 16.039291,4.000002 47.689522,4 60.497989,16.91611"
       id="rect5379-7"
       sodipodi:nodetypes="cccccccs" />
    <rect
       style="fill:#a53b3a;fill-opacity:1;stroke:none;stroke-width:0.613395;stroke-linejoin:round"
       id="rect972"
       width="50.216831"
       height="24.581669"
       x="1.9298809"
       y="26.287804"
       ry="1.1705557" />
    <text
       xml:space="preserve"
       style="font-style:normal;font-variant:normal;font-weight:bold;font-stretch:normal;font-size:22.6667px;line-height:0%;font-family:sans-serif;-inkscape-font-specification:'sans-serif Bold';text-align:start;writing-mode:lr-tb;text-anchor:start;fill:#ffffff;fill-opacity:1;stroke:none;stroke-width:0.906836"
       x="2.0864182"
       y="45.661449"
       id="text5099"
       transform="scale(0.96863239,1.0323834)"><tspan
         sodipodi:role="line"
         id="tspan2837"
         x="2.0864182"
         y="45.661449"
         style="font-style:normal;font-variant:normal;font-weight:bold;font-stretch:normal;font-size:22.6667px;line-height:1.25;font-family:sans-serif;-inkscape-font-specification:'sans-serif Bold';fill:#ffffff;stroke-width:0.906836"
         dy="0">PDF</tspan></text>
    <path
       style="fill:#d6d6ce;fill-opacity:1;stroke:none;stroke-width:1.55882"
       d="M 47.758917,3.8722435 60.497989,16.916106 47.769472,16.933116 Z"
       id="rect3652"
       sodipodi:nodetypes="cccc" />
  </g>
</svg>
