/* XPM */
static char * preferences_icon[] = {
"32 32 3 1",
" 	c white",
".	c red",
"X	c blue",
"                                ",
"                                ",
"                                ",
"                             .. ",
"                            ... ",
"  XXXXXXXX  XXXXXXXX  XXXXX..X. ",
"  X      X  X      X  X    ..X  ",
"  X      X  X      X  X.. .. X  ",
"  X      X  X      X  X ...  X  ",
"  X      X  X      X  X  ..  X  ",
"  X      X  X      X  X  .   X  ",
"  X      X  X      X  X      X  ",
"  XXXXXXXX  XXXXXXXX  XXXXXXXX  ",
"                                ",
"                                ",
"                                ",
"                   ..           ",
"                  ...           ",
"  XXXXXXXX  XXXXX..X. XXXXXXXX  ",
"  X      X  X    ..X  X      X  ",
"  X      X  X.. .. X  X      X  ",
"  X      X  X ...  X  X      X  ",
"  X      X  X  ..  X  X      X  ",
"  X      X  X  .   X  X      X  ",
"  X      X  X      X  X      X  ",
"  XXXXXXXX  XXXXXXXX  XXXXXXXX  ",
"                                ",
"                                ",
"                                ",
"                                ",
"                                ",
"                                "};
