/* XPM */
static char * PTEXT_xpm[] = {
"32 32 13 1",
" 	c None",
".	c #FFFFFF",
"+	c #BEBEBE",
"@	c #F1F1F1",
"#	c #99BFE5",
"$	c #5A5AD6",
"%	c #7F7F7F",
"&	c #E599DA",
"*	c #E4E599",
"=	c #E2D8C4",
"-	c #F6EDDC",
";	c #E5B099",
">	c #F9FAEA",
"....++++++++++++++++++++++++++++",
"...++@@@@@@@@@@@@@@@@@@@@@@@@@@+",
"..+++@@@@@@@@@@@@@@@@@@@@@@@@@@+",
".++++@@@@@@@@@@@@@@@@@@@@@@@@@@+",
"+++++...................@@@@@@@+",
"+@@@.###################$@@%%%@+",
"+@@@.###################$@%&&%@+",
"+@@@.###################$%*%&%@+",
"+@@@.#$$$$$$.###$$$$$$##%*=%%@@+",
"+@@@.$@@@@@@.###$@@@@@@%*=%%@@@+",
"+@@@@@@@@@@@.###$@@%%%%*=%%@@@@+",
"+@@@@@@@@@@@.###$@%-=%*=%%@@@@@+",
"+@@@@@@@@@@@.###$%-=%*=%%@@@@@@+",
"+@@@@@@@@@@@.###%-=%*=%%=%@@@@@+",
"+@@@@@@@@@@@.##%-=%*=%%==-%@@@@+",
"+@@@@@@@@@@@.#%-=%*=%%%=---%@@@+",
"+@@@@@@@@@@@.#%=%*=%%@%;----%%%%",
"+@@@@@@@@@@@.##%*%%%%%>-----=%%%",
"+@@@@@@@@@@@.#%*%>----------=%%%",
"+@@@@@@@@@@@.#%=%%%===------=%%%",
"+@@@@@@@@@@@.%%%$@@%%%====--=%%%",
"+@@@@@@@@@@@%%##$@@@@@%%%%===%%%",
"+@@@@@@@@@@@.###$@@@@@@@@@%%%%%%",
"+@@@@@@@@@@@.###$@@@@@@@@@@@@%%%",
"+@@@@@@@@@@@.###$@@@@@@@@@@@@@@+",
"+@@@@@@@@@@@.###$@@@@@@@@@@@@@@+",
"+@@@@@@@@@@#######@@@@@@@@@@@@@+",
"+@@@@@@@@###########$@@@@@@@@@@+",
"+@@@@@@@@$$$$$$$$$$$$@@@@@@@@@@+",
"+@@@@@@@@@@@@@@@@@@@@@@@@@@@@@@+",
"+@@@@@@@@@@@@@@@@@@@@@@@@@@@@@@+",
"++++++++++++++++++++++++++++++++"};
