/* XPM */
static char * PWIND_xpm[] = {
"32 32 12 1",
" 	c None",
".	c #FFFFFF",
"+	c #D1C1E9",
"@	c #7F7F7F",
"#	c #EAEAFA",
"$	c #DA99E5",
"%	c #E4E599",
"&	c #E2D8C4",
"*	c #E59999",
"=	c #F6EDDC",
"-	c #E5B099",
";	c #F9FAEA",
"....+++++++++++++++++++++++@@@++",
"...++#####################@$$@#+",
"..+++####################@%@$@#+",
".++++###################@%&@@##+",
"+++++##################@%&@@###+",
"+######*###########@@@@%&@@####+",
"+######*#*########@=&@%&@@#####+",
"+######*#*#######@=&@%&@@######+",
"+###*##*#*######@=&@%&@@&@#####+",
"+####*#*#*#####@=&@%&@@&&=@####+",
"+#####**#*####@=&@%&@@@&===@###+",
"+######*#*####@&@%&@@#@-====@@@+",
"+#######**#####@%@@@@@;=====&@@+",
"+########*####@%@;==========&@@+",
"+#########*###@&@@@&&&======&@@+",
"+##########*#@@@###@@@&&&&==&@@+",
"+###########*@########@@@@&&&@@+",
"+############*############@@@@@+",
"+#############*##############@@+",
"+##############*###############+",
"+###############*##############+",
"+################*#***#########+",
"+#################*****########+",
"+################*******#######+",
"+################*******#######+",
"+################*******#######+",
"+#################*****########+",
"+##################***#########+",
"+##############################+",
"+##############################+",
"+##############################+",
"++++++++++++++++++++++++++++++++"};
