<?xml version="1.0" encoding="UTF-8" standalone="no"?>
<!-- Created with Inkscape (http://www.inkscape.org/) -->

<svg
   xmlns:dc="http://purl.org/dc/elements/1.1/"
   xmlns:cc="http://creativecommons.org/ns#"
   xmlns:rdf="http://www.w3.org/1999/02/22-rdf-syntax-ns#"
   xmlns:svg="http://www.w3.org/2000/svg"
   xmlns="http://www.w3.org/2000/svg"
   xmlns:xlink="http://www.w3.org/1999/xlink"
   xmlns:sodipodi="http://sodipodi.sourceforge.net/DTD/sodipodi-0.dtd"
   xmlns:inkscape="http://www.inkscape.org/namespaces/inkscape"
   width="32"
   height="32"
   id="svg2"
   version="1.1"
   inkscape:version="0.47 r22583"
   sodipodi:docname="SCM_INPUT_DATA.svg"
   style="display:inline"
   inkscape:export-xdpi="360"
   inkscape:export-ydpi="360">
  <defs
     id="defs4">
    <linearGradient
       id="linearGradient3723">
      <stop
         style="stop-color:#20202f;stop-opacity:1;"
         offset="0"
         id="stop3725" />
      <stop
         style="stop-color:#58586f;stop-opacity:1;"
         offset="1"
         id="stop3727" />
    </linearGradient>
    <linearGradient
       id="linearGradient3699">
      <stop
         style="stop-color:#50db54;stop-opacity:1;"
         offset="0"
         id="stop3703" />
      <stop
         id="stop3709"
         offset="1"
         style="stop-color:#91e513;stop-opacity:1;" />
    </linearGradient>
    <linearGradient
       id="linearGradient3679">
      <stop
         style="stop-color:#00ccff;stop-opacity:1;"
         offset="0"
         id="stop3681" />
      <stop
         style="stop-color:#82bfc3;stop-opacity:1;"
         offset="1"
         id="stop3683" />
    </linearGradient>
    <linearGradient
       id="linearGradient3697">
      <stop
         style="stop-color:#0055d4;stop-opacity:1;"
         offset="0"
         id="stop3699" />
      <stop
         style="stop-color:#3c6fbd;stop-opacity:1;"
         offset="1"
         id="stop3701" />
    </linearGradient>
    <linearGradient
       id="linearGradient3689">
      <stop
         style="stop-color:#0066ff;stop-opacity:1;"
         offset="0"
         id="stop3691" />
      <stop
         style="stop-color:#3f84eb;stop-opacity:1;"
         offset="1"
         id="stop3693" />
    </linearGradient>
    <linearGradient
       id="linearGradient3925">
      <stop
         style="stop-color:#0044aa;stop-opacity:1;"
         offset="0"
         id="stop3927" />
      <stop
         style="stop-color:#0055d3;stop-opacity:1;"
         offset="1"
         id="stop3929" />
    </linearGradient>
    <linearGradient
       id="linearGradient3917">
      <stop
         style="stop-color:#0055d4;stop-opacity:1;"
         offset="0"
         id="stop3919" />
      <stop
         style="stop-color:#1975ff;stop-opacity:1;"
         offset="1"
         id="stop3921" />
    </linearGradient>
    <linearGradient
       id="linearGradient3909">
      <stop
         style="stop-color:#2a7fff;stop-opacity:1;"
         offset="0"
         id="stop3911" />
      <stop
         style="stop-color:#63a1ff;stop-opacity:1;"
         offset="1"
         id="stop3913" />
    </linearGradient>
    <linearGradient
       id="linearGradient3678">
      <stop
         style="stop-color:#e3e9ef;stop-opacity:1;"
         offset="0"
         id="stop3680" />
      <stop
         style="stop-color:#d9e3f2;stop-opacity:1;"
         offset="1"
         id="stop3682" />
    </linearGradient>
    <linearGradient
       id="linearGradient3648">
      <stop
         style="stop-color:#acc6d2;stop-opacity:1;"
         offset="0"
         id="stop3650" />
      <stop
         style="stop-color:#498ca2;stop-opacity:1;"
         offset="1"
         id="stop3652" />
    </linearGradient>
    <linearGradient
       id="linearGradient3716">
      <stop
         style="stop-color:#a5a5a5;stop-opacity:1;"
         offset="0"
         id="stop3718" />
      <stop
         style="stop-color:#bbbbbb;stop-opacity:1;"
         offset="1"
         id="stop3720" />
    </linearGradient>
    <linearGradient
       id="linearGradient3708">
      <stop
         style="stop-color:#838383;stop-opacity:1;"
         offset="0"
         id="stop3710" />
      <stop
         style="stop-color:#b3b3b3;stop-opacity:1;"
         offset="1"
         id="stop3712" />
    </linearGradient>
    <linearGradient
       id="linearGradient3700">
      <stop
         style="stop-color:#727272;stop-opacity:1;"
         offset="0"
         id="stop3702" />
      <stop
         style="stop-color:#a5a5a5;stop-opacity:1;"
         offset="1"
         id="stop3704" />
    </linearGradient>
    <inkscape:perspective
       sodipodi:type="inkscape:persp3d"
       inkscape:vp_x="0 : 16 : 1"
       inkscape:vp_y="0 : 1000 : 0"
       inkscape:vp_z="32 : 16 : 1"
       inkscape:persp3d-origin="16 : 10.666667 : 1"
       id="perspective3219" />
    <linearGradient
       inkscape:collect="always"
       id="linearGradient3749">
      <stop
         style="stop-color:#2f3d85;stop-opacity:1;"
         offset="0"
         id="stop3751" />
      <stop
         style="stop-color:#2f3d85;stop-opacity:0;"
         offset="1"
         id="stop3753" />
    </linearGradient>
    <linearGradient
       inkscape:collect="always"
       id="linearGradient3741">
      <stop
         style="stop-color:#2f3d85;stop-opacity:1;"
         offset="0"
         id="stop3743" />
      <stop
         style="stop-color:#2f3d85;stop-opacity:0;"
         offset="1"
         id="stop3745" />
    </linearGradient>
    <linearGradient
       inkscape:collect="always"
       id="linearGradient3733">
      <stop
         style="stop-color:#2f528a;stop-opacity:1"
         offset="0"
         id="stop3735" />
      <stop
         style="stop-color:#3f5e91;stop-opacity:0;"
         offset="1"
         id="stop3737" />
    </linearGradient>
    <linearGradient
       id="linearGradient3622-8">
      <stop
         style="stop-color:#ffffff;stop-opacity:1"
         offset="0"
         id="stop3624-3" />
      <stop
         style="stop-color:#e9f0fa;stop-opacity:1"
         offset="1"
         id="stop3626-2" />
    </linearGradient>
    <linearGradient
       y2="29.323114"
       x2="13.269579"
       y1="2.2007067"
       x1="29.382435"
       gradientTransform="matrix(1.0033899,0,0,1.006795,-0.04875293,31.924568)"
       gradientUnits="userSpaceOnUse"
       id="linearGradient4163"
       xlink:href="#linearGradient3622-8"
       inkscape:collect="always" />
    <linearGradient
       id="linearGradient3622-95">
      <stop
         style="stop-color:#c6cee3;stop-opacity:1;"
         offset="0"
         id="stop3624-5" />
      <stop
         style="stop-color:#eaeef9;stop-opacity:0;"
         offset="1"
         id="stop3626-7" />
    </linearGradient>
    <linearGradient
       inkscape:collect="always"
       xlink:href="#linearGradient3733"
       id="linearGradient2886"
       gradientUnits="userSpaceOnUse"
       x1="78.128151"
       y1="102.62679"
       x2="110.16354"
       y2="102.62679"
       gradientTransform="translate(-26.687459,-0.0778789)" />
    <linearGradient
       inkscape:collect="always"
       xlink:href="#linearGradient3749"
       id="linearGradient2892"
       gradientUnits="userSpaceOnUse"
       x1="88.325951"
       y1="84.507774"
       x2="119.71897"
       y2="63.179432" />
    <linearGradient
       inkscape:collect="always"
       xlink:href="#linearGradient3741"
       id="linearGradient2894"
       gradientUnits="userSpaceOnUse"
       x1="98.523994"
       y1="99.79335"
       x2="127.85975"
       y2="99.79335" />
    <inkscape:perspective
       id="perspective3676"
       inkscape:persp3d-origin="0.5 : 0.33333333 : 1"
       inkscape:vp_z="1 : 0.5 : 1"
       inkscape:vp_y="0 : 1000 : 0"
       inkscape:vp_x="0 : 0.5 : 1"
       sodipodi:type="inkscape:persp3d" />
    <linearGradient
       inkscape:collect="always"
       xlink:href="#linearGradient3700"
       id="linearGradient3706"
       x1="22.977591"
       y1="16.533602"
       x2="29.822767"
       y2="16.274597"
       gradientUnits="userSpaceOnUse"
       gradientTransform="matrix(0.7675676,0,0,1,5.1557318,30.408959)" />
    <linearGradient
       inkscape:collect="always"
       xlink:href="#linearGradient3708"
       id="linearGradient3714"
       x1="12.987333"
       y1="40.467396"
       x2="29.933771"
       y2="40.467396"
       gradientUnits="userSpaceOnUse"
       gradientTransform="matrix(0.9235808,0,0,1,1.6954997,-1.5910409)" />
    <linearGradient
       inkscape:collect="always"
       xlink:href="#linearGradient3716"
       id="linearGradient3722"
       x1="12.98733"
       y1="51.049667"
       x2="23.125591"
       y2="51.049667"
       gradientUnits="userSpaceOnUse"
       gradientTransform="matrix(0.91240876,0,0,1,1.8405944,-1.5910409)" />
    <radialGradient
       inkscape:collect="always"
       xlink:href="#linearGradient3648"
       id="radialGradient3656"
       cx="15.794774"
       cy="23.04089"
       fx="15.794774"
       fy="23.04089"
       r="1.5355394"
       gradientUnits="userSpaceOnUse" />
    <linearGradient
       inkscape:collect="always"
       xlink:href="#linearGradient3678"
       id="linearGradient3684"
       x1="0.87100756"
       y1="-3.0895786"
       x2="28.755108"
       y2="-5.2356339"
       gradientUnits="userSpaceOnUse"
       gradientTransform="matrix(1,0,0,1.0766142,0,0.03111428)" />
    <linearGradient
       inkscape:collect="always"
       xlink:href="#linearGradient3909"
       id="linearGradient3915"
       x1="2.108496"
       y1="7.6282678"
       x2="8.558013"
       y2="7.6282678"
       gradientUnits="userSpaceOnUse"
       gradientTransform="matrix(0.68715665,0,0,0.98858445,-1.3390267,-0.29005207)" />
    <linearGradient
       id="linearGradient3648-8">
      <stop
         style="stop-color:#acc6d2;stop-opacity:1;"
         offset="0"
         id="stop3650-8" />
      <stop
         style="stop-color:#498ca2;stop-opacity:1;"
         offset="1"
         id="stop3652-2" />
    </linearGradient>
    <linearGradient
       id="linearGradient3700-5">
      <stop
         style="stop-color:#727272;stop-opacity:1;"
         offset="0"
         id="stop3702-5" />
      <stop
         style="stop-color:#a5a5a5;stop-opacity:1;"
         offset="1"
         id="stop3704-1" />
    </linearGradient>
    <linearGradient
       id="linearGradient3708-1">
      <stop
         style="stop-color:#838383;stop-opacity:1;"
         offset="0"
         id="stop3710-1" />
      <stop
         style="stop-color:#b3b3b3;stop-opacity:1;"
         offset="1"
         id="stop3712-5" />
    </linearGradient>
    <linearGradient
       inkscape:collect="always"
       xlink:href="#linearGradient3716-7"
       id="linearGradient3722-2"
       x1="12.98733"
       y1="51.049667"
       x2="23.125591"
       y2="51.049667"
       gradientUnits="userSpaceOnUse"
       gradientTransform="matrix(0.91240876,0,0,1,1.8405944,-1.5910409)" />
    <linearGradient
       id="linearGradient3716-7">
      <stop
         style="stop-color:#a5a5a5;stop-opacity:1;"
         offset="0"
         id="stop3718-6" />
      <stop
         style="stop-color:#bbbbbb;stop-opacity:1;"
         offset="1"
         id="stop3720-1" />
    </linearGradient>
    <linearGradient
       inkscape:collect="always"
       xlink:href="#linearGradient3689"
       id="linearGradient3695"
       x1="0.99223268"
       y1="16.589376"
       x2="7.4417505"
       y2="16.589376"
       gradientUnits="userSpaceOnUse"
       gradientTransform="matrix(0.68715665,0,0,0.98858445,-0.57197942,-0.53527867)" />
    <linearGradient
       inkscape:collect="always"
       xlink:href="#linearGradient3697"
       id="linearGradient3703"
       x1="0.99223369"
       y1="25.271418"
       x2="7.5037656"
       y2="25.271418"
       gradientUnits="userSpaceOnUse"
       gradientTransform="matrix(0.68715665,0,0,0.98858445,-0.57197942,-0.53527867)" />
    <inkscape:perspective
       id="perspective3855"
       inkscape:persp3d-origin="0.5 : 0.33333333 : 1"
       inkscape:vp_z="1 : 0.5 : 1"
       inkscape:vp_y="0 : 1000 : 0"
       inkscape:vp_x="0 : 0.5 : 1"
       sodipodi:type="inkscape:persp3d" />
    <inkscape:perspective
       id="perspective3932"
       inkscape:persp3d-origin="0.5 : 0.33333333 : 1"
       inkscape:vp_z="1 : 0.5 : 1"
       inkscape:vp_y="0 : 1000 : 0"
       inkscape:vp_x="0 : 0.5 : 1"
       sodipodi:type="inkscape:persp3d" />
  </defs>
  <sodipodi:namedview
     id="base"
     pagecolor="#ffffff"
     bordercolor="#666666"
     borderopacity="1.0"
     inkscape:pageopacity="0.0"
     inkscape:pageshadow="2"
     inkscape:zoom="18.609565"
     inkscape:cx="27.73719"
     inkscape:cy="9.6395155"
     inkscape:document-units="px"
     inkscape:current-layer="layer6"
     showgrid="true"
     width="64px"
     inkscape:snap-grids="false"
     inkscape:window-width="1920"
     inkscape:window-height="1179"
     inkscape:window-x="1916"
     inkscape:window-y="-4"
     inkscape:window-maximized="1"
     gridtolerance="6"
     showguides="true"
     inkscape:guide-bbox="true">
    <inkscape:grid
       type="xygrid"
       id="grid2816"
       empspacing="5"
       visible="true"
       enabled="true"
       snapvisiblegridlinesonly="true" />
  </sodipodi:namedview>
  <metadata
     id="metadata7">
    <rdf:RDF>
      <cc:Work
         rdf:about="">
        <dc:format>image/svg+xml</dc:format>
        <dc:type
           rdf:resource="http://purl.org/dc/dcmitype/StillImage" />
        <dc:title />
        <cc:license
           rdf:resource="Apache License 2.0" />
        <dc:creator>
          <cc:Agent>
            <dc:title />
          </cc:Agent>
        </dc:creator>
        <dc:publisher>
          <cc:Agent>
            <dc:title>ECMWF</dc:title>
          </cc:Agent>
        </dc:publisher>
        <dc:language>en-GB</dc:language>
        <dc:subject>
          <rdf:Bag>
            <rdf:li>Metview icon</rdf:li>
          </rdf:Bag>
        </dc:subject>
        <dc:description>Metview icon</dc:description>
      </cc:Work>
    </rdf:RDF>
  </metadata>
  <g
     inkscape:groupmode="layer"
     id="layer2"
     inkscape:label="bg">
    <rect
       style="opacity:0.8699187;fill:#00222b;fill-opacity:1;fill-rule:nonzero;stroke:#00222b;stroke-width:0.81597477;stroke-linecap:round;stroke-linejoin:round;stroke-miterlimit:4;stroke-opacity:1;stroke-dasharray:none"
       id="rect2194"
       width="3.9452662"
       height="3.8084145"
       x="12.487254"
       y="5.803278" />
    <rect
       style="opacity:0.8699187;fill:#6f918a;fill-opacity:1;fill-rule:nonzero;stroke:#6f918a;stroke-width:0.81597477;stroke-linecap:round;stroke-linejoin:round;stroke-miterlimit:4;stroke-opacity:1;stroke-dasharray:none"
       id="rect2200"
       width="4.2641201"
       height="3.852392"
       x="25.261992"
       y="5.7844133"
       inkscape:transform-center-y="1.4356597"
       inkscape:transform-center-x="0.42783523" />
    <rect
       style="opacity:0.8699187;fill:#004455;fill-opacity:1;fill-rule:nonzero;stroke:#004455;stroke-width:0.81597477;stroke-linecap:round;stroke-linejoin:round;stroke-miterlimit:4;stroke-opacity:1;stroke-dasharray:none"
       id="rect2204"
       width="3.7840588"
       height="3.8084145"
       x="12.487254"
       y="11.656127"
       inkscape:transform-center-x="-2.042434"
       inkscape:transform-center-y="1.3100971" />
    <rect
       style="opacity:0.49322492;fill:#b7c8c4;fill-opacity:1;fill-rule:nonzero;stroke:#b7c8c4;stroke-width:0.81597477;stroke-linecap:round;stroke-linejoin:round;stroke-miterlimit:4;stroke-opacity:1;stroke-dasharray:none"
       id="rect2206"
       width="3.7840588"
       height="3.8084145"
       x="18.935553"
       y="17.392906"
       inkscape:transform-center-y="1.41927"
       inkscape:transform-center-x="0.37966755" />
    <rect
       style="opacity:0.8699187;fill:#93aca7;fill-opacity:1;fill-rule:nonzero;stroke:#93aca7;stroke-width:0.81597477;stroke-linecap:round;stroke-linejoin:round;stroke-miterlimit:4;stroke-opacity:1;stroke-dasharray:none"
       id="rect2210"
       width="4.2641201"
       height="3.852392"
       x="18.798134"
       y="11.701126"
       inkscape:transform-center-y="1.4356606"
       inkscape:transform-center-x="0.42783364" />
    <rect
       style="opacity:0.8699187;fill:#93aca7;fill-opacity:1;fill-rule:nonzero;stroke:#93aca7;stroke-width:0.81597477;stroke-linecap:round;stroke-linejoin:round;stroke-miterlimit:4;stroke-opacity:1;stroke-dasharray:none"
       id="rect2214"
       width="4.2641201"
       height="3.852392"
       x="12.311663"
       y="17.400082"
       inkscape:transform-center-x="3.9116254"
       inkscape:transform-center-y="0.77304619" />
    <rect
       style="opacity:0.8699187;fill:#dbe3e2;fill-opacity:1;fill-rule:nonzero;stroke:#dbe3e2;stroke-width:0.81597477;stroke-linecap:round;stroke-linejoin:round;stroke-miterlimit:4;stroke-opacity:1;stroke-dasharray:none"
       id="rect2216"
       width="3.9954412"
       height="3.852392"
       x="25.616791"
       y="17.188105"
       inkscape:transform-center-x="3.6651563"
       inkscape:transform-center-y="0.77304794" />
    <rect
       inkscape:transform-center-y="1.3100971"
       inkscape:transform-center-x="-2.1584489"
       y="5.798924"
       x="18.881815"
       height="3.8084145"
       width="3.999002"
       id="rect3949"
       style="opacity:0.8699187;fill:#004455;fill-opacity:1;fill-rule:nonzero;stroke:#004455;stroke-width:0.81597477;stroke-linecap:round;stroke-linejoin:round;stroke-miterlimit:4;stroke-opacity:1;stroke-dasharray:none" />
    <rect
       inkscape:transform-center-x="0.37966755"
       inkscape:transform-center-y="1.41927"
       y="11.643175"
       x="25.598793"
       height="3.8084145"
       width="3.7840588"
       id="rect3951"
       style="opacity:0.49322492;fill:#b7c8c4;fill-opacity:1;fill-rule:nonzero;stroke:#b7c8c4;stroke-width:0.81597477;stroke-linecap:round;stroke-linejoin:round;stroke-miterlimit:4;stroke-opacity:1;stroke-dasharray:none" />
  </g>
  <g
     inkscape:groupmode="layer"
     id="layer4"
     inkscape:label="arrow" />
  <g
     inkscape:groupmode="layer"
     id="layer1"
     inkscape:label="column"
     style="display:inline">
    <path
       style="fill:url(#linearGradient3703);fill-opacity:1;stroke:none"
       d="M 0.10984052,19.45116 4.559204,20.861212 4.609362,29.371983 0.15245465,27.972784 0.10984035,19.45116 z"
       id="rect3056"
       inkscape:connector-curvature="0"
       sodipodi:nodetypes="ccccc" />
    <path
       style="fill:url(#linearGradient3695);fill-opacity:1;stroke:none;display:inline"
       d="m 0.10983988,10.837575 4.43182852,1.410052 4e-7,8.680318 -4.43182892,-1.446132 0,-8.644238 z"
       id="rect3056-1"
       inkscape:connector-curvature="0"
       sodipodi:nodetypes="ccccc" />
    <path
       style="fill:url(#linearGradient3915);fill-opacity:1;stroke:none;display:inline"
       d="m 0.10984033,2.2546429 4.43182827,1.4100524 0,8.5829307 -4.43182827,-1.348744 z"
       id="rect3056-7"
       inkscape:connector-curvature="0"
       sodipodi:nodetypes="ccccc" />
    <path
       style="fill:#0055d4;fill-opacity:1;stroke:none;display:inline"
       d="m 8.3693607,19.528746 -3.8201482,1.348745 0.050158,8.510771 3.7699925,-1.63005 0,-8.229466 z"
       id="rect3056-4"
       inkscape:connector-curvature="0"
       sodipodi:nodetypes="ccccc" />
    <path
       style="fill:#0066ff;fill-opacity:1;stroke:none;display:inline"
       d="m 8.3451244,10.812348 -3.8778468,1.420905 0,8.705545 3.8778504,-1.373974 -3.6e-6,-8.752476 z"
       id="rect3056-4-0"
       inkscape:connector-curvature="0"
       sodipodi:nodetypes="ccccc" />
    <path
       style="fill:#2a7fff;fill-opacity:1;stroke:none;display:inline"
       d="m 8.3275918,2.3848274 -3.8352354,1.226133 -2e-7,8.5829296 3.8778498,-1.410052 z"
       id="rect3056-4-0-9"
       inkscape:connector-curvature="0"
       sodipodi:nodetypes="ccccc" />
    <path
       style="fill:#87aade;fill-opacity:1;stroke:none"
       d="M 3.6282867,1.1576764 7.1278078,2.0463633 8.4365678,2.4183802 4.5554903,3.7184151 0.05017694,2.2135171 3.6282867,1.1576764 z"
       id="rect3138"
       inkscape:connector-curvature="0"
       sodipodi:nodetypes="cccccc"
       inkscape:transform-center-y="-0.91959986" />
  </g>
  <g
     inkscape:groupmode="layer"
     id="layer3"
     inkscape:label="text">
    <text
       xml:space="preserve"
       style="font-size:6.85956478px;font-style:normal;font-weight:normal;opacity:0.8699187;fill:#241c1c;fill-opacity:1;stroke:none;display:inline;font-family:Bitstream Vera Sans"
       x="10.327188"
       y="26.423189"
       id="text2228-4"
       transform="scale(0.93116886,1.0739191)"><tspan
         sodipodi:role="line"
         id="tspan2230-6"
         x="10.327188"
         y="26.423189">netCDF</tspan></text>
  </g>
  <g
     inkscape:groupmode="layer"
     id="layer6"
     inkscape:label="arrow"
     style="display:inline" />
</svg>
