<?xml version="1.0" encoding="UTF-8" standalone="no"?>
<svg
   xmlns:dc="http://purl.org/dc/elements/1.1/"
   xmlns:cc="http://creativecommons.org/ns#"
   xmlns:rdf="http://www.w3.org/1999/02/22-rdf-syntax-ns#"
   xmlns:svg="http://www.w3.org/2000/svg"
   xmlns="http://www.w3.org/2000/svg"
   xmlns:sodipodi="http://sodipodi.sourceforge.net/DTD/sodipodi-0.dtd"
   xmlns:inkscape="http://www.inkscape.org/namespaces/inkscape"
   style="display:inline"
   inkscape:output_extension="org.inkscape.output.svg.inkscape"
   sodipodi:docname="TABLE.svg"
   version="1.0"
   inkscape:version="1.0 (4035a4f, 2020-05-01)"
   sodipodi:version="0.32"
   id="svg2"
   height="64"
   width="64">
  <defs
     id="defs4">
    <inkscape:perspective
       id="perspective3158"
       inkscape:persp3d-origin="32 : 21.333333 : 1"
       inkscape:vp_z="64 : 32 : 1"
       inkscape:vp_y="0 : 1000 : 0"
       inkscape:vp_x="0 : 32 : 1"
       sodipodi:type="inkscape:persp3d" />
  </defs>
  <sodipodi:namedview
     inkscape:document-rotation="0"
     inkscape:window-maximized="0"
     showgrid="false"
     inkscape:window-y="29"
     inkscape:window-x="139"
     inkscape:window-height="775"
     inkscape:window-width="1190"
     height="64px"
     width="64px"
     inkscape:current-layer="layer1"
     inkscape:document-units="px"
     inkscape:cy="32"
     inkscape:cx="32"
     inkscape:zoom="8.6875"
     inkscape:pageshadow="2"
     inkscape:pageopacity="0.0"
     objecttolerance="10"
     guidetolerance="10"
     gridtolerance="10000"
     borderopacity="1.0"
     bordercolor="#666666"
     pagecolor="#ffffff"
     id="base" />
  <metadata
     id="metadata7">
    <rdf:RDF>
      <cc:Work
         rdf:about="">
        <dc:format>image/svg+xml</dc:format>
        <dc:type
           rdf:resource="http://purl.org/dc/dcmitype/StillImage" />
        <dc:title />
        <cc:license
           rdf:resource="Apache License 2.0" />
        <dc:creator>
          <cc:Agent>
            <dc:title />
          </cc:Agent>
        </dc:creator>
        <dc:publisher>
          <cc:Agent>
            <dc:title>ECMWF</dc:title>
          </cc:Agent>
        </dc:publisher>
        <dc:language>en-GB</dc:language>
        <dc:subject>
          <rdf:Bag>
            <rdf:li>Metview icon</rdf:li>
          </rdf:Bag>
        </dc:subject>
        <dc:description>Metview icon</dc:description>
      </cc:Work>
    </rdf:RDF>
  </metadata>
  <g
     inkscape:label="bg"
     id="layer1"
     inkscape:groupmode="layer">
    <rect
       ry="0"
       y="6.446043"
       x="7.5971222"
       height="55.021584"
       width="56.402878"
       id="rect5100"
       style="fill:#fcffff;stroke-width:2.05971;stroke-linecap:round;stroke-linejoin:round;paint-order:markers fill stroke" />
  </g>
  <g
     inkscape:label="circle"
     id="layer2"
     inkscape:groupmode="layer">
    <path
       id="path2173"
       d="m 14.5,4.5 c 0,55 0,55 0,55 v 0"
       style="fill:none;stroke:#000000;stroke-width:1px;stroke-linecap:butt;stroke-linejoin:miter;stroke-opacity:1" />
    <path
       id="path2175"
       d="m 29.5,4.5 c 0,55 0,55 0,55 v 0"
       style="fill:none;stroke:#000000;stroke-width:1px;stroke-linecap:butt;stroke-linejoin:miter;stroke-opacity:1" />
    <path
       id="path2177"
       d="m 44.5,4.5 c 0,55 0,55 0,55"
       style="fill:none;stroke:#000000;stroke-width:1px;stroke-linecap:butt;stroke-linejoin:miter;stroke-opacity:1" />
    <path
       id="path2179"
       d="m 59.5,4.5 c 0,55 0,55 0,55"
       style="fill:none;stroke:#000000;stroke-width:1px;stroke-linecap:butt;stroke-linejoin:miter;stroke-opacity:1" />
    <text
       id="text2183"
       y="11.057471"
       x="18.140732"
       style="font-style:normal;font-weight:normal;line-height:0%;font-family:'Bitstream Vera Sans';fill:#000000;fill-opacity:1;stroke:none"
       xml:space="preserve"><tspan
         style="font-size:12px;line-height:1.25"
         y="11.057471"
         x="18.140732"
         id="tspan2185"
         sodipodi:role="line">A</tspan></text>
    <text
       id="text2187"
       y="11.057471"
       x="32.411995"
       style="font-style:normal;font-weight:normal;line-height:0%;font-family:'Bitstream Vera Sans';fill:#000000;fill-opacity:1;stroke:none"
       xml:space="preserve"><tspan
         style="font-size:12px;line-height:1.25"
         y="11.057471"
         x="32.411995"
         id="tspan2189"
         sodipodi:role="line">B</tspan></text>
    <text
       id="text2191"
       y="10.887549"
       x="47.418892"
       style="font-style:normal;font-weight:normal;line-height:0%;font-family:'Bitstream Vera Sans';fill:#000000;fill-opacity:1;stroke:none"
       xml:space="preserve"><tspan
         style="font-size:12px;line-height:1.25"
         y="10.887549"
         x="47.418892"
         id="tspan2193"
         sodipodi:role="line">C</tspan></text>
    <text
       id="text2195"
       y="27.748047"
       x="3.7669091"
       style="font-style:normal;font-weight:normal;line-height:0%;font-family:'Bitstream Vera Sans';fill:#000000;fill-opacity:1;stroke:none"
       xml:space="preserve"><tspan
         style="font-size:12px;line-height:1.25"
         y="27.748047"
         x="3.7669091"
         id="tspan2197"
         sodipodi:role="line">1</tspan></text>
    <text
       id="text2199"
       y="41.650116"
       x="3.6516747"
       style="font-style:normal;font-weight:normal;line-height:0%;font-family:'Bitstream Vera Sans';fill:#000000;fill-opacity:1;stroke:none"
       xml:space="preserve"><tspan
         style="font-size:12px;line-height:1.25"
         y="41.650116"
         x="3.6516747"
         id="tspan2201"
         sodipodi:role="line">2</tspan></text>
    <text
       id="text2203"
       y="55.627129"
       x="3.4114404"
       style="font-style:normal;font-weight:normal;line-height:0%;font-family:'Bitstream Vera Sans';fill:#000000;fill-opacity:1;stroke:none"
       xml:space="preserve"><tspan
         style="font-size:12px;line-height:1.25"
         y="55.627129"
         x="3.4114404"
         id="tspan2205"
         sodipodi:role="line">3</tspan></text>
    <path
       id="path2207"
       d="m 5,14 c 60,0 60,0 60,0"
       style="fill:none;stroke:#000000;stroke-width:1px;stroke-linecap:butt;stroke-linejoin:miter;stroke-opacity:1" />
    <rect
       rx="0"
       ry="5.3963065"
       y="1.8864518"
       x="1.0036925"
       height="10.792613"
       width="62.58112"
       id="rect2188"
       style="opacity:0.38172;fill:#c4d1e6;fill-opacity:1;stroke:#afc6e9;stroke-width:1.74762;stroke-linecap:square;stroke-linejoin:miter;stroke-miterlimit:4;stroke-dasharray:none;stroke-opacity:1" />
    <rect
       ry="0"
       y="14.372176"
       x="0.98366958"
       height="46.143005"
       width="12.156798"
       id="rect5217"
       style="opacity:0.38172;fill:#c4d1e6;fill-opacity:1;stroke:#afc6e9;stroke-width:1.70757;stroke-linecap:square;stroke-linejoin:miter;stroke-miterlimit:4;stroke-dasharray:none;stroke-opacity:1" />
    <path
       id="path5221"
       d="m 3.1632183,30.455172 c 58.7034487,0 58.7034487,0 58.7034487,0"
       style="fill:none;stroke:#000000;stroke-width:1px;stroke-linecap:butt;stroke-linejoin:miter;stroke-opacity:1" />
    <path
       inkscape:transform-center-y="-7.6505747"
       inkscape:transform-center-x="19.714943"
       id="path5223"
       d="m 3.1632182,45.756322 c 58.7034488,0 58.7034488,0 58.7034488,0"
       style="fill:none;stroke:#000000;stroke-width:1px;stroke-linecap:butt;stroke-linejoin:miter;stroke-opacity:1" />
  </g>
</svg>
