/* XPM */
static char * TEPHIVIEW_xpm[] = {
"32 32 6 1",
" 	c #333333333333",
".	c #FFFFFFFFCCCC",
"X	c #7E7E7E7E7E7E",
"o	c #00000000FFFF",
"O	c #FFFF00000000",
"+	c #000000006666",
"                                ",
" .............................. ",
" .XXXXXXXXXXXXXXXXXXXXXXXXXXXX. ",
" .Xo.................oO....+.X. ",
" .X.o................OO.....+X. ",
" .X..o..............OO.o.....X. ",
" .X...o............OO...o....X. ",
" .X....o...........O.....o...X. ",
" .X.....o.........O.......o..X. ",
" .X......o.......OO........o.X. ",
" .X.......o......O..........oX. ",
" .X........o....O............X. ",
" .X.........o..OO............X. ",
" .X..........o.O.............X. ",
" .X...........O..............X. ",
" .X..........OOo............OX. ",
" .X..........O..o...........OX. ",
" .X..........O...o.........O.X. ",
" .X.........O.....o.......OO.X. ",
" .X........OO......o......O..X. ",
" .X........O........o....O...X. ",
" .Xo.......O.........o..OO...X. ",
" .X.o.....O...........o.O....X. ",
" .X..o....O............OO....X. ",
" .X...o..O.............Oo....X. ",
" .X....o.O.............O.o...X. ",
" .X.....O.............O...o..X. ",
" .X.....Oo............O....o.X. ",
" .X....OO.o...........O.....oX. ",
" .XXXXXXXXXXXXXXXXXXXXXXXXXXXX. ",
" .............................. ",
"                                "};
