<?xml version="1.0" encoding="UTF-8" standalone="no"?>
<svg
   xmlns:dc="http://purl.org/dc/elements/1.1/"
   xmlns:cc="http://creativecommons.org/ns#"
   xmlns:rdf="http://www.w3.org/1999/02/22-rdf-syntax-ns#"
   xmlns:svg="http://www.w3.org/2000/svg"
   xmlns="http://www.w3.org/2000/svg"
   xmlns:sodipodi="http://sodipodi.sourceforge.net/DTD/sodipodi-0.dtd"
   xmlns:inkscape="http://www.inkscape.org/namespaces/inkscape"
   sodipodi:docname="WS_CONVERGENCELINE.svg"
   inkscape:version="1.0 (4035a4f, 2020-05-01)"
   id="svg8"
   version="1.1"
   viewBox="0 0 8.4666665 8.4666669"
   height="32"
   width="32">
  <defs
     id="defs2" />
  <sodipodi:namedview
     inkscape:window-maximized="0"
     inkscape:window-y="25"
     inkscape:window-x="0"
     inkscape:window-height="1041"
     inkscape:window-width="1639"
     units="px"
     showgrid="true"
     inkscape:document-rotation="0"
     inkscape:current-layer="layer3"
     inkscape:document-units="mm"
     inkscape:cy="16"
     inkscape:cx="8.4256196"
     inkscape:zoom="18.3125"
     inkscape:pageshadow="2"
     inkscape:pageopacity="0.0"
     borderopacity="1.0"
     bordercolor="#666666"
     pagecolor="#ffffff"
     id="base"
     inkscape:snap-grids="false"
     inkscape:snap-to-guides="false"
     inkscape:snap-others="false"
     inkscape:snap-nodes="false"
     inkscape:snap-global="false"
     showguides="false">
    <inkscape:grid
       id="grid833"
       type="xygrid" />
  </sodipodi:namedview>
  <metadata
     id="metadata5">
    <rdf:RDF>
      <cc:Work
         rdf:about="">
        <dc:format>image/svg+xml</dc:format>
        <dc:type
           rdf:resource="http://purl.org/dc/dcmitype/StillImage" />
        <dc:title />
      </cc:Work>
    </rdf:RDF>
  </metadata>
  <g
     inkscape:groupmode="layer"
     id="layer3"
     inkscape:label="bg">
    <rect
       ry="1.5582621"
       y="0.15346426"
       x="0.16735826"
       height="8.2175312"
       width="8.1608467"
       id="rect1697"
       style="display:inline;fill:#ececec;stroke:#808080;stroke-width:0.266348;stroke-linecap:square;stroke-linejoin:miter;stroke-miterlimit:4;stroke-dasharray:none;stroke-opacity:1;paint-order:markers fill stroke" />
  </g>
  <g
     id="layer1"
     inkscape:groupmode="layer"
     inkscape:label="Layer 1">
    <rect
       y="1.5730518"
       x="2.1614592"
       height="3.8806865"
       width="4.7425756"
       id="rect835"
       style="fill:#0000ff;fill-opacity:0;stroke-width:0.681159;stroke-linejoin:round;paint-order:fill markers stroke" />
    <rect
       y="2.1877599"
       x="1.471616"
       height="4.1089621"
       width="4.7425756"
       id="rect837"
       style="fill:#6f6fca;fill-opacity:0;stroke-width:0.681159;stroke-linejoin:round;paint-order:fill markers stroke" />
    <rect
       y="1.3229166"
       x="1.0583333"
       height="5.0270834"
       width="5.5562501"
       id="rect839"
       style="fill:#6565a1;fill-opacity:0;stroke-width:0.79375;stroke-linejoin:round;paint-order:fill markers stroke" />
    <path
       style="display:inline;fill:#ffcc00;fill-rule:evenodd;stroke:#ff9000;stroke-width:0.448968;stroke-linecap:butt;stroke-linejoin:miter;stroke-miterlimit:4;stroke-dasharray:none;stroke-opacity:1"
       d="M 1.0437439,4.473371 7.576921,4.479081"
       id="path10092"
       inkscape:connector-type="polyline"
       inkscape:connector-curvature="0"
       sodipodi:nodetypes="cc" />
    <path
       style="fill:none;fill-rule:evenodd;stroke:#000000;stroke-width:0.227053px;stroke-linecap:butt;stroke-linejoin:miter;stroke-opacity:1"
       d="m 8.0332195,4.416759 v 0"
       id="path3115"
       inkscape:connector-type="polyline"
       inkscape:connector-curvature="0" />
    <path
       style="fill:none;fill-rule:evenodd;stroke:#000000;stroke-width:0.227053px;stroke-linecap:butt;stroke-linejoin:miter;stroke-opacity:1"
       d="m 7.6509154,4.4167589 v 0"
       id="path3117"
       inkscape:connector-type="polyline"
       inkscape:connector-curvature="0" />
    <path
       sodipodi:nodetypes="cc"
       inkscape:connector-curvature="0"
       inkscape:connector-type="polyline"
       id="path3121"
       d="M 1.0437439,4.473371 7.576921,4.479081"
       style="display:inline;fill:#ffcc00;fill-rule:evenodd;stroke:#e68410;stroke-width:0.448968;stroke-linecap:butt;stroke-linejoin:miter;stroke-miterlimit:4;stroke-dasharray:none;stroke-opacity:1" />
    <path
       style="display:inline;fill:#ffcc00;fill-rule:evenodd;stroke:#e68410;stroke-width:0.340687;stroke-linecap:butt;stroke-linejoin:miter;stroke-miterlimit:4;stroke-dasharray:none;stroke-opacity:1"
       d="M 1.8442451,3.0864305 3.0243818,4.3883408"
       id="path10092-7"
       inkscape:connector-type="polyline"
       inkscape:connector-curvature="0" />
    <path
       inkscape:connector-curvature="0"
       inkscape:connector-type="polyline"
       id="path3129"
       d="M 5.3219797,3.0614993 6.5021164,4.3634096"
       style="display:inline;fill:#ffcc00;fill-rule:evenodd;stroke:#e68410;stroke-width:0.34058;stroke-linecap:butt;stroke-linejoin:miter;stroke-miterlimit:4;stroke-dasharray:none;stroke-opacity:1" />
    <path
       style="display:inline;fill:#ffcc00;fill-rule:evenodd;stroke:#e68410;stroke-width:0.340687;stroke-linecap:butt;stroke-linejoin:miter;stroke-miterlimit:4;stroke-dasharray:none;stroke-opacity:1"
       d="M 3.3624197,6.0087125 4.675632,4.5699848"
       id="path3131"
       inkscape:connector-type="polyline"
       inkscape:connector-curvature="0" />
  </g>
</svg>
