<?xml version="1.0" encoding="UTF-8" standalone="no"?>
<svg
   xmlns:dc="http://purl.org/dc/elements/1.1/"
   xmlns:cc="http://creativecommons.org/ns#"
   xmlns:rdf="http://www.w3.org/1999/02/22-rdf-syntax-ns#"
   xmlns:svg="http://www.w3.org/2000/svg"
   xmlns="http://www.w3.org/2000/svg"
   xmlns:sodipodi="http://sodipodi.sourceforge.net/DTD/sodipodi-0.dtd"
   xmlns:inkscape="http://www.inkscape.org/namespaces/inkscape"
   style="display:inline"
   version="1.0"
   inkscape:output_extension="org.inkscape.output.svg.inkscape"
   sodipodi:docname="WS_RIDGE.svg"
   inkscape:version="1.0 (4035a4f, 2020-05-01)"
   sodipodi:version="0.32"
   id="svg11300"
   height="32"
   width="32"
   inkscape:export-xdpi="180"
   inkscape:export-ydpi="180">
  <sodipodi:namedview
     inkscape:document-rotation="0"
     inkscape:snap-page="true"
     inkscape:snap-text-baseline="true"
     inkscape:snap-center="true"
     inkscape:snap-object-midpoints="true"
     inkscape:snap-smooth-nodes="true"
     inkscape:lockguides="true"
     inkscape:snap-others="true"
     inkscape:snap-nodes="true"
     inkscape:snap-bbox="true"
     inkscape:snap-intersection-paths="true"
     inkscape:snap-midpoints="true"
     inkscape:measure-end="0,0"
     inkscape:measure-start="0,0"
     inkscape:object-nodes="true"
     inkscape:snap-to-guides="true"
     inkscape:snap-grids="false"
     inkscape:window-maximized="0"
     height="32px"
     width="32px"
     inkscape:object-paths="true"
     objecttolerance="0.4"
     inkscape:guide-bbox="true"
     showguides="true"
     inkscape:grid-points="false"
     gridtolerance="50"
     inkscape:window-y="25"
     inkscape:window-x="152"
     inkscape:window-height="949"
     inkscape:window-width="1575"
     inkscape:showpageshadow="false"
     inkscape:document-units="px"
     inkscape:grid-bbox="false"
     showgrid="true"
     inkscape:current-layer="layer3"
     inkscape:cy="20.012019"
     inkscape:cx="21.798828"
     inkscape:zoom="17.32"
     inkscape:pageshadow="2"
     inkscape:pageopacity="0.0"
     borderopacity="0.25490196"
     bordercolor="#666666"
     pagecolor="#ffffff"
     id="base"
     fill="#729fcf"
     stroke="#3465a4"
     inkscape:snap-global="false">
    <sodipodi:guide
       inkscape:locked="true"
       id="guide9112"
       position="50.977307"
       orientation="horizontal" />
    <inkscape:grid
       id="grid2849"
       type="xygrid" />
  </sodipodi:namedview>
  <metadata
     id="metadata7">
    <rdf:RDF>
      <cc:Work
         rdf:about="">
        <dc:format>image/svg+xml</dc:format>
        <dc:type
           rdf:resource="http://purl.org/dc/dcmitype/StillImage" />
        <dc:title />
        <cc:license
           rdf:resource="Apache License 2.0" />
        <dc:creator>
          <cc:Agent>
            <dc:title />
          </cc:Agent>
        </dc:creator>
        <dc:publisher>
          <cc:Agent>
            <dc:title>ECMWF</dc:title>
          </cc:Agent>
        </dc:publisher>
        <dc:language>en-GB</dc:language>
        <dc:subject>
          <rdf:Bag>
            <rdf:li>Metview icon</rdf:li>
          </rdf:Bag>
        </dc:subject>
        <dc:description>Metview icon</dc:description>
      </cc:Work>
    </rdf:RDF>
  </metadata>
  <defs
     id="defs3">
    <inkscape:path-effect
       only_selected="false"
       apply_with_weight="true"
       apply_no_weight="true"
       helper_size="0"
       steps="2"
       weight="33.333333"
       is_visible="true"
       id="path-effect9816"
       effect="bspline" />
    <linearGradient
       id="linearGradient3869">
      <stop
         id="stop3871"
         offset="0"
         style="stop-color:#fffa02;stop-opacity:1;" />
      <stop
         id="stop3873"
         offset="1"
         style="stop-color:#dddb31;stop-opacity:1;" />
    </linearGradient>
    <linearGradient
       id="linearGradient3889-7-1-2-9">
      <stop
         id="stop3891-7-1-5-2"
         offset="0"
         style="stop-color:#cfc0af;stop-opacity:1;" />
      <stop
         id="stop3893-5-0-8-24"
         offset="1"
         style="stop-color:#ffe2ab;stop-opacity:1;" />
    </linearGradient>
    <linearGradient
       id="linearGradient3889-8-5-7">
      <stop
         id="stop3891-0-0-5"
         offset="0"
         style="stop-color:#cfc0af;stop-opacity:1;" />
      <stop
         id="stop3893-2-6-4"
         offset="1"
         style="stop-color:#ffe2ab;stop-opacity:1;" />
    </linearGradient>
    <inkscape:path-effect
       only_selected="false"
       apply_with_weight="true"
       apply_no_weight="true"
       helper_size="0"
       steps="2"
       weight="33.333333"
       is_visible="true"
       id="path-effect9816-9"
       effect="bspline" />
    <inkscape:path-effect
       only_selected="false"
       apply_with_weight="true"
       apply_no_weight="true"
       helper_size="0"
       steps="2"
       weight="33.333333"
       is_visible="true"
       id="path-effect9816-3"
       effect="bspline" />
  </defs>
  <g
     style="display:inline"
     inkscape:label="frame"
     id="layer3"
     inkscape:groupmode="layer">
    <ellipse
       ry="1.1450677"
       rx="0.92843324"
       cy="15.319149"
       cx="-5.5705996"
       id="path967"
       style="opacity:0;fill:#3431ca;fill-opacity:1;stroke:#3431ca;stroke-width:0.821;stroke-linecap:round;stroke-miterlimit:4;stroke-dasharray:none;stroke-opacity:1" />
    <ellipse
       ry="0.93770808"
       rx="0.68796301"
       cy="15.467669"
       cx="0.2679894"
       id="path969"
       style="opacity:0;fill:#3431ca;fill-opacity:1;stroke:#3431ca;stroke-width:0.665207;stroke-linecap:round;stroke-miterlimit:4;stroke-dasharray:none;stroke-opacity:1" />
    <ellipse
       ry="1.1844734"
       rx="0.45864201"
       cy="17.933346"
       cx="1.4169927"
       id="path971"
       style="opacity:0;fill:#3431ca;fill-opacity:1;stroke:#3431ca;stroke-width:0.665207;stroke-linecap:round;stroke-miterlimit:4;stroke-dasharray:none;stroke-opacity:1" />
    <ellipse
       ry="1.3926499"
       rx="0.7736944"
       cy="9.9449883"
       cx="-5.5215559"
       id="path973"
       style="opacity:0;fill:#3431ca;fill-opacity:1;stroke:#3431ca;stroke-width:0.821;stroke-linecap:round;stroke-miterlimit:4;stroke-dasharray:none;stroke-opacity:1" />
    <path
       sodipodi:open="true"
       d="m -6.0038687,23.334623 a 1.9187621,2.4139266 0 0 1 -0.5629606,1.708121 1.9187621,2.4139266 0 0 1 -1.3585391,0.705803"
       sodipodi:end="1.5722231"
       sodipodi:start="0"
       sodipodi:ry="2.4139266"
       sodipodi:rx="1.9187621"
       sodipodi:cy="23.334623"
       sodipodi:cx="-7.9226308"
       sodipodi:type="arc"
       id="path975"
       style="opacity:0;fill:#3431ca;fill-opacity:1;stroke:#3431ca;stroke-width:0.82099998;stroke-linecap:round;stroke-miterlimit:4;stroke-dasharray:none;stroke-opacity:1" />
    <path
       d="m -5.1373307,27.326885 a 0.7736944,0.95938104 0 0 1 -0.227,0.678869 0.7736944,0.95938104 0 0 1 -0.5477976,0.280511"
       sodipodi:open="true"
       sodipodi:end="1.5722223"
       sodipodi:start="0"
       sodipodi:ry="0.95938104"
       sodipodi:rx="0.7736944"
       sodipodi:cy="27.326885"
       sodipodi:cx="-5.911025"
       sodipodi:type="arc"
       id="path977"
       style="opacity:0;fill:#3431ca;fill-opacity:1;stroke:#3431ca;stroke-width:0.82099998;stroke-linecap:round;stroke-miterlimit:4;stroke-dasharray:none;stroke-opacity:1" />
    <ellipse
       ry="2.4139266"
       rx="1.4235977"
       cy="24.386847"
       cx="-6.3133464"
       id="path979"
       style="opacity:0;fill:#3431ca;fill-opacity:1;stroke:#3431ca;stroke-width:0.82099998;stroke-linecap:round;stroke-miterlimit:4;stroke-dasharray:none;stroke-opacity:1" />
    <path
       d="m -6.741854,19.743525 a 0.6499033,1.4235977 0 0 1 -0.5922528,-0.984857 0.6499033,1.4235977 0 0 1 0.2173187,-1.55768 0.6499033,1.4235977 0 0 1 0.7424081,-0.09141 0.6499033,1.4235977 0 0 1 0.2956442,1.494518 l -0.6369314,-0.28301 z"
       sodipodi:end="0.20013205"
       sodipodi:start="1.6111005"
       sodipodi:ry="1.4235977"
       sodipodi:rx="0.6499033"
       sodipodi:cy="18.321083"
       sodipodi:cx="-6.7156672"
       sodipodi:type="arc"
       id="path981"
       style="opacity:0;fill:#3431ca;fill-opacity:1;stroke:#3431ca;stroke-width:0.82099998;stroke-linecap:round;stroke-miterlimit:4;stroke-dasharray:none;stroke-opacity:1" />
    <path
       d="m -5.1960576,20.85674 a 6.065764,2.5377176 0 0 1 -5.5276894,-1.755616 6.065764,2.5377176 0 0 1 2.0283094,-2.776732 6.065764,2.5377176 0 0 1 6.9291402,-0.162954 6.065764,2.5377176 0 0 1 2.75934725,2.664139 L -4.9516439,18.321083 Z"
       sodipodi:end="0.20013167"
       sodipodi:start="1.6111012"
       sodipodi:ry="2.5377176"
       sodipodi:rx="6.065764"
       sodipodi:cy="18.321083"
       sodipodi:cx="-4.9516439"
       sodipodi:type="arc"
       id="path983"
       style="opacity:0;fill:#3431ca;fill-opacity:1;stroke:#3431ca;stroke-width:0.82099998;stroke-linecap:round;stroke-miterlimit:4;stroke-dasharray:none;stroke-opacity:1" />
    <path
       sodipodi:open="true"
       d="M 4.0914588,17.687263 A 1.5976183,1.3849293 0 0 1 2.5099416,16.911409 1.5976183,1.3849293 0 0 1 2.7888463,15.354791 1.5976183,1.3849293 0 0 1 4.5673306,15.031336 1.5976183,1.3849293 0 0 1 5.5444215,16.359524"
       sodipodi:end="0.037258533"
       sodipodi:start="1.4808245"
       sodipodi:ry="1.3849293"
       sodipodi:rx="1.5976183"
       sodipodi:cy="16.307936"
       sodipodi:cx="3.947912"
       sodipodi:type="arc"
       id="path987"
       style="opacity:0;fill:#3431ca;fill-opacity:1;stroke:#3431ca;stroke-width:0.604959;stroke-linecap:round;stroke-miterlimit:4;stroke-dasharray:none;stroke-opacity:1"
       sodipodi:arc-type="arc" />
    <ellipse
       ry="1.4171934"
       rx="1.8405747"
       cy="19.059034"
       cx="12.036257"
       id="path993"
       style="opacity:0;fill:#3431ca;fill-opacity:1;stroke:#3431ca;stroke-width:0.604959;stroke-linecap:round;stroke-miterlimit:4;stroke-dasharray:none;stroke-opacity:1" />
    <ellipse
       ry="1.2239399"
       rx="1.6562074"
       cy="23.781687"
       cx="7.8101029"
       id="path999"
       style="opacity:0;fill:#3431ca;fill-opacity:1;stroke:#3431ca;stroke-width:0.620522;stroke-linecap:round;stroke-miterlimit:4;stroke-dasharray:none;stroke-opacity:1" />
    <path
       d="m 14.112185,7.1489372 a 2.5686653,0.34042555 0 0 1 -0.786041,0.2451017 2.5686653,0.34042555 0 0 1 -1.877049,0.095094 l 0.09442,-0.3401955 z"
       sodipodi:end="1.6075649"
       sodipodi:start="0"
       sodipodi:ry="0.34042555"
       sodipodi:rx="2.5686653"
       sodipodi:cy="7.1489372"
       sodipodi:cx="11.54352"
       sodipodi:type="arc"
       id="path1001"
       style="opacity:0;fill:#341dca;fill-opacity:1;stroke:#3431ac;stroke-width:0.82099998;stroke-linecap:round;stroke-miterlimit:4;stroke-dasharray:none;stroke-opacity:1" />
    <ellipse
       ry="4.6810327"
       rx="3.3178782"
       cy="15.537522"
       cx="11.140189"
       id="path1005"
       style="opacity:0;fill:#341dca;fill-opacity:1;stroke:#3431ac;stroke-width:0.604959;stroke-linecap:round;stroke-miterlimit:4;stroke-dasharray:none;stroke-opacity:1" />
    <ellipse
       ry="2.1257901"
       rx="1.0655959"
       cy="15.773723"
       cx="8.3066721"
       id="path1007"
       style="opacity:0;fill:#341dca;fill-opacity:1;stroke:#3431ac;stroke-width:0.604959;stroke-linecap:round;stroke-miterlimit:4;stroke-dasharray:none;stroke-opacity:1" />
    <ellipse
       ry="6.065764"
       rx="4.5183754"
       cy="24.758221"
       cx="10.584139"
       id="path1009"
       style="opacity:0;fill:#341dca;fill-opacity:1;stroke:#3431ac;stroke-width:0.821;stroke-linecap:round;stroke-miterlimit:4;stroke-dasharray:none;stroke-opacity:1" />
    <ellipse
       ry="3.4141476"
       rx="3.4907756"
       cy="21.505587"
       cx="10.205234"
       id="path1086"
       style="opacity:0;fill:#346cca;fill-opacity:1;stroke:#3a31ac;stroke-width:0.620522;stroke-linecap:round;stroke-miterlimit:4;stroke-dasharray:none;stroke-opacity:1" />
    <ellipse
       ry="2.8624773"
       rx="2.6397719"
       cy="13.076283"
       cx="7.3597689"
       id="path1088"
       style="opacity:0;fill:#346cca;fill-opacity:1;stroke:#3a31ac;stroke-width:0.648523;stroke-linecap:round;stroke-miterlimit:4;stroke-dasharray:none;stroke-opacity:1" />
    <ellipse
       ry="2.0815029"
       rx="1.1738206"
       cy="18.698027"
       cx="9.3805923"
       id="path1109"
       style="opacity:0;fill:#346cca;fill-opacity:1;stroke:#3a31ac;stroke-width:0.604959;stroke-linecap:round;stroke-miterlimit:4;stroke-dasharray:none;stroke-opacity:1" />
    <ellipse
       cy="17.310358"
       cx="9.7718658"
       id="path1111"
       style="opacity:0;fill:#346cca;fill-opacity:1;stroke:#3a31ac;stroke-width:0.604959;stroke-linecap:round;stroke-miterlimit:4;stroke-dasharray:none;stroke-opacity:1"
       rx="2.3476412"
       ry="2.0815029" />
    <ellipse
       ry="3.1222544"
       rx="3.130188"
       cy="16.269606"
       cx="9.7718658"
       id="path1113"
       style="opacity:0;fill:#346cca;fill-opacity:1;stroke:#3a31ac;stroke-width:0.604959;stroke-linecap:round;stroke-miterlimit:4;stroke-dasharray:none;stroke-opacity:1" />
    <path
       d="m 15.96212,24.585816 a 5.5,5 0 0 1 -6.1059489,4.379808 5.5,5 0 0 1 -4.8184248,-5.550406 5.5,5 0 0 1 6.1049457,-4.380964 5.5,5 0 0 1 4.819695,5.549495 L 10.5,24 Z"
       sodipodi:end="0.11701671"
       sodipodi:start="0.11743283"
       sodipodi:ry="5"
       sodipodi:rx="5.5"
       sodipodi:cy="24"
       sodipodi:cx="10.5"
       sodipodi:type="arc"
       id="path9510"
       style="opacity:0;fill:#3a3fca;fill-opacity:1;stroke:#3a31ac;stroke-width:3.51799989;stroke-linecap:round;stroke-miterlimit:4.0999999;stroke-dasharray:none;stroke-opacity:1" />
    <path
       d="m 14.456369,19.554447 a 1.565094,1.3876686 0 0 1 -1.737525,1.215544 1.565094,1.3876686 0 0 1 -1.371143,-1.540425 1.565094,1.3876686 0 0 1 1.737239,-1.215865 1.565094,1.3876686 0 0 1 1.371505,1.540172 l -1.554391,-0.16201 z"
       sodipodi:end="0.11701665"
       sodipodi:start="0.11743291"
       sodipodi:ry="1.3876686"
       sodipodi:rx="1.565094"
       sodipodi:cy="19.391863"
       sodipodi:cx="12.902054"
       sodipodi:type="arc"
       id="path9512"
       style="opacity:0;fill:#3a3fca;fill-opacity:1;stroke:#3a31ac;stroke-width:2.59226;stroke-linecap:round;stroke-miterlimit:4.1;stroke-dasharray:none;stroke-opacity:1"
       sodipodi:arc-type="slice" />
    <rect
       style="display:inline;fill:#ececec;stroke:#808080;stroke-width:1.018;stroke-linecap:square;stroke-linejoin:miter;stroke-miterlimit:4;stroke-dasharray:none;stroke-opacity:1;paint-order:markers fill stroke"
       id="rect1697"
       width="30.746683"
       height="30.760206"
       x="0.61972976"
       y="0.67070526"
       ry="5.8329525" />
  </g>
  <g
     style="display:inline"
     inkscape:label="wmo"
     id="layer17"
     inkscape:groupmode="layer">
    <ellipse
       ry="3.34973"
       rx="3.2104943"
       cy="21.741787"
       cx="13.033526"
       id="path1013"
       style="display:inline;opacity:0;fill:#341dca;fill-opacity:1;stroke:#3431ac;stroke-width:0.620522;stroke-linecap:round;stroke-miterlimit:4;stroke-dasharray:none;stroke-opacity:1" />
    <ellipse
       ry="3.4691715"
       rx="1.9563675"
       cy="16.616524"
       cx="5.4678578"
       id="path1115"
       style="opacity:0;fill:#346cca;fill-opacity:1;stroke:#3a31ac;stroke-width:0.604959;stroke-linecap:round;stroke-miterlimit:4;stroke-dasharray:none;stroke-opacity:1" />
    <path
       sodipodi:nodetypes="ccccccc"
       id="path1045"
       d="m 4.6280656,20.371989 3.8680807,-8.632702 3.8579897,8.584573 3.840444,-8.65235 4.021171,8.65235 3.732942,-8.587169 3.450948,8.719858"
       style="fill:none;stroke:#000000;stroke-width:1.64649;stroke-linecap:round;stroke-linejoin:round;stroke-miterlimit:4;stroke-dasharray:none;stroke-opacity:1" />
  </g>
</svg>
