<?xml version="1.0" encoding="UTF-8" standalone="no"?>
<svg
   xmlns:osb="http://www.openswatchbook.org/uri/2009/osb"
   xmlns:dc="http://purl.org/dc/elements/1.1/"
   xmlns:cc="http://creativecommons.org/ns#"
   xmlns:rdf="http://www.w3.org/1999/02/22-rdf-syntax-ns#"
   xmlns:svg="http://www.w3.org/2000/svg"
   xmlns="http://www.w3.org/2000/svg"
   xmlns:sodipodi="http://sodipodi.sourceforge.net/DTD/sodipodi-0.dtd"
   xmlns:inkscape="http://www.inkscape.org/namespaces/inkscape"
   width="32"
   height="32"
   viewBox="0 0 8.4666665 8.4666669"
   version="1.1"
   id="svg8"
   inkscape:version="1.0 (4035a4f, 2020-05-01)"
   sodipodi:docname="WS_AREA.svg">
  <defs
     id="defs2">
    <linearGradient
       osb:paint="solid"
       id="linearGradient2960">
      <stop
         id="stop2958"
         offset="0"
         style="stop-color:#000000;stop-opacity:1;" />
    </linearGradient>
  </defs>
  <sodipodi:namedview
     showguides="true"
     inkscape:snap-to-guides="false"
     inkscape:snap-grids="false"
     id="base"
     pagecolor="#ffffff"
     bordercolor="#666666"
     borderopacity="1.0"
     inkscape:pageopacity="0.0"
     inkscape:pageshadow="2"
     inkscape:zoom="18.875"
     inkscape:cx="-4.397351"
     inkscape:cy="16"
     inkscape:document-units="mm"
     inkscape:current-layer="layer8"
     inkscape:document-rotation="0"
     showgrid="true"
     units="px"
     inkscape:window-width="1920"
     inkscape:window-height="991"
     inkscape:window-x="0"
     inkscape:window-y="25"
     inkscape:window-maximized="0"
     inkscape:object-nodes="false"
     inkscape:snap-others="false"
     inkscape:snap-nodes="false"
     inkscape:snap-global="false">
    <inkscape:grid
       type="xygrid"
       id="grid833" />
  </sodipodi:namedview>
  <metadata
     id="metadata5">
    <rdf:RDF>
      <cc:Work
         rdf:about="">
        <dc:format>image/svg+xml</dc:format>
        <dc:type
           rdf:resource="http://purl.org/dc/dcmitype/StillImage" />
        <dc:title />
      </cc:Work>
    </rdf:RDF>
  </metadata>
  <g
     inkscape:groupmode="layer"
     id="layer8"
     inkscape:label="bg">
    <rect
       style="display:inline;fill:#ececec;stroke:#808080;stroke-width:0.266349;stroke-linecap:square;stroke-linejoin:miter;stroke-miterlimit:4;stroke-dasharray:none;stroke-opacity:1;paint-order:markers fill stroke"
       id="rect1697"
       width="8.1608467"
       height="8.2175312"
       x="0.17393616"
       y="0.1526031"
       ry="1.5582621" />
  </g>
  <g
     inkscape:label="Layer 1"
     inkscape:groupmode="layer"
     id="layer1">
    <rect
       style="fill:#0000ff;fill-opacity:0;stroke-width:0.731971;stroke-linejoin:round;paint-order:fill markers stroke"
       id="rect835"
       width="5.224369"
       height="4.0679836"
       x="1.7259426"
       y="2.0781963" />
    <rect
       style="fill:#6f6fca;fill-opacity:0;stroke-width:0.731971;stroke-linejoin:round;paint-order:fill markers stroke"
       id="rect837"
       width="5.224369"
       height="4.3072767"
       x="0.97960407"
       y="2.3174894" />
    <rect
       style="fill:#6565a1;fill-opacity:0;stroke-width:0.731971;stroke-linejoin:round;paint-order:fill markers stroke"
       id="rect839"
       width="5.224369"
       height="4.5465703"
       x="1.2283837"
       y="1.8389031" />
    <path
       sodipodi:nodetypes="ccccccc"
       id="path939"
       d="m 1.463114,3.5648134 2.1813313,-1.6666147 3.5031493,0.017137 -1.0061283,3.3309254 0.839246,1.640877 -4.6881989,0.0053 z"
       style="fill:#afc6e9;fill-opacity:1;stroke:#162d50;stroke-width:0.21797;stroke-linecap:butt;stroke-linejoin:miter;stroke-miterlimit:4;stroke-dasharray:none;stroke-opacity:1" />
  </g>
</svg>
