<?xml version="1.0" encoding="UTF-8" standalone="no"?>
<svg
   xmlns:dc="http://purl.org/dc/elements/1.1/"
   xmlns:cc="http://creativecommons.org/ns#"
   xmlns:rdf="http://www.w3.org/1999/02/22-rdf-syntax-ns#"
   xmlns:svg="http://www.w3.org/2000/svg"
   xmlns="http://www.w3.org/2000/svg"
   xmlns:sodipodi="http://sodipodi.sourceforge.net/DTD/sodipodi-0.dtd"
   xmlns:inkscape="http://www.inkscape.org/namespaces/inkscape"
   sodipodi:docname="WS_WMOSYMBOL.svg"
   inkscape:version="1.0 (4035a4f, 2020-05-01)"
   id="svg8"
   version="1.1"
   viewBox="0 0 8.4666665 8.4666669"
   height="32"
   width="32">
  <defs
     id="defs2" />
  <sodipodi:namedview
     inkscape:window-maximized="0"
     inkscape:window-y="75"
     inkscape:window-x="479"
     inkscape:window-height="794"
     inkscape:window-width="1409"
     units="px"
     showgrid="true"
     inkscape:document-rotation="0"
     inkscape:current-layer="layer1"
     inkscape:document-units="mm"
     inkscape:cy="16"
     inkscape:cx="16"
     inkscape:zoom="18.875"
     inkscape:pageshadow="2"
     inkscape:pageopacity="0.0"
     borderopacity="1.0"
     bordercolor="#666666"
     pagecolor="#ffffff"
     id="base"
     inkscape:snap-global="false">
    <inkscape:grid
       id="grid833"
       type="xygrid" />
  </sodipodi:namedview>
  <metadata
     id="metadata5">
    <rdf:RDF>
      <cc:Work
         rdf:about="">
        <dc:format>image/svg+xml</dc:format>
        <dc:type
           rdf:resource="http://purl.org/dc/dcmitype/StillImage" />
        <dc:title />
      </cc:Work>
    </rdf:RDF>
  </metadata>
  <g
     id="layer1"
     inkscape:groupmode="layer"
     inkscape:label="bg">
    <rect
       y="1.790467"
       x="1.7066501"
       height="4.1537843"
       width="5.4090648"
       id="rect835"
       style="fill:#0000ff;fill-opacity:0;stroke-width:0.75261;stroke-linejoin:round;paint-order:fill markers stroke" />
    <rect
       y="2.0348072"
       x="0.93392658"
       height="4.3981242"
       width="5.4090648"
       id="rect837"
       style="fill:#6f6fca;fill-opacity:0;stroke-width:0.75261;stroke-linejoin:round;paint-order:fill markers stroke" />
    <rect
       y="1.5461267"
       x="1.1915011"
       height="4.6424651"
       width="5.4090648"
       id="rect839"
       style="fill:#6565a1;fill-opacity:0;stroke-width:0.75261;stroke-linejoin:round;paint-order:fill markers stroke" />
    <rect
       style="display:inline;fill:#ececec;stroke:#808080;stroke-width:0.268849;stroke-linecap:square;stroke-linejoin:miter;stroke-miterlimit:4;stroke-dasharray:none;stroke-opacity:1;paint-order:markers fill stroke"
       id="rect1697"
       width="8.1069908"
       height="8.1356392"
       x="0.18261079"
       y="0.18261081"
       ry="1.5427333" />
  </g>
  <g
     inkscape:groupmode="layer"
     id="layer10"
     inkscape:label="wmo">
    <path
       style="fill:none;stroke:#d40000;stroke-width:0.501741;stroke-linecap:butt;stroke-linejoin:miter;stroke-miterlimit:4;stroke-dasharray:none;stroke-opacity:1"
       d="M 2.1040995,1.7775218 H 6.1621773 L 3.7501883,4.5413175 5.9625997,6.379533"
       id="path14386"
       sodipodi:nodetypes="cccc" />
    <path
       style="fill:none;stroke:#d40000;stroke-width:0.501741;stroke-linecap:butt;stroke-linejoin:miter;stroke-miterlimit:4;stroke-dasharray:none;stroke-opacity:1"
       d="M 2.7147728,1.8163574 V 6.9475027"
       id="path14388" />
    <path
       sodipodi:type="star"
       style="fill:#d40000;stroke:none;stroke-width:0.529167;stroke-linecap:square;stroke-linejoin:round;stroke-miterlimit:4;stroke-dasharray:none;paint-order:markers fill stroke"
       id="path14390"
       sodipodi:sides="3"
       sodipodi:cx="5.5229578"
       sodipodi:cy="6.5182118"
       sodipodi:r1="0.67663348"
       sodipodi:r2="0.47203982"
       sodipodi:arg1="0.87340554"
       sodipodi:arg2="1.9206031"
       inkscape:flatsided="true"
       inkscape:rounded="-3.46945e-18"
       inkscape:randomized="0"
       d="M 5.9575053,7.0368653 4.856517,6.6352143 5.7548511,5.882556 Z"
       inkscape:transform-center-x="0.065964029"
       inkscape:transform-center-y="-0.11678391"
       transform="matrix(1.1288699,-0.15014966,0.15031854,1.1020356,-1.3810607,-0.06703736)" />
  </g>
</svg>
