<?xml version="1.0" encoding="UTF-8" standalone="no"?>
<svg
   xmlns:dc="http://purl.org/dc/elements/1.1/"
   xmlns:cc="http://creativecommons.org/ns#"
   xmlns:rdf="http://www.w3.org/1999/02/22-rdf-syntax-ns#"
   xmlns:svg="http://www.w3.org/2000/svg"
   xmlns="http://www.w3.org/2000/svg"
   xmlns:sodipodi="http://sodipodi.sourceforge.net/DTD/sodipodi-0.dtd"
   xmlns:inkscape="http://www.inkscape.org/namespaces/inkscape"
   inkscape:export-ydpi="180"
   inkscape:export-xdpi="180"
   width="32"
   height="32"
   id="svg11300"
   sodipodi:version="0.32"
   inkscape:version="1.0 (4035a4f, 2020-05-01)"
   sodipodi:docname="WS_WARMFRONT.svg"
   inkscape:output_extension="org.inkscape.output.svg.inkscape"
   version="1.0"
   style="display:inline">
  <sodipodi:namedview
     stroke="#3465a4"
     fill="#729fcf"
     id="base"
     pagecolor="#ffffff"
     bordercolor="#666666"
     borderopacity="0.25490196"
     inkscape:pageopacity="0.0"
     inkscape:pageshadow="2"
     inkscape:zoom="25.28125"
     inkscape:cx="16"
     inkscape:cy="16"
     inkscape:current-layer="layer3"
     showgrid="true"
     inkscape:grid-bbox="false"
     inkscape:document-units="px"
     inkscape:showpageshadow="false"
     inkscape:window-width="1480"
     inkscape:window-height="999"
     inkscape:window-x="440"
     inkscape:window-y="25"
     gridtolerance="50"
     inkscape:grid-points="false"
     showguides="true"
     inkscape:guide-bbox="true"
     objecttolerance="0.4"
     inkscape:object-paths="true"
     width="32px"
     height="32px"
     inkscape:window-maximized="0"
     inkscape:snap-grids="false"
     inkscape:snap-to-guides="true"
     inkscape:object-nodes="true"
     inkscape:measure-start="0,0"
     inkscape:measure-end="0,0"
     inkscape:snap-midpoints="true"
     inkscape:snap-intersection-paths="false"
     inkscape:snap-bbox="true"
     inkscape:snap-nodes="true"
     inkscape:document-rotation="0"
     inkscape:snap-global="false">
    <sodipodi:guide
       orientation="horizontal"
       position="50.977307"
       id="guide9112"
       inkscape:locked="false" />
    <inkscape:grid
       type="xygrid"
       id="grid2849" />
  </sodipodi:namedview>
  <metadata
     id="metadata7">
    <rdf:RDF>
      <cc:Work
         rdf:about="">
        <dc:format>image/svg+xml</dc:format>
        <dc:type
           rdf:resource="http://purl.org/dc/dcmitype/StillImage" />
        <dc:title />
        <cc:license
           rdf:resource="Apache License 2.0" />
        <dc:creator>
          <cc:Agent>
            <dc:title />
          </cc:Agent>
        </dc:creator>
        <dc:publisher>
          <cc:Agent>
            <dc:title>ECMWF</dc:title>
          </cc:Agent>
        </dc:publisher>
        <dc:language>en-GB</dc:language>
        <dc:subject>
          <rdf:Bag>
            <rdf:li>Metview icon</rdf:li>
          </rdf:Bag>
        </dc:subject>
        <dc:description>Metview icon</dc:description>
      </cc:Work>
    </rdf:RDF>
  </metadata>
  <defs
     id="defs3">
    <linearGradient
       id="linearGradient3869">
      <stop
         style="stop-color:#fffa02;stop-opacity:1;"
         offset="0"
         id="stop3871" />
      <stop
         style="stop-color:#dddb31;stop-opacity:1;"
         offset="1"
         id="stop3873" />
    </linearGradient>
    <linearGradient
       id="linearGradient3889-7-1-2-9">
      <stop
         style="stop-color:#cfc0af;stop-opacity:1;"
         offset="0"
         id="stop3891-7-1-5-2" />
      <stop
         style="stop-color:#ffe2ab;stop-opacity:1;"
         offset="1"
         id="stop3893-5-0-8-24" />
    </linearGradient>
    <linearGradient
       id="linearGradient3889-8-5-7">
      <stop
         style="stop-color:#cfc0af;stop-opacity:1;"
         offset="0"
         id="stop3891-0-0-5" />
      <stop
         style="stop-color:#ffe2ab;stop-opacity:1;"
         offset="1"
         id="stop3893-2-6-4" />
    </linearGradient>
  </defs>
  <g
     inkscape:groupmode="layer"
     id="layer3"
     inkscape:label="frame"
     style="display:inline">
    <path
       style="opacity:0;fill:#4542c8;fill-opacity:1;stroke:#4542c8;stroke-width:0.18361;stroke-linecap:round;stroke-miterlimit:4;stroke-dasharray:none;stroke-opacity:1"
       id="path4854"
       d="m 18.15248,9.0981533 c 0.15939,-0.04026 0.32158,-0.06656 0.485364,-0.07945 0.14518,6.56e-4 0.277652,-0.06235 0.416896,-0.09494 -0.06087,0.06526 0.283465,-0.132497 0.196679,-0.08265 -0.21762,0.125002 -0.435751,0.249115 -0.653836,0.373304 -0.02137,0.01217 0.04232,-0.02506 0.06367,-0.03724 0.260405,-0.148592 0.521069,-0.296729 0.781602,-0.445093 0.123634,-0.03116 0.234567,-0.0934 0.354287,-0.13505 0.113173,-0.03486 0.231737,-0.04026 0.34922,-0.04368 0.115054,-0.0015 0.226589,0.01079 0.334948,-0.03279 0,0 -0.667379,0.513171 -0.667379,0.513171 v 0 c -0.114741,0.02035 -0.230751,0.01136 -0.346788,0.01769 -0.113286,0.0073 -0.226567,0.02057 -0.332413,0.06456 -0.115494,0.04827 -0.233,0.0907 -0.347272,0.141369 0.219108,-0.127026 0.438216,-0.254051 0.657325,-0.381077 -0.0214,0.01236 -0.04276,0.0248 -0.06419,0.0371 -0.331671,0.190335 -0.626463,0.426804 -0.993885,0.521282 -0.138947,0.0381 -0.27609,0.08301 -0.422137,0.0829 -0.162499,0.01872 -0.324115,0.04639 -0.480646,0.09503 0,0 0.668542,-0.514455 0.668542,-0.514455 z"
       inkscape:connector-curvature="0" />
    <path
       style="opacity:0;fill:#4542c8;fill-opacity:1;stroke:#4542c8;stroke-width:0.18361;stroke-linecap:round;stroke-miterlimit:4;stroke-dasharray:none;stroke-opacity:1"
       id="path4856"
       d="m 17.824923,8.7237463 c 0.20681,0.0045 0.414602,-0.03776 0.614852,-0.08705 0.130592,-0.05725 0.261808,-0.107109 0.403015,-0.12898 0.104857,-0.0079 0.189635,-0.07161 0.290899,-0.09836 0.07493,-0.0081 0.142523,-0.02441 0.210697,-0.05634 0,0 -0.66317,0.51872 -0.66317,0.51872 v 0 c -0.07094,0.02048 -0.143732,0.03146 -0.214088,0.054 -0.09733,0.03718 -0.189659,0.0841 -0.296107,0.08981 -0.135216,0.03212 -0.261063,0.09063 -0.395322,0.126034 -0.208494,0.04198 -0.419082,0.08053 -0.632674,0.07731 0,0 0.681898,-0.495149 0.681898,-0.495149 z"
       inkscape:connector-curvature="0" />
    <rect
       style="display:inline;fill:#ececec;stroke:#808080;stroke-width:1.018;stroke-linecap:square;stroke-linejoin:miter;stroke-miterlimit:4;stroke-dasharray:none;stroke-opacity:1;paint-order:markers fill stroke"
       id="rect1697"
       width="30.746683"
       height="30.760206"
       x="0.6068809"
       y="0.63967448"
       ry="5.8329525" />
  </g>
  <g
     inkscape:groupmode="layer"
     id="layer17"
     inkscape:label="wmo"
     style="display:inline">
    <rect
       y="16.858692"
       x="3.7630668"
       height="2.9994278"
       width="24.288586"
       id="rect866"
       style="display:inline;opacity:1;fill:#e2002d;stroke-width:3.75187;stroke-linecap:round;stroke-linejoin:round;paint-order:fill markers stroke" />
    <rect
       y="10.247264"
       x="27.680101"
       height="7.0969486"
       width="2.0774009"
       id="rect2939-4"
       style="display:inline;opacity:0.536036;fill:none;stroke:none;stroke-width:0.918048" />
    <path
       style="fill:#e2002d;stroke-width:4.20736;stroke-linecap:round;stroke-linejoin:round;paint-order:fill markers stroke"
       id="path1696"
       sodipodi:type="arc"
       sodipodi:cx="10.357288"
       sodipodi:cy="-17.327969"
       sodipodi:rx="4.603621"
       sodipodi:ry="5.5339446"
       sodipodi:start="0"
       sodipodi:end="3.1237921"
       sodipodi:arc-type="arc"
       d="m 14.960909,-17.327969 a 4.603621,5.5339446 0 0 1 -4.562648,5.533726 4.603621,5.5339446 0 0 1 -4.6438643,-5.435224"
       sodipodi:open="true"
       transform="scale(1,-1)" />
    <path
       transform="scale(1,-1)"
       sodipodi:open="true"
       d="m 26.273642,-17.248859 a 4.603621,5.5339446 0 0 1 -4.562648,5.533725 4.603621,5.5339446 0 0 1 -4.643865,-5.435223"
       sodipodi:arc-type="arc"
       sodipodi:end="3.1237921"
       sodipodi:start="0"
       sodipodi:ry="5.5339446"
       sodipodi:rx="4.603621"
       sodipodi:cy="-17.248859"
       sodipodi:cx="21.670021"
       sodipodi:type="arc"
       id="path1706"
       style="fill:#e2002d;stroke-width:4.20736;stroke-linecap:round;stroke-linejoin:round;paint-order:fill markers stroke" />
  </g>
</svg>
