<?xml version="1.0" encoding="UTF-8" standalone="no"?>
<svg
   xmlns:dc="http://purl.org/dc/elements/1.1/"
   xmlns:cc="http://creativecommons.org/ns#"
   xmlns:rdf="http://www.w3.org/1999/02/22-rdf-syntax-ns#"
   xmlns:svg="http://www.w3.org/2000/svg"
   xmlns="http://www.w3.org/2000/svg"
   xmlns:sodipodi="http://sodipodi.sourceforge.net/DTD/sodipodi-0.dtd"
   xmlns:inkscape="http://www.inkscape.org/namespaces/inkscape"
   viewBox="0 0 64 64"
   style="display:inline"
   version="1.1"
   inkscape:export-ydpi="45"
   inkscape:export-xdpi="45"
   inkscape:export-filename="GRIB.png"
   inkscape:output_extension="org.inkscape.output.svg.inkscape"
   sodipodi:docname="add_at_click.svg"
   inkscape:version="1.0 (4035a4f, 2020-05-01)"
   sodipodi:version="0.32"
   id="svg3688"
   height="68.26667"
   width="68.26667">
  <defs
     id="defs3690">
    <linearGradient
       id="linearGradient4749">
      <stop
         style="stop-color:#2f7c0a;stop-opacity:1;"
         offset="0"
         id="stop4751" />
      <stop
         style="stop-color:#bfdcb5;stop-opacity:1;"
         offset="1"
         id="stop4753" />
    </linearGradient>
  </defs>
  <sodipodi:namedview
     inkscape:document-rotation="0"
     inkscape:window-maximized="0"
     inkscape:guide-bbox="true"
     showguides="true"
     inkscape:window-y="84"
     inkscape:window-x="275"
     inkscape:window-height="1017"
     inkscape:window-width="1626"
     inkscape:grid-bbox="true"
     inkscape:document-units="px"
     showgrid="true"
     inkscape:current-layer="layer1"
     inkscape:cy="35.612457"
     inkscape:cx="26.667034"
     inkscape:zoom="11.5625"
     inkscape:pageshadow="2"
     inkscape:pageopacity="0.0"
     borderopacity="1.0"
     bordercolor="#666666"
     pagecolor="#ffffff"
     id="base">
    <inkscape:grid
       spacingy="1"
       spacingx="1"
       originy="0"
       originx="0"
       id="grid3709"
       type="xygrid" />
    <sodipodi:guide
       id="guide3751"
       position="-20.223349,27.776652"
       orientation="1,0" />
  </sodipodi:namedview>
  <metadata
     id="metadata3693">
    <rdf:RDF>
      <cc:Work
         rdf:about="">
        <dc:format>image/svg+xml</dc:format>
        <dc:type
           rdf:resource="http://purl.org/dc/dcmitype/StillImage" />
        <dc:title />
      </cc:Work>
      <cc:Work
         rdf:about="">
        <dc:format>image/svg+xml</dc:format>
        <dc:type
           rdf:resource="http://purl.org/dc/dcmitype/StillImage" />
      </cc:Work>
    </rdf:RDF>
  </metadata>
  <g
     style="display:inline"
     inkscape:groupmode="layer"
     inkscape:label="map"
     id="layer1">
    <path
       sodipodi:nodetypes="cccccccc"
       id="path3579"
       d="M 14.582297,46.550951 25.391411,30.957265 41.776683,56.166843 51.380889,48.972454 30.993864,26.760538 48.997367,20.771057 12.648649,7.0038684 c 0,0 2.438734,27.6956046 1.933648,39.5470826 z"
       style="fill:#e6e6e6;stroke:none;stroke-width:1.39503px;stroke-linecap:butt;stroke-linejoin:miter;stroke-opacity:1" />
  </g>
  <g
     style="display:inline"
     inkscape:label="frame"
     id="layer3"
     inkscape:groupmode="layer" />
</svg>
