<?xml version="1.0" encoding="UTF-8" standalone="no"?>
<svg
   xmlns:dc="http://purl.org/dc/elements/1.1/"
   xmlns:cc="http://creativecommons.org/ns#"
   xmlns:rdf="http://www.w3.org/1999/02/22-rdf-syntax-ns#"
   xmlns:svg="http://www.w3.org/2000/svg"
   xmlns="http://www.w3.org/2000/svg"
   xmlns:sodipodi="http://sodipodi.sourceforge.net/DTD/sodipodi-0.dtd"
   xmlns:inkscape="http://www.inkscape.org/namespaces/inkscape"
   viewBox="0 0 32 32"
   style="display:inline"
   version="1.1"
   inkscape:export-ydpi="120.00000"
   inkscape:export-xdpi="120.00000"
   sodipodi:docname="check_syntax.svg"
   inkscape:version="1.0 (4035a4f, 2020-05-01)"
   sodipodi:version="0.32"
   id="svg1455"
   height="34.133335"
   width="34.133335">
  <defs
     id="defs3">
    <linearGradient
       id="linearGradient3693">
      <stop
         style="stop-color:#42f56a;stop-opacity:1;"
         offset="0"
         id="stop3695" />
      <stop
         style="stop-color:#00a100;stop-opacity:1"
         offset="1"
         id="stop3697" />
    </linearGradient>
    <linearGradient
       id="linearGradient3710-9">
      <stop
         style="stop-color:#cccccc;stop-opacity:1"
         offset="0"
         id="stop3712-2" />
      <stop
         style="stop-color:#ffffff;stop-opacity:1;"
         offset="1"
         id="stop3714-2" />
    </linearGradient>
  </defs>
  <sodipodi:namedview
     inkscape:document-rotation="0"
     inkscape:snap-grids="false"
     inkscape:object-nodes="false"
     inkscape:snap-smooth-nodes="false"
     inkscape:window-maximized="0"
     inkscape:window-y="25"
     inkscape:window-x="2"
     inkscape:window-height="794"
     inkscape:window-width="1438"
     inkscape:grid-bbox="true"
     inkscape:document-units="px"
     showgrid="true"
     inkscape:current-layer="layer6"
     inkscape:cy="17.066668"
     inkscape:cx="17.066668"
     inkscape:zoom="17.695312"
     inkscape:pageshadow="2"
     inkscape:pageopacity="0.0"
     borderopacity="1.0"
     bordercolor="#666666"
     pagecolor="#ffffff"
     id="base">
    <inkscape:grid
       spacingy="1"
       spacingx="1"
       originy="0"
       originx="0"
       snapvisiblegridlinesonly="true"
       enabled="true"
       visible="true"
       empspacing="5"
       id="grid3734"
       type="xygrid" />
  </sodipodi:namedview>
  <metadata
     id="metadata7">
    <rdf:RDF>
      <cc:Work
         rdf:about="">
        <dc:format>image/svg+xml</dc:format>
        <dc:type
           rdf:resource="http://purl.org/dc/dcmitype/StillImage" />
        <dc:title />
        <cc:license
           rdf:resource="Apache License 2.0" />
        <dc:creator>
          <cc:Agent>
            <dc:title />
          </cc:Agent>
        </dc:creator>
        <dc:publisher>
          <cc:Agent>
            <dc:title>ECMWF</dc:title>
          </cc:Agent>
        </dc:publisher>
        <dc:language>en-GB</dc:language>
        <dc:subject>
          <rdf:Bag>
            <rdf:li>Metview icon</rdf:li>
          </rdf:Bag>
        </dc:subject>
        <dc:description>Metview icon</dc:description>
      </cc:Work>
    </rdf:RDF>
  </metadata>
  <g
     style="display:inline"
     inkscape:label="paper 2"
     id="layer2"
     inkscape:groupmode="layer" />
  <g
     style="display:inline"
     transform="translate(0,-16)"
     inkscape:groupmode="layer"
     inkscape:label="paper"
     id="layer1" />
  <g
     style="display:inline"
     inkscape:label="pencil"
     id="layer6"
     inkscape:groupmode="layer">
    <path
       sodipodi:nodetypes="ccccccc"
       id="path2911"
       d="m 6.0730981,17.420102 2.528137,-2.022509 3.1461269,4.07311 11.67176,-9.5788347 2.037799,2.9270887 -14.069047,11.570055 z"
       style="fill:#ececec;fill-opacity:1;stroke:none;stroke-width:1.0375;stroke-linecap:butt;stroke-linejoin:miter;stroke-miterlimit:4;stroke-dasharray:none;stroke-opacity:1" />
    <circle
       cy="16.284695"
       cx="16.072777"
       id="path8588"
       style="fill:none;stroke:#f2f2f2;stroke-width:0.98317;stroke-linecap:round;stroke-miterlimit:4;stroke-dasharray:none;stroke-opacity:1;paint-order:markers fill stroke"
       r="14.516485" />
  </g>
</svg>
