<?xml version="1.0" encoding="UTF-8" standalone="no"?>
<svg
   xmlns:dc="http://purl.org/dc/elements/1.1/"
   xmlns:cc="http://creativecommons.org/ns#"
   xmlns:rdf="http://www.w3.org/1999/02/22-rdf-syntax-ns#"
   xmlns:svg="http://www.w3.org/2000/svg"
   xmlns="http://www.w3.org/2000/svg"
   xmlns:xlink="http://www.w3.org/1999/xlink"
   xmlns:sodipodi="http://sodipodi.sourceforge.net/DTD/sodipodi-0.dtd"
   xmlns:inkscape="http://www.inkscape.org/namespaces/inkscape"
   width="68.26667"
   height="68.26667"
   id="svg2"
   version="1.1"
   inkscape:version="1.0 (4035a4f, 2020-05-01)"
   sodipodi:docname="codes_ui.svg"
   inkscape:export-xdpi="90"
   inkscape:export-ydpi="90"
   viewBox="0 0 64 64">
  <defs
     id="defs4">
    <linearGradient
       id="linearGradient3837">
      <stop
         style="stop-color:#00a0e2;stop-opacity:1;"
         offset="0"
         id="stop3839" />
      <stop
         style="stop-color:#6ca3b9;stop-opacity:1"
         offset="1"
         id="stop3841" />
    </linearGradient>
    <linearGradient
       id="linearGradient3755">
      <stop
         id="stop3763"
         offset="0"
         style="stop-color:#4471a6;stop-opacity:1;" />
      <stop
         style="stop-color:#cdd6de;stop-opacity:1;"
         offset="1"
         id="stop3759" />
    </linearGradient>
    <linearGradient
       inkscape:collect="always"
       xlink:href="#linearGradient3755"
       id="linearGradient3761"
       x1="131.57895"
       y1="1.9138784"
       x2="130.14354"
       y2="183.73206"
       gradientUnits="userSpaceOnUse"
       gradientTransform="matrix(1.0806175,0,0,1.0294118,0.03857296,852.36218)" />
  </defs>
  <sodipodi:namedview
     id="base"
     pagecolor="#ffffff"
     bordercolor="#666666"
     borderopacity="1.0"
     inkscape:pageopacity="0.0"
     inkscape:pageshadow="2"
     inkscape:zoom="13.256835"
     inkscape:cx="35.038529"
     inkscape:cy="33.756171"
     inkscape:document-units="px"
     inkscape:current-layer="layer3"
     showgrid="true"
     width="200px"
     inkscape:window-width="1920"
     inkscape:window-height="1095"
     inkscape:window-x="101"
     inkscape:window-y="94"
     inkscape:window-maximized="0"
     inkscape:snap-grids="false"
     inkscape:document-rotation="0">
    <inkscape:grid
       type="xygrid"
       id="grid2835"
       empspacing="5"
       visible="true"
       enabled="true"
       snapvisiblegridlinesonly="true"
       originx="0"
       originy="0"
       spacingx="1"
       spacingy="1" />
  </sodipodi:namedview>
  <metadata
     id="metadata7">
    <rdf:RDF>
      <cc:Work
         rdf:about="">
        <dc:format>image/svg+xml</dc:format>
        <dc:type
           rdf:resource="http://purl.org/dc/dcmitype/StillImage" />
        <dc:title />
        <dc:publisher>
          <cc:Agent>
            <dc:title>ECMWF</dc:title>
          </cc:Agent>
        </dc:publisher>
        <dc:description>Metview icon</dc:description>
        <dc:language>en-GB</dc:language>
        <cc:license
           rdf:resource="Apache License 2.0" />
      </cc:Work>
    </rdf:RDF>
  </metadata>
  <g
     inkscape:label="bg"
     inkscape:groupmode="layer"
     id="layer1"
     transform="translate(0,-988.36218)" />
  <g
     inkscape:groupmode="layer"
     id="layer4"
     inkscape:label="logo shadow"
     transform="translate(0,-136)" />
  <g
     inkscape:groupmode="layer"
     id="layer2"
     inkscape:label="text"
     transform="translate(0,-136)" />
  <g
     inkscape:groupmode="layer"
     id="layer3"
     inkscape:label="logo"
     style="display:inline"
     transform="translate(0,-136)">
    <rect
       ry="10.100953"
       y="139.10484"
       x="3.2216244"
       height="57.741455"
       width="57.690418"
       id="rect895"
       style="fill:#0192e2;fill-opacity:1;stroke:none;stroke-width:1.61254;stroke-linecap:round;stroke-linejoin:round;paint-order:markers fill stroke" />
    <path
       id="path897"
       style="fill:#f9f9f9;stroke-width:0.778881;stroke-linecap:round;stroke-linejoin:round;paint-order:markers fill stroke"
       d="m 32.061632,145.98363 c -12.659867,0 -22.9227174,10.26284 -22.9227163,22.9227 -1.1e-6,12.65987 10.2628493,22.92272 22.9227163,22.92272 9.660681,-5.9e-4 18.210321,-4.67966 21.487953,-13.76734 l -8.579117,-2e-5 c -2.696953,4.66276 -6.878098,6.17063 -12.382981,6.17093 -8.412599,-2.6e-4 -15.232136,-6.62666 -15.231884,-14.80045 -0.24747,-9.06711 6.270696,-16.09686 15.851152,-15.79052 6.030228,0.0477 8.884129,2.37349 11.083254,5.32473 l 8.942953,0.0737 C 49.813675,150.21538 41.525677,145.9836 32.061633,145.98364 Z"
       sodipodi:nodetypes="cscccccccccc" />
    <text
       xml:space="preserve"
       style="font-style:normal;font-variant:normal;font-weight:bold;font-stretch:normal;font-size:13.8607px;line-height:1.25;font-family:sans-serif;-inkscape-font-specification:'sans-serif Bold';fill:#ffffff;stroke-width:0.75719"
       x="35.138615"
       y="188.37154"
       id="text915"
       transform="scale(1.0869831,0.9199775)"><tspan
         sodipodi:role="line"
         id="tspan913"
         x="35.138615"
         y="188.37154"
         style="font-style:normal;font-variant:normal;font-weight:bold;font-stretch:normal;font-size:13.8607px;font-family:sans-serif;-inkscape-font-specification:'sans-serif Bold';fill:#ffffff;stroke-width:0.75719">UI</tspan></text>
  </g>
</svg>
