<?xml version="1.0" encoding="UTF-8" standalone="no"?>
<svg
   xmlns:dc="http://purl.org/dc/elements/1.1/"
   xmlns:cc="http://creativecommons.org/ns#"
   xmlns:rdf="http://www.w3.org/1999/02/22-rdf-syntax-ns#"
   xmlns:svg="http://www.w3.org/2000/svg"
   xmlns="http://www.w3.org/2000/svg"
   xmlns:sodipodi="http://sodipodi.sourceforge.net/DTD/sodipodi-0.dtd"
   xmlns:inkscape="http://www.inkscape.org/namespaces/inkscape"
   width="32"
   height="32"
   id="svg1455"
   sodipodi:version="0.32"
   inkscape:version="1.0 (4035a4f, 2020-05-01)"
   sodipodi:docname="colour_wheel.svg"
   inkscape:export-xdpi="120.00000"
   inkscape:export-ydpi="120.00000"
   version="1.1"
   style="display:inline">
  <defs
     id="defs3">
    <linearGradient
       id="linearGradient3710-9">
      <stop
         id="stop3712-2"
         offset="0"
         style="stop-color:#f8f8f8;stop-opacity:1;" />
      <stop
         id="stop3714-2"
         offset="1"
         style="stop-color:#ffffff;stop-opacity:1;" />
    </linearGradient>
    <linearGradient
       id="linearGradient3869-6">
      <stop
         style="stop-color:#ffad02;stop-opacity:1;"
         offset="0"
         id="stop3871-9" />
      <stop
         style="stop-color:#c4ba4a;stop-opacity:1;"
         offset="1"
         id="stop3873-2" />
    </linearGradient>
    <linearGradient
       id="linearGradient3829">
      <stop
         style="stop-color:#786535;stop-opacity:1;"
         offset="0"
         id="stop3831" />
      <stop
         style="stop-color:#cd6938;stop-opacity:1;"
         offset="1"
         id="stop3833" />
    </linearGradient>
    <linearGradient
       id="linearGradient3821">
      <stop
         style="stop-color:#050505;stop-opacity:1;"
         offset="0"
         id="stop3823" />
      <stop
         style="stop-color:#949494;stop-opacity:1;"
         offset="1"
         id="stop3825" />
    </linearGradient>
  </defs>
  <sodipodi:namedview
     id="base"
     pagecolor="#ffffff"
     bordercolor="#666666"
     borderopacity="1.0"
     inkscape:pageopacity="0.0"
     inkscape:pageshadow="2"
     inkscape:zoom="16.524835"
     inkscape:cx="15.967741"
     inkscape:cy="15.430797"
     inkscape:current-layer="g4016"
     showgrid="true"
     inkscape:document-units="px"
     inkscape:grid-bbox="true"
     inkscape:window-width="1416"
     inkscape:window-height="803"
     inkscape:window-x="24"
     inkscape:window-y="25"
     inkscape:window-maximized="0"
     inkscape:snap-smooth-nodes="false"
     inkscape:object-nodes="false"
     inkscape:snap-grids="true"
     inkscape:snap-to-guides="true"
     inkscape:document-rotation="0">
    <inkscape:grid
       type="xygrid"
       id="grid3734"
       empspacing="5"
       visible="true"
       enabled="true"
       snapvisiblegridlinesonly="true" />
  </sodipodi:namedview>
  <metadata
     id="metadata7">
    <rdf:RDF>
      <cc:Work
         rdf:about="">
        <dc:format>image/svg+xml</dc:format>
        <dc:type
           rdf:resource="http://purl.org/dc/dcmitype/StillImage" />
        <dc:title />
        <cc:license
           rdf:resource="Apache License 2.0" />
        <dc:creator>
          <cc:Agent>
            <dc:title />
          </cc:Agent>
        </dc:creator>
        <dc:publisher>
          <cc:Agent>
            <dc:title>ECMWF</dc:title>
          </cc:Agent>
        </dc:publisher>
        <dc:language>en-GB</dc:language>
        <dc:subject>
          <rdf:Bag>
            <rdf:li>Metview icon</rdf:li>
          </rdf:Bag>
        </dc:subject>
        <dc:description>Metview icon</dc:description>
      </cc:Work>
    </rdf:RDF>
  </metadata>
  <g
     inkscape:groupmode="layer"
     id="layer2"
     inkscape:label="paper 2"
     style="display:inline" />
  <g
     id="layer1"
     inkscape:label="paper"
     inkscape:groupmode="layer"
     transform="translate(0,-16)"
     style="display:inline" />
  <g
     inkscape:groupmode="layer"
     id="layer8"
     inkscape:label="shadow" />
  <g
     inkscape:groupmode="layer"
     id="layer6"
     inkscape:label="pencil"
     style="display:inline">
    <g
       transform="matrix(1.1679781,0.36267119,-0.32128737,1.1440776,-1.5959036,-5.941948)"
       id="g4016">
      <ellipse
         style="fill:none;stroke:#e6e6e6;stroke-width:2.48990471;stroke-linecap:square;stroke-linejoin:round;stroke-miterlimit:4;stroke-dasharray:none;stroke-opacity:1;paint-order:markers fill stroke"
         id="path1462"
         cx="14.52161"
         cy="18.270493"
         transform="matrix(0.95325107,-0.30217941,0.26522817,0.96418568,0,0)"
         rx="11.565825"
         ry="11.673536" />
    </g>
  </g>
</svg>
