<?xml version="1.0" encoding="UTF-8" standalone="no"?>
<svg
   xmlns:dc="http://purl.org/dc/elements/1.1/"
   xmlns:cc="http://creativecommons.org/ns#"
   xmlns:rdf="http://www.w3.org/1999/02/22-rdf-syntax-ns#"
   xmlns:svg="http://www.w3.org/2000/svg"
   xmlns="http://www.w3.org/2000/svg"
   xmlns:xlink="http://www.w3.org/1999/xlink"
   xmlns:sodipodi="http://sodipodi.sourceforge.net/DTD/sodipodi-0.dtd"
   xmlns:inkscape="http://www.inkscape.org/namespaces/inkscape"
   viewBox="0 0 64 64"
   version="1.1"
   inkscape:export-ydpi="45"
   inkscape:export-xdpi="45"
   inkscape:output_extension="org.inkscape.output.svg.inkscape"
   sodipodi:docname="create_python.svg"
   inkscape:version="1.0 (4035a4f, 2020-05-01)"
   sodipodi:version="0.32"
   id="svg2160"
   height="68.26667"
   width="68.26667">
  <defs
     id="defs2162">
    <linearGradient
       id="linearGradient3845">
      <stop
         id="stop3847"
         offset="0"
         style="stop-color:#289028;stop-opacity:1;" />
      <stop
         id="stop3849"
         offset="1"
         style="stop-color:#83c56d;stop-opacity:1;" />
    </linearGradient>
    <linearGradient
       id="linearGradient3143">
      <stop
         id="stop3145"
         offset="0"
         style="stop-color:#ec6a4e;stop-opacity:1" />
      <stop
         id="stop3147"
         offset="1"
         style="stop-color:#f1a394;stop-opacity:1" />
    </linearGradient>
    <linearGradient
       gradientUnits="userSpaceOnUse"
       y2="19.5"
       x2="38.5"
       y1="19.5"
       x1="7.5"
       id="linearGradient3851"
       xlink:href="#linearGradient3845"
       inkscape:collect="always" />
    <linearGradient
       inkscape:collect="always"
       xlink:href="#linearGradient3845-1"
       id="linearGradient3945"
       gradientUnits="userSpaceOnUse"
       x1="7.5"
       y1="19.5"
       x2="38.5"
       y2="19.5" />
    <linearGradient
       id="linearGradient3845-1">
      <stop
         id="stop3847-7"
         offset="0"
         style="stop-color:#326dc2;stop-opacity:1;" />
      <stop
         id="stop3849-4"
         offset="1"
         style="stop-color:#6295be;stop-opacity:1;" />
    </linearGradient>
    <linearGradient
       gradientTransform="matrix(0.562541,0,0,0.567972,-9.399749,-5.305317)"
       gradientUnits="userSpaceOnUse"
       xlink:href="#linearGradient4689"
       id="linearGradient1478"
       y2="114.39767"
       x2="135.66525"
       y1="20.603781"
       x1="26.648937" />
    <linearGradient
       id="linearGradient4689">
      <stop
         id="stop4691"
         offset="0"
         style="stop-color:#5a9fd4;stop-opacity:1" />
      <stop
         id="stop4693"
         offset="1"
         style="stop-color:#306998;stop-opacity:1" />
    </linearGradient>
    <linearGradient
       gradientTransform="matrix(0.562541,0,0,0.567972,-9.399749,-5.305317)"
       gradientUnits="userSpaceOnUse"
       xlink:href="#linearGradient4671"
       id="linearGradient1475"
       y2="137.27299"
       x2="112.03144"
       y1="192.35176"
       x1="150.96111" />
    <linearGradient
       id="linearGradient4671">
      <stop
         id="stop4673"
         offset="0"
         style="stop-color:#ffd43b;stop-opacity:1" />
      <stop
         id="stop4675"
         offset="1"
         style="stop-color:#ffe873;stop-opacity:1" />
    </linearGradient>
  </defs>
  <sodipodi:namedview
     inkscape:document-rotation="0"
     inkscape:window-maximized="0"
     inkscape:window-y="25"
     inkscape:window-x="88"
     inkscape:window-height="795"
     inkscape:window-width="1440"
     inkscape:grid-bbox="true"
     inkscape:document-units="px"
     showgrid="true"
     inkscape:current-layer="g3383"
     inkscape:cy="34.133335"
     inkscape:cx="34.133335"
     inkscape:zoom="8.8623042"
     inkscape:pageshadow="2"
     inkscape:pageopacity="0.0"
     borderopacity="1.0"
     bordercolor="#666666"
     pagecolor="#ffffff"
     id="base">
    <inkscape:grid
       spacingy="1"
       spacingx="1"
       originy="0"
       originx="0"
       id="grid2831"
       type="xygrid" />
  </sodipodi:namedview>
  <metadata
     id="metadata7">
    <rdf:RDF>
      <cc:Work
         rdf:about="">
        <dc:format>image/svg+xml</dc:format>
        <dc:type
           rdf:resource="http://purl.org/dc/dcmitype/StillImage" />
        <dc:title />
        <cc:license
           rdf:resource="Apache License 2.0" />
        <dc:creator>
          <cc:Agent>
            <dc:title />
          </cc:Agent>
        </dc:creator>
        <dc:publisher>
          <cc:Agent>
            <dc:title>ECMWF</dc:title>
          </cc:Agent>
        </dc:publisher>
        <dc:language>en-GB</dc:language>
        <dc:subject>
          <rdf:Bag>
            <rdf:li>Metview icon</rdf:li>
          </rdf:Bag>
        </dc:subject>
        <dc:description>Metview icon</dc:description>
      </cc:Work>
    </rdf:RDF>
  </metadata>
  <g
     style="display:inline"
     inkscape:label="bg"
     id="layer2"
     inkscape:groupmode="layer">
    <g
       transform="matrix(0.5565782,0,0,0.5565782,-2.7760203,-3.5104163)"
       id="g3383"
       style="fill:none;stroke:#000000;stroke-opacity:1;fill-opacity:1">
      <path
         inkscape:connector-curvature="0"
         d="m 58.880608,18.912451 c -3.393551,0.01549 -6.634316,0.29978 -9.485855,0.795416 -8.40028,1.45775 -9.925446,4.508946 -9.925446,10.135874 v 7.431458 2.477152 h -7.449868 c -5.769221,0 -10.820917,3.406176 -12.401023,9.885886 -1.822632,7.427253 -1.903475,12.061979 0,19.817223 1.411072,5.772704 4.780904,9.885884 10.550124,9.885885 h 6.82519 v -8.908659 c 0,-6.435982 5.669039,-12.113049 12.401023,-12.113051 h 19.827753 c 5.519344,0 9.925448,-4.463904 9.925445,-9.908612 V 29.843741 c 0,-5.284354 -4.538389,-9.253936 -9.925445,-10.135874 -3.410087,-0.557591 -6.948346,-0.810905 -10.341898,-0.795416 z"
         style="fill:#4891a3;fill-opacity:1;stroke:#4891a3;stroke-width:3.70788;stroke-miterlimit:4;stroke-dasharray:none;stroke-opacity:1"
         id="path1948"
         sodipodi:nodetypes="scsccsccscssssscs" />
      <path
         sodipodi:nodetypes="scsccsccscssssscs"
         id="path4647"
         style="fill:#ccaf35;fill-opacity:1;stroke:#ccaf35;stroke-width:3.70788;stroke-miterlimit:4;stroke-dasharray:none;stroke-opacity:1"
         d="m 66.559601,108.76495 c 3.393551,-0.0155 6.634316,-0.29978 9.485855,-0.79541 8.40028,-1.45775 9.925446,-4.50895 9.925446,-10.135878 v -7.431457 -2.477153 h 7.449867 c 5.76922,0 10.820921,-3.406175 12.401031,-9.885886 1.82263,-7.427253 1.90347,-12.061979 0,-19.817223 -1.41108,-5.772704 -4.78091,-9.885884 -10.550131,-9.885885 h -6.82519 v 8.908659 c 0,6.435982 -5.66904,12.113049 -12.401023,12.113051 H 56.217702 c -5.519343,0 -9.925447,4.463904 -9.925444,9.908612 v 18.567282 c 0,5.284358 4.538389,9.253938 9.925444,10.135878 3.410088,0.55759 6.948347,0.8109 10.341899,0.79541 z"
         inkscape:connector-curvature="0" />
    </g>
  </g>
  <g
     style="display:inline"
     inkscape:label="circle"
     id="layer4"
     inkscape:groupmode="layer" />
</svg>
