<?xml version="1.0" encoding="UTF-8" standalone="no"?>
<!-- Created with Inkscape (http://www.inkscape.org/) -->

<svg
   xmlns:dc="http://purl.org/dc/elements/1.1/"
   xmlns:cc="http://creativecommons.org/ns#"
   xmlns:rdf="http://www.w3.org/1999/02/22-rdf-syntax-ns#"
   xmlns:svg="http://www.w3.org/2000/svg"
   xmlns="http://www.w3.org/2000/svg"
   xmlns:sodipodi="http://sodipodi.sourceforge.net/DTD/sodipodi-0.dtd"
   xmlns:inkscape="http://www.inkscape.org/namespaces/inkscape"
   inkscape:export-ydpi="90"
   inkscape:export-xdpi="90"
   width="32"
   height="32"
   id="svg11300"
   sodipodi:version="0.32"
   inkscape:version="0.47 r22583"
   sodipodi:docname="create_mars.svg"
   inkscape:output_extension="org.inkscape.output.svg.inkscape"
   version="1.0"
   style="display:inline">
  <metadata
     id="metadata7">
    <rdf:RDF>
      <cc:Work
         rdf:about="">
        <dc:format>image/svg+xml</dc:format>
        <dc:type
           rdf:resource="http://purl.org/dc/dcmitype/StillImage" />
        <dc:title />
        <cc:license
           rdf:resource="Apache License 2.0" />
        <dc:creator>
          <cc:Agent>
            <dc:title />
          </cc:Agent>
        </dc:creator>
        <dc:publisher>
          <cc:Agent>
            <dc:title>ECMWF</dc:title>
          </cc:Agent>
        </dc:publisher>
        <dc:language>en-GB</dc:language>
        <dc:subject>
          <rdf:Bag>
            <rdf:li>Metview icon</rdf:li>
          </rdf:Bag>
        </dc:subject>
        <dc:description>Metview icon</dc:description>
      </cc:Work>
    </rdf:RDF>
  </metadata>
  <sodipodi:namedview
     stroke="#3465a4"
     fill="#729fcf"
     id="base"
     pagecolor="#ffffff"
     bordercolor="#666666"
     borderopacity="0.25490196"
     inkscape:pageopacity="0.0"
     inkscape:pageshadow="2"
     inkscape:zoom="22.40625"
     inkscape:cx="8.153975"
     inkscape:cy="15.13615"
     inkscape:current-layer="layer4"
     showgrid="true"
     inkscape:grid-bbox="false"
     inkscape:document-units="px"
     inkscape:showpageshadow="false"
     inkscape:window-width="1467"
     inkscape:window-height="966"
     inkscape:window-x="188"
     inkscape:window-y="35"
     gridtolerance="50"
     inkscape:grid-points="false"
     showguides="true"
     inkscape:guide-bbox="true"
     objecttolerance="0.4"
     inkscape:object-paths="true"
     width="32px"
     height="32px"
     inkscape:window-maximized="0">
    <sodipodi:guide
       orientation="horizontal"
       position="50.977307"
       id="guide9112" />
    <inkscape:grid
       type="xygrid"
       id="grid2855" />
  </sodipodi:namedview>
  <defs
     id="defs3" />
  <g
     inkscape:groupmode="layer"
     id="layer3"
     inkscape:label="tape line"
     style="display:inline">
    <rect
       style="fill:#871e28;fill-opacity:1;fill-rule:evenodd;stroke:none"
       id="rect2860"
       width="12.062091"
       height="1.955911"
       x="19.048203"
       y="27.586374" />
  </g>
  <g
     inkscape:groupmode="layer"
     id="layer1"
     inkscape:label="disk"
     style="display:inline">
    <path
       sodipodi:type="arc"
       style="fill:#ffffff;fill-opacity:1;fill-rule:evenodd;stroke:#1c1f2b;stroke-width:1.0086019;stroke-linecap:butt;stroke-linejoin:miter;stroke-miterlimit:4;stroke-opacity:1;stroke-dasharray:none;display:inline"
       id="path4193"
       sodipodi:cx="17.300776"
       sodipodi:cy="16.889763"
       sodipodi:rx="11.62326"
       sodipodi:ry="11.355031"
       d="m 28.924035,16.889763 a 11.62326,11.355031 0 1 1 -23.246519,0 11.62326,11.355031 0 1 1 23.246519,0 z"
       transform="matrix(1.2120855,0,0,1.2071206,-4.992487,-4.5623266)" />
    <path
       transform="matrix(1.1438237,0,0,1.1391384,-3.7890371,-3.3048256)"
       d="m 28.924035,16.889763 a 11.62326,11.355031 0 1 1 -23.246519,0 11.62326,11.355031 0 1 1 23.246519,0 z"
       sodipodi:ry="11.355031"
       sodipodi:rx="11.62326"
       sodipodi:cy="16.889763"
       sodipodi:cx="17.300776"
       id="path4203"
       style="fill:#ffffff;fill-opacity:1;fill-rule:evenodd;stroke:#b9bdc7;stroke-width:0.65199035;stroke-linecap:butt;stroke-linejoin:miter;stroke-miterlimit:4;stroke-opacity:1;stroke-dasharray:none;display:inline"
       sodipodi:type="arc" />
  </g>
  <g
     inkscape:groupmode="layer"
     id="layer2"
     inkscape:label="center"
     style="display:inline">
    <path
       sodipodi:type="arc"
       style="fill:#ffffff;fill-opacity:1;fill-rule:evenodd;stroke:#1329cb;stroke-width:1.64234912;stroke-linecap:butt;stroke-linejoin:miter;stroke-miterlimit:4;stroke-opacity:1;stroke-dasharray:none;display:inline"
       id="path4195"
       sodipodi:cx="17.725471"
       sodipodi:cy="17.448572"
       sodipodi:rx="6.1022115"
       sodipodi:ry="6.3257356"
       d="m 23.827683,17.448572 a 6.1022115,6.3257356 0 1 1 -12.204423,0 6.1022115,6.3257356 0 1 1 12.204423,0 z"
       transform="matrix(0.95928278,0,0,0.93330669,-0.953455,-0.5256397)" />
  </g>
  <g
     inkscape:groupmode="layer"
     id="layer4"
     inkscape:label="arrow"
     style="display:inline" />
</svg>
