<?xml version="1.0" encoding="UTF-8" standalone="no"?>
<svg
   xmlns:dc="http://purl.org/dc/elements/1.1/"
   xmlns:cc="http://creativecommons.org/ns#"
   xmlns:rdf="http://www.w3.org/1999/02/22-rdf-syntax-ns#"
   xmlns:svg="http://www.w3.org/2000/svg"
   xmlns="http://www.w3.org/2000/svg"
   xmlns:sodipodi="http://sodipodi.sourceforge.net/DTD/sodipodi-0.dtd"
   xmlns:inkscape="http://www.inkscape.org/namespaces/inkscape"
   width="34.133335"
   height="34.133335"
   id="svg2"
   version="1.1"
   inkscape:version="1.0 (4035a4f, 2020-05-01)"
   sodipodi:docname="delete.svg"
   viewBox="0 0 32 32">
  <defs
     id="defs4">
    <linearGradient
       id="linearGradient3795">
      <stop
         style="stop-color:#c53143;stop-opacity:1;"
         offset="0"
         id="stop3797" />
      <stop
         style="stop-color:#b8382b;stop-opacity:0;"
         offset="1"
         id="stop3799" />
    </linearGradient>
    <linearGradient
       id="linearGradient3728">
      <stop
         style="stop-color:#fa0c1e;stop-opacity:1;"
         offset="0"
         id="stop3730" />
      <stop
         style="stop-color:#d9afb1;stop-opacity:0;"
         offset="1"
         id="stop3732" />
    </linearGradient>
    <linearGradient
       id="linearGradient3614">
      <stop
         style="stop-color:#e8220f;stop-opacity:1;"
         offset="0"
         id="stop3616" />
      <stop
         style="stop-color:#ececec;stop-opacity:1;"
         offset="1"
         id="stop3618" />
    </linearGradient>
    <linearGradient
       id="linearGradient3602">
      <stop
         style="stop-color:#932626;stop-opacity:1;"
         offset="0"
         id="stop3604" />
      <stop
         style="stop-color:#bc4343;stop-opacity:1;"
         offset="1"
         id="stop3606" />
    </linearGradient>
  </defs>
  <sodipodi:namedview
     id="base"
     pagecolor="#ffffff"
     bordercolor="#666666"
     borderopacity="1.0"
     inkscape:pageopacity="0.0"
     inkscape:pageshadow="2"
     inkscape:zoom="15.966796"
     inkscape:cx="17.066668"
     inkscape:cy="17.066668"
     inkscape:document-units="px"
     inkscape:current-layer="layer2"
     showgrid="true"
     inkscape:snap-grids="false"
     inkscape:window-width="1323"
     inkscape:window-height="735"
     inkscape:window-x="223"
     inkscape:window-y="36"
     inkscape:window-maximized="0"
     inkscape:document-rotation="0">
    <inkscape:grid
       type="xygrid"
       id="grid2816"
       empspacing="5"
       visible="true"
       enabled="true"
       snapvisiblegridlinesonly="true"
       originx="0"
       originy="0"
       spacingx="1"
       spacingy="1" />
  </sodipodi:namedview>
  <metadata
     id="metadata7">
    <rdf:RDF>
      <cc:Work
         rdf:about="">
        <dc:format>image/svg+xml</dc:format>
        <dc:type
           rdf:resource="http://purl.org/dc/dcmitype/StillImage" />
        <dc:title />
        <cc:license
           rdf:resource="Apache License 2.0" />
        <dc:creator>
          <cc:Agent>
            <dc:title />
          </cc:Agent>
        </dc:creator>
        <dc:publisher>
          <cc:Agent>
            <dc:title>ECMWF</dc:title>
          </cc:Agent>
        </dc:publisher>
        <dc:language>en-GB</dc:language>
        <dc:subject>
          <rdf:Bag>
            <rdf:li>Metview icon</rdf:li>
          </rdf:Bag>
        </dc:subject>
        <dc:description>Metview icon</dc:description>
      </cc:Work>
    </rdf:RDF>
  </metadata>
  <g
     inkscape:groupmode="layer"
     id="layer3"
     inkscape:label="circle"
     style="display:inline" />
  <g
     inkscape:groupmode="layer"
     id="layer2"
     inkscape:label="item"
     style="display:inline">
    <text
       transform="scale(0.98782722,1.0123228)"
       xml:space="preserve"
       style="font-style:normal;font-weight:normal;font-size:10.8871px;line-height:0%;font-family:Calibri;-inkscape-font-specification:Calibri;fill:#ffffff;fill-opacity:1;stroke:none;stroke-width:2.62877;stroke-miterlimit:4;stroke-dasharray:none"
       x="5.7347512"
       y="20.629065"
       id="text3783"><tspan
         sodipodi:role="line"
         id="tspan3785"
         x="5.7347512"
         y="20.629065"
         style="font-size:18.1452px;line-height:1.25;stroke-width:2.62877;stroke-miterlimit:4;stroke-dasharray:none"> </tspan></text>
    <text
       transform="scale(0.98782722,1.0123228)"
       xml:space="preserve"
       style="font-style:normal;font-weight:normal;font-size:10.8871px;line-height:0%;font-family:'Bitstream Vera Sans';fill:#000000;fill-opacity:1;stroke:none;stroke-width:2.62877;stroke-miterlimit:4;stroke-dasharray:none"
       x="8.8315401"
       y="14.435488"
       id="text3787"><tspan
         sodipodi:role="line"
         id="tspan3789"
         x="8.8315401"
         y="14.435488"
         style="font-size:36.2904px;line-height:1.25;stroke-width:2.62877;stroke-miterlimit:4;stroke-dasharray:none"> </tspan></text>
    <rect
       style="fill:#d40000;fill-opacity:1;stroke:#d35f5f;stroke-width:2.62958;stroke-miterlimit:4;stroke-dasharray:none;stroke-opacity:1"
       id="rect3809"
       width="1.9275416"
       height="24.458969"
       x="-0.075895399"
       y="10.472121"
       ry="0.15301089"
       transform="matrix(0.68621115,-0.72740241,0.70285756,0.71133062,0,0)" />
    <rect
       ry="0.15215418"
       y="-11.043105"
       x="-23.497927"
       height="24.322023"
       width="1.9333179"
       id="rect3811"
       style="fill:none;fill-opacity:1;stroke:#d35f5f;stroke-width:2.62958;stroke-miterlimit:4;stroke-dasharray:none;stroke-opacity:1"
       transform="matrix(-0.68167801,-0.7316523,0.70727034,-0.70694318,0,0)" />
  </g>
  <g
     inkscape:groupmode="layer"
     id="layer4"
     inkscape:label="top"
     style="display:inline" />
</svg>
