<?xml version="1.0" encoding="UTF-8" standalone="no"?>
<svg
   xmlns:dc="http://purl.org/dc/elements/1.1/"
   xmlns:cc="http://creativecommons.org/ns#"
   xmlns:rdf="http://www.w3.org/1999/02/22-rdf-syntax-ns#"
   xmlns:svg="http://www.w3.org/2000/svg"
   xmlns="http://www.w3.org/2000/svg"
   xmlns:xlink="http://www.w3.org/1999/xlink"
   xmlns:sodipodi="http://sodipodi.sourceforge.net/DTD/sodipodi-0.dtd"
   xmlns:inkscape="http://www.inkscape.org/namespaces/inkscape"
   width="32"
   height="32"
   id="svg2"
   version="1.1"
   inkscape:version="1.0 (4035a4f, 2020-05-01)"
   sodipodi:docname="extract.svg"
   viewBox="0 0 29.999998 29.999998">
  <defs
     id="defs4">
    <linearGradient
       id="linearGradient3792">
      <stop
         style="stop-color:#eceded;stop-opacity:1;"
         offset="0"
         id="stop3794" />
      <stop
         style="stop-color:#b5c6d0;stop-opacity:1;"
         offset="1"
         id="stop3796" />
    </linearGradient>
    <linearGradient
       id="linearGradient3804">
      <stop
         style="stop-color:#464c90;stop-opacity:1;"
         offset="0"
         id="stop3806" />
      <stop
         style="stop-color:#355560;stop-opacity:1;"
         offset="1"
         id="stop3808" />
    </linearGradient>
    <linearGradient
       id="linearGradient3796">
      <stop
         style="stop-color:#545d96;stop-opacity:1;"
         offset="0"
         id="stop3798" />
      <stop
         style="stop-color:#76a1ab;stop-opacity:1;"
         offset="1"
         id="stop3800" />
    </linearGradient>
    <inkscape:perspective
       sodipodi:type="inkscape:persp3d"
       inkscape:vp_x="0 : 31.066665 : 1"
       inkscape:vp_y="0 : 999.99994 : 0"
       inkscape:vp_z="31.999998 : 31.066665 : 1"
       inkscape:persp3d-origin="15.999999 : 25.733332 : 1"
       id="perspective35" />
    <linearGradient
       id="linearGradient3852">
      <stop
         style="stop-color:#467b3c;stop-opacity:1;"
         offset="0"
         id="stop3854" />
      <stop
         style="stop-color:#3d9f3d;stop-opacity:0.99215686;"
         offset="1"
         id="stop3856" />
    </linearGradient>
    <linearGradient
       id="linearGradient3799">
      <stop
         style="stop-color:#aae1be;stop-opacity:1;"
         offset="0"
         id="stop3801" />
      <stop
         style="stop-color:#4bc82b;stop-opacity:1;"
         offset="1"
         id="stop3803" />
    </linearGradient>
    <linearGradient
       id="linearGradient3777">
      <stop
         style="stop-color:#5b7db3;stop-opacity:1;"
         offset="0"
         id="stop3779" />
      <stop
         style="stop-color:#2589ce;stop-opacity:1;"
         offset="1"
         id="stop3781" />
    </linearGradient>
    <linearGradient
       id="linearGradient3756">
      <stop
         id="stop3758"
         offset="0"
         style="stop-color:#519aed;stop-opacity:1;" />
      <stop
         id="stop3760"
         offset="1"
         style="stop-color:#e9dddd;stop-opacity:0;" />
    </linearGradient>
    <linearGradient
       id="linearGradient3728">
      <stop
         style="stop-color:#f1f3fb;stop-opacity:1;"
         offset="0"
         id="stop3730" />
      <stop
         style="stop-color:#273df9;stop-opacity:0;"
         offset="1"
         id="stop3732" />
    </linearGradient>
    <linearGradient
       inkscape:collect="always"
       xlink:href="#linearGradient3728"
       id="linearGradient3710"
       gradientUnits="userSpaceOnUse"
       gradientTransform="matrix(0,-0.7171751,-0.82342354,0,11.530317,40.527932)"
       x1="15.413333"
       y1="3.4795053"
       x2="15.941438"
       y2="18.883736" />
    <linearGradient
       inkscape:collect="always"
       xlink:href="#linearGradient3756"
       id="linearGradient3720"
       gradientUnits="userSpaceOnUse"
       gradientTransform="matrix(0,-0.7171751,-0.82342354,0,11.530317,40.527932)"
       x1="24.437176"
       y1="3.4853487"
       x2="15.941438"
       y2="18.883736" />
    <linearGradient
       inkscape:collect="always"
       xlink:href="#linearGradient3777"
       id="linearGradient3783"
       x1="1.4276053"
       y1="16.374115"
       x2="28.440672"
       y2="16.374115"
       gradientUnits="userSpaceOnUse"
       gradientTransform="matrix(1.0279887,0,0,1.0323478,7.1553463,-2.2096664)" />
    <linearGradient
       inkscape:collect="always"
       xlink:href="#linearGradient3799"
       id="linearGradient3834"
       x1="-9.2158766"
       y1="17.617861"
       x2="36.303471"
       y2="17.617861"
       gradientUnits="userSpaceOnUse" />
    <linearGradient
       inkscape:collect="always"
       xlink:href="#linearGradient3852"
       id="linearGradient3858"
       x1="4.4050612"
       y1="16.300755"
       x2="23.3321"
       y2="16.521189"
       gradientUnits="userSpaceOnUse"
       gradientTransform="matrix(0.96778437,0,0,0.96778437,1.3383248,1.0794304)" />
    <inkscape:perspective
       id="perspective2935"
       inkscape:persp3d-origin="0.49999997 : 15.399999 : 1"
       inkscape:vp_z="0.99999994 : 15.566666 : 1"
       inkscape:vp_y="0 : 999.99994 : 0"
       inkscape:vp_x="0 : 15.566666 : 1"
       sodipodi:type="inkscape:persp3d" />
    <linearGradient
       inkscape:collect="always"
       xlink:href="#linearGradient4026"
       id="linearGradient4032"
       x1="16.804222"
       y1="14.95285"
       x2="27.970543"
       y2="14.95285"
       gradientUnits="userSpaceOnUse"
       gradientTransform="matrix(1.7702794,0,0,1.4225865,-38.983045,1.405527)" />
    <linearGradient
       id="linearGradient4026">
      <stop
         style="stop-color:#f30e1e;stop-opacity:1;"
         offset="0"
         id="stop4028" />
      <stop
         style="stop-color:#ba2f39;stop-opacity:1;"
         offset="1"
         id="stop4030" />
    </linearGradient>
    <linearGradient
       id="linearGradient3975">
      <stop
         style="stop-color:#565c64;stop-opacity:1;"
         offset="0"
         id="stop3977" />
      <stop
         style="stop-color:#99a4b4;stop-opacity:1;"
         offset="1"
         id="stop3979" />
    </linearGradient>
  </defs>
  <sodipodi:namedview
     inkscape:snap-global="false"
     id="base"
     pagecolor="#ffffff"
     bordercolor="#666666"
     borderopacity="1.0"
     inkscape:pageopacity="0.0"
     inkscape:pageshadow="2"
     inkscape:zoom="18.8125"
     inkscape:cx="15.574751"
     inkscape:cy="16.341103"
     inkscape:document-units="px"
     inkscape:current-layer="layer3"
     showgrid="true"
     inkscape:snap-grids="true"
     inkscape:window-width="1440"
     inkscape:window-height="792"
     inkscape:window-x="0"
     inkscape:window-y="25"
     inkscape:window-maximized="0"
     inkscape:snap-to-guides="false"
     inkscape:document-rotation="0">
    <inkscape:grid
       type="xygrid"
       id="grid2816"
       empspacing="5"
       visible="true"
       enabled="true"
       snapvisiblegridlinesonly="true"
       originx="0"
       originy="0"
       spacingx="1"
       spacingy="1" />
  </sodipodi:namedview>
  <metadata
     id="metadata7">
    <rdf:RDF>
      <cc:Work
         rdf:about="">
        <dc:format>image/svg+xml</dc:format>
        <dc:type
           rdf:resource="http://purl.org/dc/dcmitype/StillImage" />
        <dc:title />
        <cc:license
           rdf:resource="Apache License 2.0" />
        <dc:creator>
          <cc:Agent>
            <dc:title />
          </cc:Agent>
        </dc:creator>
        <dc:publisher>
          <cc:Agent>
            <dc:title>ECMWF</dc:title>
          </cc:Agent>
        </dc:publisher>
        <dc:language>en-GB</dc:language>
        <dc:subject>
          <rdf:Bag>
            <rdf:li>Metview icon</rdf:li>
          </rdf:Bag>
        </dc:subject>
        <dc:description>Metview icon</dc:description>
      </cc:Work>
    </rdf:RDF>
  </metadata>
  <g
     inkscape:groupmode="layer"
     id="layer3"
     inkscape:label="circle"
     style="display:inline"
     transform="translate(0,-16)">
    <path
       style="fill:url(#linearGradient3710);fill-opacity:1;fill-rule:evenodd;stroke:url(#linearGradient3720);stroke-width:0.687983;stroke-linecap:butt;stroke-linejoin:miter;stroke-miterlimit:4;stroke-dasharray:none;stroke-dashoffset:0;stroke-opacity:1"
       d="m 1.8565275,38.586544 c 4.257321,1.36895 2.128659,0.684475 0,0 z"
       id="path3695"
       inkscape:connector-curvature="0"
       sodipodi:nodetypes="cc" />
    <path
       style="fill:#00aad4;fill-rule:evenodd;stroke:none;stroke-width:1.38859px;stroke-linecap:butt;stroke-linejoin:miter;stroke-opacity:1"
       d="m 3.0979589,32.216929 10.5440501,-10e-7 0.06735,3.430153 8.556512,-5.061567 -8.590199,-5.061567 10e-7,3.555648 -10.5440481,0.02092 z"
       id="path4197"
       inkscape:connector-curvature="0"
       sodipodi:nodetypes="cccccccc" />
  </g>
  <g
     inkscape:groupmode="layer"
     id="layer2"
     inkscape:label="item"
     style="display:inline"
     transform="translate(0,-16)">
    <path
       style="fill:none;fill-rule:evenodd;stroke:#00aad4;stroke-width:1.875;stroke-linecap:butt;stroke-linejoin:miter;stroke-miterlimit:4;stroke-dasharray:none;stroke-opacity:1"
       d="m 15.288691,43.639971 10.756291,-0.06757 V 18.807346 l -10.928667,-0.03379"
       id="path4195"
       inkscape:connector-curvature="0" />
  </g>
</svg>
