<?xml version="1.0" encoding="UTF-8" standalone="no"?>
<svg
   xmlns:dc="http://purl.org/dc/elements/1.1/"
   xmlns:cc="http://creativecommons.org/ns#"
   xmlns:rdf="http://www.w3.org/1999/02/22-rdf-syntax-ns#"
   xmlns:svg="http://www.w3.org/2000/svg"
   xmlns="http://www.w3.org/2000/svg"
   xmlns:sodipodi="http://sodipodi.sourceforge.net/DTD/sodipodi-0.dtd"
   xmlns:inkscape="http://www.inkscape.org/namespaces/inkscape"
   width="18.204445"
   height="18.204445"
   id="svg2"
   version="1.1"
   inkscape:version="1.0 (4035a4f, 2020-05-01)"
   sodipodi:docname="filter_blue.svg"
   viewBox="0 0 17.066668 17.066668">
  <defs
     id="defs4">
    <linearGradient
       id="linearGradient3617">
      <stop
         style="stop-color:#f7f6f2;stop-opacity:1;"
         offset="0"
         id="stop3619" />
      <stop
         style="stop-color:#0e729a;stop-opacity:1;"
         offset="1"
         id="stop3621" />
    </linearGradient>
    <linearGradient
       id="linearGradient3776">
      <stop
         id="stop3778"
         offset="0"
         style="stop-color:#61728a;stop-opacity:1;" />
      <stop
         id="stop3780"
         offset="1"
         style="stop-color:#b1bec2;stop-opacity:1;" />
    </linearGradient>
    <linearGradient
       id="linearGradient3717-3">
      <stop
         style="stop-color:#9cb1da;stop-opacity:1;"
         offset="0"
         id="stop3719-8" />
      <stop
         style="stop-color:#ecf0f1;stop-opacity:1;"
         offset="1"
         id="stop3721-3" />
    </linearGradient>
  </defs>
  <sodipodi:namedview
     id="base"
     pagecolor="#ffffff"
     bordercolor="#666666"
     borderopacity="1.0"
     inkscape:pageopacity="0.0"
     inkscape:pageshadow="2"
     inkscape:zoom="33.233642"
     inkscape:cx="9.1022224"
     inkscape:cy="9.1022224"
     inkscape:document-units="px"
     inkscape:current-layer="layer1"
     showgrid="true"
     inkscape:snap-grids="false"
     inkscape:window-width="1440"
     inkscape:window-height="795"
     inkscape:window-x="25"
     inkscape:window-y="25"
     inkscape:window-maximized="0"
     showguides="true"
     inkscape:guide-bbox="true"
     inkscape:document-rotation="0">
    <inkscape:grid
       type="xygrid"
       id="grid2816"
       empspacing="5"
       visible="true"
       enabled="true"
       snapvisiblegridlinesonly="true"
       originx="0"
       originy="0"
       spacingx="1.0666667"
       spacingy="1.0666667" />
  </sodipodi:namedview>
  <metadata
     id="metadata7">
    <rdf:RDF>
      <cc:Work
         rdf:about="">
        <dc:format>image/svg+xml</dc:format>
        <dc:type
           rdf:resource="http://purl.org/dc/dcmitype/StillImage" />
        <dc:title />
        <cc:license
           rdf:resource="Apache License 2.0" />
        <dc:creator>
          <cc:Agent>
            <dc:title />
          </cc:Agent>
        </dc:creator>
        <dc:publisher>
          <cc:Agent>
            <dc:title>ECMWF</dc:title>
          </cc:Agent>
        </dc:publisher>
        <dc:language>en-GB</dc:language>
        <dc:subject>
          <rdf:Bag>
            <rdf:li>Metview icon</rdf:li>
          </rdf:Bag>
        </dc:subject>
        <dc:description>Metview icon</dc:description>
      </cc:Work>
    </rdf:RDF>
  </metadata>
  <g
     inkscape:groupmode="layer"
     id="layer3"
     inkscape:label="body"
     transform="translate(0,-16)" />
  <g
     inkscape:groupmode="layer"
     id="layer4"
     inkscape:label="connect"
     transform="translate(0,-16)" />
  <g
     inkscape:groupmode="layer"
     id="layer1"
     inkscape:label="lens"
     transform="translate(0,-16)">
    <path
       sodipodi:nodetypes="cccscccsc"
       inkscape:connector-curvature="0"
       id="path3025-7"
       d="M 7.6070004,31.098232 7.5878844,26.240445 2.6177525,20.336368 c 0,0 3.8335402,1.88065 6.1362013,1.817831 2.2376882,-0.06105 5.8685792,-1.761781 5.8685792,-1.761781 l -4.9892483,5.866712 2e-7,4.839102 c 0,0 -0.505055,0.334661 -1.0322583,0.33631 -0.672244,0.0021 -0.9940263,-0.33631 -0.9940262,-0.33631 z"
       style="fill:#cccccc;stroke:none;stroke-width:1" />
    <ellipse
       ry="1.9535973"
       rx="5.9163685"
       cy="20.062859"
       cx="8.5723534"
       id="path3795-5"
       style="fill:none;stroke:#f9f9f9;stroke-width:0.535908;stroke-miterlimit:4;stroke-dasharray:none;stroke-opacity:1" />
  </g>
  <g
     inkscape:groupmode="layer"
     id="layer2"
     inkscape:label="item"
     style="display:inline"
     transform="translate(0,-16)" />
  <g
     inkscape:groupmode="layer"
     id="layer5"
     inkscape:label="okulars"
     transform="translate(0,-16)" />
</svg>
