<?xml version="1.0" encoding="UTF-8" standalone="no"?>
<svg
   xmlns:dc="http://purl.org/dc/elements/1.1/"
   xmlns:cc="http://creativecommons.org/ns#"
   xmlns:rdf="http://www.w3.org/1999/02/22-rdf-syntax-ns#"
   xmlns:svg="http://www.w3.org/2000/svg"
   xmlns="http://www.w3.org/2000/svg"
   xmlns:xlink="http://www.w3.org/1999/xlink"
   xmlns:sodipodi="http://sodipodi.sourceforge.net/DTD/sodipodi-0.dtd"
   xmlns:inkscape="http://www.inkscape.org/namespaces/inkscape"
   sodipodi:docname="fontsize_down.svg"
   inkscape:version="1.0 (4035a4f, 2020-05-01)"
   version="1.1"
   id="svg2"
   height="32"
   width="32">
  <defs
     id="defs4">
    <linearGradient
       id="linearGradient3756">
      <stop
         style="stop-color:#519aed;stop-opacity:1;"
         offset="0"
         id="stop3758" />
      <stop
         style="stop-color:#e9dddd;stop-opacity:0;"
         offset="1"
         id="stop3760" />
    </linearGradient>
    <linearGradient
       id="linearGradient3728">
      <stop
         id="stop3730"
         offset="0"
         style="stop-color:#f1f3fb;stop-opacity:1;" />
      <stop
         id="stop3732"
         offset="1"
         style="stop-color:#273df9;stop-opacity:0;" />
    </linearGradient>
    <linearGradient
       id="linearGradient3614">
      <stop
         id="stop3616"
         offset="0"
         style="stop-color:#2c71d9;stop-opacity:1;" />
      <stop
         id="stop3618"
         offset="1"
         style="stop-color:#ececec;stop-opacity:1;" />
    </linearGradient>
    <linearGradient
       id="linearGradient3602">
      <stop
         id="stop3604"
         offset="0"
         style="stop-color:#f5f5f5;stop-opacity:1;" />
      <stop
         id="stop3606"
         offset="1"
         style="stop-color:#141bc6;stop-opacity:1;" />
    </linearGradient>
    <linearGradient
       y2="31.085577"
       x2="15.413333"
       y1="12.89746"
       x1="15.413333"
       gradientUnits="userSpaceOnUse"
       id="linearGradient3691"
       xlink:href="#linearGradient3614"
       inkscape:collect="always" />
    <linearGradient
       y2="31.085577"
       x2="15.413333"
       y1="2.2337441"
       x1="15.413333"
       gradientUnits="userSpaceOnUse"
       id="linearGradient3693"
       xlink:href="#linearGradient3602"
       inkscape:collect="always" />
    <linearGradient
       y2="18.883736"
       x2="15.941438"
       y1="3.4795053"
       x1="15.413333"
       gradientTransform="matrix(1.0688752,0,0,-1.1672542,-31.566354,35.860667)"
       gradientUnits="userSpaceOnUse"
       id="linearGradient3710"
       xlink:href="#linearGradient3728"
       inkscape:collect="always" />
    <linearGradient
       y2="18.883736"
       x2="15.941438"
       y1="3.4853487"
       x1="24.437176"
       gradientTransform="matrix(1.0688752,0,0,-1.1672542,-31.566354,35.860667)"
       gradientUnits="userSpaceOnUse"
       id="linearGradient3720"
       xlink:href="#linearGradient3756"
       inkscape:collect="always" />
  </defs>
  <sodipodi:namedview
     inkscape:document-rotation="0"
     inkscape:guide-bbox="true"
     showguides="true"
     inkscape:window-maximized="0"
     inkscape:window-y="25"
     inkscape:window-x="323"
     inkscape:window-height="1093"
     inkscape:window-width="1408"
     inkscape:snap-grids="true"
     showgrid="true"
     inkscape:current-layer="layer2"
     inkscape:document-units="px"
     inkscape:cy="15.51908"
     inkscape:cx="6.452936"
     inkscape:zoom="18.75"
     inkscape:pageshadow="2"
     inkscape:pageopacity="0.0"
     borderopacity="1.0"
     bordercolor="#666666"
     pagecolor="#ffffff"
     id="base">
    <inkscape:grid
       snapvisiblegridlinesonly="true"
       enabled="true"
       visible="true"
       empspacing="5"
       id="grid2816"
       type="xygrid" />
  </sodipodi:namedview>
  <metadata
     id="metadata7">
    <rdf:RDF>
      <cc:Work
         rdf:about="">
        <dc:format>image/svg+xml</dc:format>
        <dc:type
           rdf:resource="http://purl.org/dc/dcmitype/StillImage" />
        <dc:title />
        <cc:license
           rdf:resource="Apache License 2.0" />
        <dc:creator>
          <cc:Agent>
            <dc:title />
          </cc:Agent>
        </dc:creator>
        <dc:publisher>
          <cc:Agent>
            <dc:title>ECMWF</dc:title>
          </cc:Agent>
        </dc:publisher>
        <dc:language>en-GB</dc:language>
        <dc:subject>
          <rdf:Bag>
            <rdf:li>Metview icon</rdf:li>
          </rdf:Bag>
        </dc:subject>
        <dc:description>Metview icon</dc:description>
      </cc:Work>
    </rdf:RDF>
  </metadata>
  <g
     style="display:inline"
     inkscape:label="bg"
     id="layer3"
     inkscape:groupmode="layer" />
  <g
     style="display:inline"
     inkscape:label="item"
     id="layer2"
     inkscape:groupmode="layer">
    <text
       id="text3783"
       y="21.973333"
       x="3.8399999"
       style="font-size:20px;font-style:normal;font-weight:normal;fill:#ffffff;fill-opacity:1;stroke:none;font-family:Calibri;-inkscape-font-specification:Calibri"
       xml:space="preserve"><tspan
         y="21.973333"
         x="3.8399999"
         id="tspan3785"
         sodipodi:role="line" /></text>
    <text
       id="text3787"
       y="15.146667"
       x="7.2533331"
       style="font-size:40px;font-style:normal;font-weight:normal;fill:#000000;fill-opacity:1;stroke:none;font-family:Bitstream Vera Sans"
       xml:space="preserve"><tspan
         y="15.146667"
         x="7.2533331"
         id="tspan3789"
         sodipodi:role="line" /></text>
    <text
       transform="scale(1.0238296,0.97672504)"
       id="text3791"
       y="29.691059"
       x="1.9534501"
       style="font-size:25.99999990999999966px;font-style:normal;font-variant:normal;font-weight:normal;font-stretch:normal;fill:#f9f9f9;fill-opacity:1;stroke:none;font-family:Times New Roman;-inkscape-font-specification:Times New Roman;"
       xml:space="preserve"><tspan
         style="font-size:25.99999990999999966px;font-style:normal;font-variant:normal;font-weight:normal;font-stretch:normal;fill:#f9f9f9;font-family:Times New Roman;-inkscape-font-specification:Times New Roman;"
         y="29.691059"
         x="1.9534501"
         id="tspan3793"
         sodipodi:role="line">A</tspan></text>
    <path
       sodipodi:nodetypes="cccc"
       inkscape:connector-curvature="0"
       id="path3006-1"
       d="m 17.48,2.6858153 5.424725,7.6608527 5.508608,-7.6608527 z"
       inkscape:transform-center-y="1.2991354"
       inkscape:transform-center-x="-0.034736359"
       style="fill:#f9f9f9;fill-opacity:1;fill-rule:evenodd;stroke:none;display:inline" />
  </g>
</svg>
