<?xml version="1.0" encoding="UTF-8" standalone="no"?>
<svg
   xmlns:dc="http://purl.org/dc/elements/1.1/"
   xmlns:cc="http://creativecommons.org/ns#"
   xmlns:rdf="http://www.w3.org/1999/02/22-rdf-syntax-ns#"
   xmlns:svg="http://www.w3.org/2000/svg"
   xmlns="http://www.w3.org/2000/svg"
   xmlns:sodipodi="http://sodipodi.sourceforge.net/DTD/sodipodi-0.dtd"
   xmlns:inkscape="http://www.inkscape.org/namespaces/inkscape"
   sodipodi:docname="geolock.svg"
   inkscape:version="1.0 (4035a4f, 2020-05-01)"
   version="1.1"
   id="svg2"
   height="32"
   width="32">
  <defs
     id="defs4" />
  <sodipodi:namedview
     inkscape:snap-global="false"
     inkscape:document-rotation="0"
     inkscape:window-maximized="0"
     inkscape:window-y="91"
     inkscape:window-x="269"
     inkscape:window-height="795"
     inkscape:window-width="1557"
     inkscape:snap-to-guides="false"
     inkscape:snap-grids="false"
     showgrid="true"
     inkscape:current-layer="layer3"
     inkscape:document-units="px"
     inkscape:cy="18.124511"
     inkscape:cx="16.866901"
     inkscape:zoom="15.8125"
     inkscape:pageshadow="2"
     inkscape:pageopacity="0.0"
     borderopacity="1.0"
     bordercolor="#666666"
     pagecolor="#ffffff"
     id="base">
    <inkscape:grid
       snapvisiblegridlinesonly="true"
       enabled="true"
       visible="true"
       empspacing="5"
       id="grid2985"
       type="xygrid" />
  </sodipodi:namedview>
  <metadata
     id="metadata7">
    <rdf:RDF>
      <cc:Work
         rdf:about="">
        <dc:format>image/svg+xml</dc:format>
        <dc:type
           rdf:resource="http://purl.org/dc/dcmitype/StillImage" />
        <dc:title />
      </cc:Work>
    </rdf:RDF>
  </metadata>
  <g
     style="display:none"
     inkscape:label="bg"
     id="layer2"
     inkscape:groupmode="layer">
    <rect
       style="fill:#ffffff;fill-opacity:1;stroke:#000007;stroke-width:1.05381024;stroke-linejoin:round;stroke-miterlimit:4;stroke-opacity:1;stroke-dasharray:none"
       id="rect3616"
       width="31.233715"
       height="30.846064"
       x="0.41408974"
       y="0.48412517" />
  </g>
  <g
     style="display:inline"
     transform="translate(0,-1020.3622)"
     id="layer1"
     inkscape:groupmode="layer"
     inkscape:label="Layer 1">
    <path
       inkscape:connector-curvature="0"
       sodipodi:nodetypes="cccccc"
       id="rect3771"
       d="m 23.249354,1037.2966 -0.07742,-2.3468 c 0.132659,-6.8596 -2.846064,-10.7256 -7.141855,-10.2798 v 2e-4 c -5.507138,-0.01 -6.6558955,5.1611 -6.7255945,10.0858 l -0.0024,2.4967"
       style="fill:none;fill-opacity:1;stroke:#e6e6e6;stroke-width:2.6904;stroke-miterlimit:4;stroke-dasharray:none;stroke-opacity:1" />
    <rect
       transform="translate(0,1020.3622)"
       y="0.49516439"
       x="-45.617023"
       height="13.864602"
       width="21.601551"
       id="rect2831"
       style="opacity:0;fill:#ff5555;fill-opacity:1;fill-rule:evenodd;stroke:#b1575c;stroke-opacity:1" />
    <path
       transform="translate(0,1020.3622)"
       d="M -22.158606,16.649903 -41.01185,14.227286 -59.865095,11.804668 -48.340424,-3.3114119 -36.815753,-18.427492 -29.48718,-0.88879442 z"
       inkscape:randomized="0"
       inkscape:rounded="-3.469447e-018"
       inkscape:flatsided="false"
       sodipodi:arg2="1.6985947"
       sodipodi:arg1="0.65139717"
       sodipodi:r2="10.974423"
       sodipodi:r1="21.948847"
       sodipodi:cy="3.3423598"
       sodipodi:cx="-39.613152"
       sodipodi:sides="3"
       id="path3609"
       style="opacity:0;fill:#aa0000;fill-opacity:1;fill-rule:evenodd;stroke:#b1575c;stroke-width:2.5;stroke-linecap:round;stroke-linejoin:miter;stroke-miterlimit:4;stroke-opacity:1;stroke-dasharray:none;stroke-dashoffset:0"
       sodipodi:type="star" />
  </g>
  <g
     style="display:inline"
     inkscape:label="fg"
     id="layer3"
     inkscape:groupmode="layer">
    <rect
       ry="0.35308969"
       y="17.279831"
       x="6.2758746"
       height="11.226905"
       width="19.827696"
       id="rect3845"
       style="fill:#e6e6e6;fill-opacity:1;stroke:#e6e6e6;stroke-width:1.34484;stroke-linecap:round;stroke-linejoin:round;stroke-miterlimit:4;stroke-dasharray:none;stroke-dashoffset:0;stroke-opacity:1" />
  </g>
</svg>
