<?xml version="1.0" encoding="UTF-8" standalone="no"?>
<svg
   xmlns:dc="http://purl.org/dc/elements/1.1/"
   xmlns:cc="http://creativecommons.org/ns#"
   xmlns:rdf="http://www.w3.org/1999/02/22-rdf-syntax-ns#"
   xmlns:svg="http://www.w3.org/2000/svg"
   xmlns="http://www.w3.org/2000/svg"
   xmlns:xlink="http://www.w3.org/1999/xlink"
   xmlns:sodipodi="http://sodipodi.sourceforge.net/DTD/sodipodi-0.dtd"
   xmlns:inkscape="http://www.inkscape.org/namespaces/inkscape"
   inkscape:export-ydpi="360"
   inkscape:export-xdpi="360"
   style="display:inline"
   sodipodi:docname="history.svg"
   inkscape:version="1.0 (4035a4f, 2020-05-01)"
   version="1.1"
   id="svg2"
   height="32"
   width="32">
  <defs
     id="defs4">
    <linearGradient
       id="linearGradient3910">
      <stop
         id="stop3912"
         offset="0"
         style="stop-color:#4b71ab;stop-opacity:1;" />
      <stop
         id="stop3914"
         offset="1"
         style="stop-color:#dddfe1;stop-opacity:1;" />
    </linearGradient>
    <linearGradient
       id="linearGradient3902">
      <stop
         id="stop3904"
         offset="0"
         style="stop-color:#7fa7e3;stop-opacity:1;" />
      <stop
         id="stop3906"
         offset="1"
         style="stop-color:#b39045;stop-opacity:1;" />
    </linearGradient>
    <linearGradient
       id="linearGradient3882">
      <stop
         id="stop3884"
         offset="0"
         style="stop-color:#5f8dd3;stop-opacity:1;" />
      <stop
         id="stop3886"
         offset="1"
         style="stop-color:#28446f;stop-opacity:1;" />
    </linearGradient>
    <linearGradient
       id="linearGradient3925">
      <stop
         id="stop3927"
         offset="0"
         style="stop-color:#0044aa;stop-opacity:1;" />
      <stop
         id="stop3929"
         offset="1"
         style="stop-color:#0055d3;stop-opacity:1;" />
    </linearGradient>
    <linearGradient
       id="linearGradient3917">
      <stop
         id="stop3919"
         offset="0"
         style="stop-color:#0055d4;stop-opacity:1;" />
      <stop
         id="stop3921"
         offset="1"
         style="stop-color:#1975ff;stop-opacity:1;" />
    </linearGradient>
    <linearGradient
       id="linearGradient3909">
      <stop
         id="stop3911"
         offset="0"
         style="stop-color:#2a7fff;stop-opacity:1;" />
      <stop
         id="stop3913"
         offset="1"
         style="stop-color:#63a1ff;stop-opacity:1;" />
    </linearGradient>
    <linearGradient
       id="linearGradient3678">
      <stop
         id="stop3680"
         offset="0"
         style="stop-color:#e3e9ef;stop-opacity:1;" />
      <stop
         id="stop3682"
         offset="1"
         style="stop-color:#d9e3f2;stop-opacity:1;" />
    </linearGradient>
    <linearGradient
       id="linearGradient3648">
      <stop
         id="stop3650"
         offset="0"
         style="stop-color:#acc6d2;stop-opacity:1;" />
      <stop
         id="stop3652"
         offset="1"
         style="stop-color:#498ca2;stop-opacity:1;" />
    </linearGradient>
    <linearGradient
       id="linearGradient3716">
      <stop
         id="stop3718"
         offset="0"
         style="stop-color:#a5a5a5;stop-opacity:1;" />
      <stop
         id="stop3720"
         offset="1"
         style="stop-color:#bbbbbb;stop-opacity:1;" />
    </linearGradient>
    <linearGradient
       id="linearGradient3708">
      <stop
         id="stop3710"
         offset="0"
         style="stop-color:#838383;stop-opacity:1;" />
      <stop
         id="stop3712"
         offset="1"
         style="stop-color:#b3b3b3;stop-opacity:1;" />
    </linearGradient>
    <linearGradient
       id="linearGradient3700">
      <stop
         id="stop3702"
         offset="0"
         style="stop-color:#727272;stop-opacity:1;" />
      <stop
         id="stop3704"
         offset="1"
         style="stop-color:#a5a5a5;stop-opacity:1;" />
    </linearGradient>
    <inkscape:perspective
       id="perspective3219"
       inkscape:persp3d-origin="16 : 10.666667 : 1"
       inkscape:vp_z="32 : 16 : 1"
       inkscape:vp_y="0 : 1000 : 0"
       inkscape:vp_x="0 : 16 : 1"
       sodipodi:type="inkscape:persp3d" />
    <linearGradient
       id="linearGradient3749"
       inkscape:collect="always">
      <stop
         id="stop3751"
         offset="0"
         style="stop-color:#2f3d85;stop-opacity:1;" />
      <stop
         id="stop3753"
         offset="1"
         style="stop-color:#2f3d85;stop-opacity:0;" />
    </linearGradient>
    <linearGradient
       id="linearGradient3741"
       inkscape:collect="always">
      <stop
         id="stop3743"
         offset="0"
         style="stop-color:#2f3d85;stop-opacity:1;" />
      <stop
         id="stop3745"
         offset="1"
         style="stop-color:#2f3d85;stop-opacity:0;" />
    </linearGradient>
    <linearGradient
       id="linearGradient3733"
       inkscape:collect="always">
      <stop
         id="stop3735"
         offset="0"
         style="stop-color:#2f528a;stop-opacity:1" />
      <stop
         id="stop3737"
         offset="1"
         style="stop-color:#3f5e91;stop-opacity:0;" />
    </linearGradient>
    <linearGradient
       id="linearGradient3622-8">
      <stop
         id="stop3624-3"
         offset="0"
         style="stop-color:#ffffff;stop-opacity:1" />
      <stop
         id="stop3626-2"
         offset="1"
         style="stop-color:#e9f0fa;stop-opacity:1" />
    </linearGradient>
    <linearGradient
       id="linearGradient3622-95">
      <stop
         id="stop3624-5"
         offset="0"
         style="stop-color:#c6cee3;stop-opacity:1;" />
      <stop
         id="stop3626-7"
         offset="1"
         style="stop-color:#eaeef9;stop-opacity:0;" />
    </linearGradient>
    <linearGradient
       gradientTransform="translate(-26.687459,-0.0778789)"
       y2="102.62679"
       x2="110.16354"
       y1="102.62679"
       x1="78.128151"
       gradientUnits="userSpaceOnUse"
       id="linearGradient2886"
       xlink:href="#linearGradient3733"
       inkscape:collect="always" />
    <linearGradient
       y2="63.179432"
       x2="119.71897"
       y1="84.507774"
       x1="88.325951"
       gradientUnits="userSpaceOnUse"
       id="linearGradient2892"
       xlink:href="#linearGradient3749"
       inkscape:collect="always" />
    <linearGradient
       y2="99.79335"
       x2="127.85975"
       y1="99.79335"
       x1="98.523994"
       gradientUnits="userSpaceOnUse"
       id="linearGradient2894"
       xlink:href="#linearGradient3741"
       inkscape:collect="always" />
    <inkscape:perspective
       sodipodi:type="inkscape:persp3d"
       inkscape:vp_x="0 : 0.5 : 1"
       inkscape:vp_y="0 : 1000 : 0"
       inkscape:vp_z="1 : 0.5 : 1"
       inkscape:persp3d-origin="0.5 : 0.33333333 : 1"
       id="perspective3676" />
    <linearGradient
       gradientTransform="matrix(0.7675676,0,0,1,5.1557318,30.408959)"
       gradientUnits="userSpaceOnUse"
       y2="16.274597"
       x2="29.822767"
       y1="16.533602"
       x1="22.977591"
       id="linearGradient3706"
       xlink:href="#linearGradient3700"
       inkscape:collect="always" />
    <linearGradient
       gradientTransform="matrix(0.9235808,0,0,1,1.6954997,-1.5910409)"
       gradientUnits="userSpaceOnUse"
       y2="40.467396"
       x2="29.933771"
       y1="40.467396"
       x1="12.987333"
       id="linearGradient3714"
       xlink:href="#linearGradient3708"
       inkscape:collect="always" />
    <linearGradient
       gradientTransform="matrix(0.91240876,0,0,1,1.8405944,-1.5910409)"
       gradientUnits="userSpaceOnUse"
       y2="51.049667"
       x2="23.125591"
       y1="51.049667"
       x1="12.98733"
       id="linearGradient3722"
       xlink:href="#linearGradient3716"
       inkscape:collect="always" />
    <radialGradient
       gradientUnits="userSpaceOnUse"
       r="1.5355394"
       fy="23.04089"
       fx="15.794774"
       cy="23.04089"
       cx="15.794774"
       id="radialGradient3656"
       xlink:href="#linearGradient3648"
       inkscape:collect="always" />
    <linearGradient
       id="linearGradient3648-8">
      <stop
         id="stop3650-8"
         offset="0"
         style="stop-color:#acc6d2;stop-opacity:1;" />
      <stop
         id="stop3652-2"
         offset="1"
         style="stop-color:#498ca2;stop-opacity:1;" />
    </linearGradient>
    <linearGradient
       id="linearGradient3700-5">
      <stop
         id="stop3702-5"
         offset="0"
         style="stop-color:#727272;stop-opacity:1;" />
      <stop
         id="stop3704-1"
         offset="1"
         style="stop-color:#a5a5a5;stop-opacity:1;" />
    </linearGradient>
    <linearGradient
       id="linearGradient3708-1">
      <stop
         id="stop3710-1"
         offset="0"
         style="stop-color:#838383;stop-opacity:1;" />
      <stop
         id="stop3712-5"
         offset="1"
         style="stop-color:#b3b3b3;stop-opacity:1;" />
    </linearGradient>
    <linearGradient
       gradientTransform="matrix(0.91240876,0,0,1,1.8405944,-1.5910409)"
       gradientUnits="userSpaceOnUse"
       y2="51.049667"
       x2="23.125591"
       y1="51.049667"
       x1="12.98733"
       id="linearGradient3722-2"
       xlink:href="#linearGradient3716-7"
       inkscape:collect="always" />
    <linearGradient
       id="linearGradient3716-7">
      <stop
         id="stop3718-6"
         offset="0"
         style="stop-color:#a5a5a5;stop-opacity:1;" />
      <stop
         id="stop3720-1"
         offset="1"
         style="stop-color:#bbbbbb;stop-opacity:1;" />
    </linearGradient>
  </defs>
  <sodipodi:namedview
     inkscape:snap-global="false"
     inkscape:snap-others="false"
     inkscape:snap-nodes="false"
     inkscape:document-rotation="0"
     gridtolerance="6"
     inkscape:window-maximized="0"
     inkscape:window-y="25"
     inkscape:window-x="0"
     inkscape:window-height="794"
     inkscape:window-width="1440"
     inkscape:snap-grids="false"
     width="64px"
     showgrid="true"
     inkscape:current-layer="layer2"
     inkscape:document-units="px"
     inkscape:cy="16"
     inkscape:cx="16"
     inkscape:zoom="18.875"
     inkscape:pageshadow="2"
     inkscape:pageopacity="0.0"
     borderopacity="1.0"
     bordercolor="#666666"
     pagecolor="#ffffff"
     id="base">
    <inkscape:grid
       snapvisiblegridlinesonly="true"
       enabled="true"
       visible="true"
       empspacing="5"
       id="grid2816"
       type="xygrid" />
  </sodipodi:namedview>
  <metadata
     id="metadata7">
    <rdf:RDF>
      <cc:Work
         rdf:about="">
        <dc:format>image/svg+xml</dc:format>
        <dc:type
           rdf:resource="http://purl.org/dc/dcmitype/StillImage" />
        <dc:title />
        <cc:license
           rdf:resource="Apache License 2.0" />
        <dc:creator>
          <cc:Agent>
            <dc:title />
          </cc:Agent>
        </dc:creator>
        <dc:publisher>
          <cc:Agent>
            <dc:title>ECMWF</dc:title>
          </cc:Agent>
        </dc:publisher>
        <dc:language>en-GB</dc:language>
        <dc:subject>
          <rdf:Bag>
            <rdf:li>Metview icon</rdf:li>
          </rdf:Bag>
        </dc:subject>
        <dc:description>Metview icon</dc:description>
      </cc:Work>
    </rdf:RDF>
  </metadata>
  <g
     style="display:inline"
     inkscape:label="desktop"
     id="layer6"
     inkscape:groupmode="layer">
    <circle
       r="14.105455"
       cy="16.172726"
       cx="15.954545"
       id="path7431"
       style="fill:none;stroke:#f2f2f2;stroke-width:1.5;stroke-linecap:round;stroke-linejoin:round;stroke-miterlimit:4;stroke-dasharray:none;stroke-opacity:1;paint-order:markers fill stroke" />
  </g>
  <g
     inkscape:label="circle"
     id="layer1"
     inkscape:groupmode="layer" />
  <g
     style="display:inline"
     inkscape:label="hand"
     id="layer2"
     inkscape:groupmode="layer">
    <ellipse
       ry="1.0683637"
       rx="1.0272728"
       cy="9.0500851"
       cx="-4.1823001"
       id="path3847"
       style="display:inline;fill:#f9f9f9;fill-opacity:1;stroke:none;stroke-width:1.13;stroke-opacity:1" />
    <path
       inkscape:connector-curvature="0"
       id="path3869"
       d="M 6.0363636,16 z"
       style="fill:none;stroke:#000000;stroke-width:1px;stroke-linecap:butt;stroke-linejoin:miter;stroke-opacity:1" />
    <path
       id="path7435"
       d="M 16.15894,16.784106 V 5.4242023"
       style="fill:none;stroke:#f2f2f2;stroke-width:1.76687;stroke-linecap:butt;stroke-linejoin:miter;stroke-miterlimit:4;stroke-dasharray:none;stroke-opacity:1"
       sodipodi:nodetypes="cc" />
    <path
       id="path7439"
       d="m 16.064539,16.063576 5.342324,6.255509"
       style="fill:#f2f2f2;stroke:#f2f2f2;stroke-width:2;stroke-linecap:butt;stroke-linejoin:miter;stroke-miterlimit:4;stroke-dasharray:none;stroke-opacity:1"
       sodipodi:nodetypes="cc" />
  </g>
</svg>
