<?xml version="1.0" encoding="UTF-8" standalone="no"?>
<!-- Created with Inkscape (http://www.inkscape.org/) -->

<svg
   xmlns:dc="http://purl.org/dc/elements/1.1/"
   xmlns:cc="http://creativecommons.org/ns#"
   xmlns:rdf="http://www.w3.org/1999/02/22-rdf-syntax-ns#"
   xmlns:svg="http://www.w3.org/2000/svg"
   xmlns="http://www.w3.org/2000/svg"
   xmlns:xlink="http://www.w3.org/1999/xlink"
   xmlns:sodipodi="http://sodipodi.sourceforge.net/DTD/sodipodi-0.dtd"
   xmlns:inkscape="http://www.inkscape.org/namespaces/inkscape"
   width="32"
   height="32"
   id="svg2"
   version="1.1"
   inkscape:version="0.91 r13725"
   sodipodi:docname="log1.svg">
  <defs
     id="defs4">
    <linearGradient
       inkscape:collect="always"
       id="linearGradient4171">
      <stop
         style="stop-color:#414b5c;stop-opacity:1;"
         offset="0"
         id="stop4173" />
      <stop
         style="stop-color:#414b5c;stop-opacity:1"
         offset="1"
         id="stop4175" />
    </linearGradient>
    <linearGradient
       id="linearGradient8468">
      <stop
         id="stop8470"
         offset="0"
         style="stop-color:#ffffff;stop-opacity:1;" />
      <stop
         id="stop8472"
         offset="1"
         style="stop-color:#fafafa;stop-opacity:1" />
    </linearGradient>
    <linearGradient
       id="linearGradient7756">
      <stop
         style="stop-color:#384b72;stop-opacity:1;"
         offset="0"
         id="stop7758" />
      <stop
         style="stop-color:#3e5990;stop-opacity:1;"
         offset="1"
         id="stop7760" />
    </linearGradient>
    <linearGradient
       id="linearGradient3845">
      <stop
         style="stop-color:#ffffff;stop-opacity:1;"
         offset="0"
         id="stop3847" />
      <stop
         style="stop-color:#bad9e5;stop-opacity:1;"
         offset="1"
         id="stop3849" />
    </linearGradient>
    <linearGradient
       id="linearGradient3786-4">
      <stop
         id="stop3788-7"
         offset="0"
         style="stop-color:#ffffff;stop-opacity:1;" />
      <stop
         id="stop3790-8"
         offset="1"
         style="stop-color:#c7cfd2;stop-opacity:1" />
    </linearGradient>
    <linearGradient
       inkscape:collect="always"
       xlink:href="#linearGradient7756"
       id="linearGradient7762"
       x1="14.201173"
       y1="16.0353"
       x2="25.981173"
       y2="16.0353"
       gradientUnits="userSpaceOnUse"
       gradientTransform="translate(-47.98514,-58.227027)" />
    <linearGradient
       inkscape:collect="always"
       xlink:href="#linearGradient7756"
       id="linearGradient8456"
       gradientUnits="userSpaceOnUse"
       gradientTransform="translate(-37.458755,0.853491)"
       x1="14.201173"
       y1="16.0353"
       x2="25.981173"
       y2="16.0353" />
    <linearGradient
       inkscape:collect="always"
       xlink:href="#linearGradient7756"
       id="linearGradient8458"
       gradientUnits="userSpaceOnUse"
       gradientTransform="translate(-37.458755,0.853491)"
       x1="14.201173"
       y1="16.0353"
       x2="25.981173"
       y2="16.0353" />
    <linearGradient
       inkscape:collect="always"
       xlink:href="#linearGradient7756"
       id="linearGradient3937"
       gradientUnits="userSpaceOnUse"
       gradientTransform="translate(-57.373537,-40.58822)"
       x1="14.201173"
       y1="16.0353"
       x2="25.981173"
       y2="16.0353" />
    <linearGradient
       id="linearGradient3602-4">
      <stop
         style="stop-color:#4a719a;stop-opacity:1;"
         offset="0"
         id="stop3604-4" />
      <stop
         style="stop-color:#467e97;stop-opacity:1;"
         offset="1"
         id="stop3606-3" />
    </linearGradient>
    <linearGradient
       inkscape:collect="always"
       xlink:href="#linearGradient4171"
       id="linearGradient4177"
       x1="26.209293"
       y1="26.050423"
       x2="-1.147365"
       y2="18.65642"
       gradientUnits="userSpaceOnUse"
       gradientTransform="matrix(1,0,0,1.0590189,0.06023375,0.33185635)" />
    <linearGradient
       inkscape:collect="always"
       xlink:href="#linearGradient3786-4"
       id="linearGradient4193"
       x1="26.269526"
       y1="27.919746"
       x2="-1.0871313"
       y2="20.089357"
       gradientUnits="userSpaceOnUse" />
  </defs>
  <sodipodi:namedview
     id="base"
     pagecolor="#ffffff"
     bordercolor="#666666"
     borderopacity="1.0"
     inkscape:pageopacity="0.0"
     inkscape:pageshadow="2"
     inkscape:zoom="16.601987"
     inkscape:cx="10.873829"
     inkscape:cy="8.1008649"
     inkscape:document-units="px"
     inkscape:current-layer="layer3"
     showgrid="true"
     inkscape:snap-grids="false"
     inkscape:window-width="1693"
     inkscape:window-height="1132"
     inkscape:window-x="1920"
     inkscape:window-y="9"
     inkscape:window-maximized="0"
     inkscape:snap-to-guides="false">
    <inkscape:grid
       type="xygrid"
       id="grid2816"
       empspacing="5"
       visible="true"
       enabled="true"
       snapvisiblegridlinesonly="true" />
  </sodipodi:namedview>
  <metadata
     id="metadata7">
    <rdf:RDF>
      <cc:Work
         rdf:about="">
        <dc:format>image/svg+xml</dc:format>
        <dc:type
           rdf:resource="http://purl.org/dc/dcmitype/StillImage" />
        <dc:title />
        <cc:license
           rdf:resource="Apache License 2.0" />
        <dc:creator>
          <cc:Agent>
            <dc:title />
          </cc:Agent>
        </dc:creator>
        <dc:publisher>
          <cc:Agent>
            <dc:title>ECMWF</dc:title>
          </cc:Agent>
        </dc:publisher>
        <dc:language>en-GB</dc:language>
        <dc:subject>
          <rdf:Bag>
            <rdf:li>EcflowUI icon</rdf:li>
          </rdf:Bag>
        </dc:subject>
        <dc:description>EcflowUI icon</dc:description>
      </cc:Work>
    </rdf:RDF>
  </metadata>
  <g
     inkscape:groupmode="layer"
     id="layer1"
     inkscape:label="img"
     sodipodi:insensitive="true"
     style="display:none">
    <image
       y="0.2890628"
       x="1.3430486"
       id="image3035"
       xlink:href="data:image/png;base64,iVBORw0KGgoAAAANSUhEUgAAAgAAAAIACAYAAAD0eNT6AAAABHNCSVQICAgIfAhkiAAAIABJREFU eJzs3Xt8HFd1OPBz7szu7EhavyX5oTy9iS1L3gADCaQ8BgLkwasUTAkkIUBiKBRSHi3Q8iu0tBT6 oEADhJAESCgtSVsawiMJSVieiWnWJLZWthPZToIS25K9trWWtLO7c+/vD2mVkbSvmV1J9+6e+/nk Y2l28r1zZ+fcczWvC0CFChUqVKhQabmCDTK8jpj+jzzyyCOPPPLIk9TT66gYAEArsYyTRx555JFH Hnlye0EHAGjbtpbJZGZGHtFoVCQSCZc88sgjjzzyyJPfC3IJAC3L0rPZ7Mz/G4lERDKZLECwUxnk kUceeeSRR94ie34HABiLxcI9PT0z/9/w8LAYGhrKBamcPPLII4888shbEs/XJQC0bdtwHAcdxwEA AMMw6moMeeSRRx555JG36B4AANZ6BoBZlhXJ5/Mz64dCIZFMJrMQ7CYG8sgjjzzyyCNv8T0EAAYA opYzACwej5vRaHSm8nQ6XVdjyCOPPPLII4+8RffQtm0tkUgIgNKPEcyr3DRNrVAoYKFQwFAoJHbs 2DEZsHJm23YbAJBHHnnkkUceeYvnoWVZei6Xw0OHDgmAyjcBomVZZjQaZZOTkywaLWAmo4sdO3ac Clg5u+CCCzqi0cJMneSRRx555JFH3oJ7GIvFwoZhiOmnBjgAcFZuZdu2De81B8kaQx555JFHHnnk 1eDZtm14nx6YLqLUAABjsVjYcZyZlU3T5DI1hjzyyCOPPPLIq+5ZlhXx5vNoNCoAwAWYfwkALcvS o9Go5jgOjo+PMwCAXbt2Bb6GIfvOIY888sgjj7xm9OLxuAkA0N7ezg3DEJlMxvW+NGjWGQDbtjXv G4ZCoZCg5E8eeeSRRx55anm2bbetWrVqxhseHp73xkDvAGDWu4UNw6jr0QXZdw555JFHHnnkNas3 OTk5k9/LvTSo+B6AWZcC6ny9oBI7hzzyyCOPPPKa1ctkdAEwdSY/kUg4UCKfF0cIM5VHIhFK/uSR Rx555JGnuOd5aVDJfD7rHoBoNFrPLEXK7RzyyCOPPPLIa0bPNE1e7R6+4sps+mcOlPzJI4888sgj r+k99PwbdEYhaRpDHnnkkUceeeTV5mG1FRaycvLII4888sgjb2m8egYA0jWGPPLII4888sirrQQd AEjZGPLII4888sgjr7YSZAAgbWPII4888sgjj7zait8BgNSNIY888sgjjzzyait+BgCyN4Y88sgj jzzyyKutYK0DANkbQx555JFHHnnkVS8IAAwABKu2JgAw27bbJG4MeeSRRx555JFXvaBt29oMXq3y eDxuemcVkqwx5JFHHnnkkUde9YKWZeneWX8rDQDQsqyIdz5hyRpDHnnkkUceeeRVLxiLxcLZbNZ7 2b/sJQC0bdvI5/OyNoY88sgjjzzyyKvBs23b6OnpmXvPX8kBAMZisbDjODMrm6bJZWoMeeSRRx55 5JFX3bMsK+LN59FoVACACzD/MUC0LEuPRqOa4zg4Pj7OAACqTSlYqXLZdw555JFHHnnkNaMXj8dN AID29nZuGIbIZDJuMpkswPTkf7POANi2rXmvEYRCIUHJnzzyyCOPPPLU8mzbbvPewzc8PCy8yR9g 9gBA894daBiGSCaT2aCVy75zyCOPPPLII69ZPe/Te4ZhiKGhoRx4kj8AgD7976xLAcPDwyVX9lO5 7DuHPPLII4888prVy2R0ATB1Jj+RSDhQIp/PGwBEIhGRSqXypVb2U3lxgaw7hzzyypVt27ZpBw4c 6MhkMh1tbW2djuO0O06hjXNmIqLpuo7o7e3NA4CDiA7nfKJQKJwEgLFMJnP8yJEj4yq1lzzyyGtO L51Oi127dmWhTD4vrshg6tE/TCQSbrmV/VYu+84hr/U8y7JCJ0+ePCccDp/DGFsvhFiPiOsAYB0A rJ/+txMRGZZ4U7YQ1UODcz6JiKMAcAQAngaA37uu+/twOHwYAA62tcHB9nb9lIr7jzzyyFPDKxSi biKRmKjkzRoATK9IyZ885b3x8bA2Nja2kXO+WdO0XgDoFUL0AsBGxphenpoqQZN/rZ7rus8gYkoI MQAAu/L5/O+i0ehgMpnM18Ap932QRx558nno+Tdo7yZNY8hrXa9QKHS6bu4CzsX5QsD5QsBzETES wFvw5F/OE0I4QohHEfEhIcSDjuP8amhoaHjOakp8H+SRR5783vyeaRErJ4+8oF5nZ2dHd3f3qxDx DYjwEgA8u/jZYiTrxfI45wcQ8eec8/uFEA8sW7ZsXMbvgzzyyFPPq2cAIF1jyGtub+vWrWe7rvta xthrAOBljDFj7jrNlPxLFIEIAwB4L2P8HgD9/x555JExaJLvlzzyyFtcL+gAQMrGkNd83hlnnLEu Go1eIYS4kjG2tbhc9mS9GB7n/DAA/C8i/vfmzZt/dscdd7g1ctJ8v+SRR97SeUEGANI2hrzm8Hp6 eszly5f/IQC8AwBeyRjTvJ+rmKwX2uOcjwDAHZzz7+zZs+ehCtySf7/kkUeeHJ7fAYDUjSFPbW/r 1q1nCyH+DADegYjLSoHNkKwX2uOc7wOAb01MTHzz4MGDRzwfNdXxQh555NXl+RoAyN4Y8hT1Nm/e /CJN0z6CiG9ExHJTVEuRXFXyOOd5APiB67rX79279xfNcryQRx559Sd/ACjRwyxO5eSRB319fa9H xI8j4ouqgbIlV9U8AJ5C1L66fLl2h2GwnIrHC3nkkdcQDwGAAYAo+9eWt3Lbttskbgx5inm9vb0v 7e/v/w1j7E5K/ovjIWp9APCV48dzj46M5N936tQpDoocL+SRR17jkr9t2zP3VFU7A8Di8bhpmqZW 3ADJGkOeQt7mzZu36rr+OUS8rFZQheSqojd90+DnUqnU1wAgWyOn9PFHHnkt7qFlWToAQDKZ5AAg Kg0A0LIsMxqNssnJSRaNTs0uJFFjyFPE6+npWbF8+fLPI+K7Kl3jn1tUTa4qeUKI3wshPplKpW6D ym8DVfb4I4888gBjsVjYMAwRiUTE9ACAl+uM0bZtI5/Py9oY8hTxent73758+fK9jLFrKPnL5yHi aYyxb/f19T20adOm55fhlD3+yCOPPGC2bRs9PT1zO4WS9wBgLBYLO44zs7JpmlymxpAnv3fy5Mm1 W7ZsuVfX9VsZY51+wGZJrip5jLHzQ6HQjv7+/i91d3e3ez9S8fgjjzzypjzLsiLefB6NRgUAuADz 7wFAy7L0aDSqOY6D4+PjDABg165dk0Erl33nkNd479SpU1ci4j8HmYxHhmTY6h7n/IDrulfu3bv3 IRWPP/LII2/Ki8fjJgBAe3s7NwxDZDIZN5lMFmD6ct+sN6zZtq2PjY2x9vZ2dF0XAQAeeeSRrCyN IU9u79gxvsJxnBsR8cOIWHXK3blFxmTYih4irkTEq9euXastW8YfYmzqRKHsxx955JH3rGfbdptp mjg5OQnhcFgcPnxYpFKpPHju9fFeAtAymcxM5YZhiGQyScmfvJq80dHCC/P5/C8B4A0BPGmTYat6 mqZpiPj/jh1zv5vJ5KOyH3/kkUfebG9ycnImvxuGIYaGhnIw50bf4gqzeo/h4WGRSCSceiqXfeeQ 1zhvZCT//kKh8CNEPC2AJ30ybGUPES+dnISfjI+PLwdJjz/yyCOvvBcKhYr5fF6nMG8AEIlESo4U glYu+84hL7hXKEBoZCT/ZSHE38+dsKfWolIybGGvHwB+GYvFNvrklDqeySOv2bx0Ol08k1+yU5j1 FEA0GhXeGwTqrVz2nUNecG9kJL8qnc5/XwhxVQALAJRNhi3pIeIZhmEkNm3adFaNnFLHM3nkNZtn miavdgN/cWU2/TMHSv7kVfGOH4fTc7nc/wLA2QEsAFA7Gbayxzk/MDExceGcWQbnFqWOZ/LIa1Wv eAag+FwgJX/yKnrptIhls9m7gZJ/S3qMsbPb2tp+AADlHvFU6ngmj7xW9gJdt21U5eSp5R07xre4 rnsXIq4NYAFAcyXDVvUQccOaNWt6RkdH75zzkVLHM3nktbpXzwBAusaQt3De6Ghhq+u6dwHAmgAW AMiRvMhrjMcYe05nZ+fB0dHRR4uLVDqeySOPvOqzAS5o5eSp4R0/Dhsdx7kbEX290tdbZEpe5DXG E0KMTUxMbD1w4MCwSsczeeSRN1WCDACkbQx5jfdGRvJrOXfvRWSnB7AAQM7kRV5jPCHEj9rb29+m yvFMHnnkPVv8XgKQujHkNfwv/+Wum/8BIjsngAUAcicv8ur3GGPnuq77aHs7GwKQ+3gmjzzy5oBL WDl5EntjY5qez+duA2B9ASwAkD95kdcYTwjxt5oW1mQ+nskjj7x5BWs9AyB7Y8hrsHfyZO6zQsCb AlgAoE7yIq8h3urx8cLBZDL5EEh6PJNHHnkzBWH67H8tZwCYbdttEjeGvAZ7o6OFy4UQ7w1gAYBy yYu8BniFQuFDQO8RIY882T20bXvmD/9qAwAWj8dN76xCkjWGvAZ7x47lznNd918DWACgZvIir36P Mbapt7f3Mp+ccvFBHnkKe2hZlu6d9bfSAAAty4qsWrVK1saQ1/DT/szM5fhNiFjuLW8Vi6rJi7zG eIj4fh+ccvFBHnkKexiLxcLZbNYbxKLcAABt2zby+bysjSFvAbyJiYnPMBbsjn/Vkxd59XuMsYvP PffcDTVwSsYHeeSp6tm2bfT09MwN4pIDAIzFYmHHcWZWNk2Ty9QY8hYk+b+CMXZNAK8pkhd59XuI yHRdv7wKp2R8kEeeqp5lWRFvPo9Go8W5f+ZdAkDLsnTvSCGdTotEIjERtHLZdw55ujh+/HiYc35j AK9pkhd5jfEQcVsFTsn4II88Vb14PG56z+RHIhGRSCTcmRW8a9u2rXmvEYRCIVFtPuFKlcu+c8ib 8sLh8OcYY75f87vUyYY8+TxEfMEZZ5yxrsRHysYHeeSp6Nm23ea9h294eFgkk8kCeJ7W8Q4ANO/d gYZhiGQymQ1auew7h7wpb9OmTS8CgHf5BWVINuTJ5yEitre3XzJnsbLxQR55qnrep/cMwxBDQ0M5 mPOobnGFWdE+PDwsEomEU0/lsu8c8nacAgCm6/rXsFRvX6HIkmzIk9NDxFd5flU5PsgjT3kvFAoV 8/m8IJ43AIhEIiVHCkErl33ntLLX19e3nTG21Q8oW7IhT0rvZdP/Kh0f5JGnupdOp4tn8ksGse79 JRqNFm8QoOTf5F5nZ2cHAHzKDyhpsiFPMo8xtn7Tpk1nrVix4piq8UEeeap700/vVbyHb9ZNgJT8 W8fr7u7+KGOsq1ZQ1mRDnpyeYRgvUTk+yCNPda+Wp/eKA4Dic4GU/FvA27hxYxcAfKRWUPZkQ558 nhDivOLvqsUHeeS1iucdAAQpUjWGvNq8SCTyIUTsqAVUIdmQJ5/HGOsHUDM+yCOvVbz50b+IlZO3 +J5lWcsdx3kKEZdVA1VJNuTJ53HuPtXe3rFVtfggj7xW8mqZDnjBKidv8T3Hcd5PyZ+8hfYY004/ derU57Zt2xbkj4ymiTfyyJPZ06qvsnCVk7foXrirq+s/q53+Vy3ZkCenh4gvGB0dtcLh8PfHxsYK NXLNFG/kkSe15/cMgNSNIa+y19fX92ZE7K4EqppsyJPTQ8TXLFu27C4AqGWK6aaKN/LIk9zzNQCQ vTHkVfGqzdeuerIhT05P07SL+vr6bt+2bVulM45LHh/kkddCHgAA1joAkL0x5FXxzj333PMQ8cJy YLMkG/Lk9BhjrxscHPxiuY+XOj7II6+FPISpy/81DQCYbdttEjeGvBq8cDhcdsKfpU4O5LWGxxj7 076+vqvmLpYhPsgjr0U8tG175kxctQEAi8fjpndWIckaQ15tni6EuLzUB7IkB/Jaxvvqxo0bY9M/ yxIf5JHXCh5alqV7Z/2tNABAy7Ii3vmEJWsMeTV6vb29FzPGOuculzA5kNfkHmOsPRKJfBMANFni gzzyWsDDWCwWzmaz3iAW5QYAaNu2kc/nZW0MeT48TdPm/fUvY3IgrzU8xtiLzzvvvPfJEh/kkdfs nm3bRk9Pz9wgLjkAwFgsFnYcZ2bl6VmFpGkMeb68sBDitd4FMicH8lrD49z91MmTbBnAkscHeeQ1 tWdZVsSbz6PRaHHun3kvAkLLsvTOzk7mui7m83mcnJyEHVWmFFzMxpDnz+vt7b1Y07SZGwBVSA7k Nb+HiG2u63LOjZ83U7yRR55MXjweNznnGA6Hha7rwDnnDz74oDuzgndt27Y17zWCUCgkdu3aRclf YY8x9ofFn1VJDuS1jPfeY8eOGdBE8UYeebJ4tm23ee/hGx4eFslksgCeyf+8AwDNe3egYRgimUxm g1Yu+85pFQ8RL5n+d95nkicH8prfa49EIhVfTlWmSBtv5JEni+d9es8wDDE0NJSDOTP/FleYFZ3D w8MikUg49VQu+85pBe+cc87pRcTTFE0O5LWAJ4R4P9T2muBikTbeyCNPRi8UChXz+bwgnjcAiEQi JUcKQSuXfec0sxcOhy9WOTmQ1/weY2xNX1/fW2rkpI438siTzUun08Uz+SWDeNY9ANFodN41gnoq l33nNLunadpFcxeqlBzIaw1PCHFNDZz08UYeeTJ5pmnyavfwFVdm0z9zoOTfFJ5lWdFcztmPyFYX F6qYHMhrfk8IIfL5/MZ9+/YdLMNJH2/kkaeiVzwDUHwukJJ/k3iFQmETJX/yVPAQEUOhUMlXVYMi 8UYeeSp63gFAkCJVY8h71hNCWMWFKicH8lrDE0K8ucRiZeKNPPJU9GqdDnhBKidv4TxEfA5AcyQH 8prfY4w99+yzzz7du0ileCOPPBW9oAMAKRtD3rOeEOK8ZkkO5LWG19bW9prpH5WLN/LIU9ELMgCQ tjHkPetxzrcEsABAzuRAXvN7QohLQNF4I488Fb35kbuIlZO3MN6JEydWh8PhAwE8aZMDec3vCSHG VqxYcWYkMjkTCyrEG3nkKer5OgMge2PIm/Z0Xd8UwJM6OZDX/B5jbNmpU6fOK/6uSryRR56CHgAA 1joAkL0x5M32Yn5B2ZMDea3hcc4vBFAu3sgjTyUPYWom4JoGAMy27TaJG0PefG+jH1CV5EBe83tC iPMVjDfyyFPFQ9u2tRm8WuXxeNz0ziokWWPIK+Eh4ukl/+8SRaXkQF7ze4j4fNXijTzyFPHQsizd O+tvpQEAWpYV8c4nLFljyCvjCSF6agFVSw7ktYS34ayzzuoMwDVN/JJH3gJ4GIvFwtls1ht0otwA AG3bNvL5vKyNIa+Ch4jrqoGKJgfyWsAzTfN5Prmmil/yyGu0Z9u20dPTMzfoSg4AMBaLhR3HmVnZ NE0uU2PIq+wJIdZUAlVODuS1hPccH9ySxxt55MnsWZYV8ebzaDRanPsH9Dkro2VZejQaRcdxAGBq PuFqUwpWqlz2ndOEnsEYM8uBTZAcyGtyDxHjNXIyxBt55EnrxeNxM5/PQzgcFgAAkUhEJBIJd2YF 79q2bWveawShUIiSv2KeZVnRcp81Q3IgryW8vho4KeKNPPJk9WzbbvPewzc8PCySyWQB4NnJ/7wD AM17d6BhGCKZTGaDVi77zmlWL5PJGKWWN1FyIK/JPUTctG3bNq3kh1NFmngjjzxZPe/Te4ZhiKGh oRzA7Jl/iyvMis7h4WGRSCSceiqXfec0q1coFOZ1nM2UHMhrfg8Rwzt37jyrzMdSxRt55MnuhUKh Yj6fF3TzBgCRSKTkSCFo5bLvnGbz2tvbZ93XsdSdOXnkBfEMwzinxGLp4o088mT20ul08Ux+yaCb dQ9ANBqdd42gnspl3znN6OXz+ZkBgCydOXnk+fUQce7bLKWMN/LIk9UzTZNXu4dv1l+L03cHUvJX 2HNdVwuFQlJ15uSR59dDxDM9v0obb+SRJ6+XmKjmFQcAImDFFSqXfec0pxcOhw3ZOnPyyAvgnTb9 r9TxRh55KnvFSwBBo12qxpAHLBLRO+YulKAzJ488X0UIsR4UiDfyyFPZq3U64AWpnLzGe4UChLwL ZejMySMvgLVWhXgjjzyVvaADACkbQ14BGWMzjwHK0pmTR16A0qlCvJFHnspekAGAtI0hDwBg6gyA TJ05eeT59Rhjy8fGNB1A+ngjjzxlvblzASxq5eQ13hMiz4SY3yHXWlRIDuS1hpfNZpchmsdkjjfy yFPY83UGQPbGkJfRRaEA+QAWAKiVHMhrfk/X9ajs8UYeeYp6AABY6wBA9saQN+1xziu9Q71sUS05 kNf83uTkpA6Sxxt55CnoIQBoUOMAgNm23SZxY8jzeIjo97KOksmBvOb3OOdlp7WuUJSOX/LIW2AP bdue+SOx2gCAxeNx0zurkGSNIW+O5/cMgKrJgbzm9zRNi/jklI9f8shbQA8ty9K9s/5WGgCgZVkR 73zCkjWGvBIeY6zmMwAqJwfymt8TQpSc2rpMaYr4JY+8BfIwFouFs9msN+hEuQEA2rZt5PN5WRtD XnmvpgGA6smBvJbwwjVyzRS/5JHXcM+2baOnp2du0JUcAGAsFgs7jjOzsmmaXKbGkFfeE0JUvQTQ JMmBvCb3vC+1qlCaKn7JI6/RnmVZEW8+j0ajAgBcgPl/LaJlWXo0GkXHcQBgaj7halMKVqpc9p3T bF61mwCbJTmQ1/xeDYPZJY838siT2YvH42Y+n4dwOCwAACKRiJie9XdqBe/atm1r3msEoVCIkr9i Hue87ACgmZIDec3vaZpWqTIp4o088mT1bNtu897DNzw8LJLJZAHg2cn/vAMAzXt3oGEYIplMZoNW LvvOaVZP1/WSfzUtdWdOHnl+Pc55uWNdmngjjzxZPe/Te4ZhiKGhoRzA7Jl/i38tzorO4eHhkiv7 qVz2ndOsHuc8xNjsWztk6MzJI8+vV2YAIFW8kUeerF4mowuAqTP5iUTCgRL5vJgpZiqPRCKU/BX2 5t4DIEtnTh55fj0hxNzXWksXb+SRJ7OXTqeLZ/JLBt2sPxWj0ei8awT1VC77zmlGz3vjlEydOXnk BfBynp+ljDfyyJPVM02TV7uHb9Zfi9N3B1LyV9sLAUjZmZNHnl8jO/2jzPFGHnmSeomJal5xACAC Vlyhctl3TnN6iKjL2JmTR57fwjmfAMnjjTzyVPaKlwCCRrtUjSEPGADMm0BFhs6cPPL8Fk3TJmWP N/LIU9mrdTrgBamcvMZ7mqaFvAtl6czJI89vMU3TlT3eyCNPZS/oAEDKxpBXQO9NgDJ15uSR59fL 5/Onir/LGm/kkaeyF2QAIG1jyAMAAA1Avs6cPPL8eEIIvmoVOwUgfbyRR56ynt8BgNSNIW/qJkDZ OnPyyAvgndR1Tcgeb+SRp7DnawAge2PIy+jCdd3Ava9CyYG8pvdEWoV4I488RT0AAKx1ACB7Y8ib 9mqYQa1kUSs5kNfsHiI7qkK8kUeegh7C1KXimgYAzLbtNokbQ57HQ0TfAwDVkgN5ze9xzg+BAvFG HnmKeWjb9kyOqDYAYPF43PTOKiRZY8jzeJZlrQGAc/2AKiYH8prfE0Is27Bhw2qfnNLxSx55C+yh ZVm6d9bfSgMAtCwr4p1PWLLGkPesJ/r6+v4im80+hYgvrxVUNTmQ1/weY+wVK1as+H1fX99fAMD8 FecXleOXPPIW2sNYLBbOZrOzbrQpd7oYbds2xsfHmWmaWCgUMJdjIFFjyJv2tm3bhoyxWxljH0bE UCXEW1RODuS1hoeIIUR8VVdX19kve9nLfjA4OFiuQmXjlzzyFsOzbdtYtmwZTkxMCF3X4dChQwIA eKkzABiLxcKO48xUbpoml6kx5D3r7dmz5+uI+HY/YDMkB/Jax0PEK/fs2fOVMh8rHb/kkbfQnmVZ EW8+j0ajAgBcgOmXxngKWpald3Z2Mtd1MZ/P4+TkJOzYsaPilIKL2RjynvX6+vquZYx9yg+41J05 eeQF8RDx+Z2dnU+Mjo4+6lmsdPySR95Ce/F43OScYzgcFrquA+ecP/jgg+7MCt61bdvWvNcIQqGQ qDaf8GI2hrxnvU2bNq1HxC/4AWXpzMkjL6D3xVgs1jn9s9LxSx55C+3Ztt3mvYdveHhYJJPJAngm //MOADTv3YGGYYhkMpkNWrnsO0d1T9f1TyNiR62ghJ05eeT5MhhjKyKRyCehCeKXPPIW2vM+vWcY hhgaGsoBzJ75Fz3/MsuyWDabRcdxsNTKfiqXfeeo7J1xxhnrOjo6nmSM1XTTn4ydOXnkBSmc88lQ KLRlzRrteHGZavFLHnmL4WUyujBNk2cyGZ5MJiehRD4vjhBmKo9EIiVHCn4rLy6Qdeeo7LW3t19N yZ+8VvQ0TTM555cXf1cxfskjb7G8dDpdPJNfMuhm3QMQjUbnXSOop3LZd47C3ttqAWXvzMkjL4gn hHgTgNLxSx55C+6Zpsmr3cNXXJlN/8yBkr/U3ubNm88MhUIHq4GqdObkkefXE0KIUCh07s6dOw+A YvFLHnkyecUzAMXnAin5S+4xxl5RDVSpMyePPL8eImI+75wPCsYveeTJ5HkHAEGKVI1pBQ8RX1gJ VK0zJ4+8IJ4QeEEAbsnjlzzyZPJqnQ54QSonz7+HiM+p8Nm8ZSp05uSR59fjnD/XJydF/JJHnkxe 0AGAlI1pEW9zqYUqd+bkkefXQ8SScVCmyBS/5JEnjRdkACBtY5rd27Bhw2pEjM5drnpnTh55fj3G WOeaNWvmxUKJIk38kkeebJ7fAYDUjWl2r6OjY8PcZc3QmZNHXhBv5cqVPVU4qeKXPPIk83wNAGRv TNN74XC4y/t7M3Xm5JHn19M0ravshxLGL3nkSeQBAKC+RJWTF8xbWfxhqTtf8shbag8RV5b5SNb4 JY88GTyEqT/+RS1nAJht220SN6ZlPNd1owBydL7kkbfUHmNsWanFssYveeRJ4KFt29oMXq3yeDxu emcVkqwxrea1y9L5kkfeUnuI2D5nkezxSx55S+mhZVm6d9bfSgMAtCzHTmksAAAgAElEQVQr4p1P WLLGtJyn6/P/4mmWzpw88vx6QgjD86v08UseeUvoYSwWC2ezWW/Qlb0EgLZtG/l8XtbGtKQHMHsG wGbqzMkjz6+HiMV4UCJ+ySNvqTzbto2enp65QVdyAICxWCzsOM7MyqZpcpka06oeIs5cu1nqzpc8 8pbaE0JooFD8kkfeUniWZUW8+TwajQqYmvsH5j4FgJZl6dFoFB3HAYCp+YSrTSlYqXLZd45KnhCi +G8AaqrI2pmTR14AS1Mpfskjb7G9eDxu5vN5CIfDAgAgEomIRCLhzqzgXdu2bc17jSAUClHyl8gT QriydL7kkSeBF1YpfskjbzE927bbvPfwDQ8Pi2QyWQB4dvI/7wBA894daBiGSCaT2aCVy75zVPRc 1x0LYAGAEp05eeT58hhjheLvKsQveeQtpud9es8wDDE0NJQDmD3zb3GFWdE5PDwsEomEU0/lsu8c FT3G2EQAT4nOnDzyAnh5AHXilzzylsILhULFfD4v6OYNACKRSMmRQtDKZd85KnlCiEm/oEKdOXnk +fI45xmV4pc88hbbS6fTxTP5JYNu1j0A0Wh03jWCeiqXfeco6J3yA6rUmZNHnl+PMXZSsfglj7xF 80zT5NXu4Zv1FMD03YGU/OX1DtcKqtaZk0eeX49z/ntQK37JI28RvcRENa84ABABK65Quew7Rz2P MfZMLaCKnTl55Pn1CoVCTfEwpzRNf0AeefV68yNrESsnz7cX2bp1a8X7AFTtzMkjz48nhBADAwNt AJD1wS11/JJHnlReLbMBLljl5Pn2spzz0XKgqp05eeQF8I4AJX/yyKvLCzoAkLIxreAJIfaUWq54 Z04eeX69fT44aeKXPPJk8oIMAKRtTCt4iJgqsWzeeop15uSR59crORAuUaSKX/LIk8nzOwCQujEt 4s0aADRJZ04eeX69XTVwMsYveeTJ4vkaAMjemJbwhBAzHV8TdebkkefLc133d1U4KeOXPPIk8QAA sNYBgOyNaRlvbGzsYc55vpk6c/LI8+NxzvN79ux5pAInbfySR54EHgKABjUOAJht220SN6alvOHh YYcxfHTuclU7c/LI8+sh4iNQ/gkAqeOXPPKW2EPbtrUZvFrl8Xjc9M4qJFljWtJjTHvIu1Dlzpw8 8gJ4vyizXIn4JY+8JfLQsizdO+tvpQEAWpYV8c4nLFljWtZjTPymuLAJOnPyyPPlua77sxKLlYlf 8shbAg9jsVg4m816g06UGwCgbdtGPp+XtTEt7UUi+AshRK4ZOnPyyPPjCSGcdDqdmLNYqfglj7zF 9mzbNnp6euYGXckBAMZisbDjODMrm6bJZWpMq3ucRzJQ/jRo1SJLZ04eeX49zvkvjxw5Mu5ZpFz8 kkfeYnqWZUW8+TwajQoAcAHmXwJAy7J070ghnU6LRKL6rELlKpd956jqCSF+GMCTqjMnjzy/HiLe 6flV2fglj7zF8OLxuOk9kx+JRMT0rL9TK3jXtm1b814jCIVCotp8wpUql33nqOzl8/kf+AVl68zJ I8+PJ4QQ2Wy2OABQOn7JI2+hPdu227z38A0PD4tkMlkAgJmg8w4ANO/dgYZhiGQymQ1auew7R3Vv 3759B13XfaisMKfI1pmTR14A78H9+/f/Hpogfskjb6E979N7hmGIoaGhHHiSP8CzA4BZ0Tk8PCwS iYRTT+Wy75wm8b5bCyhpZ04eeb6KEOI/oLnilzzyFtwLhULFfD4v6OYNACKRSMmRQtDKZd85KnuO 43yPc16oBMramZNHnp/COc87jvO9Zopf8shbaC+dThfP5JcMuln3AESj0XnXCOqpXPado7q3f//+ EQD4STlQ1s6cPPICWD9avXq100zxSx55C+mZpsmr3cM3awAwfXcgJX+FPCHE10otl7kzJ488vyUc 1m6TId7II08Vr5an99Dzb9DoVHLnNJHH+vr6hhhjZxUXyN6Zk0eeT+/gsmXCikTCHGDJ44088prG K54BoOSvrscB4IbiLwp05uSR59e7iZI/eeQ13qt1OuAFqZy8xniMsW8IITKKdObkkVezJ4TIAMCt APLEG3nkNYsXdAAgZWNa1du9e/dJRPzW3OWydebkkefXQ8RvdnWFMjLFG3nkNYs3P2oXsXLyGucV CoX1uVzuUUQMA8jZmZNHnh9PCJFljJ0XiUQOyxZv5JHXDJ7fMwBSN6aVvZUr4RBMvxhIxs6cPPIC eLdR8iePvAXzfJ0BkL0xLe+l02J9Lpf7HSIaATzVkgN5TewJIbKmaZ7329/+dggkjTfyyFPYAwDA Ws8AyN4Y8jK62Llz5z4hxFcDeEolB/JawvsGJX/yyFsQDwFAgxoHAMy27TaJG0Oex4tEIp+dvnO6 5qJgciCviT3O+UnHcf4WFIg38shTzEPbtrUZvFrl8Xjc9M4qJFljyJvjJZPJo5zzf6gVVC05kNf8 HgD83WOPPXY0AKd8/JJH3gJ6aFmW7p31t9IAAC3LinjnE5asMeSV8QYHB78ghNhfDVQxOZDX3J7r uo8bhvGlAFzTxC955C2Ah7FYLJzNZr1BJ8oNANC2bSOfz8vaGPIqew7n/COVQBWTA3kt4X0wmUzm fXJLHW/kkSe1Z9u20dPTMzfoSg4AMBaLhR3HmVnZNE0uU2PIq+4NDg7eKYT4canPFE4O5DWxJ4T4 fiqVutsnJ0W8kUeerJ5lWRFvPo9GowIAXID5lwDQsizdO1JIp9M1zSpUrnLZd04zexMTE38ihDjl XaZqciCvuT0hxFgul/uAT06qeCOPPNm8eDxues/kRyIRMT3r79QK3rVt29a81whCoZCoNp9wpcpl 3znN7h04cOApzvlfFX9XNTmQ1xLexx977LGnfXDSxRt55Mnk2bbd5r2Hb3h4WCSTyQJ4Jv/zDgA0 792BhmGIZDKZDVq57DunVbzBwcHrhRAPKp4cyGtiTwjxs4GBgRvmrVC+SBtv5JEni+d9es8wDDE0 NJQDmD3zb3GFWdE5PDwsEomEU0/lsu+cFvJA1/X3AcC4d5kqyYG85vaEEGPj4+PvBKh5SnLZ4408 8qTyQqFQMZ/Pi7F5A4BIJFJypBC0ctl3Tit4a9ZoBxHxE8WFqiQH8prfE0J84ODBg0/WyCkRb+SR J4uXTqeLZ/JLBvGsewCi0ei8awT1VC77zmklr7NTvxUAfqhSciCvuT3O+X+mUqlba+SUijfyyFtq zzRNXu0evuLKbPpnDpT8m9Y7efJkSNO0/2OMneUXVD3ZkCeXJ4QYeuaZZ6x0Oj1WA6dkvJFHnuxe 8QxA8blASv5N7O3du/cYY2ybEMLxA6qebMiTy+OcT+ZyuTdT8iePvKX1tGorLGTl5C2+NzIycqi7 u3sEAF5XC6h6siFPPs913Xfv27fv3ho45eONPPJk9uoZAEjXGPJq80ZGRpKdnZ3diPiCSmAzJBvy 5PI4518cHBz8xxq4pok38siT1atlOuAFq5y8pfNSqdQHXde9vxzYDMmGPLk8zvndW7Zs+WgN3JLH B3nktYI3P2oXsXLyltbbunXrSiHEbxBxs3d5MyQb8uTyOOe7Dx069OIarvtLEx/kkdfsnt8zAFI3 hjx/3u7du49PTExczDl/prisGZINeXJ5Qojf5/P5Syn5k0eeVJ6vAYDsjSEvgHfgwIGnXNe9hHN+ ohmSDXlyeZzzo7lc7tU1vOdfyvggj7wm9QAAsNYBgOyNIa8Ob+/evalwWHvz3JkDVUs25Mnlcc5P cs4vfuyxx/ZW4aSOD/LIazIPYeoBgJoGAMy27TaJG0NeA7zVq0MPh0KhbULwCQD1kg15cnlCiDHO +SV79uzZWYVTIj7II69JPLRte+bpv2oDABaPx03vrEKSNYa8BnqrVuGDjGnvVS3ZkCef57ru2/bs 2fNQFU6p+CCPPMU9tCxL9876W2kAgJZlRbzzCUvWGPIWwDt27Nh/cc7HK/2P5UqzJC/y6vM458f7 +/vvrsIpGR/kkaeoh7FYLJzNZr1BLMoNANC2bSOfz8vaGPIWyBseHp4EgAf8gs2SvMhriHfPHXfc 4VbglI0P8shT0bNt2+jp6ZkbxCUHABiLxcKO48ysbJoml6kx5C2sJ4T4kR+wyZIXeXV6nPMfV+CU jw/yyFPJsywr4s3n0Wi0OPfPvEsAaFmW7h0ppNNpkUgkJoJWLvvOIW++Nz4+/gNRY8ZY6mRDnlwe 5zyv6/oPy3zcFPFBHnmqePF43PSeyY9EIiKRSMycnZs1ALBtW/NeIwiFQqLafMKVKpd955BX2nvy yScPAcBvqoFLnWzIk9J7YPfu3cdLLG+a+CCPPBU827bbvPfwDQ8Pi2QyWQDPrL/eAYDmvTvQMAyR TCazQSuXfeeQV9kTQvx3JVCSZEOefF6p42bJj2fyyGs1z/v0nmEYYmhoKAee5A/w7ABgVrQPDw+L RCLh1FO57DuHvMpePp+/XQhR8nOJkg15Enmc8/yJEyf+Z85iKY5n8shrVS8UChXz+bwgnjcAiEQi JUcKQSuXfeeQV7o89thjT3POfzZ3uSzJhjz5PCHEj59++uljnkXSHM/kkdeKXjqdLp7JLxnEs+4B iEaj864R1FO57DuHvMoFEW+b8/u8dZoleZFXvzfneJHueCaPvFbyTNPk1e7hK67Mpn/mQMmfvOnS 2dnZ0d3dfQgRO2RLNuTJ5Qkhjg0MDGwAAAckPZ7Jq+C9+tb2lWeuW82At2kFYbiaHmYoDOYKQ2ia 5nIoMBB5F0Q+jAU3MnFYQ3Qm25yDxztHd4xNTk7So+IKeuj5N2jvIU1jyGu819vbe2MoFLp27vJm Sl7k1e9xzr+QSqU+ApIfz63mdV95a3t7Pt/rRiKnC804TUDodA7aaW6orQs4rgYUq4XAVYyhUZso gPEcoCddcM65qxknENhxADgKIJ52BT6FQvxeCP4UF/hULn9yf+bWPzpWApR6/zW7Nz/yF7Fy8uT3 LOu8C/N58UvvwqVONuTJ5+Vyuc379u17XPbjuWk9+9P6qnNeuCkE+lZA7Adk/Qiin7nZsxhjM5d6 BSBwFoZgXf/85O/HE5yPAOIggBjkHFIMc3uWH35g32kT98+8erxpvg9FvHoGANI1hryF8Y4cyd2H iM8HkCPZkCeXJ4RIDAwMXKTK8dwMXvvld3a3R9tfBMBexBBeKACez5C1PbtGfcl6flkYD3iBA7LH gOcfRhAPc8345TPHxx6FO95S6VXSpUpTfb+L5QUdAEjZGPIWxjt2LP9m14WbZEg25EnpvbGtre0B VY5nFb3T/+SXKyfzzkWosVczARchY2eX59RI/uU8IcRJwcXPAcR9BSz89NiNF++tAir//S6VF+Tb k7Yx5C2Ml82a7MSJE48i4mkBPNmTF3l1eJzzx0Oh0Plr1mgzgOzHsyre6mvvs0LIXgcIF4MQz0em VZu+HVRP/qWKK8QwA7iPC/fOkePpe+COt0x6Plb2+5XB8/sNSt0Y8hbO27Jly4c1Tfsnv6DMyYu8 +j3G2Ec6O/Wbi7+rcjzL6GWza9nTGy9/wUR43WXA8I0M2en+uKVP1gvtccEnEOBuDvz7TubIjzbv /7KryvcroefrW5S9MeQtoLdmzZro2rVrn0DEVbWCsicv8ur2RkyTx6NRIwug1vEsk7e/6wPn5dpW vR1E+A08ZHQ3S7JeeC+bR56/nxXGv3vGkXvvzqUHHRm/X0k9AIASPcLiVE6egt6WLVs+pWnap2sB FUhe5NXpIeJfd3bqXwZQ83heSm/Tts+cMRnt+2OXRd6OjPXLl1zV8rgLaa6F/6NQKHzr6C2vftgn KP3x0mAPAYABgKhl7zPbttt0PaM1qHLZdw55ZbwzzzxzRUdHx5OIuKwSqELyIq8+TwiR7uhg8fZ2 /ZSqx/NSeGu33/1ynbvXccRLGbIwgPzJVTWPu3wXgLj+yIlj35lzv0CpIvXxsgAe2ratJRIJATUM AFg8HjdN09SKGyBZY8hbZK+vr++vGWN/Uw5UIXmRV79X/Otf9eN5UbxLv2x09vRdjsiuC0HuOSon V5U8LngaBdycdSe/cuLm1zxZApTzeFk4Dy3L0gEAkskkhyoDALQsy4xGo2xycpJFowWUrDHkLYHX 2dnZ0dXVtZ8x1jX3M1WSF3n1eULww6tXm8+dnGQTqh/PC+lFr/qf1e2R5R8AwD9Bhl3NlFxV8oQQ LoC4Exl89tDXXpGcXizd8bLAHsZisbBhGCISiYjpAQAvt+fQtm0jnU5rq1atwuK8whI1hrwl9LZs 2fJBTdO+5F2mSvIiryHeh0zTvKVZjudGe9Htd61pE20fRWTvR4YdMiXDVveE4D/mPP/3Z+366wFZ jpfF8GzbDgMAjI6Ocs8AwC31XCnGYrGw4zgzlZumSRM9kDdTTNP8muu6jxV/Vyx5kVeHxznfs2zZ sm830/HcKK/jynu61m5/4B/bseMJpmkfo+Qvn4eIl4UQfj3c/6k7H1//oQsBmuf4K+dZlhXx5vNo NCoAwAWYvwfRsiw9Go1qjuPg+Pg4AwCoNqVgpcpl3znkBfN6e3tfo+v6D1VKXuQ1xHvDrl27fghN djzX5W27vaN75eqPA+KHVHwdbyt7IPi9eRQfPXLja3YHAOU4/ip48XjcBABob2/nhmGITCbjJpPJ AsDUTpi1F23b1kdHR1lnZydzHAdzuRwmk8msLI0hTy5v69at9yDiK70LJU9e5NXhCSF+snv37teC JMffknvbbte6VnZewxD+BhG7Z3+oXjJsVU8IcIWAb57KTfy/8W+95nCN4NIff1U827bbAADS6bRo b2/no6OjfGhoKAfw7E7wXgLQMpnMTOWGYQhK/uRV8jRN+3MhRLa4UObkRV59Hud8MpfLvR8kOv6W 0uu89v5L167sfFRjeAMlf7U9RNQYw2uiRttQ1/affQq23W5WAZf8+KvFK967BzCVz+cmf4Bn9ybC 1LUCls1m0XEcLLWyn8pl3znkNcYbHS18VAjxSZmTF3kN8T6+e/fuzwfglDqeq3mr3nnPaSE9dD3T 2OtLc2onQ/IABOcHXJe/f/TmV95d4mNljudMRhemafJMJsOTyeQklMjnxUoZTF3/ZwAA3msEQSsv LpB155DXGG98PKyNjY39gjHWF8BTNRm2lMc5f3RgYOD5AFDwySl3PJf1tt2uda9c/QEE9pmpm/tK laVPXuQ1zhMc7hibyF438Z1LDk0vUup4zmR0MTk56Va6h2/WUwDRaFRQ8ifPj/fggw+eYIy9g3Pu NzkomQxbzXNdN+84ztXQwsl/zTvvf966FZ07GNP+lZJ/63jIYNuytvDetdvv/1OAbZpqx7Npmrza DfyzzgBMr0jJnzzfXl9f32cYY5+sFVQxGbai57rupwcHB//GJ6f88QwAANsfDnXDyU8hso8jolYK miryJS/yGutphewvDeex95116NbfAyh6PJco3nsAgvYe0jSGvKXzLMsK5XK5BwHAqgaqmgxbzRNC /N/AwMCF4O+v/6Y4nldvv2dzWIS/AxpWOZ7lT17kNcYTLs/oMP7xtQP//B3VjudyJcgeaVjl5DWX 19vbe46maTsRy50mVTcZtponhMhks9nnDg0N7ffBNcHxLHDt9gfeLwD/kTFW5W5wdZIXeY3zChi6 czyXvfbUNy8b9QlKFx/1DACkawx5S+/19fVdxRj7dqnPVE2GregVCoWr9uzZc5sPTorjrx4vuv2u Ne3YcRsiXlKdUzN5kdcYT3BxuMALlx+96VWJGkEp46PUq4AXrXLyms9LpVK3CiFunrtc5WTYah7n /KZWS/6r33nPBW3QvpOSP3m1eMhwra7p93Vf+8AnoIZZdWWNjyB7R9rGkCeNZ/T39/8KEZ8PoHYy bDVPCPHwwMDAiwHAqZGT8fjz5XVd+8D7kMG/MmTh6pz6yYu8xnrCFT8M6/pVT33tJcdLfCx1fPg9 AyB1Y8hrrHf0qPvikZH8P0xOTro+PWd8fPzNnPNRlZNhq3mc89Hx8fE3g8/kHwpNaCMj+U8ePeq8 +PhxhWYN3f5wW/f2n92maewrlPzJC+qhhq/N8cLOznf/9LlzPpK9v/e1l2RvDHkN8LLZ7FohxNuE 4Fcgso1CCOCcX59KpT7g1zvvvP5Xco4/QESjuFCVZNhqnhDCyefzF+3bt+/XNXIzx9/IiPNnAOzT AACc8yEhxM3j4+PfeuKJJ2p9r/osr7hgIeNjzbvuXc907Yca0+Z22mWKHMmGPHk9IcS4cAtvP3LT q+4E+ft7AIASPcLiVE6eRJ5lWSHXzf1hoSCuRoRXIzIdYFZyEEKIS1Op1D1+t+/o0dxbOMcbvV6Q onJyVcFzXfeKwcHBf6+Rm/l+0+l8PJ8X9yFi2OtxzguI+EPXdb/R399/zx133OHW4hUXLGR8dL3r 7vMgZPxQQ+ypjZMv2ZAnpye4y4Hzj5+x+5Nfl7W/h6lGMajh5gUAAGbbdpuuZ2ZehCFZY8gL6J11 1llndHR0XMM5f5emaeu9n81NNkKII+Pj4+cdPHjwiN/tO3Ik92EA+Gs/2+YtqidX2T0hxCcHBgb+ vkZu5vudnOTtJ0/mfs6YFqu0fZzzYUS8eWJi4pYDBw48Vc4rLljI+Oi85oHLNIbfK/9Gv7lF3mRD nrye4Llv9xy85SPL8KmCLP39dEHbtrVEIiEAQFR4u9VU5dPzCWuGwbEBlUubDFvI03t7e9/Q1dX1 BcMw/o0x9jLGWNS7QqnOHBE7NE17zujo6L8DQLnevuT27dy586ednZ0rEPGFNW6jt955y1RKrrJ7 Qoh/GxgY+MsauVnf7/HjhesR2UurbR8iLkNEOxQKXdfV1XXBmjVrxm3bHhocHMRF/cv/2gfep2l4 KzKM1MapkWzIk89D1J4ztvx552fz7K5HH7g9DXLkD7QsS8/lcnjo0CEBULmVaFmWGY1G2eTkJItG p2YXarJk2DLepk2bzgqFQtcCwNWIuA4gWLLhnH8mlUqV+mu+2vZhf3//txHxymrbWiyqJ1fZPdd1 vzs4OHgl1HY8zvp+R0byVwPAF4NuH+f8GUT8d8bYrV1doQV/vera7fd/Gpn2qdo5dZINefJ6Luq/ nUjnLx2745K0T7DhyT8Wi4UNwxCRSEQkk0kOALzcUwBo27aRz+elSF7kBfb0vr6+N/X3998TCoX2 I+In6kn+0//fJ/v6+l4XYPtEb2/vOznn/1G1kjq2j7yavTv6+vquggDJP50WlhDi8/Vsn6Zp6xlj fy6EePTwYeeOkZH8ZYVCoeLEJbVuH8C85P/PlPzJWwoPUTu/baXxi7Yr7l7nA2x4/rBt2+jp6Znb uJL3AGAsFgt3dnay8fFxtmrVKgQASCQSE0ErlyQZtoy3efPmMxlj1zLG3oWIa+d+Xm+yEUKMOY7z wscff3yP3+3btm2btnfv3v8AgG3l/CZIrlJ7QojvDwwMvAVqe8f/3EdDu/L5fIIxtr7a/+h3+zjn TwPAzalU6h8AIFsjV+H4E2LtexJfRcT31r516iYb8uT1hBD7s072lSe+dekTVcCG5w/LsiLhcFgY hiFGR0d5Z2cnTyQSBYD5LUbLsvRoNKo5joPj4+MMAKDalIKL2RjySnvbtm3TUqnUaxHxvYj4akQs eXanUclGCLE/m82+aPXq1Y7f9m7btk0bHBy8mTH2joXaPvJKe0KIfx8YGLgaAiT/TMaJjI+LuxDZ CxZw+74+MDBQa8IuHx/bbse1q9bcgsiuqn3rmiPZkCen5wrxtCtyrzx248V7y4ANzx/T9/BBe3s7 NwxDZDIZN5lMFmD6Pq5ZW2nbtj46Oso6OzuZ4ziYy+UwmUxmg1beLMlVZu/cc8/dEA6HrxVCXMMY 21AJbHSyEYL/Ztky7Y1tbSGn3PZV2pz+/v4vIeLM+wVUT66ye67r3jg4OPgnEOC0f6HgYjrNbxJC vGmhto9z/kAqlboYAgxOAGYn/+5Va25jyC6vfeuaK9mQJ6cnhDhSmHRfevTWVz4256OFOO3fBgCQ TqdFe3s7Hx0d5UNDQzmAZzfa+1eilslkZio3DENQ8pfWw76+vov7+/u/HwqFnkTETy128kdEYEy7 cHwcbygU3CA3iIqBgYEPcs4/IYQQqidX2T3O+acGBwffAwGSPwDA0aOFTy9w8j944sSJQJclAGad 9oe1K9Z8k5I/eTJ6iNitRdh9K979ozM8ixckf0xOTs7kd8MwxNzkD56tRZi6VsCy2Sw6joOlVvZT ucLJVVpvw4YNK1euXPkuAHgPIm6sFVyEZHPDrl273g8B23veeeddzTn/Kr0xsPEe5zwPANekUqlb a+RKvcfhPQDw+YXYvultnCgUCi/at2/friDbN+tRv/c8cKOG7Nrat06e5EBe63jcFUOZSeelE9+5 5MhC5Y9MRhemafJMJsOTyeQklMjnxfcAMADA9evXo67rkEql8qVW9lN5oxvTyt7ExERfZ2fnZ0zT vAURL0XEVbWCi5Rsnt/Z2Ymjo6MJnxy74IILOlauhD3ZbOEXQsCrALBDleQqu8c5H+Gcv25wcPAH NXLzjr/R0cJbOedfxFIV1bl9nt+v3rNnz31Btm9W8t/+wOc1xj5Y+9bJmRzIa34PGa4ydHZJzzln /ajT3Ttzw2sj80cuxyCTyfBHHnkkC2Xy+awbxaLRqPDeIFBP5QBqJFdZvUKBmSMj+bdPTEw8AAC/ YYy9A7HWF5hMlcVMNoyxv96yZctHfXCz2rtmjfFbxrSXFgqFhxZi+1rQS2az2efv2bPnFzVypf7y f22hULh+IZM/5/wrqVTqu0G2b/ZLfu7/qMbYX9S+dfImB/Jaw9Mg35dpP//7x/BF7QCNz0emafJq N/AXV2bTP3Og5L+k3rFj/EzO+TWc87cDwMoAFgAsXfLinH8klUp9oQpXaf/pfX19n2eM/dlCbF8r eJzzr6ZSqY9AHY/SjY4WLikUCrcxxkKN3j5PSe7evftCAMj53eebZh4AACAASURBVD5vvHVfe99b kbHvIrIae2L5kwN5LeQVCvesOXDTWx9J/O8YLHI+8t4DELQ3Uia5yupZlhXlPP8q14VrhBCvQkSm SrIpVVzX/fPBwcF/LvNxTfuvr6/vdYj4TURc3ejta1aPc34SAN6dSqX+2wc37/sYGclfxjn/FiLW MEVu7ds35/exbDb7vKGhof1+t2/WrH7X3vsyjen31jadL4ByyYG8lvBc0K8/fONFfmdcBagzHwU6 tdeoylvd6+vrW6Vp2nsAxDUAeHZxuQrJploRQvzNwMDAp+cs9rX/zjjjjHXRaPRGRHxto7ev2Twh xE+z2ey7hoaGhn1wpf7yf1OhUPg6Y1MzQjZq++YWzvnbazj1X3lin3ffHWN6eAdDVuM9MWomB/Lq 8/RwBDZ2t8GGlRFY2aFDJMSAC4BMtgCjJ/Pw5NFJeOa4s2TbV/Q459cdufEVX/YB1p2P6hkASJ1c Zfa2bNnSp2naB4UQVzDG2ryfqZBsai2c8y+lUqkPwdTZpcD7r6+v72oA+AJjbNYlEdnauxQe53yM c/6xwcHBG3xypZL/u13X/adyL5EKsn2l2iuE+M7AwEC1OSEqHi8rt/90eRj1hxji5tq2Ts3kRZ5/ DxHAOnsZXNS/Bl7a1w1bTouCXuXq0InxAjx88CQkBo/DTx45CoeOZxe9vYK7XLjwh0duvuiuGsCG 5KOgAwBpk6vEHuvt7X29pmkfRMSXq5hsAr4x8HunTp26uru7O1zP/tu4cWOXaZr/gohXNHL7ikVR 779yudx1+/bte8YnVyr5/yXn3MdNdDVtX6llTz7zzDPxdDo95mf7Zh8vgq19z8/uQmSX1bZ16iQv 8oJ7K9o0eOuF6+CPX7QWNqyKQCQSAcb8j2ULLoef7ToMt/78afj53jQIsXjtFYJnCnnnBUdvuXRf BbBh+S1Ia2RMrtJ6lmUtz2az7waAP2WMnQWgbLKpx/sVAFzV1RVKA9T3fWzZsuUiXde/CAD9Ddy+ ectk9oQQewHgw7t37/5JAG7O0yYQOnYs9yUAeFujtm96G0stE4VC4RV79+5N1Lp9APOPl+7t9/8d Y9pf1bZ1aiQv8oJ77XoBrrHXw9V2D3RENEDEwMmfcw7ZbHbm+E0Nn4J/uusJ+PX+ycDb57e9govU 4Sd+fwHce9V4iY8bmt/8tkiq5Cqzt3HjxlgkErkOEa9GxI7ictWSTeM8cUDT9D8Oh8OP1ft9hEIT 2smT8DZE+CQArpWzvY33OHePapr+WV3Xr08mk/kA3NwpfVdx7t6GyP6gEdtXLOXaK4T4t4GBgUrP 6VdP/u++/3Wo45213fEvf/Iirz7vD2Jt8Pdv2QgbVk09Id3I5O/17kwehb/63uNwYryWF1U+u31B 28s5/+6RG1/x9jmLG53ffO11aZKrzN7mzZttTdM+hIivnXstVaVksxCe67pjAHBFKpWq5RrX3DLv +5iYMIxMJnOFEOIvELG73u0DkHP/CSGOA8C/hcPhG5LJ5BFowPF89Kjb77r57wCwM+vdPm8p117O +cGjR49uPXLkSKm/auZtH8D8eFtx9U/ONMLGzrn3gpQu8icv8oJ7DAV85JJ1cO0reqB4GC5U8i96 h447sP0bg5A8WOnqVbHU317B3Q8cvvGi66d/bXjyB4ASEVy6SJFcZfUsywpNTEy8VdO0DyPic0qB qiSbhfaEEIJz/jeDg4OfAR/3T1T6PizLapucnLwGEf+seJkl6PYFLQvhce4e0jT9hkhE3AJgjjXq eD56NPeWQkF8CRHNerZvbqnyaOgrBwcH769l+wBKxNv2h0NrcexXiOz86lsnd/Iirz4vEkL48hVn w8v7nh0HLnTyL5ZcgcMHv70XfvDwaAWxMe0VgufzufxLjn3z4v9rcH5DmHr3j6hla5ht2226nim+ NljpZN1I78wzz1zR3t7+HgD4QKXJeFRINovtCSF+Ojk5ecX+/ftHqnC+pkTeu3fvH7mu+wFN015S z/b5KY33YCci+8bKlfp/6TrkG/ducCcyMYGfR8R3LGZ7Oee3plKpd1TbvuKCUu3tvvb+zzFN+1j1 rZM7eZFXv3fNSzvhY68/c2bJYiX/mf9HAHz41r1w+0NHSm5fI9srBN+/+vf/9eJ1uR2TxWX1Jn/b trVEIiGghgEAi8fjpmma2rNzgquZrBvpnX322aebpvkhRLzGe32/VJE/2SydJ4Q4VCgUrt67d++9 ZbjA3++55567ORQKbQeAtzPGuoJsXy2lgU9LpIUQ3wuF4N/XrIkMFJc38A2TW/L5/E2MsS2L2V4h RNowjE3JZPJope0rLijV3jXb73u5DngfMq1KDy9/8iKvfo+hgL//43Pgj87vXvTkXywuF3DNjYNw z6Pew3ph2it47ttbnvj0dQD1J3/LsnQAgGQyyQFAaFVWNlesWMEKhQIaBg8y5au3KJ/8N23aFO/u 7v5CKBS6kTF2YbU3pcmabGTxEDHKGLuiq6tr9cjIyM9g9lSwdX2/x44dOzo6OnqPbdv/evjw4V8x xlwhxGmIKM17FzjnJwDgv13X/ctcLvf+FStWJFauZDPnFhtxPJumw44edd/HOb+FMbZusdsrhLju 0Ucf/VW57av2/a7c/tPlIdDuZUxbUXnr1Ehe5DXGeyCVhg2rIvDcjWsWPfkDADBEePXW1XDvrmNw NJOft31TW9yo9xpozznRbj0aevq3j9eT/GOxWBgAQNd1OHToUMUzAGjbtpFOp7VVq1ZhcV5hlZJ1 I70tW7a8BAA+oWnapbWCS51cVfNc133Mdd137du379ewQN9vKDShZTLsBUKIVwOIl7suP48xVmkQ XLYETIYcAHYBwH2FQuFHe/fu/RVMDXoWpL25XO6sfD7/VcbYhbVsX6USpL2c8x2pVOpFADB3xZrb 2739gVsYY++svHVqJS/yGuOBFoZ/uXIz/PGL1vrS6k3+3vL44Qm4+LMPQ87JLmx7XTGax9zWkZve UOq6Q7XCbNsOAwCMjo7ySCQips8AuKVe94mxWCzsOM7MlpumyROJxAQokKwb6W3evPkyXdc/gYgX +gFlS64qeJqmncsY+0VfX99XdV3/XDRaOFX8rHHfb5hHIrAjk9Ef2rFjx1+sWbOmvbu7+w8Q8YUA YAGAhYjrqoE+Xnc7CgBJIcRORNwxPj7+iyeeeOJE+e2bKvW298UvfvHysbGx6zh3P8aYFim3fbWW gIMdkc/nPwB1JP/Oax64jJI/eWU9gfCR26bel1PrIKCRyR8AYGNXBP7s1Wvhn+46OH/7GtnekNEJ PHIDALzRJ8gsy4o4jiMMwxAAU7P+AoALJbYQLcvSo9Go5jgOjo+PMwCAalMKVqpcteR/9KiL+Xz+ EkT8BCLG/YIyJlfVPCH4YQD8y+7u8P8s9vGyYcOG1dFo9FxN084FgLMBYD0irkfEbiHEcgBYjgjt QogJxrQM5+6YEHAYEZ8WQjwjhDiIiI9ls9nHGnmDY63t3bp168VCiH9hjPUWFy7F98s5/3Yqlbp6 7vbV3N7X3xntXhtNMcZOK1+LwsmLvIZ5DAH+5cpNVQcBjU7+RS/vcnjt538HT4xOLHh7Xdf9o5Fv XPT9GkEWj8dNAID29nZuGIbIZDJuMpkswPTAfNZW2ratj46Oss7OTuY4DuZyOUwmk1mQNFk30tO0 sPbMM6feLIT4ENb8fvHZRYXkqpj3q3w+f92ePXt2BuCUOv7q9bZu3Xo2Iv4TAPyRd/kSJf+JQqFw zpxXFPtq79r3PPAVRPa+8rU0R/IirzFetUHAQiX/ovfjR47Ch27dt+DtdYUYHjk0tgV+8IZMFZDZ tt0GAJBOp0V7ezsfHR3lQ0NDOfCclfO2XMtkMjM1GYYhWiH5a1pYGx0tXP7005nfAsDXKflL5b1Y 07T/6+/vv+Xss88+3QenzPFXr7dhw4bV/f39/wwAgyBB8p8u/1JP8l/9znsuACHeW55vruRFXv0e FwAfuW0ffO/Bw/M/W+DkDwBw6XM64fTu5WW3r3Kpvb0aYk/32ujfVQHZBRdc0FG8dw9gKp/PTf4A AMUboBAAcP369VgoFPD48eOwc+fOeSvXWKTtLL2eaTrs2DH+ppMnJ7+FiFcBQI1Tis4viiZXJTyc Ks8NhULv6+zsXNPe3v7IiRMnTs37H54tShx/9XpnnnnmivXr13+sra3tPxljL0fEWffzLNX3yzkf HRkZecvExERuepG/9m67XYt2RP+XMW196RqWPtmQJ6cnAOCnu47BhlUR6D9t6unsxUj+iAimGYG8 C/CLPcd9igHaK/gLIudd8eOJ391WahKwmXjL5RiEQiFRKBTEgw8+mIUS+by4B2ZqikQiJUcKNRYp O8u5XjabvSSd5r8UQtzMmHaOKsmwlT1ENBhj13V0dBzs6+u7vswZASWOv3q8s846q7u/v/+zHR0d T2qa9mnG2LK56yzx9/sPo6OjxQGa7/Z2rVjzHg3Z80rT8iQb8hrvRUIILzzLrMvznglYrORf9Kbe S+BHDLb/kGkspIVugPlP8c2Lt3Q6XTyTXzKIZ50B2LRpEzz44INuuZWrFOk6y7meZVkvm5ycvAUR PwwAXQBL3lmS59NDRB0Rz9d1/QNdXV1bVq5c+dSxY8eeAQWOv3q8TZs2xdeuXft34XD4m4hoI6Ih w/fhLZzz4VQqdSVM3WHsu72n/8kvV7pCfH/uuxqmt0Tq5EVe/cn/6++MwftefRo8fngCDoxMBvam zgQche4OgM3r22eWL/RLgzoiGty/Ow2HT+bKMbO2sq79x3B923MP7B/feeuu4pK58aZp7XzHjh0V b+CfNQB44oknODRh8u/t7T1j3bp1N7qu+3nG2Mxfjqonw1b2EJEhYr+u69d2dnZetm7dulB7O+7X dcgDyHX8BfV6enrMnp6et3Z1dX1F1/V/QMTnFU/1y/Z9TK//idHR0YcgYHsjz7vy84yxl5eQpU5e 5DUm+V947nLQGMKr4mvg8cOTMHTUDbx9yHPwQOoYrF9pQO+GjkV7Y+CTR7Pw2/0nq25fQ+YKQHzB +NmvuQEG7+Cl4u3Xv/71OFTpr7wvQQk6o5AUnWWZEu7v7/84Y+x7jLHz0NPLLXVnSV7jvOl5GF6T zbrbJyfFxlOnCid37ty5B5b++Avisc2bN7+sq6vrE5FI5Juapl2OiLMud8j4fUz/9X81AIgg+6/z 6nvPYZr2LZwzg6bsyYu8xiX/YtE1Bq8/vwceOzQJQ4cn6tq+xX5j4ITjwp2LMFEQAABDXBY1Itm+ 0L7fBe2vghwBs7ZB1uS/efPmC3Vdv5kxNu+u/qXuLMlbeI9z/jQAfN913f/2vHGvWlmq4znc29v7 MsbYGwHgDYyxMjfAyft9uK77wcHBwa8E3X9rtyduRwbb5myJ1MmLvMYnf29yzbsC3nvTIPzkkVLT SNS+fYv5xsAnRifhwv/f3r2Hx1WdZ8O/n7X3nCSPLSTLJwwYI3ySLQ5DEIEAE8AQSFIaUpNQknBI gSZ5r7RNkzZ9m6akb772a7426eFtSAwkkJIjNClJE5IQQBgcIGQwGBsMmGBANrZkS7bG0pz2Xs/3 hzTyjDSnPZJGa0bPui5f1oxmfmvt2TPPvTSzZ6/P/8bT+KayPyiTHg4e/s0ZK4/8dx/gvV5NZQJg avgHOzs7/4GIPqkK7CUTiqV4tfW01kcA/ArAL7TWPS+++OIrBbhan166E8BFRHQJEV1EZRaVAszd H1rrfsuyTs5dNAyo/PFbeOMvz/L5/U9PGInR4SXezIZ/tlU+CSg9vkpPFpRt1R5AmHEYKz65BZNf RjO4P9zMN9a8fuunqqlX1U4AjAz/DRs2RJj5HiJaY2qxFG/2PWZ+i5m3YvQ0vU8rpXY0NzcnZur5 PDDAy9Lp9AYiWs3M3QDOIaI2L6BJj1+B9vmmpqZ/rfbxW3LLIw8Q0btyRmJ0eIlXm/DPtvKTALPO GLjmU1sxlMh9w3Fm94dmnW4eeu30V77/iZfgsV5V07uJ4U+dnZ2fAfBFpZTP8GIpnoEesz7EjJeI 6HUArzPzbsdxDliW1ZdMJgccxxmOx+PDTU1NGQDo7e3lFStWBAOBQJPjOE1+v38hMy+0bXuxZVmr mPkkZj6FWa9Syppv2vZOl6e1HvH7/eva2tT4GgdeXr+LbnroXMuytuaMxOjwEq+24Z9txScB5p0x 8IzPPoED498EqM3+YNi37dt8cYkzZxZuXkdgXPifcsopi0Kh0D1EtBEwu1iKJ16jecx8x5IlgU9n L3t9/S666ZGfWxZdNqYZHV7izU74Z1vGZXzszhfws23ZSUB14ys2CZiu8wYcmwDUbn9ojZSTPHrK oW+9d68X0cthkcaF/7p1684PhULPSviLJ17tPQBs2/bm7AWvr9+FN/7yLAn/ueFNNfwBwGcRbvvo OlxxxsIpja/QaYOn86RBR5PulMZXuJU5xkFRwA41/6VHdOJXboo248K/s7Pzz4joYRpbvtX0Yime eI3mMfOjCxdaLwPV1QPbZ//V2EiMDi/xZj/8s81nEf7jhjV41/rwlMY3U2cMTKQ1hlPOLO0Puqn5 +p9WcpQjYfQUABVNAFQ0Gm0yKPyD69evv0cp9WWllLEnRRFPvEb3bJvuAKqrB+0f/XkHmH/f9PAS z5zwB0b/UnczKXz5w6uxsattSuMbnQTswne2vD5tpwt+/eDwrO0PRRQM+0PljgOgaDQ6fv6fcluo urq6QrmrCs1m+K9YsWJJZ2fno0R0bfa6eimW4onXSB6z3u/3h35ebT2wLP+fklLK5PASz7zwz/6l 7rMIX/7wGmzsWjil7YWbxv/+3sv44W8OTMv4nn9tYLb3xy24/N8CRX5HkUjEzl31t9RWUiQSCba2 thrxl/+6des6582b95RS6uzxAdZJsRRPvEbziPCfRJSpph60XP+jFhCuNzm8xDM3/LPNbyvcdvPp uOKMds9e7vYyA3/9/Vfwo6f7pjy+Z14byumh9vuDlFq05MTOPyz0q46ODn8ymcy9MxfbUopGo4FM JmNE+K9Zs+ZCInqcck6JWk/FUjzxGsljZrZt/z3V1oOQf94NFmeaTQ0v8cwP/6wX8Fk5BwZW2iZv r2bCZ3/wOu59qm9K49v60uGxHmZvfzDUn0y4SkWj0cDy5csn3rngBIA6Ojr8qVRq/MahUEjPYvhf Zdv2L5RSLeMDrKNiKZ54jeYR0dZnnnlmB6qqB5ssYufjpoaXePUT/lkv/9sB5VqJr9IxTfp2gJfx /e7ACF7rG5n1/aGITlt40y8vzF6MRCLB3DwPh8OM0RU7J30EQJFIxM6dKQwMDHBPT88IZiH8Ozs7 r7Ms6wdENP6ZRr0VS/HEazTPdTN3o8p6cOIN779cEXWMj82g8BKv/sI/23wW4Wt/VG4SUH57C31F sNLx3R/rN2Z/WGTfjLFj+HLfyQ8Gg9zT0+NmL+c9itFo1Mr9jMDn8/H27dtLridcok31M/9biOib SqnxIxbrsViKJ14jeVrrVDDYdG8VnOru7p7nUvj68bEZUizFm7o3m+GfbbYqNQmofHsrmQRMHF8q o3HvkweM2R8Av2/Vpr9emnsMX29vL8diMQc41knuI2nlHh0YCAQ4FoslMUvhr5S6jXIqUD0WS/HE a0DvgVgsVm7B84lNdXd3zzuy9PJWVuo9gFnhJV79h3+2FZ4EeN/eUpOAQuO77zd96B+hol7pNv37 14YTGlkQeX/2mkAgwLt37x49PWFOyz6aeb309vZyT09PCrMT/jdI+Isnnpme1vo+j9x4PRhuXX+V UhQwKbzEa5zwz7b8ScDMnzFwJKXxf3+1v6xXuM3c/mXyXwuMvpM/lueTisKkCUAwGCw4U6iwTSn8 N2zYsEkpdYeEv3jimecxc2r//v0/8cDl1QOtAh8wKbzEa7zwzzZbEb56Y23OGPjvv9qPg3GnhFKs zfD+Jd/Ze1Zc1zH2Tn7BopD3qIbD4UmfEXhoUw3/S3h0Kd/xMdVzsRRPvEbzmPmRgYGBoUk3Ktzy 6sGr7R89Ccp/tinhJV7jhn/Wc9IpfOUjM3vGwG1vpvCNnn2ex1eL/QsQUr4T348S+Zv3yI4dHVjz 8F+1atVpzPxDIvKPD73Oi6V44jWax8z3V8hNqgeZpmW/b0p4idf44Z/1bEX4ykdm5oyBQ2mFT3xj F7Tnl12t9q8PrOiqUvdU47cf/V5gzcN/9erVy3w+30+JKJy9rhGKpXjiNZqXTqf/pwKuYD1I2+Er TQgv8eZO+Gebz1L42i3Te8ZAFz5cf9sL6BtKV+0du2bm9i+RWtd28y/WFLt37gSgmjal8F++fHnI 5/Pdr5Q6PntdoxRL8cRrJM913R27d+/uLcMVrAd7Ov9moUXWmd5HZ3YYzjWvHsM/6/ltq4LzBExs xc8Y+N5/ehbb34h7HOHs7F8b/vcXuDOA8osBlWpTXtJ3wYIF3yCis7KXG6VYiideo3lKqZ+X4YrX A7vpPd5HZ3YYzjWvnsM/62W/HfDuit4JKH3GwJffGvE4wtnbv0xc9GOAaicAUw7/devW/blS6oPZ y41ULMUTr9E8x3EeLMGVrAfEuNLb6MwOw7nmNUL4Z5utCLf90doykwCz94dXzyJ1Zsv1D6woJFUz AZhy+K9du/YCIvrH7OXZLm7iiSdecY+Z083NzY8X+XXpevB794ehcH7lo2us4lvvXiOFf7aVngSY vT+q9fz+4GWFrvf6iE85/Ds6Ototy/pe9hS/s13cxBNPvNIeM/8mFosVes+zbD1YtKT5YiLlq2x0 ZhRL8UZbI4Z/thWeBJi9P6biKcbGgtd76H3K4Q+A/H7/3US0FDCjuIknnnhlW6G//iuqB4qsgn95 TG7mFEvxGjv8sy1/EmD2/piqx8QXYfLqv1TpIz8d4Y9169b9L8uyLgeMKm7iiSdeiaa1njgBqLge MPTF5Xswq1jOdW8uhH+22YrwHzeuxuXr5xu7P6bDU0od1/bRh7MH3BMACxVOAFQ0Gm2aavivWrVq TfZzf5OKm3jiiVe6xePxJ3IuVhz+rdf+bLki69TSunnFci57cyn8s56TTuHLH1mFS7tGvyJo0v6Y Ts+21EYAFI1Gx1fYLfeIqa6urlAikRi/XTXhv2nTJsvn892tlAqZVtzEE0+84k1r/Upvb+/A2EVP 7wT6moMXlNbNLZZz0ZuL4Z97xsAvf2Q1Lu1qN2Z/TL+HaCQSsXNX/S31qFEkEgnmridcTfgDwIsv vvgppdTZphU38cQTr3Rj5qfHfvT8MSARzishG14s55Y3l8M/23yWwj9fvx7zQxUes5rXzN6/AENx 5uxD4Q1W7pXFHjmKRqOBTCYz5fA/5ZRTOpj5CyYWN/HEE69sewZVHgPEoCITgDoolnPIk/Af9TT5 cP3XXsBQwuvKfmbvX4BB7IKUmp859Yrc0wIXnABQR0eHP5VKjfcUCoV0NeEPAIFA4GuWZYUmDcmM 4iaeeOKVaEqp7VUdAHzzb5sIWD/5F+YXy7nkSfgfC/8PfXUnfrP7iEfR7P07+pe/c8zT4e5wOMwY Xftn0kcAFIlE7OXLl4/3NDAwwD09PSOoIvy7urqusW170lHAphQ38cQTr3QLhUKvVnMAcDsGzyQi K//aOiiWc8iT8J8D4a8d5HDQtu9tY6v+ApgwAYhGo1YymRzvyefz8fbt2xOoIvxXrly5QGv9z5OG ZFBxE0888Yo3rfXBBQv0oexlLx8DKrYjE0ZSB8Vy7ngS/nMh/DPIS38QtKa35V6Z+0hauUcHBgIB jsViSVQR/gBUU1PTF5RSS/OGZFBxE0888Up7tm29lL3s9RggUjg9ZyR1UCznjifhPxfCPw1M8JgU SNFa3Pzb8aMc7bH/83rp7e3l3bt35wuVN3XGGWdscBznY3lDMqy4iSeeeKU9ZrwKVHcAsGZ9mkUW 6qVYzhVPwn9uhD+Bwdn7E8BkASAQka81ffjUAeAF4Ng7AOM9BYPBKYV/d3f3PMdx/o6I/ONDMrC4 iSeeeKU9Inq1qm//bPqBRVDr6qlYzgVPwn/uhP+xRtBk53n+oN2Z/TnvUQ2HwxyLxRxMIfyTyeQ5 RPR740MytLiJJ554Zb3Xqvn2T3tzy0qlEKi3YtnInoT/HA1/lR/+AADXLTwBGDs6sOrwD4cd0lp/ YXxIZhc38cQTr4TnOM5LqOIYIJ9N6+qtWDayJ+E/98J/1PMV9khNmgAwRr8XOKXwP3jQvZSIzgHM L27iiSdeaS+ZTO6pglPkJDrrr1g2pifhP1fDv5SnV2d/yp0AVNPGw99xXHIc56+B+ihu4oknXnFP a5159dVX+z1yqru7ex5ZOHncqvtiWb+ehL+Ef+G70UnZH70/ysda3ulBDx92362UOq0eipt44olX 2iOi/fD2h8F4PSCok4AGKZZ16kn4S/gXa6TU/Jbrf9QCVD8ByAt/x3FJa/xlvRQ38cQTr6x3wAOX Vw80qRMbpVjWoyfhL+FfrvlV6CSgugnApIVBBgf5MmZsqMIC0BDFUjzxGspj5oMVcpPqATMta6Ri WU+ehL+EfyWNLH9VE4CCq4I5jvMpj86xgTRAsRRPvEbziOjQpCsnt0n1YO/885vYFww3UrGsF0/C X8Lfg+V5AlAw/OPx+NuUUmd77B1A4xRL8cRrNI+Zy1XPgvVgqG2jhP8seBL+Ev7emloEgCp95Iuu B05En6mi94YqluKJ14De0RK/K1oPMggu9D4604ul2Z6Ev4S/12aRbgNAdtlbAioajTbZdnzSi33V qlUblFKXee3cgOImnnjilW7xItcXDX8AmkAeJwCmF0uzPQl/CX+vjVhDa2oFyn8EoLq6ukKJRGL8 drkvdr/f/+eeOzejuIknnnglWpGPAEqGPwBoouMqH53pxdJsT8Jfwt+rR+wCAEi5bUDpCQBFIpFg a2trwRf7SSedtJSZP+ile1OKm3jiiVf2vhOradnwBwAFV+OOwwAAIABJREFUXoCKmvnF0mRPwl/C 36tHnHNWb1atALjYnqBoNBrIZDJFX+zz5s37uFLKV+T+k0GDipt44olXuk14B6Ci8B/rOVyBbnyx NNmT8Jfw9+qN/uWf8/gpLECRCQB1dHT4U6nUeE+hUEhPeLEHANxcafemFTfxxBOvdNNaJ8Z+9BD+ AMBNpWXzi6XJnoS/hL9nj508DwAcqAAATDwIkCKRiB0OhymVSgEABgYGePv27QnkvNjXrVu3SSm1 qJLuTSxu4oknXlknCc/hDwAIFVfroFga7En4S/h795zRH3PuzqSgtA4AE44BiEajVjKZHL+pz+eb FP4AoJT6WCXdm1rcxBNPvNLNtu1MFeEPIgQK/6YeiqW5noS/hL93L4Pct/0BApM19iP5gfwJgBWP H/uqXyAQ4FgslsSEF/vatWvXE9G55bo3ubiJJ554pZttw+c1/Ef7hFXg2jooluZ6Ev4S/tV4mOBx zml/mNkPHPsIIK+X3t5e3r17d74w1izLKvvZv+nFTTzxxCvnHcvxSsN/7N4TJgD1USxN9ST8Jfyr 9Th7f8LYX/7HPJrwDsD4b4LBYNHwBxBk5g+V6r4+ipt44olXyiNyGfAa/pNGUjfF0kRPwl/Cf6oe QNBkF/Xy9lI4HOZYLOagcPijs7PzfUqpoif6qJfiJp544pX2mC2qLvzHzjRSh8XSJE/CX8J/qh5A 0Kpw+DNzGpgwAejp6cn/suCERkTXl/hdoU7KjbpoE0888WbTc33V/OVPBLcei6VJnoS/hP/0eL6i HhGlgWPHADDKvNBXr169DMAlRbDJQzK6uIknnnilvExGu6jibX9iTivO1GGxNMOT8Jfwr4k34R2A stXDsqxriCavHliPxU088cQr7bmuW/FZPnOaUs6IO+vFrU49CX8J/1p5migFlF8MaLwR0bUFrps8 pDoobuKJJ15Zb55HTnV3d89T5CbHrQYplrXwJPwl/GvpKaDyCcDq1atXK6XOyL2uzoubeOKJV9rz MgEYP2MgjS0j3EjFcqY9CX8J/1p7GqNrfVS09yzLylv1rwGKm3jiiVfCU0pVsKjP6E1zzxjI2hma 7eJWT56Ev4T/bHgEPgRUOAFQSl09fscGKG7iiSdeWa+1Am7SWgEW8+BsF7d68ST8Jfxnz6MBoIIJ wKmnnrqWiNYBDVXcxBNPvNJeuQlAwYWCUnZ47+wXN/M9CX8J/9n0iDEAYPJR/RNbIBC4Cpj1YiSe eOLV0COihSW4oqsEOo7a7310ZhdLCX8J/8byANJuZRMAInrfbBcj8cQTr+be4iLXl1wiuH8g4XEC YHqxlPCX8G8kDyDWAHM/UOYjgPXr159ARJFJQ6r/4iaeeOKVaFrrZQWuLhn+AIAfXxln1vHKRmd6 sZx+7++uOkHCX8J/1jzKnqlbuW8ApScABOB9k4gGKG7iiSde6aaUWjrxqrLhn+0DtLd8D+YXy+n2 2psY7zmjffyaeghrCf/G8YiPvUyJnNcBcLE9S9FoNEBE78ojGqS4iSeeeGXv3xaJRJrGLlYc/gDA Gq+X1s0vljPhbTpnMXz26P3rIawl/BvHG/3LP+f1H4+/gSITAOro6PAfPnw4yMwXjhMNVNzEE0+8 8u3IkSMr4DH8AUApvFZcNb9YzoRnKeADb18CoHC47to3DF3BLpLwN3P/Gu2xk++xju/77h8eBI4t BpRtFIlE7HA4TP39/edbltU0eofZL0biiSdebb1gMLiyu7u710v4A4DW+lXLsgr8pg6K5Qx50XVt WHZcoGC4PrX7CN73z89ifsjGhWuPw7vPaMelp7Uh6MsPYAl/c/evuZ4z+iPlXmuNv0OXNwGIRqNW f38/hcNhENHFgDnFSDzxxKutp5RaGw47j2UvVxL+AECsXwEmTgDqoVjOnHfteUuLhutdj+4DAAwl HPzkmX785Jl+zA/ZuPYdS/HHlyxH+3y/hD/M3r9mepmxn2n8fyYL0PxS9la5e9qKx+PjPRHRRSYV I/HEE6+2HhF1ZC9XGv4A4Gpn14SR1EGxnDnvxIUhnLf6uILh2j+Uxs+29U8ShhIObnvwTZz7+d/g aw++iZGEhL+p+9dUDxM8zn7rX/HO7PXZvZ3Xy+DgYBszr6+i51GsDoqbeOKJV9pj5g7AW/gDwMHf PfWqZp0eG0ldFMuZ9K45bylCocLh+p2t+5Fxi++r4ZSDL973Ij52506kMqMPv4S/eF48EEb/8h/z XI3iE4BgMMiu655HhapKBa1eipt44olX2iPCaq/hDwDoudWBxq56LJbT7QV8Fq694KSC4epqxn8+ tq8ir2fnAD73g1ck/MXz5AEETXae5yI9aQIAAAiHwxyLxZzco/+9tHoqbuKJJ15pjxnHj4yMWPAS /mNNEW+vt2I5E95737Ycx83zF7zHr54/hH2DqYq9H8cO4rnetIS/eBV5AEGr/PBn1pkBWvhy9nLe nu/p6cl+WfB8r93XW3ETTzzxynvpdHpdFZxS6eEX66lYzpR3wzuPL3qv7MF/Xrz/fPwtz6OT8J+r nm+yx/QSNp+VPTpwfALAAFwAvGLFihYi8vT5f70WN/HEE6+0Z9v2aR451d3dPc/mI8+NW3VRLKff O2PFfHSdGC54r9f6Etiya9Dz+B4veJ/iTcJfvLxbEz+Vezl3AgAACIVC53r5/L+ei5t44olX2qMC a4GUaOMnDWo59MyzrF1dz8Vyqt51Fxb/6//uLfswebeVH9/BeAbxpFvR6CT8xZt8F34y9+KkZ4FS 6txKu6/34iaeeOKV9SqdAOSdMbA9ueUosdpV18VyCl5Ls40rI+0F75lIa3zv1xMXTax8fMNJp+zo JPzFK9TSrlN6AsDM3ZV03yDFTTzxxCvhMXPn8uXLQ2W4gqcLdi3f4/VcLKfiXXPuUgR8hYP2/t/2 YSiRG+LextcUKHSWxWNNwl+8gvfSemjwzktfyL1u4rOBiOht5bpvlOImnnjilfaUUnY4HC5VE4qu FeAyPe59dGYUy6l4RMCHz5+4mOKx9s1HcxdL9Da+tnk+zA9NPIP7sSbhL17RexI9DVDeN3rynklr 1qw5VSm1ACVaIxU38cQTr7w39rHglkK/KrVQUFont4SsZg+jM6dYTsWLrmvFivbCb5ps2xPH828c rXp85689DvGki2f3DGHvQAoZl9HSbGPtsmasXBSU8BevRNM9E6/JmwAQ0Rml7m5CMRJPPPFq7hU6 LqjsKoGH73z368GbH/4dKbWyfBemFcvqvesvXFZUuXv8r//qxvfKWyNY/+mtBc4eyFjZZuGGC5fh 6rcvgSIJf/Hym5N2HpxwFeU9M2zbLjoBMKgYiSeeeLX1zkf+x4UVLxGsCQ+V580rltV6y1uDuHh9 W0FlcDiD+2P9Uxrfzt6jBcNf6TRe7x/BrfftxsfveAFphyX8xRtvrubDh44e+e3YRcLoal35EwCt dcHv/BpWjMQTT7waekqplrVr156evVhp+AMAu/qXpXXziuVUvI9csBSqSDff+/V+pDLujI/vkRcH 8bn73pDwF2+8KeKHce/VLgCKRqPjR5FOfIZsmHhH04qReOKJV3tPKRWFx/AHAEfxg6y5yPfWzCyW 1Xo+m3DNeYUP/tMMfGvL3pqN70e/HV1W2EuT8G9cT2t+EABFIhE7d9Xf8QnAihUrWpRSeWeuMLUY iSeeeDX3LvMa/gAwuHnjERD/evJvzC2W1XrvPbMdbfN8BX/3yM5DeLNvqKbj++IPf1dypcHcJuHf 2B65/MuOjg5/MpnMvTOPTwCCweDavDuYXYzEE0+8GnpKqQtCId2UvexllUCtcf+EkRhdLKv1ri9y 5j+tNe5++LWaj+/NQ0n86Om+spqEf2N7ruZn1/7ui/uWL18+8c7HJgBKqTXZn00vRuKJJ15tPSIK Dg2lzwW8hT8ApNLJnAmA2cWyWm/d8nk4a+X8SddrrfHqvsPoeeHQrIzv7rxzDkxuEv6N79l6+Cep VGr8zuFwmDG69s+xjwAsy1pdlDCsGIknnni19zIZ/S6v4Q8AR+6+4lXt6u31UCyr9W4o8NW/bLh+ 99f7kd0FtR7ftj1xvNaXKPg7Cf+54DmwM0fGJ+DBYJDHVv0FkDMBYOZTAWBi/TC1GIknnng19y73 Gv7ZpsD3ml8sq/Pmh2y8722L8q7Lhmsq4+K+J/fP6vh+/tzBSddJ+M8FLwNm9+WWbf+4CwB6e3s5 Fos5wLFOcr8FcMokwuxiJJ544tXQA7B81apVk74pVEFTzfGXf2p2saze23TO4rzz8+eG6y+eO4TB 4cysjm/Li/lLCEv4zw1v7B2AHwNAIBDg3bt3j16Z07ITAGLmFXmE4cVIPPHEq73n8/ne75FT3d3d 81YcvON3rJ1nADOL5VS86y449vb/xHD99tZ9sz6+3OWDJfznlhdwDn7P5/NxT09PChPCHxg7FfDp p5++wHXdBQDGPquqj2Iknnji1dYjoj8A8PkKubzzBlhu6vuu8p1parGsxnvH6hZ0LBn9csTEcH1x 71Fs23N0VsZnK8Llpy/EdRcuw7mrWgqOD5Dwb2SP2Ik1b/vyrtj27UkUCXUbABzHObHIW36eWr0X N/HEE6+0R0Rr161b1/nCCy/sLMNNOmlQMPXyfUP+s79IoMJfli/ZzCy+140d/FcoXL/z6wM1H9+S lgA+9I6luPYdS7F4gX/8egn/Oei56Xu2b9+eQIljdmwAIKLlVfSY1xqhuIknnnjlPSK6BsDnSnAF zxj48q/+as+Smx75MSx4/BjBzOK7pCWAy05bWDBcjyZd3L/tcM3G9441x+H6C5bh0tPaYE84F7GE /9zzXI2URZlvocwBuzYAMPPSqbwD0EjFTTzxxCvr/SGKTwBKni5Yw7ndgpfjCMwtvh96x1IocMFw /clzQ0ikq9knlY9vfsjG1W9fjI+cv2z8Y4iJTcJ/bnps2ff3fv3qgXL3zi4HvLiKngEYUYzEE0+8 GnpKqZNXr1593ksvvbR14q/KnS647/ZLHlxyyyOvEamTy4/O3OJrK8Ifnre4YLgGg0HcveWtGRtf 5/J5uCG6DL9/1qK8bx9MbBL+c9fLOPrrlQjZdwAWVfMOgAnFSDzxxKu9Z9v2dQByJwAVLhREWvPD t1mEL5Xuwezie/lpbZjv1wXD/9evDOHVAyPTOj6/rfDeM9tx/YXLEClwxsGJrVD4Oy7w0K44vvpg L17oPTqt4/PexJspj1k/f+iOix+uRMkeA7DQa/cmFSPxxBOvth4RfSASifxpLBYbgcdVAhPJw99o Ch33d4ooWFg3v/h+8JzWguGvlMLdj+6btvGd0BbCRy5Yhg+eu6ToQkMT28Tw3zuYxPef6MO9Tw/g YLzIwoxVjs+U/SHeMY8Z/1apZAOA1rrVsoq/lTSxmVaMxBNPvNp6RDQ/mUz+AYB7vK4SGP/WVYdC Nz/8LRDdPPm35hffU9ttnH3Ksb/Cc8N//+EUflHgzHtexkdEiK5fguuix+OizjYoD8PMhr/WjMd3 DeLbv34Lj74wCIfMefzEmzlPMx888PIb91Sq2QCglGqp9A4mFiPxxBOv9h4R3dLd3f3fXpcIBgDt pL6sfIGbiHLjrT6K77XnHVv1Lzf8AcBvK3QsacKufcOex9fS5MMfnLME1120AivaCx/UV6pprbF/ II77ntyP7z9xAG8cTBj5+Ik3gx7zZvTckKxUJABYv379TiJaV/bGBhcj8cQTr/aeUuodCxdaOwDv qwQuvuWhHyuy3js2kroovs1+hS23no15QWtS+GfboaMZbPrKc2UmAcfGd/pJYVxz3lJcfno7FoSb JnmVtGdeO4K7HnoNP322H+mMHuvBvMdPvJnztOaU62RWHvzGpZV+BkXZbwHMK3vLOihG4oknXm09 13VvBKxPVbNKYMbVfx+wrffWU/H9vbMWlQx/AGib58O9f3Ya/uDLz+GltwpNAhjNtoP3nLEY15y3 BJ3L55X0irVkRuO/n+7DXT17seP1Q3Xx+Ik3cx6Bv1Fh+BNGlwHg7DsAB4moreit66QYiSeeeLX1 mPWI3x9YG4vFelHFKoFLbvnVIxa70Xopvvd/+gysOX5eRWF9MD76TkDuJGDl4iCuPacN7zurHeHQ 6N9fXsP/tb4E7t6yD99/Yj+OjGQaIrzEm5qnWacz6UzHwDcve7MMSNFo1Orp6WEAnP0aYLDY1wDr qRiJJ554tfWIVFMymfwgUO5rfQWbCmT2f8m1F0bHx2Zw8T1z5fyKwx8AFoZH3wn4wL8+h5MXhXDd +Utx5olBIGd8lYa/qxm/ev4QvvnoPjy2axCju7Axwku8afAY36wk/CORiB2Px0fvgWMnAvIXvHWd FSPxxBOv9h4RfQLAlwF4+Y7Z6FcH3/jKr3ed/H8eBakLTS++1563zPPb9AvDPjz0ubOKnpSnnNc3 lMZ3tr6Fex57C/sGUyXHZ/rjJ97MeMw6k3IT/1AGpI6ODn8ymeRgMJhFOXseAHvSreu0GIknnni1 9YjoxHXr1n3ghRde+HaFXN55A3yJQ/9PumnRhSYX39Z5flx59vKqDtCrJvyffOUI7tqyFw9sO4iM O3G/NU54iTd1TwN3Hb7z3a+XAFU0GvUDQH9/f+6TaXwCkKfWczESTzzxau8ppf4CQCUTgEknDVr0 yv99as/p/3C/Al3pfXS1Kb7XXHASAv7Kz5WSbV7C/2jSxX1PHcDdj+4rcvBg8fHVa3iJNzWPmYeP Dqf/tgSoIpFIMJVKcSAQYAAIh8MMwAWOnQo4RUSBokOqs2Iknnji1dYjoq61a9de8eKLL/6sBFf0 jIFtp2U+64P/PUTkIWVrU3zJDuDD5x9f4n6FW6Xhv2vfML61ZR/ue+oAjiZdz+Or1/ASb+qe1vyl kXveVWzhCdXV1RXKZDLw+/0MAMFgkHt6esafZNm3/p8HcBYATHy912MxEk888WrvEdHfACg2ASh5 uuBDmy/bteTmhzeD6GOVja52xfeyDQtxfGvRv48KtnLhn3EZD2w7iLu27MWTr1SyKM/sh414Znna 1fv6aP4/FQFVNBptAoCBgQEGgN7eXt69e7cDHOskeyrg71uWddakIdVxMRJPPPFq61mWdc6aNWsu 3bVr1y8n/KqitQKGMfz5kJ53jaWozJlJa1t8r79wmSetVPjvP5LBPY+9hW9vfQv9Q+lpGZ/3Jl4j eKT4c/j6WYVWnVLd3d3zEokEQqGQBoBAIMC7d+9OIyf8kdU7OzvnMfPzlmWtGH3dU90XI/HEE6/2 HjP/eseOHeflXOVpoaDFNz3yJ8qifynRQ02L74r2ELZ+4exJ74wWa4XCHyD89vUk7t7yFh58/hBc 7WXfmBE24pnluZqf7dscjQA08TU0/nqLx20OhUI6Ho/rWCyWwITwB0bPBoSdO3eOKKU2aa2PMDdO MRJPPPFq6xHRuWvXrn332EVP4Q8AB1559D+0q7cX1mtffK+7YFnV4T804uCuLftw6ZeexzX//jx+ /txBCX/xpuyxdrWbSf9xqfDPXjEwMMCxWCyJAuGPnF4UAFq7du1apdQdSqnuKrbGuGIknnji1d5j 5md37NhxVnd3d3M1CwUt+ugvz1O2/dhsLxQU9Cls+3/fjgVNk74lPanlhv/O3ji+/fh+/HTbQYy4 9oyNT7y56THrr+7/+kWfmHD1pPB3nLDb09MzghKvt7wJwNgNubOz8yIi+l/M/HtKqYqOyjW1GIkn nni195RSN7a32z/MXva6VsCiWx7ebJG6aWwks1J8P3juEnz5w6vLalprHImP4Kfb+vHdrW9h+xvx hgkb8czymPVb+48m1+DbVwzlXO35nbZso5z/J73aV65ceWIoFPoYEd1EslaAeOKJV6GntfvG/PnW 25qafKlqFgpquf5HLcHAgheIaOlsFd+f/9WZ6DoxXFJ7rW8Ydz/8Ou576i0cGXFqOj7x5p7HhKv3 3xa9N+eqqsMfFfU42oKdnZ1XM/NHLcu6IA+og2Iknnji1d5j5r9pamr6N6/hn21L//iX71Oafzgb xfeMFWH89C/PLKhoBh56/hDuenQvtuzcD7AZ4SBeY3vs8v/sv/2d7825akrhDwCVnnTD6e/vf66/ v/+ucDj8bcuy4sy8Uik1f9IgDS1G4oknXm09rfVZmUzma319fUer4FSn9fLeofZ3dJBSnUBti+9n r1yJzuX5q6QfjGdw5yN78cm7duFbj+3FGweOGBMO4jW2p5kPHk2PXJ559jvZ19KUwx8V9Vy4qdNP P30+kb5Ya7qamd8NoNnkYiSeeOLV3tNa37Fz586bPHLjxW3v/He1HDnuvCfJspbUqvi2NNvY9g9v R8A3era+p189grse3Yf/2daPjMOeveken3hzz3Nd96q+2y/+0djFaQl/VNx7fpvU+chIIDA0NBQF 8EEAV1CJ0woXHESdFjfxxBOvtMfMmojOfv7552MVcpPqy0snfCaa8bf/iMiqol55L74f23gCPvXu k/DD3/Thrkf34sW9ueflNy8cxGtsT2v9zQObL7px7OK0hT8qHsGxVrbz1tbW+UuXLn0fgKuI6FIi CpYcQB0XN/HEE6+8p7X+zc6dO9+O8gWqaH1ZcsvD/x+R+pS30VVXfC9Z34andh9GfNJ5+c0LB/Ea 22PWr+1/K34afnxlHNMc/qh4FKPNc+eLFy9uXrhw4buI6PeZ+T1KqbxTfDZCcRNPPPHKe8z88R07 dtxWgitdXzb9wL+odeETFqnCR+ZN7tG4Yi6eeJ7CX7OjWV/Yd/vFv8YMhD9Q8TmupqVze8OGDVGt 9RUArrAsa9IXbOu1uIknnnilPa314eHh4bV79uzZX+DXFdWXBR97bGVIO88Q0YLSozOvmIsnnldP a/2pA5sv+gqmP/wJo+f+4UpGo6LRaJNtx8e/MTDFzlV3d/e8TCazwnXdjcy8UWt9ARGFqrAAzH5x E0888cp7zPzDHTt2vH/C1Z6K26I/evgqy1b/VaIXI4u5eOJ58Vjj3v2bo1djBsI/Go1aPT09DIBV mRurrq6uUCKRGL/ddIR/OOxQayu93t5u3xEKha4+fPhwm9b6Ytd1/15r/ZTWutSi2PlbY0hxE088 8cre96o1a9ZclXOV5+LWd8dFP3S1/lLhHsws5uKJ5+kvf+Zd+wf7bsQMhH8kErHj8fi4V2pUFIlE QuFwWCUSCZVdXWg6wj97RTEvEoksSCaTFxLRxcz8TiJaTwUqj0nFTTzxxCvfmPnA4OBg5969ewer Lm6bfmAtbm17QJG1MUc2spiLJ563v/z5aEY7Zx+6Y+NL0x3+HR0d/kAgwMFgkGOxmAagi42MotFo YGBgwGptbaXsOwC1CP9CbcOGDcdlMpnzLMs6n4jOZ+azLMvyTbzdbBc38cQTr6J2b1NT0x9NpbjN 3/Tz1lBL4CllUYepxVw88byFv6s1+P19my/58TSHv4pGo34A6O/v1zkTALfQ6Kijo8Pf3t6uhoeH VWtrKwFAuVWFSnU+3RvT3d3dnkwm3wbos5npba7rnqWUWliFBcD4YimeeA3nMfONixf7fwhUXw8W 3vjAamUHn/Qh3WJaMRdPPK+eq/nTfZvf+ZXpzstIJBL0+/0cCAS4v79ft7e3656eHgcFRkiRSMQO h8NWKpWi4eFhBQDbt29PVNv5DIR/QW/Dhg0rtNbnENE5zNxNRF3lzkEA1EexFE+8RvOY9RGlrPOC weCbU6kHJ374O+/WoZb/ApQPMKeYiyeeJ4n5a/u//s5PTHdednV1hQCgublZBwIBjsfjbiwWc4DR QeeNMhqN2v39/aq9vV2lUilKp9MUi8WS1XZeq/Av4tmrVq3qtG07QkQRABEiOi13UlAvxVI88RrR 09rdumPHzigApwpuvB68fMJnP6h94a+ZUszFE8+TxPzz/b/97u9128+Fpvlt/yYAGBgY4ObmZt3f 3693796dBo4NOncxIKutrU05jkPNzc1k2zaeeOKJVLWdz3L4A4A+dOjQgf7+/m39/f0/6+/vv6Ov r+8fW1tb71NKPQHgDSIaAdA89s/oYimeeI3mAXRie3t7pr+/f4tHLq8etA09vmMgfG7KtZujs13M xRPPS9PMz6UH+t9zWvxH9nTnpeM45PP5OJFIIBwO62eeeSYv/JEzWsLoZwUqmUxSKpWiiTMFr53P cvh78gYHsTCZTHYA6CSiTmbuJKJ1RFR6MfCxVo/FVzzxTPC01q7ruhfv2rXr0Qq5ovVg8c0P/5NS 6s+8jc7ccBCvsT1X80ucHomufPHvRmYi3+Jxm0OhkI7H4zoWiyVQIM+znSqMfv6vACD3M4JqO89e YXr4l/JWrlx5YigUWsfMnUqptQDWMPPq3AMO67n4iieeCR4zv5VIJE5/9dVX+8pwZV6/TEtu6fkG EV1f2ejMDQfxGttj5j0qcfTCE1764uGZyrd43OZEIuGWOoYvbwIQjUapp6fHhYR/ybZ8+fLWBQsW rLUsqwvAKgAdWuuVAE4mOaOheOJ59pj5kbVr12689957i50ErLLX76YfWItb2u9RFn2w9OjMDQfx GtvTrt6ndfrClTv+tm8m881xwm65b+/lTQDGbijhPwVv9erVSyzLOgVAB4AOIloJ4GQAJyulFhUD G6mYiydeNR4z//OOHTs+XeBX3l6/0VvtJade+D2yaOJph7M9GRsO4jW2p5kPkk5FT9r+t2+akG+5 xwBU+2qv27CutReJRJqOHDmywufznayUOpmIVhDRSQCvALAcoEVEpID6L+biiVeNp7W+ZufOnd/L uaq611v0Vnvx6gvuUaQ+MGEkxoaDeI3tseb9WicvO/n5W/eYkEdAdY/ItHUuXr7nOPDF41iaTCYX MvPxRHQ8gOVEdDwzHw/geABLlFJWMdCkYi6eeF49rXXCcZwLXnrppd9iyq83VotveuR2Zakbxy4b Gw7iNbanWb9hZVKXnrDz1rdMyqOpTADqKlwbxduqcCZVAAAPaElEQVS0aZP13HPPLQkEAksymcxS y7KWAFgKYKllWcuJsFhrdxGR1Q6guZHCQbzG97TWGQDbHMe5pKWlhab+emNafPMj/6IUfdLUcBCv sT3N7iuUSl960ou3Dsx2fkxs1U4AjAhD8Up7R48e1a7rLrQsa5HruouUUouIqJ2IFmqtFyqlxv9n 5oVEtIDGqriJ4SBe/Xla6xEiOsTMB4noYM7//czcT0T9zNznOE5/IBA48Pzzzw9iBl4fx9/4ky+R 7fvz8bEZEg7iNbbHmnc4ztBlp+z8+6Mm5kc1j05dhqF45dumTZusbdu2tS5YsOAErXUrMx8HuMdp TQscx2kamyC0AGgB0MLMLQAWAJgPYIFSatICTUD9hpd4AI/+Ig7gCDMPEdERAIe11oeJaBDAYcuy RgAcZubDlmUdtix9KJPB3u3bt/cDSHkc3oy9Pl4+4XMfdy3/F6FsZUI4iNfYHrPeooaG33/C776Y NrHeA94fIWPDSzwjvODJJ5+8IBgMzrdte77WeoFt2+1K8TzXxTyMnnFxntbaz8xNOHYWxmZmbgbQ rJRqAhBi5hARNTFzKPeYh0YK1+n0eLQliSjBzAkAI0Q0DGBEaz0CYJiZR2zbTjHziFIYBjBMZB1l 5oOZTGbItu2467rxTCYzxMzxgYGBoYGBgThQ9ABh055/Zb3dyz97eSLQeqciq8k7Z27YiGeWx67+ z+Arr9+8OPE1v8GvD09bVXcvdvEaw4tEIr7BwcGmtra2tnQ6HbJtO6C1DgCOP53WruM4Ptu2/QAC APzMHCAin1LKr7X2AfAD8BGRzcw2ABuATykVVErZzGwRkeW6riIirbWmsW9jkNZajX0sQnQsjbP/ 89hfyKy1hs/nU9nrich1XdclopTW2gHg5vxziMgFkGHmDIDMhJ/TROSo0eYQUYqI0kqpZCKROOy6 7ggRpZLJZLKtrS0xtl5Hub+0jd2/tfaWfuzhM1jjJ0RqaeWcuWEjnlmeq/nWvs3v/D+Gvz4AoOAJ umvRuXjiiSferHmtN/ziBL/f/imRtaE8Z27YiGeOpzWnmPHRvtvf+V3DXx+E0XP/sCp3S4ytKmTw xognnnjiefIGvnnZm/sHDp3LrH9QmjMzbMQzy9Nav+lk0hfWQ/hHo9FjH6mW67yrqysUCoWs3PML G7Qx4oknnnhT8hbf/NCfEtGXiCYexGpm2IhnlqfZfXCER/4wvvm9AyY8n0s0ikQiNgDEYjGNMu8A UCQSCba2tpq6MeKJJ554U/YObL74X7TjvFO7et+xa80MG/HM8Zg1a5e/eODrF72rHsK/o6PDn0wm czeu6ASAotFoIJPJmLox4oknnnjT5vXdeenWo0fjZ2rmh0wMG/HM8rTmQw677z1w+zv/BiCY9nye 6EWj0cDy5csnbhwXOqUsdXR0+AOBgMpkMhQKhcjn8/HWrVuHq+3c9AdHPPHEEy+z43vDw7GRby9Y vybFpN5BRDYw+2Ejnlkea/eBo+nEZUfufNc2GPx8znqRSCQIALZtY2RkhI877jjes2ePC0zeYopE InY4HLZSqRQNDw8rACi1nnCtN0Y88cQTb6a9V5Z9fJ3jX7oZylrfSOElXvWeZj3CzJ/u23zxbWNX Gf987urqCgFAc3OzDgQCHI/H3Vgs5gCjD0LeOwDRaNQeGhpSzc3N5LouAcCzzz6bNGVjxBNPPPFq 4bXFn+4PDPZ963DrGQTG24mUx8QxK7zEm5rH2n3aTfJl/d+45BdjVxn/fI5Go02hUIgSiQT8fj/v 37+fd+7cmQGOPQi5xwBY8Xh8vPNAIMBjJxgxYmPEE0888Wrp/eahbw3u33zJX2Qyzrna1dsr58wK L/Gq95h52HXdz+x/+bFzD37rkpfHrq6L53MikRjP90AgwLt3704jJ/yBY+8AEABatmwZOY5Dg4OD eOaZZybd2Evnpj844oknnniVeIln79k7PP/kO5paTzwK8HlEVHDNi9FmTniJNzWPXf6fFJx3H7r9 kgewpyf73Kqb53M6reDz+dhxHH7iiSeSKJDn2U4VRj//VwCQ+xlBtZ1nrzD1wRFPPPHE8+q1XP/A iqDf/1VS1uWTf2tOeIlXvaddvY/hfrLv9o3/NeFXs/788+LF4zYnEgm31DF8eV8DDIfDLOEvnnji iVe4Hb7r8j37N198hXb1la7ml479xozwEq96T2ud0Fr//YED8TX1Hv4AEAqFdLkD+PPeARi7oYS/ eOKJJ165Fr3VXrLq/D9mUn9rc3phI4XhXPKYNTPTtzOZ9P8e+OZlbxYAzXz+TYNHOf9Xu2apMRsj nnjiiVdrr+Oqv1iWbnnHZxzlu0UpCtRzGM41jzU/6jiZTx/8xqW/LQIa//ybilfNIzxtnYsnnnji NYr3etvVy0bmd/6Jo5qvU0RB71xjhavJnuu6j5F2v3DgzksfKgHW1fOvGm8qEwDjNkY88cQTb7a9 pg/9fHFzU+AvFPgWpVSoMq5xwtVkj5l7HNf5wsE7NvaUAev2+efFq3YCYOTGiCeeeOKZ4jVfc//i efPm/RmIblZKHVeca4xwNdVj1gymn7mu/lL/nRdvqQBsiOdfJa2aR9vYjRFPPPHEM867+bdNi/jI RxTwSbKstfm/rO9wNdljjaNM/E2dcv69/65LX6kQnP3nSw09r4+40RsjnnjiiWeux7To5oc3KqhP gvAuIlj1Gq4mew77dzP4tgy5dw5u3njEA2jY82XGPU+PuukbI5544olXF96yG/77BEV0oybftcpS pwL1Ea6megx9FI77I03+O96687JK3uaf2Ix+vsyABwBU6SNv+saIJ5544tWl9+qSPz075W+5xvU1 XanIavXO1VdYT5cH1i6BH1fO8HfnH3r8v3f8+F/7YeD+NdAjAAoAV/Loq2g02mTb8fGVAw3bGPHE E0+8+veit6rFp5x7IVn2+wF6HylaUp6rj7CeLk+zm/bpVI/lpH4SGHruZyce+cmhutm/ZngUjUat np4eRgUTANXV1RUKhUJWdgCGbYx44oknXgN6rNpv/tW5FtlXMrCRwF2TlyQ2O6yny2Ot+xj4ldL6 geaBX/asGHoonv1d/e7fWfEoEonYABCLxTTKTAAoEomEwuGwSiQSKhx2yLCNEU888cSbE17zNfcv bp43/xJFvJEZG5VFy0wM6+nwNHMS0I8x04PMzoP9t298DiAyaX/UoUcdHR3+QCDAwWCQxyYAutie oGg0GhgYGLBaW1spu66wQRsjnnjiiTdnvZWbvt7pho8721GBswj2WS6pLlhBfz2GP7N+jYEnwXjS cfnJQ0OHnsW9V6dzbmL8/jDdi0ajfgDo7+/XORMA1y5wY+ro6PCnUqnxzkOhkO7p6RmptnPTHxzx xBNPvLryBje/gUG8AeC+eNzmvSd+IJNo6VqvQJ2WUp0A1jNzp1LqhNJcLb+Xz0NgvMCKd4Kxk8E7 RxLOs0f/87K+sttr+v4w2ItEIsFUKsWBQICB0VV/AbjA5D1MkUjEDofDViqVouHhYQUA5ZYUrOXG iCeeeOKJV6F37c/mtzfZKxXTSVDWSUQ4CZpOguITwLxQsdNGcOdnjy+oNvy11gkmDPic5CAzDoCc Ny3mNxU7b6TVvJdTSfd3A9++onfGt1e8PK+rqysEAM3NzToQCHA8HndjsZiDscX/8vZyNBq1+/v7 VXt7u0qlUpROpykWiyVN2RjxxBNPPPGm1xu2FlqH5r29RdtLW47OP9HSrs/WigNKKb9m9iuQj0Cu 1jqtidJK6bRmSmntJlQmPXjojYOH0HNDul62d6540Wi0CQAGBga4ublZ9/f36927d6eRs/Jv7kcA VjweH+88EAjwE088kaq2c9MfHPHEE0888YBm96Crex84+NRTT+0xcXziVeclEgmEQiENjOb5xPAH jk0A8t4J6O3tLXhjL52b/uCIJ5544oknXqN68bjNAODz+binpyeFAnmuxv4f7zwYDEr4iyeeeOKJ J16dewMDAzz2MX7BPFe5F8LhMOceIDDVzk1/cMQTTzzxxBOvEb1QKKTLHcCfvbEa+1lDwl888cQT TzzxGt6jnP+rCf4pdS6eeOKJJ5544s2OR+VuMJOdiyeeeOKJJ554s+NNZQJg3MaIJ5544oknnniV tWonAEZujHjiiSeeeOKJV1mrZgJg7MaIJ5544oknnniVNa8TAKM3RjzxxBNPPPHEq6x5mQCYvjHi iSeeeOKJJ15ljSqdAJi+MeKJJ5544oknXvlGABQAVuVuCUBFo9EmgzdGPPHEE0888cQr3ygajVrj eLnOu7q6QolEYvx2hm2MeOKJJ5544olXvlEkErFzV/0tNQGgSCQSbG1tNXVjxBNPPPHEE0+88o06 Ojr8yWQy92P/oh8BUDQaDWQyGVM3RjzxxBNPPPHEq8CLRqOB5cuXTzzmr+AEgDo6OvypVGr8xqFQ SJu0MeKJJ5544oknXnkvEokEc/M8HA4zABeY/DVAikQidjgctlKpFA0PDysAKLekYKnOTX9wxBNP PPHEE68Rva6urhAANDc360AgwPF43I3FYg7GFv/LewcgGo1auZ8R+Hw+lvAXTzzxxBNPvPryotFo U+4xfL29vZwb/kD+BMDKPTowEAhwLBZLVtu56Q+OeOKJJ5544jWql/vtvUAgwLt3704jJ/wBwB77 P++jgN7e3oI39tK56Q+OeOKJJ5544jWqF4/bDIy+k9/T05NCgTzPzhDGOw8GgxL+4oknnnjiiVfn 3sDAQPad/IJ5nncMQDgcnvQZwVQ6N/3BEU888cQTT7xG9EKhkC53DF/2xmrsZw0Jf/HEE0888cRr eI9y/q8m+KfUuXjiiSeeeOKJNzselbvBTHYunnjiiSeeeOLNjjeVCYBxGyOeeOKJJ5544lXWrPI3 Kdx5NBptchyH0mmFdFrBspr11q1bh710Lp544oknnnjizY5XzTsAqqurK5R7hqGBgYEpnTFQPPHE E0888cSrred1AqAikUgwd5VAn883pTMGiieeeOKJJ554Nfc8TQAoGo0GclcVCgQCRc8wJJ544okn nnjiGekBANnlbzN6w46ODn+2U2DKpwsWTzzxxBNPPPFmwQOgAHAlBwFSJBKxAWBkZIRHRkZYa613 7tyZqbZz8cQTTzzxxBOv9l40GrX27NkDAPmnAi52Y2B0jYBgMMjt7e16CqcLFk888cQTTzzxZsnL XfW33DEAhd4hcKvoWDzxxBNPPPHEM8fTpT4CmDg5YFR5pKF44oknnnjiiWeUx/8/UmiIAOW3i/QA AAAASUVORK5CYII= "
       height="31.341492"
       width="30.122496" />
  </g>
  <g
     inkscape:groupmode="layer"
     id="layer3"
     inkscape:label="first"
     style="display:inline">
    <rect
       style="display:inline;fill:url(#linearGradient4193);fill-opacity:1;fill-rule:evenodd;stroke:url(#linearGradient4177);stroke-width:0.99999994;stroke-linecap:round;stroke-linejoin:miter;stroke-miterlimit:4;stroke-dasharray:none;stroke-dashoffset:0;stroke-opacity:1"
       id="rect3843"
       width="25.010448"
       height="30.262878"
       x="3.6397655"
       y="0.86202425"
       ry="2.5242417" />
    <path
       sodipodi:type="arc"
       style="fill:none;stroke:#3d455f;stroke-width:6.44482183;stroke-linecap:round;stroke-linejoin:miter;stroke-miterlimit:4;stroke-opacity:1;stroke-dasharray:none;stroke-dashoffset:0;display:inline"
       id="path3829"
       sodipodi:cx="-3.8666666"
       sodipodi:cy="7.04"
       sodipodi:rx="5.3066669"
       sodipodi:ry="5.0479193"
       d="M 1.4023712,7.6400769 A 5.3066669,5.0479193 0 1 1 -4.7149979,2.0569996"
       sodipodi:start="0.11915787"
       sodipodi:end="4.5518387"
       transform="matrix(-0.27864429,-0.2293023,-0.50135483,0.12744222,6.6798023,4.727201)"
       sodipodi:open="true" />
    <path
       sodipodi:open="true"
       transform="matrix(-0.77216064,-0.63542738,-0.96917817,0.24636088,0,0)"
       sodipodi:end="4.5518387"
       sodipodi:start="0.11915787"
       d="m -30.067646,21.222866 a 1.9149803,2.6112833 0 0 1 -1.951036,2.299987 1.9149803,2.6112833 0 0 1 -1.861009,-2.434762 1.9149803,2.6112833 0 0 1 1.604512,-2.753345"
       sodipodi:ry="2.6112833"
       sodipodi:rx="1.9149803"
       sodipodi:cy="20.912447"
       sodipodi:cx="-31.969048"
       id="path4612"
       style="display:inline;fill:none;stroke:#3d455f;stroke-width:2.78453684;stroke-linecap:round;stroke-linejoin:miter;stroke-miterlimit:4;stroke-dasharray:none;stroke-dashoffset:0;stroke-opacity:1"
       sodipodi:type="arc" />
    <path
       sodipodi:type="arc"
       style="display:inline;fill:none;stroke:#3d455f;stroke-width:2.67177153;stroke-linecap:round;stroke-linejoin:miter;stroke-miterlimit:4;stroke-dasharray:none;stroke-dashoffset:0;stroke-opacity:1"
       id="path4614"
       sodipodi:cx="-19.380085"
       sodipodi:cy="10.216237"
       sodipodi:rx="1.7415625"
       sodipodi:ry="2.227391"
       d="m -17.650872,10.481021 a 1.7415625,2.227391 0 0 1 -1.774352,1.961859 1.7415625,2.227391 0 0 1 -1.692479,-2.076821 1.7415625,2.227391 0 0 1 1.459209,-2.3485675"
       sodipodi:start="0.11915787"
       sodipodi:end="4.5518387"
       transform="matrix(-0.71541411,-0.69870069,-0.95738302,0.28882133,0,0)"
       sodipodi:open="true" />
    <rect
       style="opacity:1;fill:#ffffff;fill-opacity:1;fill-rule:evenodd;stroke:#214478;stroke-width:1.20000005;stroke-linecap:butt;stroke-linejoin:miter;stroke-miterlimit:4;stroke-dasharray:none;stroke-dashoffset:0;stroke-opacity:1"
       id="rect4165"
       width="11.926284"
       height="3.2526228"
       x="12.04675"
       y="9.4123411"
       ry="0.30035168" />
  </g>
  <g
     inkscape:groupmode="layer"
     id="layer4"
     inkscape:label="second"
     style="display:inline" />
  <g
     inkscape:groupmode="layer"
     id="layer2"
     inkscape:label="top" />
</svg>
