<?xml version="1.0" encoding="UTF-8" standalone="no"?>
<svg
   xmlns:dc="http://purl.org/dc/elements/1.1/"
   xmlns:cc="http://creativecommons.org/ns#"
   xmlns:rdf="http://www.w3.org/1999/02/22-rdf-syntax-ns#"
   xmlns:svg="http://www.w3.org/2000/svg"
   xmlns="http://www.w3.org/2000/svg"
   xmlns:xlink="http://www.w3.org/1999/xlink"
   xmlns:sodipodi="http://sodipodi.sourceforge.net/DTD/sodipodi-0.dtd"
   xmlns:inkscape="http://www.inkscape.org/namespaces/inkscape"
   width="34.133335"
   height="34.133335"
   id="svg1455"
   sodipodi:version="0.32"
   inkscape:version="1.0 (4035a4f, 2020-05-01)"
   sodipodi:docname="overwrite_steps.svg"
   inkscape:export-xdpi="120.00000"
   inkscape:export-ydpi="120.00000"
   version="1.1"
   style="display:inline"
   viewBox="0 0 32 32">
  <defs
     id="defs3">
    <linearGradient
       id="linearGradient3630">
      <stop
         style="stop-color:#f6e1c0;stop-opacity:1;"
         offset="0"
         id="stop3632" />
      <stop
         style="stop-color:#f5e7d1;stop-opacity:1;"
         offset="1"
         id="stop3634" />
    </linearGradient>
    <linearGradient
       inkscape:collect="always"
       xlink:href="#linearGradient3869-6-3"
       id="linearGradient3031"
       gradientUnits="userSpaceOnUse"
       gradientTransform="matrix(1.0884669,-0.47416089,0.46157136,1.1181553,-7.8141323,11.773461)"
       x1="19.055012"
       y1="7.0745502"
       x2="22.446272"
       y2="10.200515" />
    <linearGradient
       id="linearGradient3869-6-3">
      <stop
         style="stop-color:#ffad02;stop-opacity:1;"
         offset="0"
         id="stop3871-9-9" />
      <stop
         style="stop-color:#c4ba4a;stop-opacity:1;"
         offset="1"
         id="stop3873-2-4" />
    </linearGradient>
    <linearGradient
       inkscape:collect="always"
       xlink:href="#linearGradient3829-9"
       id="linearGradient3835"
       x1="20.204853"
       y1="14.127702"
       x2="18.328623"
       y2="13.355288"
       gradientUnits="userSpaceOnUse" />
    <linearGradient
       id="linearGradient3829-9">
      <stop
         style="stop-color:#786535;stop-opacity:1;"
         offset="0"
         id="stop3831-5" />
      <stop
         style="stop-color:#cd6938;stop-opacity:1;"
         offset="1"
         id="stop3833-5" />
    </linearGradient>
    <linearGradient
       y2="19.714443"
       x2="15.984475"
       y1="23.807344"
       x1="13.555334"
       gradientUnits="userSpaceOnUse"
       id="linearGradient4051"
       xlink:href="#linearGradient3821-7"
       inkscape:collect="always" />
    <linearGradient
       id="linearGradient3821-7">
      <stop
         style="stop-color:#050505;stop-opacity:1;"
         offset="0"
         id="stop3823-3" />
      <stop
         style="stop-color:#949494;stop-opacity:1;"
         offset="1"
         id="stop3825-9" />
    </linearGradient>
    <linearGradient
       id="linearGradient11462">
      <stop
         id="stop11464"
         offset="0"
         style="stop-color:#b3caff;stop-opacity:1;" />
      <stop
         id="stop11466"
         offset="1"
         style="stop-color:#5a98ec;stop-opacity:1;" />
    </linearGradient>
  </defs>
  <sodipodi:namedview
     id="base"
     pagecolor="#ffffff"
     bordercolor="#666666"
     borderopacity="1.0"
     inkscape:pageopacity="0.0"
     inkscape:pageshadow="2"
     inkscape:zoom="17.724608"
     inkscape:cx="17.066668"
     inkscape:cy="17.066668"
     inkscape:current-layer="layer3"
     showgrid="true"
     inkscape:document-units="px"
     inkscape:grid-bbox="true"
     inkscape:window-width="1440"
     inkscape:window-height="795"
     inkscape:window-x="0"
     inkscape:window-y="25"
     inkscape:window-maximized="0"
     inkscape:snap-smooth-nodes="false"
     inkscape:object-nodes="false"
     inkscape:snap-grids="false"
     inkscape:document-rotation="0">
    <inkscape:grid
       type="xygrid"
       id="grid3734"
       empspacing="5"
       visible="true"
       enabled="true"
       snapvisiblegridlinesonly="true"
       originx="0"
       originy="0"
       spacingx="1"
       spacingy="1" />
  </sodipodi:namedview>
  <metadata
     id="metadata7">
    <rdf:RDF>
      <cc:Work
         rdf:about="">
        <dc:format>image/svg+xml</dc:format>
        <dc:type
           rdf:resource="http://purl.org/dc/dcmitype/StillImage" />
        <dc:title />
        <cc:license
           rdf:resource="Apache License 2.0" />
        <dc:creator>
          <cc:Agent>
            <dc:title />
          </cc:Agent>
        </dc:creator>
        <dc:publisher>
          <cc:Agent>
            <dc:title>ECMWF</dc:title>
          </cc:Agent>
        </dc:publisher>
        <dc:language>en-GB</dc:language>
        <dc:subject>
          <rdf:Bag>
            <rdf:li>Metview icon</rdf:li>
          </rdf:Bag>
        </dc:subject>
        <dc:description>Metview icon</dc:description>
      </cc:Work>
    </rdf:RDF>
  </metadata>
  <g
     inkscape:groupmode="layer"
     id="layer3"
     inkscape:label="Layer">
    <path
       style="display:inline;fill:#ececec;fill-opacity:1;stroke:none;stroke-width:0.806736;stroke-linecap:butt;stroke-linejoin:round;stroke-miterlimit:4;stroke-dasharray:none;stroke-opacity:1"
       d="M 16.223646,15.048188 8.8017535,9.3368158 8.843265,12.644695 H 0.78190862 l 0.0415094,4.935625 7.89532698,0.03547 v 3.099496 z"
       id="path4788"
       sodipodi:nodetypes="cccccccc" />
    <path
       style="fill:none;stroke:#f2f2f2;stroke-width:1.40625;stroke-linecap:butt;stroke-linejoin:miter;stroke-miterlimit:4;stroke-dasharray:none;stroke-opacity:1"
       d="m 20.998347,3.385124 -0.05289,24.96529"
       id="path1464" />
    <path
       id="path1466"
       d="M 25.229752,3.2793388 25.176862,28.244628"
       style="fill:none;stroke:#f2f2f2;stroke-width:1.40625;stroke-linecap:butt;stroke-linejoin:miter;stroke-miterlimit:4;stroke-dasharray:none;stroke-opacity:1" />
    <path
       style="fill:none;stroke:#f2f2f2;stroke-width:1.40625;stroke-linecap:butt;stroke-linejoin:miter;stroke-miterlimit:4;stroke-dasharray:none;stroke-opacity:1"
       d="M 29.566943,3.3851239 29.51405,28.350413"
       id="path1468" />
  </g>
  <g
     inkscape:groupmode="layer"
     id="layer4"
     inkscape:label="pencil" />
</svg>
