<?xml version="1.0" encoding="UTF-8" standalone="no"?>
<svg
   xmlns:dc="http://purl.org/dc/elements/1.1/"
   xmlns:cc="http://creativecommons.org/ns#"
   xmlns:rdf="http://www.w3.org/1999/02/22-rdf-syntax-ns#"
   xmlns:svg="http://www.w3.org/2000/svg"
   xmlns="http://www.w3.org/2000/svg"
   xmlns:sodipodi="http://sodipodi.sourceforge.net/DTD/sodipodi-0.dtd"
   xmlns:inkscape="http://www.inkscape.org/namespaces/inkscape"
   width="32"
   height="32"
   id="svg2"
   version="1.1"
   inkscape:version="1.0 (4035a4f, 2020-05-01)"
   sodipodi:docname="page_select_all.svg">
  <defs
     id="defs4">
    <linearGradient
       id="linearGradient3851-1">
      <stop
         style="stop-color:#ffffff;stop-opacity:1;"
         offset="0"
         id="stop3853-7" />
      <stop
         style="stop-color:#c5c5c5;stop-opacity:1;"
         offset="1"
         id="stop3855-4" />
    </linearGradient>
  </defs>
  <sodipodi:namedview
     id="base"
     pagecolor="#ffffff"
     bordercolor="#666666"
     borderopacity="1.0"
     inkscape:pageopacity="0.0"
     inkscape:pageshadow="2"
     inkscape:zoom="18.812189"
     inkscape:cx="16.067469"
     inkscape:cy="16.08"
     inkscape:document-units="px"
     inkscape:current-layer="svg2"
     showgrid="true"
     inkscape:snap-grids="false"
     inkscape:window-width="1440"
     inkscape:window-height="795"
     inkscape:window-x="0"
     inkscape:window-y="25"
     inkscape:window-maximized="1"
     inkscape:document-rotation="0">
    <inkscape:grid
       type="xygrid"
       id="grid2816"
       empspacing="5"
       visible="true"
       enabled="true"
       snapvisiblegridlinesonly="true" />
  </sodipodi:namedview>
  <metadata
     id="metadata7">
    <rdf:RDF>
      <cc:Work
         rdf:about="">
        <dc:format>image/svg+xml</dc:format>
        <dc:type
           rdf:resource="http://purl.org/dc/dcmitype/StillImage" />
        <dc:title />
        <cc:license
           rdf:resource="Apache License 2.0" />
        <dc:creator>
          <cc:Agent>
            <dc:title />
          </cc:Agent>
        </dc:creator>
        <dc:publisher>
          <cc:Agent>
            <dc:title>ECMWF</dc:title>
          </cc:Agent>
        </dc:publisher>
        <dc:language>en-GB</dc:language>
        <dc:subject>
          <rdf:Bag>
            <rdf:li>Metview icon</rdf:li>
          </rdf:Bag>
        </dc:subject>
        <dc:description>Metview icon</dc:description>
      </cc:Work>
    </rdf:RDF>
  </metadata>
  <rect
     y="18.185289"
     x="7.6259065"
     height="6.4634824"
     width="16.797997"
     id="rect3100"
     style="fill:none;fill-opacity:1;stroke:#ececec;stroke-width:1;stroke-miterlimit:4;stroke-dasharray:none;stroke-opacity:1" />
  <rect
     style="fill:none;fill-opacity:1;stroke:#ececec;stroke-width:1;stroke-miterlimit:4;stroke-dasharray:none;stroke-opacity:1"
     id="rect4663"
     width="16.708918"
     height="6.3313074"
     x="7.7764955"
     y="6.2495661" />
  <rect
     style="fill:#ececec;fill-opacity:1;stroke:none"
     id="rect3055"
     width="3.9466667"
     height="1.9733334"
     x="-0.053333335"
     y="0.053333335" />
  <rect
     y="1.2914398e-009"
     x="7.04"
     height="1.9733334"
     width="3.9466667"
     id="rect3825"
     style="fill:#ececec;fill-opacity:1;stroke:none" />
  <rect
     style="fill:#ececec;fill-opacity:1;stroke:none"
     id="rect3827"
     width="3.9466667"
     height="1.9733334"
     x="14.026667"
     y="0.053333335" />
  <rect
     y="1.2914327e-009"
     x="21.066668"
     height="1.9733334"
     width="3.9466667"
     id="rect3829"
     style="fill:#ececec;fill-opacity:1;stroke:none" />
  <rect
     style="fill:#ececec;fill-opacity:1;stroke:none"
     id="rect3831"
     width="3.9466667"
     height="1.9733334"
     x="28.053333"
     y="0.053333335" />
  <rect
     y="30.186666"
     x="-1.2914327e-009"
     height="1.9733334"
     width="3.9466667"
     id="rect3833"
     style="fill:#ececec;fill-opacity:1;stroke:none" />
  <rect
     style="fill:#ececec;fill-opacity:1;stroke:none"
     id="rect3835"
     width="3.9466667"
     height="1.9733334"
     x="7.0933332"
     y="30.133333" />
  <rect
     y="30.186666"
     x="14.08"
     height="1.9733334"
     width="3.9466667"
     id="rect3837"
     style="fill:#ececec;fill-opacity:1;stroke:none" />
  <rect
     style="fill:#ececec;fill-opacity:1;stroke:none"
     id="rect3839"
     width="3.9466667"
     height="1.9733334"
     x="21.120001"
     y="30.133333" />
  <rect
     y="30.186666"
     x="28.106667"
     height="1.9733334"
     width="3.9466667"
     id="rect3841"
     style="fill:#ececec;fill-opacity:1;stroke:none" />
  <rect
     y="-0.043239538"
     x="-28.987036"
     height="1.9733334"
     width="3.9466667"
     id="rect3845"
     style="fill:#ececec;fill-opacity:1;stroke:none"
     transform="matrix(-8.2627909e-4,-0.99999966,0.99999966,-8.2627909e-4,0,0)" />
  <rect
     style="fill:#ececec;fill-opacity:1;stroke:none"
     id="rect3847"
     width="3.9466667"
     height="1.9733334"
     x="-22.00037"
     y="0.010093745"
     transform="matrix(-8.2627909e-4,-0.99999966,0.99999966,-8.2627909e-4,0,0)" />
  <rect
     y="-0.043239538"
     x="-14.960369"
     height="1.9733334"
     width="3.9466667"
     id="rect3849"
     style="fill:#ececec;fill-opacity:1;stroke:none"
     transform="matrix(-8.2627909e-4,-0.99999966,0.99999966,-8.2627909e-4,0,0)" />
  <rect
     style="fill:#ececec;fill-opacity:1;stroke:none"
     id="rect3851"
     width="3.9466667"
     height="1.9733334"
     x="-7.9737"
     y="0.010093745"
     transform="matrix(-8.2627909e-4,-0.99999966,0.99999966,-8.2627909e-4,0,0)" />
  <rect
     transform="matrix(-8.2627909e-4,-0.99999966,0.99999966,-8.2627909e-4,0,0)"
     style="fill:#ececec;fill-opacity:1;stroke:none"
     id="rect3853"
     width="3.9466667"
     height="1.9733334"
     x="-28.798645"
     y="30.143593" />
  <rect
     transform="matrix(-8.2627909e-4,-0.99999966,0.99999966,-8.2627909e-4,0,0)"
     y="30.196926"
     x="-21.811979"
     height="1.9733334"
     width="3.9466667"
     id="rect3855"
     style="fill:#ececec;fill-opacity:1;stroke:none" />
  <rect
     transform="matrix(-8.2627909e-4,-0.99999966,0.99999966,-8.2627909e-4,0,0)"
     style="fill:#ececec;fill-opacity:1;stroke:none"
     id="rect3857"
     width="3.9466667"
     height="1.9733334"
     x="-14.771978"
     y="30.143593" />
  <rect
     transform="matrix(-8.2627909e-4,-0.99999966,0.99999966,-8.2627909e-4,0,0)"
     y="30.196926"
     x="-7.7853093"
     height="1.9733334"
     width="3.9466667"
     id="rect3859"
     style="fill:#ececec;fill-opacity:1;stroke:none" />
</svg>
