<?xml version="1.0" encoding="UTF-8" standalone="no"?>
<svg
   xmlns:dc="http://purl.org/dc/elements/1.1/"
   xmlns:cc="http://creativecommons.org/ns#"
   xmlns:rdf="http://www.w3.org/1999/02/22-rdf-syntax-ns#"
   xmlns:svg="http://www.w3.org/2000/svg"
   xmlns="http://www.w3.org/2000/svg"
   xmlns:xlink="http://www.w3.org/1999/xlink"
   xmlns:sodipodi="http://sodipodi.sourceforge.net/DTD/sodipodi-0.dtd"
   xmlns:inkscape="http://www.inkscape.org/namespaces/inkscape"
   width="34.133335"
   height="34.133335"
   id="svg2"
   version="1.1"
   inkscape:version="1.0 (4035a4f, 2020-05-01)"
   sodipodi:docname="page_join.svg"
   viewBox="0 0 32 32">
  <defs
     id="defs4">
    <linearGradient
       id="linearGradient3851">
      <stop
         style="stop-color:#fafafa;stop-opacity:1;"
         offset="0"
         id="stop3853" />
      <stop
         style="stop-color:#e6e6e6;stop-opacity:1;"
         offset="1"
         id="stop3855" />
    </linearGradient>
    <linearGradient
       inkscape:collect="always"
       xlink:href="#linearGradient3851-1"
       id="linearGradient3935"
       gradientUnits="userSpaceOnUse"
       gradientTransform="matrix(1.9202257,0,0,2.5990709,-3.6450585,-45.649231)"
       x1="4.3920174"
       y1="20.106667"
       x2="14.933549"
       y2="27.622316" />
    <linearGradient
       id="linearGradient3851-1">
      <stop
         style="stop-color:#fafafa;stop-opacity:1;"
         offset="0"
         id="stop3853-7" />
      <stop
         style="stop-color:#c1cdd4;stop-opacity:1;"
         offset="1"
         id="stop3855-4" />
    </linearGradient>
    <linearGradient
       id="linearGradient3851-1-7">
      <stop
         style="stop-color:#fafafa;stop-opacity:1;"
         offset="0"
         id="stop3853-7-4" />
      <stop
         style="stop-color:#c5c5c5;stop-opacity:1;"
         offset="1"
         id="stop3855-4-0" />
    </linearGradient>
    <linearGradient
       y2="27.622316"
       x2="14.933549"
       y1="20.106667"
       x1="4.3920174"
       gradientTransform="matrix(1.4281186,0,0,1.9641936,-2.213417,-27.322407)"
       gradientUnits="userSpaceOnUse"
       id="linearGradient4468-9"
       xlink:href="#linearGradient3851-1-7"
       inkscape:collect="always" />
    <linearGradient
       id="linearGradient3925">
      <stop
         style="stop-color:#fafafa;stop-opacity:1;"
         offset="0"
         id="stop3927" />
      <stop
         style="stop-color:#c1cdd4;stop-opacity:1;"
         offset="1"
         id="stop3929" />
    </linearGradient>
    <linearGradient
       id="linearGradient3851-1-7-8">
      <stop
         style="stop-color:#fafafa;stop-opacity:1;"
         offset="0"
         id="stop3853-7-4-8" />
      <stop
         style="stop-color:#c1cdd4;stop-opacity:1;"
         offset="1"
         id="stop3855-4-0-2" />
    </linearGradient>
    <linearGradient
       y2="27.622316"
       x2="14.933549"
       y1="20.106667"
       x1="4.3920174"
       gradientTransform="matrix(1.4281186,0,0,1.9641936,-1.6522254,-27.430875)"
       gradientUnits="userSpaceOnUse"
       id="linearGradient3933-4"
       xlink:href="#linearGradient3851-1-7-8"
       inkscape:collect="always" />
    <linearGradient
       id="linearGradient4002">
      <stop
         style="stop-color:#fafafa;stop-opacity:1;"
         offset="0"
         id="stop4004" />
      <stop
         style="stop-color:#c1cdd4;stop-opacity:1;"
         offset="1"
         id="stop4006" />
    </linearGradient>
    <linearGradient
       y2="27.622316"
       x2="14.933549"
       y1="20.106667"
       x1="4.3920174"
       gradientTransform="matrix(1.3241465,0,0,1.1683201,-25.648232,-25.662212)"
       gradientUnits="userSpaceOnUse"
       id="linearGradient4010"
       xlink:href="#linearGradient3851-1-7-8"
       inkscape:collect="always" />
    <linearGradient
       inkscape:collect="always"
       xlink:href="#linearGradient3851-1-7"
       id="linearGradient4051"
       gradientUnits="userSpaceOnUse"
       gradientTransform="matrix(0.7720383,0,0,1.6773442,25.64762,-23.808608)"
       x1="4.3920174"
       y1="20.106667"
       x2="14.933549"
       y2="27.622316" />
    <linearGradient
       y2="27.622316"
       x2="14.933549"
       y1="20.106667"
       x1="4.3920174"
       gradientTransform="matrix(1.3241465,0,0,1.1683201,-25.648232,-25.662212)"
       gradientUnits="userSpaceOnUse"
       id="linearGradient4010-1"
       xlink:href="#linearGradient3851-1-7-8-7"
       inkscape:collect="always" />
    <linearGradient
       id="linearGradient3851-1-7-8-7">
      <stop
         style="stop-color:#fafafa;stop-opacity:1;"
         offset="0"
         id="stop3853-7-4-8-1" />
      <stop
         style="stop-color:#c1cdd4;stop-opacity:1;"
         offset="1"
         id="stop3855-4-0-2-1" />
    </linearGradient>
  </defs>
  <sodipodi:namedview
     id="base"
     pagecolor="#ffffff"
     bordercolor="#666666"
     borderopacity="1.0"
     inkscape:pageopacity="0.0"
     inkscape:pageshadow="2"
     inkscape:zoom="18.75"
     inkscape:cx="1.6471122"
     inkscape:cy="19.577846"
     inkscape:document-units="px"
     inkscape:current-layer="layer1"
     showgrid="true"
     inkscape:snap-grids="false"
     inkscape:window-width="1440"
     inkscape:window-height="795"
     inkscape:window-x="0"
     inkscape:window-y="25"
     inkscape:window-maximized="1"
     showguides="true"
     inkscape:guide-bbox="true"
     inkscape:snap-to-guides="false"
     inkscape:document-rotation="0">
    <inkscape:grid
       type="xygrid"
       id="grid2816"
       empspacing="5"
       visible="true"
       enabled="true"
       snapvisiblegridlinesonly="true"
       originx="0"
       originy="0"
       spacingx="1"
       spacingy="1" />
  </sodipodi:namedview>
  <metadata
     id="metadata7">
    <rdf:RDF>
      <cc:Work
         rdf:about="">
        <dc:format>image/svg+xml</dc:format>
        <dc:type
           rdf:resource="http://purl.org/dc/dcmitype/StillImage" />
        <dc:title />
        <cc:license
           rdf:resource="Apache License 2.0" />
        <dc:creator>
          <cc:Agent>
            <dc:title />
          </cc:Agent>
        </dc:creator>
        <dc:publisher>
          <cc:Agent>
            <dc:title>ECMWF</dc:title>
          </cc:Agent>
        </dc:publisher>
        <dc:language>en-GB</dc:language>
        <dc:subject>
          <rdf:Bag>
            <rdf:li>Metview icon</rdf:li>
          </rdf:Bag>
        </dc:subject>
        <dc:description>Metview icon</dc:description>
      </cc:Work>
    </rdf:RDF>
  </metadata>
  <g
     inkscape:groupmode="layer"
     id="layer2"
     inkscape:label="bg" />
  <g
     inkscape:groupmode="layer"
     id="layer1"
     inkscape:label="Layer">
    <rect
       style="fill:none;fill-opacity:1;stroke:#ececec;stroke-width:0.928754;stroke-miterlimit:4;stroke-dasharray:none;stroke-opacity:1"
       id="rect3933"
       width="9.8205261"
       height="16.128202"
       x="4.6487355"
       y="7.4496241" />
    <rect
       y="10.119071"
       x="18.990089"
       height="10.570345"
       width="8.7963934"
       id="rect4659"
       style="fill:none;fill-opacity:1;stroke:#ececec;stroke-width:0.867147;stroke-miterlimit:4;stroke-dasharray:none;stroke-opacity:1" />
    <rect
       style="fill:#2ca05a;fill-opacity:1;stroke:#2ca05a;stroke-width:0.805833;stroke-miterlimit:4;stroke-dasharray:none;stroke-dashoffset:0;stroke-opacity:1"
       id="rect3831"
       width="4.1613708"
       height="1.3347042"
       x="2.0526478"
       y="2.4259815" />
    <rect
       y="2.5326481"
       x="9.945981"
       height="1.3347042"
       width="4.1613708"
       id="rect3851"
       style="fill:#2ca05a;fill-opacity:1;stroke:#2ca05a;stroke-width:0.805833;stroke-miterlimit:4;stroke-dasharray:none;stroke-dashoffset:0;stroke-opacity:1" />
    <rect
       style="fill:#2ca05a;fill-opacity:1;stroke:#2ca05a;stroke-width:0.805833;stroke-miterlimit:4;stroke-dasharray:none;stroke-dashoffset:0;stroke-opacity:1"
       id="rect3853"
       width="4.1613708"
       height="1.3347042"
       x="18.159315"
       y="2.4793148" />
    <rect
       y="2.4793148"
       x="26.052649"
       height="1.3347042"
       width="4.1613708"
       id="rect3855"
       style="fill:#2ca05a;fill-opacity:1;stroke:#2ca05a;stroke-width:0.805833;stroke-miterlimit:4;stroke-dasharray:none;stroke-dashoffset:0;stroke-opacity:1" />
    <rect
       style="fill:#2ca05a;fill-opacity:1;stroke:#2ca05a;stroke-width:0.805833;stroke-miterlimit:4;stroke-dasharray:none;stroke-dashoffset:0;stroke-opacity:1"
       id="rect3857"
       width="4.1613708"
       height="1.3347042"
       x="5.4393148"
       y="-31.787354"
       transform="rotate(90)" />
    <rect
       transform="rotate(90)"
       y="-31.787354"
       x="13.545981"
       height="1.3347042"
       width="4.1613708"
       id="rect3859"
       style="fill:#2ca05a;fill-opacity:1;stroke:#2ca05a;stroke-width:0.805833;stroke-miterlimit:4;stroke-dasharray:none;stroke-dashoffset:0;stroke-opacity:1" />
    <rect
       style="fill:#2ca05a;fill-opacity:1;stroke:#2ca05a;stroke-width:0.805833;stroke-miterlimit:4;stroke-dasharray:none;stroke-dashoffset:0;stroke-opacity:1"
       id="rect3861"
       width="4.1613708"
       height="1.3347042"
       x="21.439314"
       y="-31.680687"
       transform="rotate(90)" />
    <rect
       transform="rotate(90)"
       y="-1.8140203"
       x="5.5459805"
       height="1.3347042"
       width="4.1613708"
       id="rect3863"
       style="fill:#2ca05a;fill-opacity:1;stroke:#2ca05a;stroke-width:0.805833;stroke-miterlimit:4;stroke-dasharray:none;stroke-dashoffset:0;stroke-opacity:1" />
    <rect
       style="fill:#2ca05a;fill-opacity:1;stroke:#2ca05a;stroke-width:0.805833;stroke-miterlimit:4;stroke-dasharray:none;stroke-dashoffset:0;stroke-opacity:1"
       id="rect3865"
       width="4.1613708"
       height="1.3347042"
       x="13.492647"
       y="-1.760687"
       transform="rotate(90)" />
    <rect
       transform="rotate(90)"
       y="-1.760687"
       x="21.54598"
       height="1.3347042"
       width="4.1613708"
       id="rect3867"
       style="fill:#2ca05a;fill-opacity:1;stroke:#2ca05a;stroke-width:0.805833;stroke-miterlimit:4;stroke-dasharray:none;stroke-dashoffset:0;stroke-opacity:1" />
    <rect
       y="27.385981"
       x="2.6393147"
       height="1.3347042"
       width="4.1613708"
       id="rect3871"
       style="fill:#2ca05a;fill-opacity:1;stroke:#2ca05a;stroke-width:0.805833;stroke-miterlimit:4;stroke-dasharray:none;stroke-dashoffset:0;stroke-opacity:1" />
    <rect
       style="fill:#2ca05a;fill-opacity:1;stroke:#2ca05a;stroke-width:0.805833;stroke-miterlimit:4;stroke-dasharray:none;stroke-dashoffset:0;stroke-opacity:1"
       id="rect3873"
       width="4.1613708"
       height="1.3347042"
       x="10.639315"
       y="27.439314" />
    <rect
       y="27.439314"
       x="18.745981"
       height="1.3347042"
       width="4.1613708"
       id="rect3875"
       style="fill:#2ca05a;fill-opacity:1;stroke:#2ca05a;stroke-width:0.805833;stroke-miterlimit:4;stroke-dasharray:none;stroke-dashoffset:0;stroke-opacity:1" />
    <rect
       style="fill:#2ca05a;fill-opacity:1;stroke:#2ca05a;stroke-width:0.805833;stroke-miterlimit:4;stroke-dasharray:none;stroke-dashoffset:0;stroke-opacity:1"
       id="rect3877"
       width="4.1613708"
       height="1.3347042"
       x="26.639315"
       y="27.439314" />
  </g>
</svg>
