<?xml version="1.0" encoding="UTF-8" standalone="no"?>
<!-- Created with Inkscape (http://www.inkscape.org/) -->

<svg
   xmlns:dc="http://purl.org/dc/elements/1.1/"
   xmlns:cc="http://creativecommons.org/ns#"
   xmlns:rdf="http://www.w3.org/1999/02/22-rdf-syntax-ns#"
   xmlns:svg="http://www.w3.org/2000/svg"
   xmlns="http://www.w3.org/2000/svg"
   xmlns:xlink="http://www.w3.org/1999/xlink"
   xmlns:sodipodi="http://sodipodi.sourceforge.net/DTD/sodipodi-0.dtd"
   xmlns:inkscape="http://www.inkscape.org/namespaces/inkscape"
   width="32"
   height="32"
   id="svg2"
   sodipodi:version="0.32"
   inkscape:version="0.47 r22583"
   version="1.0"
   sodipodi:docname="profile_save.svg"
   inkscape:export-xdpi="90"
   inkscape:export-ydpi="90"
   inkscape:output_extension="org.inkscape.output.svg.inkscape">
  <metadata
     id="metadata7">
    <rdf:RDF>
      <cc:Work
         rdf:about="">
        <dc:format>image/svg+xml</dc:format>
        <dc:type
           rdf:resource="http://purl.org/dc/dcmitype/StillImage" />
        <dc:title />
        <cc:license
           rdf:resource="Apache License 2.0" />
        <dc:creator>
          <cc:Agent>
            <dc:title />
          </cc:Agent>
        </dc:creator>
        <dc:publisher>
          <cc:Agent>
            <dc:title>ECMWF</dc:title>
          </cc:Agent>
        </dc:publisher>
        <dc:language>en-GB</dc:language>
        <dc:subject>
          <rdf:Bag>
            <rdf:li>Metview icon</rdf:li>
          </rdf:Bag>
        </dc:subject>
        <dc:description>Metview icon</dc:description>
      </cc:Work>
    </rdf:RDF>
  </metadata>
  <defs
     id="defs4">
    <linearGradient
       id="linearGradient5774">
      <stop
         id="stop5776"
         offset="0"
         style="stop-color:#304fdc;stop-opacity:1;" />
      <stop
         id="stop5778"
         offset="1"
         style="stop-color:#8fbac7;stop-opacity:1;" />
    </linearGradient>
    <linearGradient
       y2="71.243797"
       x2="43.653599"
       y1="98.746101"
       x1="51.9683"
       gradientUnits="userSpaceOnUse"
       id="linearGradient5790">
      <stop
         id="stop5792"
         style="stop-color:#ffffff;stop-opacity:1"
         offset="0" />
      <stop
         id="stop5800"
         style="stop-color:#d1d1d1;stop-opacity:1;"
         offset="1" />
    </linearGradient>
    <linearGradient
       inkscape:collect="always"
       xlink:href="#linearGradient5790"
       id="linearGradient3774"
       gradientUnits="userSpaceOnUse"
       gradientTransform="matrix(0.742259,0,0,0.6653783,1.1209128,1.0166462)"
       x1="15.444444"
       y1="6.0793653"
       x2="14.976191"
       y2="37.150795" />
    <linearGradient
       inkscape:collect="always"
       xlink:href="#linearGradient5774"
       id="linearGradient3776"
       gradientUnits="userSpaceOnUse"
       gradientTransform="matrix(0.7653975,0,0,0.5168907,0.7536402,0.5021448)"
       x1="34.234921"
       y1="5.868176"
       x2="-2.1777394"
       y2="5.3949285" />
    <linearGradient
       inkscape:collect="always"
       xlink:href="#linearGradient11450-3"
       id="linearGradient11456-8"
       x1="19.784695"
       y1="29.870388"
       x2="19.784693"
       y2="42.991951"
       gradientUnits="userSpaceOnUse"
       gradientTransform="matrix(0.59314295,0,0,0.43142519,11.080918,-27.167407)" />
    <linearGradient
       id="linearGradient11450-3">
      <stop
         style="stop-color:#191919;stop-opacity:1;"
         offset="0"
         id="stop11452-2" />
      <stop
         style="stop-color:#ffffff;stop-opacity:1;"
         offset="1"
         id="stop11454-9" />
    </linearGradient>
    <linearGradient
       inkscape:collect="always"
       xlink:href="#linearGradient12168-4"
       id="linearGradient7458-5"
       gradientUnits="userSpaceOnUse"
       gradientTransform="matrix(0.69520576,0,0,-0.63482447,1.8108124,35.190531)"
       x1="13.444483"
       y1="41.398193"
       x2="38.408127"
       y2="31.618719" />
    <linearGradient
       id="linearGradient12168-4">
      <stop
         style="stop-color:#858585;stop-opacity:1;"
         offset="0"
         id="stop12170-3" />
      <stop
         id="stop12172-9"
         offset="0.5"
         style="stop-color:#cbcbcb;stop-opacity:1;" />
      <stop
         style="stop-color:#ffffff;stop-opacity:1"
         offset="1"
         id="stop12174-4" />
    </linearGradient>
    <linearGradient
       id="linearGradient2263-5">
      <stop
         style="stop-color:#3e848c;stop-opacity:1;"
         offset="0"
         id="stop2265-5" />
      <stop
         style="stop-color:#b3c7de;stop-opacity:1;"
         offset="1"
         id="stop2267-7" />
    </linearGradient>
    <linearGradient
       y2="46.581879"
       x2="9.2870998"
       y1="2.2797322"
       x1="28.673536"
       gradientTransform="matrix(0.63475282,0,0,-0.71679855,2.8210575,36.880715)"
       gradientUnits="userSpaceOnUse"
       id="linearGradient6550"
       xlink:href="#linearGradient2263-5"
       inkscape:collect="always" />
  </defs>
  <sodipodi:namedview
     id="base"
     pagecolor="#efefef"
     bordercolor="#666666"
     borderopacity="1.0"
     inkscape:pageopacity="1"
     inkscape:pageshadow="2"
     inkscape:zoom="22.40625"
     inkscape:cx="10.376569"
     inkscape:cy="16"
     inkscape:document-units="px"
     inkscape:current-layer="layer1"
     inkscape:showpageshadow="false"
     showborder="true"
     borderlayer="top"
     showgrid="true"
     inkscape:grid-points="false"
     inkscape:window-width="1465"
     inkscape:window-height="1068"
     inkscape:window-x="290"
     inkscape:window-y="35"
     width="32px"
     height="32px"
     inkscape:window-maximized="0"
     inkscape:snap-grids="false">
    <inkscape:grid
       id="GridFromPre046Settings"
       type="xygrid"
       originx="0px"
       originy="0px"
       spacingx="1px"
       spacingy="1px"
       color="#9f9f9f"
       empcolor="#9f9f9f"
       opacity="0.10196078"
       empopacity="0.25490196"
       empspacing="10" />
  </sodipodi:namedview>
  <g
     inkscape:groupmode="layer"
     id="layer13"
     inkscape:label="rect"
     style="display:inline"
     sodipodi:insensitive="true">
    <g
       id="g6344"
       transform="translate(36.579166,8)">
      <g
         style="display:inline"
         inkscape:label="rect"
         id="layer14"
         transform="translate(-36.579166,-8)">
        <g
           transform="translate(-0.9999999,-1)"
           id="g5164"
           inkscape:label="rect">
          <g
             id="g3744"
             transform="translate(20.375001,9.3333312)">
            <g
               transform="translate(-20.375001,-8.8071128)"
               id="g3760"
               inkscape:label="rect"
               style="display:inline">
              <g
                 id="g3762"
                 transform="translate(2.6328225,1)">
                <g
                   inkscape:label="rect"
                   id="g3764">
                  <g
                     style="display:inline"
                     inkscape:label="rect#1"
                     id="g3766"
                     transform="translate(-2.632824,-1.0000001)">
                    <rect
                       y="1.3474927"
                       x="1.4958774"
                       height="20.630413"
                       width="23.008247"
                       id="rect3768"
                       style="fill:url(#linearGradient3774);fill-opacity:1;fill-rule:evenodd;stroke:#353193;stroke-width:0.99175197;stroke-linecap:butt;stroke-linejoin:miter;stroke-miterlimit:4;stroke-opacity:1;stroke-dasharray:none;stroke-dashoffset:0" />
                    <rect
                       y="1.0190356"
                       x="1.519037"
                       height="4.1520081"
                       width="22.961929"
                       id="rect3770"
                       style="fill:url(#linearGradient3776);fill-opacity:1;fill-rule:evenodd;stroke:#3a358c;stroke-width:1.03807104;stroke-linecap:butt;stroke-linejoin:miter;stroke-miterlimit:4;stroke-opacity:1;stroke-dasharray:none;stroke-dashoffset:0" />
                  </g>
                </g>
                <g
                   style="display:inline"
                   id="g3772"
                   inkscape:label="Layer 1" />
              </g>
            </g>
          </g>
        </g>
      </g>
      <g
         sodipodi:insensitive="true"
         style="display:none"
         inkscape:label="delete"
         id="layer2" />
    </g>
  </g>
  <g
     inkscape:label="Layer 1"
     inkscape:groupmode="layer"
     id="layer1"
     style="display:inline">
    <path
       sodipodi:nodetypes="ccccccccc"
       id="path7428"
       d="m 7.621217,31.433381 23.153463,0 c 0.350839,0 0.633282,-0.280851 0.633282,-0.62972 l 0,-22.3572729 c 0,-0.3488654 -0.282443,-0.6297225 -0.633282,-0.6297225 l -21.4829534,0 c 0,0 -2.3677649,2.3891954 -2.3677649,2.3891954 l 0.063974,20.5978 c 0,0.348869 0.2824434,0.62972 0.6332819,0.62972 z"
       style="fill:url(#linearGradient6550);fill-opacity:1;stroke:#25375f;stroke-width:0.79999995;stroke-linecap:round;stroke-linejoin:round;stroke-miterlimit:4;stroke-opacity:1;stroke-dasharray:none;stroke-dashoffset:0;display:inline" />
    <path
       sodipodi:nodetypes="ccccccc"
       id="path7444"
       d="m 13.577907,15.665729 11.779301,0 c 0.529608,0 0.955973,-0.400117 0.955973,-0.897122 l 0,-7.0343225 c 0,0 -13.691244,0 -13.691244,0 l 0,7.0343225 c 0,0.497005 0.426365,0.897122 0.95597,0.897122 z"
       style="fill:url(#linearGradient7458-5);fill-opacity:1;stroke:#371d1d;stroke-width:0.58788472;stroke-linecap:butt;stroke-linejoin:miter;stroke-miterlimit:4;stroke-opacity:1;stroke-dashoffset:0;display:inline" />
    <rect
       ry="0.29127699"
       rx="0.41466233"
       y="-13.372715"
       x="21.427872"
       height="3.9030292"
       width="2.776397"
       id="rect7446"
       style="fill:url(#linearGradient11456-8);fill-opacity:1;stroke:#251818;stroke-width:0.48245448;stroke-linecap:butt;stroke-linejoin:miter;stroke-miterlimit:4;stroke-opacity:1;stroke-dasharray:none;stroke-dashoffset:0;display:inline"
       transform="scale(1,-1)" />
    <rect
       y="-29.964291"
       x="10.252553"
       height="10.816766"
       width="17.880121"
       id="rect7430"
       style="fill:#ffffff;fill-opacity:1;stroke:#371d1d;stroke-width:0.63016379;stroke-linecap:butt;stroke-linejoin:miter;stroke-miterlimit:4;stroke-opacity:1;stroke-dasharray:none;stroke-dashoffset:0;display:inline"
       transform="scale(1,-1)" />
    <rect
       style="fill:#cccccc;fill-opacity:1;fill-rule:evenodd;stroke:#000000;stroke-width:0.41638336;stroke-linecap:butt;stroke-linejoin:miter;stroke-miterlimit:4;stroke-opacity:1;stroke-dasharray:none;stroke-dashoffset:0;display:inline"
       id="rect11357"
       width="13.226233"
       height="0.53731823"
       x="12.447113"
       y="-23.143465"
       rx="0.094933808"
       ry="0"
       transform="scale(1,-1)" />
    <rect
       transform="scale(1,-1)"
       ry="0"
       rx="0.095015459"
       y="-26.912609"
       x="12.473413"
       height="0.50564092"
       width="13.237607"
       id="rect13161"
       style="fill:#b3b3b3;fill-opacity:1;fill-rule:evenodd;stroke:#000000;stroke-width:0.40409663;stroke-linecap:butt;stroke-linejoin:miter;stroke-miterlimit:4;stroke-opacity:1;stroke-dasharray:none;stroke-dashoffset:0;display:inline" />
  </g>
</svg>
