<?xml version="1.0" encoding="UTF-8" standalone="no"?>
<!-- Created with Inkscape (http://www.inkscape.org/) -->

<svg
   xmlns:dc="http://purl.org/dc/elements/1.1/"
   xmlns:cc="http://creativecommons.org/ns#"
   xmlns:rdf="http://www.w3.org/1999/02/22-rdf-syntax-ns#"
   xmlns:svg="http://www.w3.org/2000/svg"
   xmlns="http://www.w3.org/2000/svg"
   xmlns:xlink="http://www.w3.org/1999/xlink"
   xmlns:sodipodi="http://sodipodi.sourceforge.net/DTD/sodipodi-0.dtd"
   xmlns:inkscape="http://www.inkscape.org/namespaces/inkscape"
   width="32"
   height="32"
   id="svg2"
   version="1.1"
   inkscape:version="0.47 r22583"
   sodipodi:docname="reset.svg">
  <defs
     id="defs4">
    <inkscape:perspective
       sodipodi:type="inkscape:persp3d"
       inkscape:vp_x="0 : 16 : 1"
       inkscape:vp_y="0 : 1000 : 0"
       inkscape:vp_z="32 : 16 : 1"
       inkscape:persp3d-origin="16 : 10.666667 : 1"
       id="perspective15" />
    <linearGradient
       id="linearGradient3650">
      <stop
         style="stop-color:#449abb;stop-opacity:1;"
         offset="0"
         id="stop3652" />
      <stop
         style="stop-color:#fcfcfe;stop-opacity:1;"
         offset="1"
         id="stop3654" />
    </linearGradient>
    <linearGradient
       inkscape:collect="always"
       xlink:href="#linearGradient3650"
       id="linearGradient3656"
       x1="15.603005"
       y1="11.415942"
       x2="14.703928"
       y2="5.6313658"
       gradientUnits="userSpaceOnUse"
       gradientTransform="matrix(0.86061684,0.15090715,-0.13376284,0.97092167,5.6361914,-5.6778006)" />
    <linearGradient
       inkscape:collect="always"
       xlink:href="#linearGradient3650"
       id="linearGradient3593"
       gradientUnits="userSpaceOnUse"
       gradientTransform="matrix(-0.86061684,-0.15090715,0.13376284,-0.97092167,25.859568,37.645443)"
       x1="15.603005"
       y1="11.415942"
       x2="14.703928"
       y2="5.6313658" />
  </defs>
  <sodipodi:namedview
     id="base"
     pagecolor="#ffffff"
     bordercolor="#666666"
     borderopacity="1.0"
     inkscape:pageopacity="0.0"
     inkscape:pageshadow="2"
     inkscape:zoom="18.75"
     inkscape:cx="-5.3600576"
     inkscape:cy="16.554812"
     inkscape:document-units="px"
     inkscape:current-layer="layer2"
     showgrid="true"
     inkscape:snap-grids="false"
     inkscape:window-width="1566"
     inkscape:window-height="990"
     inkscape:window-x="214"
     inkscape:window-y="35"
     inkscape:window-maximized="0">
    <inkscape:grid
       type="xygrid"
       id="grid2816"
       empspacing="5"
       visible="true"
       enabled="true"
       snapvisiblegridlinesonly="true" />
  </sodipodi:namedview>
  <metadata
     id="metadata7">
    <rdf:RDF>
      <cc:Work
         rdf:about="">
        <dc:format>image/svg+xml</dc:format>
        <dc:type
           rdf:resource="http://purl.org/dc/dcmitype/StillImage" />
        <dc:title />
        <cc:license
           rdf:resource="Apache License 2.0" />
        <dc:creator>
          <cc:Agent>
            <dc:title />
          </cc:Agent>
        </dc:creator>
        <dc:publisher>
          <cc:Agent>
            <dc:title>ECMWF</dc:title>
          </cc:Agent>
        </dc:publisher>
        <dc:language>en-GB</dc:language>
        <dc:subject>
          <rdf:Bag>
            <rdf:li>Metview icon</rdf:li>
          </rdf:Bag>
        </dc:subject>
        <dc:description>Metview icon</dc:description>
      </cc:Work>
    </rdf:RDF>
  </metadata>
  <g
     inkscape:groupmode="layer"
     id="layer2"
     inkscape:label="item"
     style="display:inline">
    <path
       style="fill:url(#linearGradient3656);fill-opacity:1;stroke:#3e5b77;stroke-width:0.80000001;stroke-linecap:butt;stroke-linejoin:miter;stroke-miterlimit:4;stroke-opacity:1;stroke-dasharray:none"
       d="m 6.048055,10.781746 c 0,0 -0.1029715,0.406212 0.3588532,-1.5811113 0.5698069,-2.4519914 2.8111024,-4.8533024 4.7687178,-5.9520951 1.957615,-1.0987924 3.823344,-1.0516143 5.912699,-0.6072578 1.680407,0.3573826 3.522866,1.2886275 4.644201,2.4583855 1.121335,1.169758 2.819773,3.667528 2.819773,3.667528 L 28.817498,5.2158683 27.290132,15.967736 17.276349,14.92497 21.76025,11.059837 C 20.172061,8.1822713 18.562212,6.3399783 15.530159,5.7621993 13.245777,5.3872373 12.090275,5.4631103 10.019383,6.8642013 8.5113196,7.8845043 6.048055,10.781746 6.048055,10.781746 z"
       id="path2876"
       sodipodi:nodetypes="cszssccccccsc" />
    <path
       sodipodi:nodetypes="cszssccccccsc"
       id="path3591"
       d="m 25.447704,21.185896 c 0,0 0.102971,-0.406212 -0.358853,1.581112 -0.569807,2.451991 -2.811103,4.853302 -4.768718,5.952095 -1.957615,1.098792 -3.823344,1.051614 -5.912699,0.607258 C 12.727027,28.968978 10.884568,28.037733 9.763233,26.867975 8.6418983,25.698217 6.94346,23.200447 6.94346,23.200447 L 2.678261,26.751774 4.205627,15.999906 14.21941,17.042672 9.735509,20.907805 c 1.588189,2.877566 3.198038,4.719859 6.230091,5.297638 2.284382,0.374962 3.439884,0.299089 5.510776,-1.102002 1.508063,-1.020303 3.971328,-3.917545 3.971328,-3.917545 z"
       style="fill:url(#linearGradient3593);fill-opacity:1;stroke:#3e5b77;stroke-width:0.80000001;stroke-linecap:butt;stroke-linejoin:miter;stroke-miterlimit:4;stroke-opacity:1;stroke-dasharray:none" />
  </g>
</svg>
