<?xml version="1.0" encoding="UTF-8" standalone="no"?>
<!-- Created with Inkscape (http://www.inkscape.org/) -->

<svg
   xmlns:dc="http://purl.org/dc/elements/1.1/"
   xmlns:cc="http://creativecommons.org/ns#"
   xmlns:rdf="http://www.w3.org/1999/02/22-rdf-syntax-ns#"
   xmlns:svg="http://www.w3.org/2000/svg"
   xmlns="http://www.w3.org/2000/svg"
   xmlns:xlink="http://www.w3.org/1999/xlink"
   xmlns:sodipodi="http://sodipodi.sourceforge.net/DTD/sodipodi-0.dtd"
   xmlns:inkscape="http://www.inkscape.org/namespaces/inkscape"
   width="32"
   height="32"
   id="svg2"
   version="1.1"
   inkscape:version="0.91 r13725"
   sodipodi:docname="reset_line.svg">
  <defs
     id="defs4">
    <linearGradient
       id="linearGradient3852">
      <stop
         style="stop-color:#467b3c;stop-opacity:1;"
         offset="0"
         id="stop3854" />
      <stop
         style="stop-color:#3d9f3d;stop-opacity:0.99215686;"
         offset="1"
         id="stop3856" />
    </linearGradient>
    <linearGradient
       id="linearGradient3799">
      <stop
         style="stop-color:#aae1be;stop-opacity:1;"
         offset="0"
         id="stop3801" />
      <stop
         style="stop-color:#4bc82b;stop-opacity:1;"
         offset="1"
         id="stop3803" />
    </linearGradient>
    <linearGradient
       id="linearGradient3777">
      <stop
         style="stop-color:#0000ad;stop-opacity:1;"
         offset="0"
         id="stop3779" />
      <stop
         style="stop-color:#25d4ce;stop-opacity:1;"
         offset="1"
         id="stop3781" />
    </linearGradient>
    <linearGradient
       id="linearGradient3756">
      <stop
         id="stop3758"
         offset="0"
         style="stop-color:#519aed;stop-opacity:1;" />
      <stop
         id="stop3760"
         offset="1"
         style="stop-color:#e9dddd;stop-opacity:0;" />
    </linearGradient>
    <linearGradient
       id="linearGradient3728">
      <stop
         style="stop-color:#f1f3fb;stop-opacity:1;"
         offset="0"
         id="stop3730" />
      <stop
         style="stop-color:#273df9;stop-opacity:0;"
         offset="1"
         id="stop3732" />
    </linearGradient>
    <linearGradient
       inkscape:collect="always"
       xlink:href="#linearGradient3728"
       id="linearGradient3710"
       gradientUnits="userSpaceOnUse"
       gradientTransform="matrix(-1.1066784,0,0,-1.2085368,31.113487,37.26001)"
       x1="15.413333"
       y1="3.4795053"
       x2="15.941438"
       y2="18.883736" />
    <linearGradient
       inkscape:collect="always"
       xlink:href="#linearGradient3756"
       id="linearGradient3720"
       gradientUnits="userSpaceOnUse"
       gradientTransform="matrix(-1.1066784,0,0,-1.2085368,31.113487,37.26001)"
       x1="24.437176"
       y1="3.4853487"
       x2="15.941438"
       y2="18.883736" />
    <linearGradient
       inkscape:collect="always"
       xlink:href="#linearGradient3777"
       id="linearGradient3783"
       x1="1.4276053"
       y1="16.374115"
       x2="28.440671"
       y2="16.374115"
       gradientUnits="userSpaceOnUse"
       gradientTransform="matrix(1.0279887,0,0,1.0323478,7.1553463,-2.2096664)" />
    <linearGradient
       inkscape:collect="always"
       xlink:href="#linearGradient3852"
       id="linearGradient3858"
       x1="4.4050612"
       y1="16.300755"
       x2="23.332099"
       y2="16.521188"
       gradientUnits="userSpaceOnUse"
       gradientTransform="matrix(-0.96778437,0,0,0.96778437,30.00582,1.0794304)" />
  </defs>
  <sodipodi:namedview
     id="base"
     pagecolor="#ffffff"
     bordercolor="#666666"
     borderopacity="1.0"
     inkscape:pageopacity="0.0"
     inkscape:pageshadow="2"
     inkscape:zoom="18.75"
     inkscape:cx="21.775579"
     inkscape:cy="14.909718"
     inkscape:document-units="px"
     inkscape:current-layer="layer2"
     showgrid="true"
     inkscape:snap-grids="false"
     inkscape:window-width="1920"
     inkscape:window-height="1144"
     inkscape:window-x="0"
     inkscape:window-y="0"
     inkscape:window-maximized="1"
     inkscape:snap-to-guides="false">
    <inkscape:grid
       type="xygrid"
       id="grid2816"
       empspacing="5"
       visible="true"
       enabled="true"
       snapvisiblegridlinesonly="true" />
  </sodipodi:namedview>
  <metadata
     id="metadata7">
    <rdf:RDF>
      <cc:Work
         rdf:about="">
        <dc:format>image/svg+xml</dc:format>
        <dc:type
           rdf:resource="http://purl.org/dc/dcmitype/StillImage" />
        <dc:title />
        <cc:license
           rdf:resource="Apache License 2.0" />
        <dc:creator>
          <cc:Agent>
            <dc:title />
          </cc:Agent>
        </dc:creator>
        <dc:publisher>
          <cc:Agent>
            <dc:title>ECMWF</dc:title>
          </cc:Agent>
        </dc:publisher>
        <dc:language>en-GB</dc:language>
        <dc:subject>
          <rdf:Bag>
            <rdf:li>Metview icon</rdf:li>
          </rdf:Bag>
        </dc:subject>
        <dc:description>Metview icon</dc:description>
      </cc:Work>
    </rdf:RDF>
  </metadata>
  <g
     inkscape:groupmode="layer"
     id="layer1"
     inkscape:label="bg"
     style="display:inline">
    <rect
       style="fill:#f9f9f9;fill-opacity:1;stroke:#cccccc;stroke-width:1.04364991;stroke-linecap:round;stroke-linejoin:miter;stroke-miterlimit:4;stroke-dasharray:none;stroke-dashoffset:0;stroke-opacity:1"
       id="rect3822"
       width="31.277409"
       height="31.224468"
       x="32.948154"
       y="0.62776738"
       ry="0" />
  </g>
  <g
     inkscape:groupmode="layer"
     id="layer2"
     inkscape:label="item"
     style="display:inline">
    <path
       id="path3823"
       style="fill:#2c5aa0;fill-opacity:1;stroke:none;stroke-width:0.74834377;stroke-miterlimit:4;stroke-opacity:1"
       d="m 10.060361,20.852271 c 2.74357,2.930626 7.424859,3.155987 10.455957,0.503359 1.364589,-1.194202 2.162087,-2.76812 2.376191,-4.405228 0.261476,-1.999317 -0.347154,-4.092876 -1.855577,-5.704143 -2.743566,-2.9306257 -7.42486,-3.1559868 -10.455956,-0.503358 -0.02715,0.02377 3.501213,4.199595 3.474423,4.223744 L 3.0899667,14.089285 3.5116011,2.3469972 7.1579771,6.6236301 C 12.444008,1.9976259 20.607868,2.3906413 25.392467,7.5014561 30.177067,12.612269 29.770578,20.505523 24.484549,25.131525 19.19852,29.757531 11.034659,29.364517 6.250058,24.253702"
       inkscape:connector-curvature="0"
       sodipodi:nodetypes="cssssccccssc" />
  </g>
</svg>
