<?xml version="1.0" encoding="UTF-8" standalone="no"?>
<svg
   xmlns:dc="http://purl.org/dc/elements/1.1/"
   xmlns:cc="http://creativecommons.org/ns#"
   xmlns:rdf="http://www.w3.org/1999/02/22-rdf-syntax-ns#"
   xmlns:svg="http://www.w3.org/2000/svg"
   xmlns="http://www.w3.org/2000/svg"
   xmlns:xlink="http://www.w3.org/1999/xlink"
   xmlns:sodipodi="http://sodipodi.sourceforge.net/DTD/sodipodi-0.dtd"
   xmlns:inkscape="http://www.inkscape.org/namespaces/inkscape"
   viewBox="0 0 16 16"
   sodipodi:docname="search_decor.svg"
   inkscape:version="1.0 (4035a4f, 2020-05-01)"
   version="1.1"
   id="svg2"
   height="17.066668"
   width="17.066668">
  <defs
     id="defs4">
    <linearGradient
       id="linearGradient3792">
      <stop
         id="stop3794"
         offset="0"
         style="stop-color:#eceded;stop-opacity:1;" />
      <stop
         id="stop3796"
         offset="1"
         style="stop-color:#b5c6d0;stop-opacity:1;" />
    </linearGradient>
    <linearGradient
       id="linearGradient3804">
      <stop
         id="stop3806"
         offset="0"
         style="stop-color:#464c90;stop-opacity:1;" />
      <stop
         id="stop3808"
         offset="1"
         style="stop-color:#355560;stop-opacity:1;" />
    </linearGradient>
    <linearGradient
       id="linearGradient3796">
      <stop
         id="stop3798"
         offset="0"
         style="stop-color:#545d96;stop-opacity:1;" />
      <stop
         id="stop3800"
         offset="1"
         style="stop-color:#76a1ab;stop-opacity:1;" />
    </linearGradient>
    <inkscape:perspective
       id="perspective35"
       inkscape:persp3d-origin="15.999999 : 11.733334 : 1"
       inkscape:vp_z="31.999998 : 17.066667 : 1"
       inkscape:vp_y="0 : 999.99995 : 0"
       inkscape:vp_x="0 : 17.066667 : 1"
       sodipodi:type="inkscape:persp3d" />
    <linearGradient
       id="linearGradient3852">
      <stop
         id="stop3854"
         offset="0"
         style="stop-color:#467b3c;stop-opacity:1;" />
      <stop
         id="stop3856"
         offset="1"
         style="stop-color:#3d9f3d;stop-opacity:0.99215686;" />
    </linearGradient>
    <linearGradient
       id="linearGradient3799">
      <stop
         id="stop3801"
         offset="0"
         style="stop-color:#aae1be;stop-opacity:1;" />
      <stop
         id="stop3803"
         offset="1"
         style="stop-color:#4bc82b;stop-opacity:1;" />
    </linearGradient>
    <linearGradient
       id="linearGradient3777">
      <stop
         id="stop3779"
         offset="0"
         style="stop-color:#5b7db3;stop-opacity:1;" />
      <stop
         id="stop3781"
         offset="1"
         style="stop-color:#2589ce;stop-opacity:1;" />
    </linearGradient>
    <linearGradient
       id="linearGradient3756">
      <stop
         style="stop-color:#519aed;stop-opacity:1;"
         offset="0"
         id="stop3758" />
      <stop
         style="stop-color:#e9dddd;stop-opacity:0;"
         offset="1"
         id="stop3760" />
    </linearGradient>
    <linearGradient
       id="linearGradient3728">
      <stop
         id="stop3730"
         offset="0"
         style="stop-color:#f1f3fb;stop-opacity:1;" />
      <stop
         id="stop3732"
         offset="1"
         style="stop-color:#273df9;stop-opacity:0;" />
    </linearGradient>
    <linearGradient
       gradientTransform="matrix(1.0279887,0,0,1.0323478,7.1553463,-2.2096664)"
       gradientUnits="userSpaceOnUse"
       y2="16.374115"
       x2="28.440672"
       y1="16.374115"
       x1="1.4276053"
       id="linearGradient3783"
       xlink:href="#linearGradient3777"
       inkscape:collect="always" />
    <linearGradient
       gradientUnits="userSpaceOnUse"
       y2="17.617861"
       x2="36.303471"
       y1="17.617861"
       x1="-9.2158766"
       id="linearGradient3834"
       xlink:href="#linearGradient3799"
       inkscape:collect="always" />
    <linearGradient
       gradientTransform="matrix(0.96778437,0,0,0.96778437,1.3383248,1.0794304)"
       gradientUnits="userSpaceOnUse"
       y2="16.521189"
       x2="23.3321"
       y1="16.300755"
       x1="4.4050612"
       id="linearGradient3858"
       xlink:href="#linearGradient3852"
       inkscape:collect="always" />
    <inkscape:perspective
       sodipodi:type="inkscape:persp3d"
       inkscape:vp_x="0 : 1.5666675 : 1"
       inkscape:vp_y="0 : 999.99995 : 0"
       inkscape:vp_z="0.99999995 : 1.5666675 : 1"
       inkscape:persp3d-origin="0.49999998 : 1.4000009 : 1"
       id="perspective2935" />
    <linearGradient
       gradientTransform="matrix(1.7702794,0,0,1.4225865,-38.983045,1.405527)"
       gradientUnits="userSpaceOnUse"
       y2="14.95285"
       x2="27.970543"
       y1="14.95285"
       x1="16.804222"
       id="linearGradient4032"
       xlink:href="#linearGradient4026"
       inkscape:collect="always" />
    <linearGradient
       id="linearGradient4026">
      <stop
         id="stop4028"
         offset="0"
         style="stop-color:#f30e1e;stop-opacity:1;" />
      <stop
         id="stop4030"
         offset="1"
         style="stop-color:#ba2f39;stop-opacity:1;" />
    </linearGradient>
    <linearGradient
       id="linearGradient3975">
      <stop
         id="stop3977"
         offset="0"
         style="stop-color:#565c64;stop-opacity:1;" />
      <stop
         id="stop3979"
         offset="1"
         style="stop-color:#99a4b4;stop-opacity:1;" />
    </linearGradient>
  </defs>
  <sodipodi:namedview
     inkscape:document-rotation="0"
     inkscape:window-maximized="1"
     inkscape:window-y="25"
     inkscape:window-x="0"
     inkscape:window-height="1094"
     inkscape:window-width="1920"
     inkscape:snap-grids="false"
     showgrid="true"
     inkscape:current-layer="layer2"
     inkscape:document-units="px"
     inkscape:cy="4.6833932"
     inkscape:cx="4.0908005"
     inkscape:zoom="32.04272"
     inkscape:pageshadow="2"
     inkscape:pageopacity="0.0"
     borderopacity="1.0"
     bordercolor="#666666"
     pagecolor="#ffffff"
     id="base">
    <inkscape:grid
       spacingy="1"
       spacingx="1"
       originy="0"
       originx="0"
       snapvisiblegridlinesonly="true"
       enabled="true"
       visible="true"
       empspacing="5"
       id="grid2816"
       type="xygrid" />
  </sodipodi:namedview>
  <metadata
     id="metadata7">
    <rdf:RDF>
      <cc:Work
         rdf:about="">
        <dc:format>image/svg+xml</dc:format>
        <dc:type
           rdf:resource="http://purl.org/dc/dcmitype/StillImage" />
        <dc:title />
        <cc:license
           rdf:resource="Apache License 2.0" />
        <dc:creator>
          <cc:Agent>
            <dc:title />
          </cc:Agent>
        </dc:creator>
        <dc:publisher>
          <cc:Agent>
            <dc:title>ECMWF</dc:title>
          </cc:Agent>
        </dc:publisher>
        <dc:language>en-GB</dc:language>
        <dc:subject>
          <rdf:Bag>
            <rdf:li>Metview icon</rdf:li>
          </rdf:Bag>
        </dc:subject>
        <dc:description>Metview icon</dc:description>
      </cc:Work>
    </rdf:RDF>
  </metadata>
  <g
     transform="translate(0,-16)"
     style="display:inline"
     inkscape:label="circle"
     id="layer3"
     inkscape:groupmode="layer" />
  <g
     transform="translate(0,-16)"
     style="display:inline"
     inkscape:label="item"
     id="layer2"
     inkscape:groupmode="layer">
    <ellipse
       ry="4.1367626"
       rx="4.2668872"
       cy="22.414701"
       cx="5.8260374"
       id="path2468"
       style="display:inline;opacity:1;fill:none;fill-opacity:1;stroke:#f9f9f9;stroke-width:0.813107;stroke-linecap:butt;stroke-miterlimit:4;stroke-dasharray:none;stroke-opacity:1" />
    <path
       sodipodi:nodetypes="ccccc"
       inkscape:connector-curvature="0"
       id="path3411"
       d="M 8.2204025,26.173678 13.427992,30.861855 15.15501,29.05872 9.9474195,24.370543 Z"
       style="display:inline;fill:#f9f9f9;fill-opacity:1;fill-rule:evenodd;stroke:none;stroke-width:0.583897;stroke-linecap:butt;stroke-linejoin:miter;stroke-miterlimit:4;stroke-dasharray:none;stroke-opacity:1" />
  </g>
</svg>
