<?xml version="1.0" encoding="UTF-8" standalone="no"?>
<!-- Created with Inkscape (http://www.inkscape.org/) -->

<svg
   xmlns:dc="http://purl.org/dc/elements/1.1/"
   xmlns:cc="http://creativecommons.org/ns#"
   xmlns:rdf="http://www.w3.org/1999/02/22-rdf-syntax-ns#"
   xmlns:svg="http://www.w3.org/2000/svg"
   xmlns="http://www.w3.org/2000/svg"
   xmlns:xlink="http://www.w3.org/1999/xlink"
   xmlns:sodipodi="http://sodipodi.sourceforge.net/DTD/sodipodi-0.dtd"
   xmlns:inkscape="http://www.inkscape.org/namespaces/inkscape"
   width="48"
   height="48"
   id="svg2"
   sodipodi:version="0.32"
   inkscape:version="0.47 r22583"
   version="1.0"
   sodipodi:docname="sidebar_left.svg"
   inkscape:output_extension="org.inkscape.output.svg.inkscape">
  <defs
     id="defs4">
    <linearGradient
       id="linearGradient2828">
      <stop
         id="stop2830"
         offset="0"
         style="stop-color:#e6e6e6;stop-opacity:1;" />
      <stop
         id="stop2834"
         offset="1"
         style="stop-color:#5e9aa7;stop-opacity:1;" />
    </linearGradient>
    <linearGradient
       id="linearGradient3134">
      <stop
         style="stop-color:#ffffff;stop-opacity:1;"
         offset="0"
         id="stop3136" />
      <stop
         style="stop-color:#b8c5c8;stop-opacity:1;"
         offset="1"
         id="stop3138" />
    </linearGradient>
    <linearGradient
       inkscape:collect="always"
       xlink:href="#linearGradient3134"
       id="linearGradient3157"
       gradientUnits="userSpaceOnUse"
       x1="4.2422905"
       y1="58.145554"
       x2="38.280991"
       y2="27.284977"
       gradientTransform="matrix(0.7010416,0,0,0.6043896,-46.590215,4.701441)" />
    <linearGradient
       inkscape:collect="always"
       xlink:href="#linearGradient2828"
       id="linearGradient2849"
       gradientUnits="userSpaceOnUse"
       gradientTransform="matrix(-1.092724,0,0,1.0174397,-1.4100518,-0.79334515)"
       x1="4.7154722"
       y1="10.295263"
       x2="-22.359737"
       y2="34.304337" />
    <linearGradient
       inkscape:collect="always"
       xlink:href="#linearGradient2828"
       id="linearGradient3629"
       x1="-16.24024"
       y1="35.806011"
       x2="1.2411834"
       y2="21.927578"
       gradientUnits="userSpaceOnUse" />
    <linearGradient
       inkscape:collect="always"
       xlink:href="#linearGradient3134"
       id="linearGradient3633"
       gradientUnits="userSpaceOnUse"
       gradientTransform="matrix(-0.7010416,0,0,0.6043896,45.654281,10.651302)"
       x1="4.2422905"
       y1="58.145554"
       x2="38.280991"
       y2="27.284977" />
    <linearGradient
       inkscape:collect="always"
       xlink:href="#linearGradient3134"
       id="linearGradient3640"
       gradientUnits="userSpaceOnUse"
       gradientTransform="matrix(-0.7010416,0,0,0.6043896,25.00312,4.9819058)"
       x1="4.2422905"
       y1="58.145554"
       x2="38.280991"
       y2="27.284977" />
    <linearGradient
       inkscape:collect="always"
       xlink:href="#linearGradient3134"
       id="linearGradient3645"
       gradientUnits="userSpaceOnUse"
       gradientTransform="matrix(0.67694305,0,0,-0.57657342,15.205243,42.376898)"
       x1="4.2422905"
       y1="58.145554"
       x2="38.280991"
       y2="27.284977" />
  </defs>
  <sodipodi:namedview
     id="base"
     pagecolor="#ffffff"
     bordercolor="#666666"
     borderopacity="1.0"
     gridtolerance="10000"
     guidetolerance="10"
     objecttolerance="10"
     inkscape:pageopacity="0.0"
     inkscape:pageshadow="2"
     inkscape:zoom="15.895833"
     inkscape:cx="24"
     inkscape:cy="24"
     inkscape:document-units="px"
     inkscape:current-layer="layer2"
     width="48px"
     height="48px"
     showgrid="true"
     inkscape:window-width="1885"
     inkscape:window-height="1104"
     inkscape:window-x="31"
     inkscape:window-y="31"
     inkscape:window-maximized="1"
     inkscape:snap-grids="false">
    <inkscape:grid
       type="xygrid"
       id="grid3647" />
  </sodipodi:namedview>
  <metadata
     id="metadata7">
    <rdf:RDF>
      <cc:Work
         rdf:about="">
        <dc:format>image/svg+xml</dc:format>
        <dc:type
           rdf:resource="http://purl.org/dc/dcmitype/StillImage" />
        <dc:title />
        <cc:license
           rdf:resource="Apache License 2.0" />
        <dc:creator>
          <cc:Agent>
            <dc:title />
          </cc:Agent>
        </dc:creator>
        <dc:publisher>
          <cc:Agent>
            <dc:title>ECMWF</dc:title>
          </cc:Agent>
        </dc:publisher>
        <dc:language>en-GB</dc:language>
        <dc:subject>
          <rdf:Bag>
            <rdf:li>Metview icon</rdf:li>
          </rdf:Bag>
        </dc:subject>
        <dc:description>Metview icon</dc:description>
      </cc:Work>
    </rdf:RDF>
  </metadata>
  <g
     inkscape:groupmode="layer"
     id="layer2"
     inkscape:label="l1"
     style="display:inline">
    <rect
       style="fill:url(#linearGradient3157);fill-opacity:1;fill-rule:evenodd;stroke:#24344d;stroke-width:1.79999994999999990;stroke-linecap:butt;stroke-linejoin:miter;stroke-miterlimit:4;stroke-opacity:1;stroke-dasharray:none;stroke-dashoffset:0"
       id="rect2161"
       width="42.984715"
       height="36.924061"
       x="-45.522682"
       y="5.5379701"
       transform="scale(-1,1)" />
    <path
       style="fill:url(#linearGradient3645);fill-opacity:1;fill-rule:evenodd;stroke:none"
       d="m 18.981269,41.554719 0.06291,-32.4690085 25.464751,-0.1258192 0,-2.6128648 -28.274697,0 0,35.2076925 2.747037,0 z"
       id="rect3631"
       sodipodi:nodetypes="ccccccc" />
  </g>
  <g
     inkscape:label="Layer 1"
     inkscape:groupmode="layer"
     id="layer1"
     style="display:inline">
    <rect
       style="fill:url(#linearGradient3629);fill-opacity:1;fill-rule:evenodd;stroke:#24344d;stroke-width:1.79999994999999990;stroke-linecap:butt;stroke-linejoin:miter;stroke-miterlimit:4;stroke-opacity:1;stroke-dasharray:none;stroke-dashoffset:0"
       id="rect3153"
       width="12.739919"
       height="36.920658"
       x="-15.34024"
       y="5.5396705"
       transform="scale(-1,1)" />
    <path
       style="fill:url(#linearGradient2849);fill-opacity:1;fill-rule:evenodd;stroke:none"
       d="m 3.3894502,6.488945 0,35.101671 2.6402534,-0.06291 -0.1258191,-32.6007529 8.5781585,0.06291 -0.06291,-2.5009177 -11.0296828,0 z"
       id="rect2839"
       sodipodi:nodetypes="ccccccc" />
  </g>
</svg>
