<?xml version="1.0" encoding="UTF-8" standalone="no"?>
<!-- Created with Inkscape (http://www.inkscape.org/) -->

<svg
   xmlns:dc="http://purl.org/dc/elements/1.1/"
   xmlns:cc="http://creativecommons.org/ns#"
   xmlns:rdf="http://www.w3.org/1999/02/22-rdf-syntax-ns#"
   xmlns:svg="http://www.w3.org/2000/svg"
   xmlns="http://www.w3.org/2000/svg"
   xmlns:sodipodi="http://sodipodi.sourceforge.net/DTD/sodipodi-0.dtd"
   xmlns:inkscape="http://www.inkscape.org/namespaces/inkscape"
   width="64px"
   height="64px"
   id="svg3187"
   sodipodi:version="0.32"
   inkscape:version="0.48.4 r9939"
   sodipodi:docname="swap_layout.svg"
   inkscape:output_extension="org.inkscape.output.svg.inkscape"
   version="1.1">
  <defs
     id="defs3189" />
  <sodipodi:namedview
     id="base"
     pagecolor="#ffffff"
     bordercolor="#666666"
     borderopacity="1.0"
     inkscape:pageopacity="0.0"
     inkscape:pageshadow="2"
     inkscape:zoom="10.390625"
     inkscape:cx="16.553383"
     inkscape:cy="32.09624"
     inkscape:current-layer="layer1"
     showgrid="true"
     inkscape:document-units="px"
     inkscape:grid-bbox="true"
     inkscape:window-width="1146"
     inkscape:window-height="875"
     inkscape:window-x="291"
     inkscape:window-y="92"
     inkscape:window-maximized="0" />
  <metadata
     id="metadata7">
    <rdf:RDF>
      <cc:Work
         rdf:about="">
        <dc:format>image/svg+xml</dc:format>
        <dc:type
           rdf:resource="http://purl.org/dc/dcmitype/StillImage" />
        <dc:title />
        <cc:license
           rdf:resource="Apache License 2.0" />
        <dc:creator>
          <cc:Agent>
            <dc:title />
          </cc:Agent>
        </dc:creator>
        <dc:publisher>
          <cc:Agent>
            <dc:title>ECMWF</dc:title>
          </cc:Agent>
        </dc:publisher>
        <dc:language>en-GB</dc:language>
        <dc:subject>
          <rdf:Bag>
            <rdf:li>Metview icon</rdf:li>
          </rdf:Bag>
        </dc:subject>
        <dc:description>Metview icon</dc:description>
      </cc:Work>
    </rdf:RDF>
  </metadata>
  <g
     inkscape:groupmode="layer"
     id="layer5"
     inkscape:label="rect" />
  <g
     id="layer1"
     inkscape:label="Layer 1"
     inkscape:groupmode="layer">
    <path
       style="fill:#ffffff;fill-opacity:1;fill-rule:evenodd;stroke:none"
       d="m 13.189334,46.537231 c 0.946808,-4.834906 2.393914,-12.167847 4.786149,-16.978725 2.822164,-5.67548 3.994192,-7.529798 8.355323,-11.260672 4.390751,-3.756215 9.950365,-6.651899 15.206198,-9.3040803 -1.9235,-2.5739414 -3.098606,-4.5703689 -5.022107,-7.1443066 7.510631,0.9374181 15.021263,1.8748377 22.531895,2.8122592 -2.317842,5.9272987 -5.309077,12.7935267 -7.626923,18.7208277 -1.837307,-2.755702 2.506116,3.681041 -5.28746,-8.267111 -4.598472,1.730311 -7.533419,3.127836 -12.897562,7.500977 -4.06412,3.313289 -5.592198,5.828752 -8.382826,10.48042 -2.59915,4.332495 -3.384398,10.466764 -4.234786,14.836354 3.60018,0.139056 7.200361,0.278098 10.80054,0.417146 -5.644202,4.579524 -11.288403,9.159049 -16.93261,13.738576 C 10.511854,56.569653 6.538548,51.050413 2.565237,45.531169 c 3.5413655,0.335354 7.0827295,0.670707 10.624097,1.006062 z"
       id="path6240"
       sodipodi:nodetypes="csscccccssccccc"
       inkscape:connector-curvature="0" />
  </g>
</svg>
