<?xml version="1.0" encoding="UTF-8" standalone="no"?>
<svg
   xmlns:dc="http://purl.org/dc/elements/1.1/"
   xmlns:cc="http://creativecommons.org/ns#"
   xmlns:rdf="http://www.w3.org/1999/02/22-rdf-syntax-ns#"
   xmlns:svg="http://www.w3.org/2000/svg"
   xmlns="http://www.w3.org/2000/svg"
   xmlns:xlink="http://www.w3.org/1999/xlink"
   xmlns:sodipodi="http://sodipodi.sourceforge.net/DTD/sodipodi-0.dtd"
   xmlns:inkscape="http://www.inkscape.org/namespaces/inkscape"
   viewBox="0 0 32 32"
   sodipodi:docname="web_link.svg"
   inkscape:version="1.0 (4035a4f, 2020-05-01)"
   version="1.1"
   id="svg2"
   height="34.133335"
   width="34.133335">
  <defs
     id="defs4">
    <inkscape:perspective
       id="perspective41"
       inkscape:persp3d-origin="15.999999 : 12.800001 : 1"
       inkscape:vp_z="31.999998 : 18.133334 : 1"
       inkscape:vp_y="0 : 999.99995 : 0"
       inkscape:vp_x="0 : 18.133334 : 1"
       sodipodi:type="inkscape:persp3d" />
    <linearGradient
       id="linearGradient3851">
      <stop
         id="stop3853"
         offset="0"
         style="stop-color:#fafafa;stop-opacity:1;" />
      <stop
         id="stop3855"
         offset="1"
         style="stop-color:#e6e6e6;stop-opacity:1;" />
    </linearGradient>
    <linearGradient
       id="linearGradient3852">
      <stop
         id="stop3854"
         offset="0"
         style="stop-color:#467b3c;stop-opacity:1;" />
      <stop
         id="stop3856"
         offset="1"
         style="stop-color:#3d9f3d;stop-opacity:0.99215686;" />
    </linearGradient>
    <linearGradient
       id="linearGradient3799">
      <stop
         id="stop3801"
         offset="0"
         style="stop-color:#aae1be;stop-opacity:1;" />
      <stop
         id="stop3803"
         offset="1"
         style="stop-color:#4bc82b;stop-opacity:1;" />
    </linearGradient>
    <linearGradient
       id="linearGradient3777">
      <stop
         id="stop3779"
         offset="0"
         style="stop-color:#0000ad;stop-opacity:1;" />
      <stop
         id="stop3781"
         offset="1"
         style="stop-color:#25d4ce;stop-opacity:1;" />
    </linearGradient>
    <linearGradient
       id="linearGradient3756">
      <stop
         style="stop-color:#519aed;stop-opacity:1;"
         offset="0"
         id="stop3758" />
      <stop
         style="stop-color:#e9dddd;stop-opacity:0;"
         offset="1"
         id="stop3760" />
    </linearGradient>
    <linearGradient
       id="linearGradient3728">
      <stop
         id="stop3730"
         offset="0"
         style="stop-color:#f1f3fb;stop-opacity:1;" />
      <stop
         id="stop3732"
         offset="1"
         style="stop-color:#273df9;stop-opacity:0;" />
    </linearGradient>
    <linearGradient
       gradientTransform="matrix(1.0279887,0,0,1.0323478,7.1553463,-2.2096664)"
       gradientUnits="userSpaceOnUse"
       y2="16.374115"
       x2="28.440672"
       y1="16.374115"
       x1="1.4276053"
       id="linearGradient3783"
       xlink:href="#linearGradient3777"
       inkscape:collect="always" />
    <linearGradient
       gradientTransform="matrix(1.1006907,0,0,1.0370581,-1.1739438,-0.04592383)"
       gradientUnits="userSpaceOnUse"
       y2="28.320002"
       x2="16.766666"
       y1="20.106667"
       x1="4.3920174"
       id="linearGradient3857"
       xlink:href="#linearGradient3851"
       inkscape:collect="always" />
    <linearGradient
       inkscape:collect="always"
       xlink:href="#linearGradient3851-1"
       id="linearGradient5028"
       gradientUnits="userSpaceOnUse"
       gradientTransform="matrix(1.7717798,0,0,1.9166829,-1.75708,-28.310245)"
       x1="4.3920174"
       y1="20.106667"
       x2="14.933549"
       y2="27.622316" />
    <linearGradient
       id="linearGradient3851-1">
      <stop
         id="stop3853-7"
         offset="0"
         style="stop-color:#ffffff;stop-opacity:1;" />
      <stop
         id="stop3855-4"
         offset="1"
         style="stop-color:#c0c1c2;stop-opacity:1;" />
    </linearGradient>
    <linearGradient
       inkscape:collect="always"
       xlink:href="#linearGradient3851-1"
       id="linearGradient3953"
       gradientUnits="userSpaceOnUse"
       gradientTransform="matrix(0.66953084,0,0,0.81412173,-0.42607296,6.1804433)"
       x1="8.4925022"
       y1="22.261148"
       x2="14.933549"
       y2="27.622316" />
  </defs>
  <sodipodi:namedview
     inkscape:document-rotation="0"
     inkscape:window-maximized="1"
     inkscape:window-y="25"
     inkscape:window-x="0"
     inkscape:window-height="1094"
     inkscape:window-width="1920"
     inkscape:snap-grids="false"
     showgrid="true"
     inkscape:current-layer="svg2"
     inkscape:document-units="px"
     inkscape:cy="19.701541"
     inkscape:cx="10.906667"
     inkscape:zoom="18.75"
     inkscape:pageshadow="2"
     inkscape:pageopacity="0.0"
     borderopacity="1.0"
     bordercolor="#666666"
     pagecolor="#ffffff"
     id="base">
    <inkscape:grid
       spacingy="1"
       spacingx="1"
       originy="0"
       originx="0"
       snapvisiblegridlinesonly="true"
       enabled="true"
       visible="true"
       empspacing="5"
       id="grid2816"
       type="xygrid" />
  </sodipodi:namedview>
  <metadata
     id="metadata7">
    <rdf:RDF>
      <cc:Work
         rdf:about="">
        <dc:format>image/svg+xml</dc:format>
        <dc:type
           rdf:resource="http://purl.org/dc/dcmitype/StillImage" />
        <dc:title />
        <cc:license
           rdf:resource="Apache License 2.0" />
        <dc:creator>
          <cc:Agent>
            <dc:title />
          </cc:Agent>
        </dc:creator>
        <dc:publisher>
          <cc:Agent>
            <dc:title>ECMWF</dc:title>
          </cc:Agent>
        </dc:publisher>
        <dc:language>en-GB</dc:language>
        <dc:subject>
          <rdf:Bag>
            <rdf:li>Metview icon</rdf:li>
          </rdf:Bag>
        </dc:subject>
        <dc:description>Metview icon</dc:description>
      </cc:Work>
    </rdf:RDF>
  </metadata>
  <path
     sodipodi:nodetypes="cc"
     style="fill:#f9f9f9;stroke:#f9f9f9;stroke-width:2.9;stroke-linecap:round;stroke-linejoin:miter;stroke-miterlimit:4;stroke-dasharray:none;stroke-opacity:1"
     d="M 16.163772,15.718198 23.680185,8.2883418"
     id="path4514"
     inkscape:connector-curvature="0" />
  <path
     style="fill:#f9f9f9;stroke:none;stroke-width:2.9;stroke-miterlimit:4;stroke-dasharray:none"
     d="M 18.117038,3.8989714 28.206155,14.125408 30.268932,1.3891088 Z"
     id="path4516"
     inkscape:connector-curvature="0"
     sodipodi:nodetypes="cccc" />
  <ellipse
     ry="6.9333334"
     rx="7.0933332"
     cy="17.333334"
     cx="1.2266667"
     id="path2849"
     style="opacity:0;fill:#008080;fill-opacity:1;fill-rule:evenodd;stroke:none" />
  <g
     inkscape:label="circle"
     id="layer1"
     inkscape:groupmode="layer">
    <rect
       y="-2.6666667"
       x="-48.799999"
       height="13.28"
       width="10.133333"
       id="rect2858"
       style="opacity:0;fill:#aa0000;fill-opacity:1;fill-rule:evenodd;stroke:none" />
    <rect
       y="0.10666667"
       x="-49.813332"
       height="10.133333"
       width="11.893333"
       id="rect2860"
       style="opacity:0;fill:#aa0000;fill-opacity:1;fill-rule:evenodd;stroke:none" />
  </g>
  <path
     sodipodi:nodetypes="ccccc"
     inkscape:connector-curvature="0"
     id="path4188"
     d="M 25.329669,16.369684 25.226599,27.839975 2.1866106,27.739335 2.2399436,4.2087871 15.310325,4.2132971"
     style="fill:none;fill-rule:evenodd;stroke:#f9f9f9;stroke-width:2;stroke-linecap:round;stroke-linejoin:round;stroke-miterlimit:4;stroke-dasharray:none;stroke-opacity:1" />
</svg>
