<?xml version="1.0" encoding="UTF-8" standalone="no"?>
<!-- Created with Inkscape (http://www.inkscape.org/) -->

<svg
   xmlns:dc="http://purl.org/dc/elements/1.1/"
   xmlns:cc="http://creativecommons.org/ns#"
   xmlns:rdf="http://www.w3.org/1999/02/22-rdf-syntax-ns#"
   xmlns:svg="http://www.w3.org/2000/svg"
   xmlns="http://www.w3.org/2000/svg"
   xmlns:xlink="http://www.w3.org/1999/xlink"
   xmlns:sodipodi="http://sodipodi.sourceforge.net/DTD/sodipodi-0.dtd"
   xmlns:inkscape="http://www.inkscape.org/namespaces/inkscape"
   width="32"
   height="32"
   id="svg2"
   version="1.1"
   inkscape:version="0.91 r13725"
   sodipodi:docname="FLEXPART_RELEASE.svg"
   style="display:inline"
   inkscape:export-xdpi="360"
   inkscape:export-ydpi="360">
  <defs
     id="defs4">
    <linearGradient
       inkscape:collect="always"
       id="linearGradient6102">
      <stop
         style="stop-color:#ff7676;stop-opacity:1"
         offset="0"
         id="stop6104" />
      <stop
         style="stop-color:#ff5555;stop-opacity:1"
         offset="1"
         id="stop6106" />
    </linearGradient>
    <linearGradient
       inkscape:collect="always"
       xlink:href="#linearGradient6102"
       id="linearGradient6108"
       x1="24.388332"
       y1="43.073925"
       x2="25.299732"
       y2="60.768509"
       gradientUnits="userSpaceOnUse"
       gradientTransform="matrix(0.89621958,0,0,0.9165426,1.94896,3.7440618)" />
    <filter
       inkscape:collect="always"
       style="color-interpolation-filters:sRGB"
       id="filter4370"
       x="-0.045427033"
       width="1.0908541"
       y="-0.028202428"
       height="1.0564049">
      <feGaussianBlur
         inkscape:collect="always"
         stdDeviation="0.23804566"
         id="feGaussianBlur4372" />
    </filter>
  </defs>
  <sodipodi:namedview
     id="base"
     pagecolor="#ffffff"
     bordercolor="#666666"
     borderopacity="1.0"
     inkscape:pageopacity="0.0"
     inkscape:pageshadow="2"
     inkscape:zoom="25.375"
     inkscape:cx="10.878069"
     inkscape:cy="15.95118"
     inkscape:document-units="px"
     inkscape:current-layer="layer3"
     showgrid="true"
     width="64px"
     inkscape:snap-grids="false"
     inkscape:window-width="1920"
     inkscape:window-height="1144"
     inkscape:window-x="0"
     inkscape:window-y="0"
     inkscape:window-maximized="1"
     inkscape:snap-to-guides="false"
     showguides="true">
    <inkscape:grid
       type="xygrid"
       id="grid2816"
       empspacing="5"
       visible="true"
       enabled="true"
       snapvisiblegridlinesonly="true" />
  </sodipodi:namedview>
  <metadata
     id="metadata7">
    <rdf:RDF>
      <cc:Work
         rdf:about="">
        <dc:format>image/svg+xml</dc:format>
        <dc:type
           rdf:resource="http://purl.org/dc/dcmitype/StillImage" />
        <dc:title />
        <cc:license
           rdf:resource="Apache License 2.0" />
        <dc:creator>
          <cc:Agent>
            <dc:title />
          </cc:Agent>
        </dc:creator>
        <dc:publisher>
          <cc:Agent>
            <dc:title>ECMWF</dc:title>
          </cc:Agent>
        </dc:publisher>
        <dc:language>en-GB</dc:language>
        <dc:subject>
          <rdf:Bag>
            <rdf:li>Metview icon</rdf:li>
          </rdf:Bag>
        </dc:subject>
        <dc:description>Metview icon</dc:description>
      </cc:Work>
    </rdf:RDF>
  </metadata>
  <g
     inkscape:groupmode="layer"
     id="layer6"
     inkscape:label="item"
     transform="translate(0,-32)"
     style="display:inline">
    <path
       sodipodi:nodetypes="ssccsccccc"
       inkscape:connector-curvature="0"
       id="path4318"
       d="m 24.348451,41.260526 c -3.451546,-0.01594 -6.415682,3.06948 -6.423168,6.646223 -0.0043,2.030213 6.383275,13.611177 6.383275,13.611177 2.786459,-4.552028 6.153549,-11.575609 6.193146,-13.541011 -0.0044,-3.609651 -2.701707,-6.700442 -6.153253,-6.716389 z m -0.0081,3.500475 c 1.458785,4.73e-4 2.640927,1.136656 2.640298,2.537649 -4.92e-4,1.400233 -1.182305,2.535229 -2.640298,2.535699 -1.458784,6.05e-4 -2.641836,-1.134705 -2.642327,-2.535699 -6.3e-4,-1.401754 1.18275,-2.538253 2.642327,-2.537649 z"
       style="fill:#241f1c;fill-opacity:1;fill-rule:evenodd;stroke:none;stroke-width:1px;stroke-linecap:butt;stroke-linejoin:round;stroke-opacity:1;filter:url(#filter4370)"
       transform="matrix(0.92430307,0,0,0.94863735,2.0890446,3.4862667)" />
    <path
       style="fill:url(#linearGradient6108);fill-opacity:1;fill-rule:evenodd;stroke:none;stroke-width:1px;stroke-linecap:butt;stroke-linejoin:round;stroke-opacity:1"
       d="m 24.339413,42.066772 c -3.190275,-0.01512 -5.930035,2.911823 -5.936954,6.304855 -0.004,1.925936 5.900081,12.912071 5.900081,12.912071 2.575532,-4.318223 5.687744,-10.981055 5.724343,-12.845508 -0.0041,-3.42425 -2.497196,-6.35629 -5.68747,-6.371418 z m -0.0075,3.320681 c 1.348359,4.49e-4 2.441017,1.078275 2.440435,2.407309 -4.54e-4,1.328313 -1.092808,2.405013 -2.440435,2.405459 -1.348359,5.74e-4 -2.441857,-1.076424 -2.442311,-2.405459 -5.82e-4,-1.329756 1.093219,-2.407882 2.442311,-2.407309 z"
       id="path6090"
       inkscape:connector-curvature="0"
       sodipodi:nodetypes="ssccsccccc" />
  </g>
  <g
     inkscape:groupmode="layer"
     id="layer3"
     inkscape:label="tower"
     style="display:inline">
    <path
       style="fill:#afc6e9;fill-opacity:1;stroke:#a0bbe4;stroke-width:0.25;stroke-linecap:round;stroke-linejoin:round;stroke-miterlimit:4;stroke-dasharray:none;stroke-opacity:1"
       d="M 22.02895,0.2899765 A 2.1920424,1.9555893 0 0 0 20.376607,0.96575776 2.1920424,1.9555893 0 0 0 19.112935,0.60638286 2.1920424,1.9555893 0 0 0 17.759419,1.0243515 1.7339902,1.5566503 0 0 0 17.37856,0.98528846 1.7339902,1.5566503 0 0 0 16.9352,1.0380225 1.3641547,1.285337 0 0 0 15.880513,0.56731946 1.3641547,1.285337 0 0 0 14.800435,1.0712256 1.7339902,1.5566503 0 0 0 14.02895,0.90716306 1.7339902,1.5566503 0 0 0 13.97622,0.90911306 1.7339902,1.5566503 0 0 0 12.728173,0.4345037 1.7339902,1.5566503 0 0 0 11.398094,0.99309736 1.4524493,1.4721538 0 0 0 10.581689,0.73528496 1.4524493,1.4721538 0 0 0 9.128564,2.2079412 a 1.4524493,1.4721538 0 0 0 0.00977,0.1464843 1.1512184,1.0921052 0 0 1 -0.00195,0 A 1.1512184,1.0921052 0 0 0 8.1773997,1.8641912 1.1512184,1.0921052 0 0 0 7.2242747,2.3427068 1.1512184,1.0921052 0 0 0 6.245759,1.8251287 1.1512184,1.0921052 0 0 0 5.0953684,2.9169255 1.1512184,1.0921052 0 0 0 5.1207594,3.1454412 1.1512184,1.0921052 0 0 0 4.7477126,3.0848942 1.1512184,1.0921052 0 0 0 3.6188063,3.9735661 0.76847291,0.82758623 0 0 0 3.0543532,3.7040348 0.76847291,0.82758623 0 0 0 2.284822,4.5321598 0.76847291,0.82758623 0 0 0 2.8082594,5.315363 0.76847291,0.82758623 0 0 0 2.6402907,5.8329411 a 0.76847291,0.82758623 0 0 0 0.7675781,0.828125 0.76847291,0.82758623 0 0 0 0.7695313,-0.828125 0.76847291,0.82758623 0 0 0 -0.00586,-0.1015625 0.65024632,0.61083746 0 0 0 0.4648437,-0.4667969 1.1512184,1.0921052 0 0 0 0.1113282,0.00586 1.1512184,1.0921052 0 0 0 0.875,-0.3828125 1.2732109,1.1746887 0 0 0 1.1542968,0.6816406 1.2732109,1.1746887 0 0 0 1.2480469,-0.9414062 1.4524493,1.4721538 0 0 0 1.2148438,0.6679687 1.4524493,1.4721538 0 0 0 1.4433595,-1.3144531 1.56277,1.4642478 0 0 1 0.002,0.00195 1.56277,1.4642478 0 0 0 1.314452,0.6738281 1.56277,1.4642478 0 0 0 1.365235,-0.7558594 1.7339902,1.5566503 0 0 0 0.664062,0.1191407 1.7339902,1.5566503 0 0 0 0.103516,-0.00391 1.9310344,1.773399 0 0 0 1.90625,1.5 1.9310344,1.773399 0 0 0 1.5,-0.65625 A 2.1920424,1.9555893 0 0 0 19.70479,6.5262942 2.1920424,1.9555893 0 0 0 21.404008,5.803638 2.1920424,1.9555893 0 0 0 22.739946,6.2118411 2.1920424,1.9555893 0 0 0 24.755571,5.0204349 2.4688821,2.232429 0 0 0 25.63643,5.1688724 2.4688821,2.232429 0 0 0 28.10518,2.9364505 2.4688821,2.232429 0 0 0 25.63643,0.70402866 2.4688821,2.232429 0 0 0 23.950883,1.3075442 2.1920424,1.9555893 0 0 0 22.029008,0.2899661 Z"
       id="path4251"
       inkscape:connector-curvature="0" />
    <path
       style="display:inline;fill:#dae3ef;fill-opacity:1;fill-rule:evenodd;stroke:none;stroke-width:1px;stroke-linecap:butt;stroke-linejoin:miter;stroke-opacity:1"
       d="m -1.0246307,32.050103 c 0,0 3.328363,-2.870414 4.532047,-4.677013 1.088614,-1.633891 2.3250959,-5.411657 2.3250959,-5.411657 l 0,-4.926109 5.9507378,0 0.03941,4.965518 c 0,0 1.10907,3.595456 2.106536,5.164389 1.169582,1.839658 4.435336,4.806054 4.435336,4.806054 z"
       id="path4215-2"
       inkscape:connector-curvature="0"
       sodipodi:nodetypes="caccccacc" />
    <rect
       y="16.53286"
       x="5.5225234"
       height="0.98522168"
       width="6.5024638"
       id="rect4226-5"
       style="display:inline;fill:#c0cfe3;fill-opacity:1;stroke:none;stroke-width:0.207;stroke-linecap:round;stroke-linejoin:round;stroke-miterlimit:4;stroke-dasharray:none;stroke-opacity:1" />
    <rect
       style="display:inline;fill:#c0cfe3;fill-opacity:1;stroke:none;stroke-width:0.207;stroke-linecap:round;stroke-linejoin:round;stroke-miterlimit:4;stroke-dasharray:none;stroke-opacity:1"
       id="rect4228-7"
       width="6.5024638"
       height="0.98522168"
       x="5.5225234"
       y="18.739758" />
    <rect
       y="21.104288"
       x="5.5225234"
       height="0.98522168"
       width="6.5024638"
       id="rect4230-6"
       style="display:inline;fill:#c0cfe3;fill-opacity:1;stroke:none;stroke-width:0.207;stroke-linecap:round;stroke-linejoin:round;stroke-miterlimit:4;stroke-dasharray:none;stroke-opacity:1" />
  </g>
  <g
     inkscape:groupmode="layer"
     id="layer1"
     inkscape:label="chimney"
     style="display:inline">
    <path
       style="display:inline;fill:#aebbd4;fill-opacity:1;stroke:none;stroke-width:0.207;stroke-linecap:round;stroke-linejoin:round;stroke-miterlimit:4;stroke-dasharray:none;stroke-opacity:1"
       d="M 2.3210056,7.1631486 0.94462007,32.032983 5.6977379,32.072392 4.3210056,7.2017766 Z"
       id="rect4273"
       inkscape:connector-curvature="0"
       sodipodi:nodetypes="ccccc" />
    <path
       style="display:inline;fill:#778cb5;fill-opacity:1;stroke:none;stroke-width:0.207;stroke-linecap:round;stroke-linejoin:round;stroke-miterlimit:4;stroke-dasharray:none;stroke-opacity:1"
       d="M 3.4635836,7.2022116 3.7471335,32.03229 5.701644,32.071699 4.3105479,7.200242 Z"
       id="path4308"
       inkscape:connector-curvature="0"
       sodipodi:nodetypes="ccccc" />
    <rect
       style="display:inline;fill:#485e8c;fill-opacity:1;stroke:none;stroke-width:0.207;stroke-linecap:round;stroke-linejoin:round;stroke-miterlimit:4;stroke-dasharray:none;stroke-opacity:1"
       id="rect4276"
       width="2.4433508"
       height="0.98522168"
       x="2.0939534"
       y="8.916255" />
    <rect
       y="12.502463"
       x="1.9363188"
       height="0.98522168"
       width="2.8374395"
       id="rect4278"
       style="display:inline;fill:#485e8c;fill-opacity:1;stroke:none;stroke-width:0.207;stroke-linecap:round;stroke-linejoin:round;stroke-miterlimit:4;stroke-dasharray:none;stroke-opacity:1" />
    <rect
       style="display:inline;fill:#485e8c;fill-opacity:1;stroke:none;stroke-width:0.207;stroke-linecap:round;stroke-linejoin:round;stroke-miterlimit:4;stroke-dasharray:none;stroke-opacity:1"
       id="rect4280"
       width="3.3103459"
       height="0.98522168"
       x="1.660457"
       y="16.837437" />
  </g>
</svg>
