/* XPM */
static char * XSECT_icon[] = {
/* width height ncolors chars_per_pixel */
"32 32 6 1",
/* colors */
" 	c white",
".	c #777777",
"X	c #CCCCFF",
"o	c black",
"O	c #00007F7FFFFF",
"+	c #D9D9B7B77777",
/* pixels */
"                                ",
"                                ",
"                                ",
"                                ",
"                                ",
"                                ",
"                                ",
"         ..............         ",
"     ....XXXXXXXXXXXXXX....     ",
"  ...XXXXXXXXXXXXXXXXXXXXXX...  ",
" .XXXXXXXXXXXXXXXXXXXXXXXXXXXX. ",
".XXXXXXXXXXXXXXXXXXXXXXXXXXXXXX.",
"XXXXXXXXX..............XXXXXXXXX",
"XXXXX....XXXXXXXXXXXXXX....XXXXX",
"XX...XXXXXXXXXXXXXXXXXXXXXX...XX",
"X.XXXXXXXXXXXXXXXXXXXXXXXXXXXX.X",
".XXXXXXXXXXXXXXXXXXXXXXXXXXXXXX.",
"XXXXXXXXX..............XXXXXXXXX",
"XXXXX....XXXXXXXXXXXXXX....XXXXX",
"XX...XXXXXXXXXXXXXXXXXXXXXX...XX",
"X.XXXXXXXXXXXXXXXXXXXXXXXXXXXX.X",
".XXXXXXXXXXXXXXXXXXXXXXXXXXXXXX.",
"XXXXXXXXX..............XXXXXXXXX",
"XXXXX....XXXXXXXXXXXXXX....XXXXX",
"XX...XXXXXXXXXXXXXXXXXXXXXX...XX",
"X.XXXXXXXXXXXXXXXXXXXXXXXXXXXX.X",
".XXXXXXXXXXXXXXXXXXXXXXXXXXXXXX.",
"XXXXXXXXXooooooooooooooXXXXXXXXX",
"XXXXXooooOOOOOO++++++++oooooXXXX",
"XXoooOOOOOOOOO+++++++++++++oooXX",
"XoOOOOOOOOOO++++++++++++++++++oX",
"oOOOOOOOOOO++++++++++++++++++++o"};
