/* XPM */
static char * XSECTVIEW_xpm[] = {
"32 32 9 1",
" 	c None",
".	c #989898",
"+	c #FFFFFF",
"@	c #BEBEBE",
"#	c #BABABA",
"$	c #E9E9FB",
"%	c #7F7F7F",
"&	c #92BEEC",
"*	c #E4D8C2",
"................................",
".++++++++++++++++++++++++++++++.",
".+@@@@@@@@@@@@@@@@@@@@@@@@@@@@+.",
".+@++++++++++++++++++++++++++@+.",
".+@++++++++++++++++++++++++++@+.",
".+@++++++++++++++++++++++++++@+.",
".+@++++++##############++++++@+.",
".+@++####$$$$$$$$$$$$$$####++@+.",
".+@##$$$$$$$$$$$$$$$$$$$$$$##@+.",
".+@$$$$$$$$$$$$$$$$$$$$$$$$$$@+.",
".+@$$$$$$$$$$$$$$$$$$$$$$$$$$@+.",
".+@$$$$$$##############$$$$$$@+.",
".+@$$####$$$$$$$$$$$$$$####$$@+.",
".+@##$$$$$$$$$$$$$$$$$$$$$$##@+.",
".+@$$$$$$$$$$$$$$$$$$$$$$$$$$@+.",
".+@$$$$$$$$$$$$$$$$$$$$$$$$$$@+.",
".+@$$$$$$##############$$$$$$@+.",
".+@$$####$$$$$$$$$$$$$$####$$@+.",
".+@##$$$$$$$$$$$$$$$$$$$$$$##@+.",
".+@$$$$$$$$$$$$$$$$$$$$$$$$$$@+.",
".+@$$$$$$$$$$$$$$$$$$$$$$$$$$@+.",
".+@$$$$$$##############$$$$$$@+.",
".+@$$####$$$$$$$$$$$$$$####$$@+.",
".+@##$$$$$$$$$$$$$$$$$$$$$$##@+.",
".+@$$$$$$$$$$$$$$$$$$$$$$$$$$@+.",
".+@$$$$$$$$$$$$$$$$$$$$$$$$$$@+.",
".+@$$$$$$%%%%%%%%%%%%%%$$$$$$@+.",
".+@$$%%%%&&&&&&********%%%%%$@+.",
".+@%%&&&&&&&&&*************%%@+.",
".+@@@@@@@@@@@@@@@@@@@@@@@@@@@@+.",
".++++++++++++++++++++++++++++++.",
"................................"};
