<?xml version="1.0" encoding="UTF-8" standalone="no"?>
<!-- Created with Inkscape (http://www.inkscape.org/) -->

<svg
   xmlns:dc="http://purl.org/dc/elements/1.1/"
   xmlns:cc="http://creativecommons.org/ns#"
   xmlns:rdf="http://www.w3.org/1999/02/22-rdf-syntax-ns#"
   xmlns:svg="http://www.w3.org/2000/svg"
   xmlns="http://www.w3.org/2000/svg"
   xmlns:xlink="http://www.w3.org/1999/xlink"
   xmlns:sodipodi="http://sodipodi.sourceforge.net/DTD/sodipodi-0.dtd"
   xmlns:inkscape="http://www.inkscape.org/namespaces/inkscape"
   inkscape:export-ydpi="90"
   inkscape:export-xdpi="90"
   width="32"
   height="32"
   id="svg11300"
   sodipodi:version="0.32"
   inkscape:version="0.47 r22583"
   sodipodi:docname="ODB_MARS.svg"
   inkscape:output_extension="org.inkscape.output.svg.inkscape"
   version="1.0">
  <sodipodi:namedview
     stroke="#3465a4"
     fill="#729fcf"
     id="base"
     pagecolor="#ffffff"
     bordercolor="#666666"
     borderopacity="0.25490196"
     inkscape:pageopacity="0.0"
     inkscape:pageshadow="2"
     inkscape:zoom="21.8125"
     inkscape:cx="22.627364"
     inkscape:cy="9.4989325"
     inkscape:current-layer="layer3"
     showgrid="true"
     inkscape:grid-bbox="false"
     inkscape:document-units="px"
     inkscape:showpageshadow="false"
     inkscape:window-width="1467"
     inkscape:window-height="956"
     inkscape:window-x="2320"
     inkscape:window-y="355"
     gridtolerance="50"
     inkscape:grid-points="false"
     showguides="true"
     inkscape:guide-bbox="true"
     objecttolerance="0.4"
     inkscape:object-paths="true"
     width="32px"
     height="32px"
     inkscape:window-maximized="0">
    <sodipodi:guide
       orientation="horizontal"
       position="50.977307"
       id="guide9112" />
    <inkscape:grid
       type="xygrid"
       id="grid2855" />
  </sodipodi:namedview>
  <metadata
     id="metadata7">
    <rdf:RDF>
      <cc:Work
         rdf:about="">
        <dc:format>image/svg+xml</dc:format>
        <dc:type
           rdf:resource="http://purl.org/dc/dcmitype/StillImage" />
        <dc:title />
        <cc:license
           rdf:resource="Apache License 2.0" />
        <dc:creator>
          <cc:Agent>
            <dc:title />
          </cc:Agent>
        </dc:creator>
        <dc:publisher>
          <cc:Agent>
            <dc:title>ECMWF</dc:title>
          </cc:Agent>
        </dc:publisher>
        <dc:language>en-GB</dc:language>
        <dc:subject>
          <rdf:Bag>
            <rdf:li>Metview icon</rdf:li>
          </rdf:Bag>
        </dc:subject>
        <dc:description>Metview icon</dc:description>
      </cc:Work>
    </rdf:RDF>
  </metadata>
  <defs
     id="defs3">
    <linearGradient
       id="linearGradient3272">
      <stop
         style="stop-color:#668e93;stop-opacity:1;"
         offset="0"
         id="stop3274" />
      <stop
         id="stop2215"
         offset="0.322"
         style="stop-color:#d1e8e9;stop-opacity:1;" />
      <stop
         id="stop2205"
         offset="0.69999999"
         style="stop-color:#9fc2c2;stop-opacity:1;" />
      <stop
         style="stop-color:#718b98;stop-opacity:1;"
         offset="0.829"
         id="stop2209" />
      <stop
         style="stop-color:#e6c3b4;stop-opacity:1;"
         offset="0.958"
         id="stop2207" />
      <stop
         style="stop-color:#dff0ef;stop-opacity:1;"
         offset="1"
         id="stop3276" />
    </linearGradient>
    <linearGradient
       id="linearGradient2933">
      <stop
         offset="0"
         style="stop-color:#9baec2;stop-opacity:1;"
         id="stop2935" />
      <stop
         id="stop3204"
         style="stop-color:#c0dbdf;stop-opacity:1;"
         offset="0.5" />
      <stop
         offset="1"
         style="stop-color:#e4e4e4;stop-opacity:1;"
         id="stop2937" />
    </linearGradient>
    <linearGradient
       inkscape:collect="always"
       xlink:href="#linearGradient3272"
       id="linearGradient11159"
       gradientUnits="userSpaceOnUse"
       gradientTransform="matrix(0.5745766,0,0,0.2959681,-4.6727466,16.004791)"
       x1="6.3181248"
       y1="23.55978"
       x2="42.042122"
       y2="24.921354" />
    <linearGradient
       inkscape:collect="always"
       xlink:href="#linearGradient3272"
       id="linearGradient2217"
       gradientUnits="userSpaceOnUse"
       gradientTransform="matrix(0.5745744,0,0,0.2960414,-4.6726883,20.162642)"
       x1="6.3181248"
       y1="23.55978"
       x2="42.042122"
       y2="24.921354" />
    <linearGradient
       inkscape:collect="always"
       xlink:href="#linearGradient2933"
       id="linearGradient3202"
       x1="-6.2987657"
       y1="4.4701581"
       x2="15.431515"
       y2="7.5"
       gradientUnits="userSpaceOnUse" />
    <linearGradient
       inkscape:collect="always"
       xlink:href="#linearGradient3272"
       id="linearGradient3220"
       gradientUnits="userSpaceOnUse"
       gradientTransform="matrix(0.5745744,0,0,0.2960414,-4.6717074,12.178326)"
       x1="6.3181248"
       y1="23.55978"
       x2="42.042122"
       y2="24.921354" />
  </defs>
  <g
     inkscape:groupmode="layer"
     id="layer3"
     inkscape:label="tape line">
    <rect
       style="fill:#871e28;fill-opacity:1;fill-rule:evenodd;stroke:none"
       id="rect2860"
       width="12"
       height="2"
       x="19"
       y="28" />
  </g>
  <g
     inkscape:groupmode="layer"
     id="layer1"
     inkscape:label="disk"
     style="display:inline"
     sodipodi:insensitive="true">
    <path
       sodipodi:type="arc"
       style="fill:#ffffff;fill-opacity:1;fill-rule:evenodd;stroke:#1c1f2b;stroke-width:1;stroke-linecap:butt;stroke-linejoin:miter;stroke-miterlimit:4;stroke-opacity:1;stroke-dasharray:none;display:inline"
       id="path4193"
       sodipodi:cx="17.300776"
       sodipodi:cy="16.889763"
       sodipodi:rx="11.62326"
       sodipodi:ry="11.355031"
       d="m 28.924035,16.889763 a 11.62326,11.355031 0 1 1 -23.246519,0 11.62326,11.355031 0 1 1 23.246519,0 z"
       transform="matrix(1.2058462,0,0,1.2343309,-4.916942,-4.8733784)" />
    <path
       transform="matrix(1.1379358,0,0,1.1648162,-3.719687,-3.5875314)"
       d="m 28.924035,16.889763 a 11.62326,11.355031 0 1 1 -23.246519,0 11.62326,11.355031 0 1 1 23.246519,0 z"
       sodipodi:ry="11.355031"
       sodipodi:rx="11.62326"
       sodipodi:cy="16.889763"
       sodipodi:cx="17.300776"
       id="path4203"
       style="fill:#ffffff;fill-opacity:1;fill-rule:evenodd;stroke:#b9bdc7;stroke-width:0.64642984;stroke-linecap:butt;stroke-linejoin:miter;stroke-miterlimit:4;stroke-opacity:1;stroke-dasharray:none;display:inline"
       sodipodi:type="arc" />
  </g>
  <g
     inkscape:groupmode="layer"
     id="layer2"
     inkscape:label="center"
     style="display:inline"
     sodipodi:insensitive="true">
    <path
       sodipodi:type="arc"
       style="fill:#ffffff;fill-opacity:1;fill-rule:evenodd;stroke:#1329cb;stroke-width:1.62834227;stroke-linecap:butt;stroke-linejoin:miter;stroke-miterlimit:4;stroke-opacity:1;stroke-dasharray:none;display:inline"
       id="path4195"
       sodipodi:cx="17.725471"
       sodipodi:cy="17.448572"
       sodipodi:rx="6.1022115"
       sodipodi:ry="6.3257356"
       d="m 23.827683,17.448572 a 6.1022115,6.3257356 0 1 1 -12.204423,0 6.1022115,6.3257356 0 1 1 12.204423,0 z"
       transform="matrix(0.9543448,0,0,0.9543448,-0.8987013,-0.7456985)" />
  </g>
  <g
     inkscape:groupmode="layer"
     id="layer4"
     inkscape:label="front"
     style="display:inline"
     sodipodi:insensitive="true">
    <path
       style="fill:url(#linearGradient11159);fill-opacity:1;fill-rule:evenodd;stroke:#5165b2;stroke-width:0.51548177;stroke-linecap:round;stroke-linejoin:miter;stroke-miterlimit:4;stroke-opacity:1;stroke-dasharray:none;display:inline"
       d="m 0.94733177,20.568019 0,3.656248 c 0.0361183,0.251847 0.20474613,0.504969 0.55662073,0.765931 0.3984149,0.29548 1.0084223,0.582327 1.7775966,0.823739 1.5383487,0.482824 3.7076208,0.794837 6.1048765,0.794837 2.3972554,0 4.5665284,-0.312013 6.1048764,-0.794837 0.769175,-0.241412 1.397137,-0.528259 1.795553,-0.823739 0.29881,-0.221606 0.471656,-0.435944 0.538665,-0.65032 l 0,-3.771859 c -0.01851,0.01433 -0.03482,0.02923 -0.05387,0.04336 -0.49562,0.367568 -1.164015,0.679147 -1.993063,0.939351 -1.658095,0.520408 -3.915285,0.838191 -6.3921654,0.838191 -2.4768813,0 -4.7161141,-0.317783 -6.3742081,-0.838191 C 2.1831646,21.290526 1.4968126,20.978947 1.0011939,20.611379 0.9821446,20.597249 0.9658325,20.582359 0.9473278,20.568019 z"
       id="path11155" />
    <path
       style="fill:url(#linearGradient2217);fill-opacity:1;fill-rule:evenodd;stroke:#5165b2;stroke-width:0.51553631;stroke-linecap:round;stroke-linejoin:miter;stroke-miterlimit:4;stroke-opacity:1;stroke-dasharray:none;display:inline"
       d="m 0.94736627,24.726997 0,3.657152 c 0.0361183,0.251912 0.20474603,0.505094 0.55661883,0.766121 0.3984129,0.295551 1.008417,0.582471 1.7775895,0.823944 1.5383425,0.482943 3.7076042,0.795032 6.104851,0.795032 2.3972464,0 4.5665094,-0.312089 6.1048514,-0.795032 0.769172,-0.241473 1.39713,-0.528393 1.795544,-0.823944 0.29881,-0.221665 0.471655,-0.436049 0.538662,-0.650481 l 0,-3.772792 c -0.0185,0.01433 -0.03481,0.02924 -0.05386,0.04337 -0.495619,0.367658 -1.164009,0.679315 -1.993056,0.939584 -1.658089,0.520534 -3.915267,0.838398 -6.3921384,0.838398 -2.4768722,0 -4.7160939,-0.317864 -6.3741828,-0.838398 C 2.1832012,25.449682 1.4968532,25.138025 1.0012364,24.770367 0.9821862,24.756237 0.9658741,24.741337 0.9473693,24.726997 z"
       id="path2215" />
    <path
       sodipodi:type="arc"
       style="fill:url(#linearGradient3202);fill-opacity:1;fill-rule:evenodd;stroke:#5165b2;stroke-width:0.86303061;stroke-linecap:butt;stroke-linejoin:miter;stroke-miterlimit:4;stroke-opacity:1;stroke-dasharray:none"
       id="path2219"
       sodipodi:cx="4.5"
       sodipodi:cy="7.5"
       sodipodi:rx="10.5"
       sodipodi:ry="6.5"
       d="m 15,7.5 a 10.5,6.5 0 1 1 -21,0 10.5,6.5 0 1 1 21,0 z"
       transform="matrix(0.806258,0,0,0.3574564,5.7676554,13.549591)" />
    <path
       style="fill:url(#linearGradient3220);fill-opacity:1;fill-rule:evenodd;stroke:#5165b2;stroke-width:0.51553631;stroke-linecap:round;stroke-linejoin:miter;stroke-miterlimit:4;stroke-opacity:1;stroke-dasharray:none;display:inline"
       d="m 0.94834677,16.742679 0,3.657151 c 0.0361185,0.251913 0.20474603,0.505096 0.55661983,0.766123 0.3984119,0.295554 1.0084172,0.582472 1.7775886,0.823943 1.5383436,0.482944 3.7076054,0.795033 6.1048508,0.795033 2.397246,0 4.566511,-0.312089 6.104851,-0.795033 0.769173,-0.241471 1.397131,-0.52839 1.795547,-0.823943 0.298808,-0.221661 0.471653,-0.436051 0.538664,-0.65048 l 0,-3.772794 c -0.01851,0.01434 -0.03482,0.02924 -0.05387,0.04337 -0.495616,0.367659 -1.164009,0.679316 -1.993053,0.939584 -1.65809,0.520536 -3.915271,0.838399 -6.392141,0.838399 -2.4768712,0 -4.7160936,-0.317863 -6.3741817,-0.838399 C 2.1841767,17.465365 1.4978287,17.153708 1.002212,16.786049 0.9831626,16.771919 0.9668496,16.757019 0.9483448,16.742679 z"
       id="path3218" />
  </g>
</svg>
