/* XPM */
static char * ODB_MARS_xpm[] = {
"32 32 438 2",
"  	c None",
". 	c #FFFFFF",
"+ 	c #FEFEFE",
"@ 	c #D0D0D2",
"# 	c #A0A1A6",
"$ 	c #888B91",
"% 	c #72747C",
"& 	c #75767E",
"* 	c #8A8C92",
"= 	c #A2A4A8",
"- 	c #D9D9DB",
"; 	c #E3E3E4",
"> 	c #7C7D83",
", 	c #343641",
"' 	c #242733",
") 	c #636670",
"! 	c #7F828B",
"~ 	c #9B9EA5",
"{ 	c #999BA3",
"] 	c #7E8188",
"^ 	c #5E636D",
"/ 	c #212430",
"( 	c #3B3C47",
"_ 	c #86878E",
": 	c #EBECEE",
"< 	c #F0F0F1",
"[ 	c #7F8288",
"} 	c #212531",
"| 	c #767881",
"1 	c #BCBFC7",
"2 	c #CACDD5",
"3 	c #DCDEE3",
"4 	c #E5E6EA",
"5 	c #ECEDF0",
"6 	c #E4E6EA",
"7 	c #C9CCD3",
"8 	c #BABDC4",
"9 	c #696B75",
"0 	c #272A36",
"a 	c #8E9097",
"b 	c #F6F6F8",
"c 	c #D9D9DC",
"d 	c #3A3C46",
"e 	c #4E505A",
"f 	c #C1C4CB",
"g 	c #D7D9DF",
"h 	c #F9FAFA",
"i 	c #F8F9FA",
"j 	c #D4D7DD",
"k 	c #BCBFC6",
"l 	c #43454F",
"m 	c #484A53",
"n 	c #E4E5E7",
"o 	c #C3C3C7",
"p 	c #888B94",
"q 	c #C9CCD4",
"r 	c #EEEFF1",
"s 	c #ECEDEF",
"t 	c #C8CBD3",
"u 	c #7A7C84",
"v 	c #2F323D",
"w 	c #D4D5D7",
"x 	c #AEB1B8",
"y 	c #D7DADF",
"z 	c #FCFCFD",
"A 	c #FBFBFC",
"B 	c #D5D7DD",
"C 	c #A3A6AE",
"D 	c #353742",
"E 	c #E9E9EA",
"F 	c #EEEEF0",
"G 	c #393C46",
"H 	c #8C8F97",
"I 	c #D2D4DB",
"J 	c #787A82",
"K 	c #4C4D57",
"L 	c #F8F8F8",
"M 	c #7C7E86",
"N 	c #52545D",
"O 	c #FBFBFB",
"P 	c #C6C9D2",
"Q 	c #3C3E4A",
"R 	c #98999F",
"S 	c #E1E1E3",
"T 	c #20222F",
"U 	c #EFF0F2",
"V 	c #AFB7ED",
"W 	c #707DDF",
"X 	c #3B4DD4",
"Y 	c #394BD3",
"Z 	c #6E7BDF",
"` 	c #ACB3ED",
" .	c #FEFEFF",
"..	c #EBECEF",
"+.	c #B9BCC4",
"@.	c #292D37",
"#.	c #76797F",
"$.	c #80828B",
"%.	c #D9DBE1",
"&.	c #E8EAFA",
"*.	c #5666DA",
"=.	c #1329CB",
"-.	c #1C32CD",
";.	c #4B5CD7",
">.	c #4C5CD8",
",.	c #1D32CD",
"'.	c #5060D8",
").	c #E3E6F9",
"!.	c #686A74",
"~.	c #919299",
"{.	c #FDFDFD",
"].	c #2E313C",
"^.	c #BEC1C9",
"/.	c #F3F4FC",
"(.	c #2F43D1",
"_.	c #182DCC",
":.	c #919BE7",
"<.	c #FCFCFE",
"[.	c #96A0E8",
"}.	c #182ECC",
"|.	c #2B3ED1",
"1.	c #F0F2FC",
"2.	c #FAFAFB",
"3.	c #B8BBC4",
"4.	c #494D56",
"5.	c #CACCCF",
"6.	c #CFD1D8",
"7.	c #7380E0",
"8.	c #B7BEEF",
"9.	c #BEC4F1",
"0.	c #142ACB",
"a.	c #6C7ADF",
"b.	c #E6E6E8",
"c.	c #999AA0",
"d.	c #757881",
"e.	c #E3E5E9",
"f.	c #FDFDFE",
"g.	c #EDEFF7",
"h.	c #D9DEEE",
"i.	c #B6BEE3",
"j.	c #2036C6",
"k.	c #6977DA",
"l.	c #727FE0",
"m.	c #DADDF7",
"n.	c #DFE1E5",
"o.	c #555964",
"p.	c #B6B6BB",
"q.	c #82848B",
"r.	c #8189A7",
"s.	c #92A0C9",
"t.	c #95A4CD",
"u.	c #92A3CB",
"v.	c #91A4CA",
"w.	c #99AECE",
"x.	c #A4BCD2",
"y.	c #AFC8D7",
"z.	c #A2BAD3",
"A.	c #9BAFD1",
"B.	c #9BACD0",
"C.	c #9DACD1",
"D.	c #A1AED3",
"E.	c #A4AFD4",
"F.	c #DCE0EF",
"G.	c #CBD0F4",
"H.	c #AAB2EC",
"I.	c #E7E8EC",
"J.	c #797B86",
"K.	c #9EA0A5",
"L.	c #FBFBFD",
"M.	c #6878A8",
"N.	c #92A7C3",
"O.	c #A7BDCB",
"P.	c #ABC2CF",
"Q.	c #AFC7D2",
"R.	c #B4CCD5",
"S.	c #B8D1D8",
"T.	c #BCD6DC",
"U.	c #C0DBDF",
"V.	c #C4DCE0",
"W.	c #C8DDE0",
"X.	c #CCDEE1",
"Y.	c #D0DFE1",
"Z.	c #D4E0E2",
"`.	c #D7E0E2",
" +	c #B5BFD6",
".+	c #A6B0D5",
"++	c #F7F7FD",
"@+	c #162CCC",
"#+	c #7E8AE3",
"$+	c #9598A1",
"%+	c #898A8F",
"&+	c #C5CCE5",
"*+	c #7083B5",
"=+	c #A4B9C9",
"-+	c #A8BECC",
";+	c #ADC3D0",
">+	c #B1C8D3",
",+	c #B5CDD6",
"'+	c #B9D2D9",
")+	c #BDD8DD",
"!+	c #C1DBDF",
"~+	c #C5DCE0",
"{+	c #C9DDE0",
"]+	c #CDDEE1",
"^+	c #D1DFE1",
"/+	c #D5E0E2",
"(+	c #D9E1E3",
"_+	c #DAE1E2",
":+	c #7E8CC2",
"<+	c #EEF0F7",
"[+	c #F1F2FC",
"}+	c #8691E4",
"|+	c #989BA3",
"1+	c #C2CAE3",
"2+	c #6D87B1",
"3+	c #6A80B6",
"4+	c #758ABD",
"5+	c #8399C3",
"6+	c #95ACCA",
"7+	c #ADC6D4",
"8+	c #BAD4DA",
"9+	c #BED9DE",
"0+	c #C2DCDF",
"a+	c #C7DDE0",
"b+	c #CBDEE0",
"c+	c #BFCFDB",
"d+	c #A7B6D1",
"e+	c #8E9EC7",
"f+	c #7688BC",
"g+	c #6C7EB2",
"h+	c #7983B4",
"i+	c #EFF1F8",
"j+	c #C3C8F2",
"k+	c #B2B9EE",
"l+	c #E8EAED",
"m+	c #7C7E89",
"n+	c #A1A1A6",
"o+	c #81A0B3",
"p+	c #9FBEC0",
"q+	c #ABC7CC",
"r+	c #ACC5D3",
"s+	c #A8BED7",
"t+	c #93A8CE",
"u+	c #859AC7",
"v+	c #8095C4",
"w+	c #7C91C2",
"x+	c #6F87BF",
"y+	c #748DBE",
"z+	c #849EC0",
"A+	c #89A7BD",
"B+	c #84A1B1",
"C+	c #7995A1",
"D+	c #85959D",
"E+	c #8F95B5",
"F+	c #E5E8F9",
"G+	c #E1E3E7",
"H+	c #585B67",
"I+	c #B6B7BB",
"J+	c #C3CAE3",
"K+	c #82A0B4",
"L+	c #A0BFC1",
"M+	c #B0CCCE",
"N+	c #C0DADB",
"O+	c #D0E7E8",
"P+	c #CBE3E4",
"Q+	c #C5DFDF",
"R+	c #BEDADA",
"S+	c #B8D5D5",
"T+	c #B1D0D0",
"U+	c #ABCBCB",
"V+	c #A4C6C6",
"W+	c #9CBEBF",
"X+	c #8AA9AF",
"Y+	c #7995A0",
"Z+	c #88969E",
"`+	c #9095B5",
" @	c #98A2E8",
".@	c #8994E5",
"+@	c #CCCFD6",
"@@	c #2A2D39",
"#@	c #EAEAEB",
"$@	c #B3BCDC",
"%@	c #7994B6",
"&@	c #A1BFC2",
"*@	c #B1CDCF",
"=@	c #C1DBDC",
"-@	c #D1E8E9",
";@	c #CAE3E4",
">@	c #C4DEDF",
",@	c #BED9DA",
"'@	c #B7D4D5",
")@	c #B1CFD0",
"!@	c #AACBCB",
"~@	c #9BBDBE",
"{@	c #89A8AE",
"]@	c #78939E",
"^@	c #8C989E",
"/@	c #7A83B2",
"(@	c #6775D8",
"_@	c #4254D5",
":@	c #FAFBFE",
"<@	c #BABCC5",
"[@	c #4D4E58",
"}@	c #6B85B3",
"|@	c #6E85B6",
"1@	c #97B0C7",
"2@	c #B4CED8",
"3@	c #CFE6E8",
"4@	c #CAE3E3",
"5@	c #C3DEDE",
"6@	c #BDD9DA",
"7@	c #B7D4D4",
"8@	c #B0CFCF",
"9@	c #AACACA",
"0@	c #A3C5C5",
"a@	c #97B9BD",
"b@	c #809DAE",
"c@	c #6881A5",
"d@	c #6374AC",
"e@	c #6B78B1",
"f@	c #1A30CA",
"g@	c #7B87E2",
"h@	c #F8F8FD",
"i@	c #DEDFE4",
"j@	c #737780",
"k@	c #95969C",
"l@	c #81A0B4",
"m@	c #9EBDC1",
"n@	c #96AFC6",
"o@	c #91A8CA",
"p@	c #889DC9",
"q@	c #8298C7",
"r@	c #7F95C4",
"s@	c #7E95C3",
"t@	c #7F97C2",
"u@	c #7991BF",
"v@	c #758EBD",
"w@	c #728CBA",
"x@	c #738EB7",
"y@	c #758FB0",
"z@	c #718BA4",
"A@	c #858BB3",
"B@	c #C9CFF0",
"C@	c #F2F3F5",
"D@	c #BABDC6",
"E@	c #2F313D",
"F@	c #F2F2F2",
"G@	c #B0CCCF",
"H@	c #C0DADC",
"I@	c #B6D4D5",
"J@	c #79959F",
"K@	c #89969E",
"L@	c #9195B5",
"M@	c #C8CBD2",
"N@	c #41444E",
"O@	c #C1C9E3",
"P@	c #7187B7",
"Q@	c #A1C0C3",
"R@	c #B1CDD0",
"S@	c #AACACB",
"T@	c #8A969F",
"U@	c #727FB7",
"V@	c #EBEEF7",
"W@	c #DADCE1",
"X@	c #82848E",
"Y@	c #54575F",
"Z@	c #728CB4",
"`@	c #6E84B9",
" #	c #748ABD",
".#	c #879EC6",
"+#	c #A5BBD6",
"@#	c #BCD5DE",
"##	c #BDD9D9",
"$#	c #A9C9CA",
"%#	c #95B5C2",
"&#	c #7D99B9",
"*#	c #6D85B2",
"=#	c #6378B1",
"-#	c #6A7BAF",
";#	c #7B85B4",
">#	c #E0E2E6",
",#	c #ACAFB8",
"'#	c #393B46",
")#	c #EDEDED",
"!#	c #A7BCD5",
"~#	c #899FC5",
"{#	c #7D92C1",
"]#	c #798EC1",
"^#	c #778DC0",
"/#	c #798EC0",
"(#	c #7A91BF",
"_#	c #839DBF",
":#	c #F5F6F7",
"<#	c #383B46",
"[#	c #DADADD",
"}#	c #BCC0C8",
"|#	c #484C56",
"1#	c #53545E",
"2#	c #D8DDED",
"3#	c #7F99B8",
"4#	c #888FB8",
"5#	c #DFE2EA",
"6#	c #D1D4DA",
"7#	c #7F808B",
"8#	c #282631",
"9#	c #581E2A",
"0#	c #851E28",
"a#	c #871E28",
"b#	c #B4BEDB",
"c#	c #8699C4",
"d#	c #99B2C9",
"e#	c #B5CDD8",
"f#	c #97B8BD",
"g#	c #7F9DAE",
"h#	c #6D84A5",
"i#	c #717FAE",
"j#	c #8389A3",
"k#	c #70747E",
"l#	c #363A45",
"m#	c #352632",
"n#	c #531E2A",
"o#	c #811E28",
"p#	c #D3D8EB",
"q#	c #B7C1DF",
"r#	c #A1AED5",
"s#	c #9AA9D1",
"t#	c #94A5CE",
"u#	c #8EA1CA",
"v#	c #8A9FC7",
"w#	c #8B9FC7",
"x#	c #8FA1C9",
"y#	c #899AC2",
"z#	c #7E8CB3",
"A#	c #7D86A6",
"B#	c #787D91",
"C#	c #83848A",
"D#	c #B1B2B5",
"E#	c #E5E5E8",
". . . . . . . . . . . . . . . . . . . . . . . . . . . . . . . . ",
". . . . . . . . . . . + @ # $ % & * = - . . . . . . . . . . . . ",
". . . . . . . . . ; > , ' ) ! ~ { ] ^ / ( _ : . . . . . . . . . ",
". . . . . . . < [ } | 1 2 3 4 5 5 6 3 7 8 9 0 a b . . . . . . . ",
". . . . . . c d e f g h . . . . . . . . i j k l m n . . . . . . ",
". . . . . o 0 p q r . . . . . . . . . . . . s t u v w . . . . . ",
". . . . - 0 x y z . . . . . . . . . . . . . . A B C D E . . . . ",
". . . F G H g . . . . . . . . . . . . . . . . . . I J K L . . . ",
". . . M N t z . . . . . . . . . . . . . . . . . . O P Q R . . . ",
". . S T f U . . . . . . . V W X Y Z `  .. . . . . . ..+.@.F . . ",
". . #.$.%.. . . . . . &.*.=.-.;.>.,.=.'.).. . . . . . B !.~.. . ",
". {.].^.{.. . . . . /.(._.:.<.. . <.[.}.|.1.. . . . . 2.3.4.. . ",
". 5.].6.. . . . . . 7.=.8.. . . . . . 9.0.a.. . . . . . q ' b.. ",
". c.d.e.. . f.g.h.i.j.k. .. . . . . . . l.=.m.. . . . . n.o.p.. ",
". q.r.s.t.u.v.w.x.y.z.A.B.C.D.E.F.. . . G.=.H.. . . . . I.J.K.. ",
"L.M.N.O.P.Q.R.S.T.U.V.W.X.Y.Z.`. +.+. . ++@+#+. . . . . r $+%+. ",
"&+*+=+-+;+>+,+'+)+!+~+{+]+^+/+(+_+:+<+. [+0.}+. . . . . U |+$ . ",
"1+2+3+4+5+6+7+8+9+0+a+b+c+d+e+f+g+h+i+. j+=.k+. . . . . l+m+n+. ",
"1+o+p+q+r+s+t+u+v+w+x+y+z+A+B+C+D+E+i+. *._.F+. . . . . G+H+I+. ",
"J+K+L+M+N+O+P+Q+R+S+T+U+V+W+X+Y+Z+`+i+ @=..@. . . . . . +@@@#@. ",
"$@%@&@*@=@-@;@>@,@'@)@!@V+~@{@]@^@/@(@=._@:@. . . . . {.<@[@. . ",
"1+}@|@1@2@3@4@5@6@7@8@9@0@a@b@c@d@e@f@g@h@. . . . . . i@j@k@. . ",
"1+l@m@n@o@p@q@r@s@t@u@v@w@x@y@z@D+A@B@. . . . . . . C@D@E@F@. . ",
"J+K+L+G@H@-@P+>@,@I@T+U+V+W+X+J@K@L@i+. . . . . . f.M@N@K.. . . ",
"O@P@Q@R@=@-@;@>@6@'@)@S@V+~@{@]@T@U@V@. . . . . . W@X@Y@A . . . ",
"1+Z@`@ #.#+#@#5@##7@8@$#%#&#*#=#-#;#i+. . . .  .>#,#'#)#. . . . ",
"1+o+p+q+r+!#~#{#]#^#/#(#_#A+B+C+D+E+i+. . . :#2 p <#[#. . . . . ",
"J+K+L+M+N+O+P+Q+R+S+T+U+V+W+X+J@Z+`+i+. + G+}#|#1#: . . . . . . ",
"2#3#&@*@=@-@;@>@,@'@)@!@V+~@{@]@^@4#5#6#}#7#8#9#0#a#a#a#a#a#a#. ",
". b#c#d#e#3@4@5@##7@8@9@0@f#g#h#i#j#k#l#m#n#o#a#a#a#a#a#a#a#a#. ",
". . z p#q#r#s#t#u#v#w#x#y#z#A#B#C#c.D#E#. . . . . . . . . . . . ",
". . . . . . . . . f.. . . . . . . . . . . . . . . . . . . . . . "};
