<?xml version="1.0" encoding="UTF-8" standalone="no"?>
<!-- Created with Inkscape (http://www.inkscape.org/) -->

<svg
   xmlns:dc="http://purl.org/dc/elements/1.1/"
   xmlns:cc="http://creativecommons.org/ns#"
   xmlns:rdf="http://www.w3.org/1999/02/22-rdf-syntax-ns#"
   xmlns:svg="http://www.w3.org/2000/svg"
   xmlns="http://www.w3.org/2000/svg"
   xmlns:xlink="http://www.w3.org/1999/xlink"
   xmlns:sodipodi="http://sodipodi.sourceforge.net/DTD/sodipodi-0.dtd"
   xmlns:inkscape="http://www.inkscape.org/namespaces/inkscape"
   inkscape:export-ydpi="90"
   inkscape:export-xdpi="90"
   width="32"
   height="32"
   id="svg11300"
   sodipodi:version="0.32"
   inkscape:version="0.91 r13725"
   sodipodi:docname="RETRIEVE_MIR.svg"
   inkscape:output_extension="org.inkscape.output.svg.inkscape"
   version="1.0">
  <metadata
     id="metadata76">
    <rdf:RDF>
      <cc:Work
         rdf:about="">
        <dc:format>image/svg+xml</dc:format>
        <dc:type
           rdf:resource="http://purl.org/dc/dcmitype/StillImage" />
      </cc:Work>
    </rdf:RDF>
  </metadata>
  <sodipodi:namedview
     stroke="#3465a4"
     fill="#729fcf"
     id="base"
     pagecolor="#ffffff"
     bordercolor="#666666"
     borderopacity="0.25490196"
     inkscape:pageopacity="0.0"
     inkscape:pageshadow="2"
     inkscape:zoom="22.36894"
     inkscape:cx="19.609975"
     inkscape:cy="16.129685"
     inkscape:current-layer="layer3"
     showgrid="true"
     inkscape:grid-bbox="false"
     inkscape:document-units="px"
     inkscape:showpageshadow="false"
     inkscape:window-width="1524"
     inkscape:window-height="1039"
     inkscape:window-x="1907"
     inkscape:window-y="48"
     gridtolerance="50"
     inkscape:grid-points="false"
     showguides="true"
     inkscape:guide-bbox="true"
     objecttolerance="0.4"
     inkscape:object-paths="true"
     width="32px"
     height="32px"
     inkscape:window-maximized="0">
    <sodipodi:guide
       orientation="horizontal"
       position="50.977307"
       id="guide9112" />
    <inkscape:grid
       type="xygrid"
       id="grid4091" />
  </sodipodi:namedview>
  <defs
     id="defs3">
    <inkscape:perspective
       sodipodi:type="inkscape:persp3d"
       inkscape:vp_x="0 : 16 : 1"
       inkscape:vp_y="0 : 1000 : 0"
       inkscape:vp_z="32 : 16 : 1"
       inkscape:persp3d-origin="16 : 10.666667 : 1"
       id="perspective4089" />
    <linearGradient
       id="linearGradient3206">
      <stop
         id="stop3208"
         offset="0"
         style="stop-color:#3e97a9;stop-opacity:1;" />
      <stop
         style="stop-color:#d9ebeb;stop-opacity:1;"
         offset="0.69999999"
         id="stop3210" />
      <stop
         id="stop3212"
         offset="0.829"
         style="stop-color:#3164b2;stop-opacity:1;" />
      <stop
         id="stop3214"
         offset="0.958"
         style="stop-color:#e6c3b4;stop-opacity:1;" />
      <stop
         id="stop3216"
         offset="1"
         style="stop-color:#bf7c4f;stop-opacity:1" />
    </linearGradient>
    <linearGradient
       id="linearGradient3272">
      <stop
         style="stop-color:#668e93;stop-opacity:1;"
         offset="0"
         id="stop3274" />
      <stop
         id="stop2215"
         offset="0.322"
         style="stop-color:#d1e8e9;stop-opacity:1;" />
      <stop
         id="stop2205"
         offset="0.69999999"
         style="stop-color:#9fc2c2;stop-opacity:1;" />
      <stop
         style="stop-color:#718b98;stop-opacity:1;"
         offset="0.829"
         id="stop2209" />
      <stop
         style="stop-color:#e6c3b4;stop-opacity:1;"
         offset="0.958"
         id="stop2207" />
      <stop
         style="stop-color:#dff0ef;stop-opacity:1;"
         offset="1"
         id="stop3276" />
    </linearGradient>
    <linearGradient
       id="linearGradient3257">
      <stop
         style="stop-color:#2faeb8;stop-opacity:1;"
         offset="0"
         id="stop3259" />
      <stop
         style="stop-color:#eef9fa;stop-opacity:1;"
         offset="1"
         id="stop3261" />
    </linearGradient>
    <linearGradient
       id="linearGradient5048">
      <stop
         offset="0"
         style="stop-color:black;stop-opacity:0;"
         id="stop5050" />
      <stop
         offset="0.5"
         style="stop-color:black;stop-opacity:1;"
         id="stop5056" />
      <stop
         offset="1"
         style="stop-color:black;stop-opacity:0;"
         id="stop5052" />
    </linearGradient>
    <linearGradient
       id="linearGradient2933">
      <stop
         offset="0"
         style="stop-color:#9baec2;stop-opacity:1;"
         id="stop2935" />
      <stop
         id="stop3204"
         style="stop-color:#c0dbdf;stop-opacity:1;"
         offset="0.5" />
      <stop
         offset="1"
         style="stop-color:#e4e4e4;stop-opacity:1;"
         id="stop2937" />
    </linearGradient>
    <linearGradient
       inkscape:collect="always"
       xlink:href="#linearGradient3257"
       id="linearGradient11118"
       gradientUnits="userSpaceOnUse"
       gradientTransform="matrix(0.9920914,0,0,1.0001933,1.6937616,5.6202644)"
       x1="8.375"
       y1="24.5"
       x2="40.625"
       y2="24.5" />
    <linearGradient
       inkscape:collect="always"
       xlink:href="#linearGradient3257"
       id="linearGradient11146"
       gradientUnits="userSpaceOnUse"
       gradientTransform="matrix(1.0000001,0,0,0.64,1.5000002,9.8199999)"
       x1="8.375"
       y1="24.5"
       x2="40.625"
       y2="24.5" />
    <linearGradient
       inkscape:collect="always"
       xlink:href="#linearGradient3257"
       id="linearGradient11149"
       gradientUnits="userSpaceOnUse"
       gradientTransform="matrix(1.0000001,0,0,0.64,1.0000002,10.32)"
       x1="8.375"
       y1="24.5"
       x2="40.625"
       y2="24.5" />
    <linearGradient
       inkscape:collect="always"
       xlink:href="#linearGradient3257"
       id="linearGradient11161"
       gradientUnits="userSpaceOnUse"
       gradientTransform="matrix(1.0000001,0,0,0.64,-2.6562498,16.82)"
       x1="8.375"
       y1="24.5"
       x2="40.625"
       y2="24.5" />
    <inkscape:perspective
       id="perspective4262"
       inkscape:persp3d-origin="0.5 : 0.33333333 : 1"
       inkscape:vp_z="1 : 0.5 : 1"
       inkscape:vp_y="0 : 1000 : 0"
       inkscape:vp_x="0 : 0.5 : 1"
       sodipodi:type="inkscape:persp3d" />
    <linearGradient
       inkscape:collect="always"
       xlink:href="#linearGradient4749"
       id="linearGradient4235"
       x1="2.3853252"
       y1="34.659901"
       x2="8.3853254"
       y2="34.659901"
       gradientUnits="userSpaceOnUse"
       gradientTransform="matrix(0.27631905,0,0,0.27631998,0.5183764,14.206616)" />
    <linearGradient
       id="linearGradient4749">
      <stop
         id="stop4751"
         offset="0"
         style="stop-color:#2c936f;stop-opacity:1;" />
      <stop
         id="stop4753"
         offset="1"
         style="stop-color:#d0e0d1;stop-opacity:1;" />
    </linearGradient>
    <linearGradient
       inkscape:collect="always"
       xlink:href="#linearGradient4749"
       id="linearGradient4227"
       x1="7.4365482"
       y1="14.912783"
       x2="17.436548"
       y2="14.912783"
       gradientUnits="userSpaceOnUse"
       gradientTransform="matrix(0.27631905,0,0,0.27631998,1.3331798,12.816283)" />
    <linearGradient
       id="linearGradient4271">
      <stop
         id="stop4273"
         offset="0"
         style="stop-color:#2c936f;stop-opacity:1;" />
      <stop
         id="stop4275"
         offset="1"
         style="stop-color:#d0e0d1;stop-opacity:1;" />
    </linearGradient>
    <linearGradient
       inkscape:collect="always"
       xlink:href="#linearGradient4749"
       id="linearGradient3684"
       x1="14.5655"
       y1="32.444443"
       x2="61.434502"
       y2="32.444443"
       gradientUnits="userSpaceOnUse"
       gradientTransform="matrix(0.27459154,0,0,0.28,0.99583091,13.833234)" />
    <linearGradient
       id="linearGradient4278">
      <stop
         id="stop4280"
         offset="0"
         style="stop-color:#2c936f;stop-opacity:1;" />
      <stop
         id="stop4282"
         offset="1"
         style="stop-color:#d0e0d1;stop-opacity:1;" />
    </linearGradient>
    <linearGradient
       inkscape:collect="always"
       xlink:href="#linearGradient4275"
       id="linearGradient4283"
       x1="7.75"
       y1="34.875"
       x2="34.875"
       y2="34.875"
       gradientUnits="userSpaceOnUse" />
    <linearGradient
       id="linearGradient4275">
      <stop
         style="stop-color:#c5e9eb;stop-opacity:1;"
         offset="0"
         id="stop4277" />
      <stop
         style="stop-color:#e6f3f4;stop-opacity:1;"
         offset="1"
         id="stop4279" />
    </linearGradient>
    <linearGradient
       y2="34.875"
       x2="34.875"
       y1="34.875"
       x1="7.75"
       gradientUnits="userSpaceOnUse"
       id="linearGradient4293"
       xlink:href="#linearGradient4275"
       inkscape:collect="always" />
    <linearGradient
       inkscape:collect="always"
       xlink:href="#linearGradient4749"
       id="linearGradient4884"
       gradientUnits="userSpaceOnUse"
       gradientTransform="matrix(0.0792528,-0.08034002,0.08034028,0.07925308,5.6528726,17.259792)"
       x1="7.4365482"
       y1="14.912783"
       x2="17.436548"
       y2="14.912783" />
    <inkscape:perspective
       id="perspective4894"
       inkscape:persp3d-origin="0.5 : 0.33333333 : 1"
       inkscape:vp_z="1 : 0.5 : 1"
       inkscape:vp_y="0 : 1000 : 0"
       inkscape:vp_x="0 : 0.5 : 1"
       sodipodi:type="inkscape:persp3d" />
    <linearGradient
       inkscape:collect="always"
       xlink:href="#linearGradient4749-0"
       id="linearGradient4884-1"
       gradientUnits="userSpaceOnUse"
       gradientTransform="matrix(0.0792528,-0.08034002,0.08034028,0.07925308,5.4987246,17.058844)"
       x1="7.4365482"
       y1="14.912783"
       x2="17.436548"
       y2="14.912783" />
    <linearGradient
       id="linearGradient4749-0">
      <stop
         id="stop4751-4"
         offset="0"
         style="stop-color:#2c936f;stop-opacity:1;" />
      <stop
         id="stop4753-6"
         offset="1"
         style="stop-color:#d0e0d1;stop-opacity:1;" />
    </linearGradient>
    <linearGradient
       y2="14.912783"
       x2="17.436548"
       y1="14.912783"
       x1="7.4365482"
       gradientTransform="matrix(0.0792528,-0.08034002,0.08034028,0.07925308,11.058923,28.294415)"
       gradientUnits="userSpaceOnUse"
       id="linearGradient4903"
       xlink:href="#linearGradient4749-0"
       inkscape:collect="always" />
  </defs>
  <g
     inkscape:groupmode="layer"
     id="layer6"
     inkscape:label="tape">
    <path
       style="fill:#c83737;stroke:#761e20;stroke-width:2;stroke-linecap:butt;stroke-linejoin:miter;stroke-miterlimit:4;stroke-opacity:1;stroke-dasharray:none"
       d="m 14,30 17,0"
       id="path4861" />
  </g>
  <g
     inkscape:groupmode="layer"
     id="layer1"
     inkscape:label="disk"
     style="display:inline">
    <ellipse
       style="fill:#ffffff;fill-opacity:1;fill-rule:evenodd;stroke:#1c1f2b;stroke-width:0.9573679;stroke-linecap:butt;stroke-linejoin:miter;stroke-miterlimit:4;stroke-opacity:1;stroke-dasharray:none;display:inline"
       id="path4193"
       transform="matrix(1.2595432,0,0,1.2892963,-5.541074,-5.6359088)"
       d="m 28.924035,16.889763 a 11.62326,11.355031 0 1 1 -23.246519,0 11.62326,11.355031 0 1 1 23.246519,0 z"
       sodipodi:type="arc"
       sodipodi:ry="11.355031"
       sodipodi:rx="11.62326"
       sodipodi:cy="16.889763"
       sodipodi:cx="17.300776" />
    <path
       transform="matrix(1.1724666,0,0,1.2001627,-3.9124651,-4.2704634)"
       d="m 28.924035,16.889763 a 11.62326,11.355031 0 1 1 -23.246519,0 11.62326,11.355031 0 1 1 23.246519,0 z"
       sodipodi:ry="11.355031"
       sodipodi:rx="11.62326"
       sodipodi:cy="16.889763"
       sodipodi:cx="17.300776"
       id="path4203"
       style="fill:#ffffff;fill-opacity:1;fill-rule:evenodd;stroke:#b9bdc7;stroke-width:0.84300411;stroke-linecap:butt;stroke-linejoin:miter;stroke-miterlimit:4;stroke-opacity:1;stroke-dasharray:none;display:inline"
       sodipodi:type="arc" />
  </g>
  <g
     inkscape:groupmode="layer"
     id="layer2"
     inkscape:label="center"
     style="display:inline">
    <path
       sodipodi:type="arc"
       style="fill:#ffffff;fill-opacity:1;fill-rule:evenodd;stroke:#1329cb;stroke-width:1.62834227;stroke-linecap:butt;stroke-linejoin:miter;stroke-miterlimit:4;stroke-opacity:1;stroke-dasharray:none;display:inline"
       id="path4195"
       sodipodi:cx="17.725471"
       sodipodi:cy="17.448572"
       sodipodi:rx="6.1022115"
       sodipodi:ry="6.3257356"
       d="m 23.827683,17.448572 a 6.1022115,6.3257356 0 1 1 -12.204423,0 6.1022115,6.3257356 0 1 1 12.204423,0 z"
       transform="matrix(0.9543448,0,0,0.9543448,-0.8987013,-0.7456985)" />
  </g>
  <g
     inkscape:groupmode="layer"
     id="layer4"
     inkscape:label="front"
     style="display:inline">
    <path
       sodipodi:type="arc"
       style="fill:url(#linearGradient4293);fill-opacity:1;stroke:none;display:inline"
       id="path4257"
       sodipodi:cx="21.3125"
       sodipodi:cy="34.875"
       sodipodi:rx="13.5625"
       sodipodi:ry="22.28125"
       d="m 34.875,34.875 a 13.5625,22.28125 0 1 1 -27.125,0 13.5625,22.28125 0 1 1 27.125,0 z"
       transform="matrix(0.60753878,0.00697617,0,0.37204375,-3.5972347,9.754158)" />
    <path
       style="fill:url(#linearGradient3684);fill-opacity:1;fill-rule:evenodd;stroke:#2a2d64;stroke-width:0.5;stroke-linecap:butt;stroke-linejoin:miter;stroke-miterlimit:4;stroke-opacity:1;stroke-dasharray:none;display:inline"
       d="m 13.077859,15.513234 0,0.840001 -0.274592,0 -0.549184,0 c 0,0 0,0 -0.274591,-0.280001 -0.274593,-0.28 -0.823774,0.280001 -0.823774,0.280001 l -0.274592,0.279999 c 0,0 -0.549183,-0.279999 -1.0983663,0.84 -0.5491828,1.12 0.2745913,0.280001 0.2745913,0.280001 l 0.549184,-0.280001 0,0.560001 -0.274592,0.559999 -0.274592,0.280001 -0.5491825,-0.280001 -0.5491834,-0.279999 -0.2745915,0 0,0.279999 -0.5491828,0.280001 -0.2745917,0 -0.5491828,0.279999 0.2745912,0.560001 c 0,0 -0.2745912,0 -0.5491832,0 -0.2745913,0 0,0.56 0,0.56 l 0.5491832,0 0.5491833,0 0.2745915,-0.280001 0,-0.279999 0.5491828,0 0.2745918,0 0.5491828,0.56 0.2745913,0.559999 0.549184,0.280001 0.274591,0 c 0,0 0,-0.280001 0,-0.560001 0,-0.279999 0.274592,-0.279999 0.274592,-0.279999 l 0.274591,-0.56 0.549183,0 0.549184,0.279999 0,0.280001 -0.549184,0.279999 0,0.28 0.274591,0 -0.274591,0.280001 -0.549183,0.279999 -0.549183,0.56 -0.823775,0.28 -0.5491825,-0.28 -0.2745916,-0.279999 -0.5491833,-0.280001 -0.5491828,-0.56 -0.8237745,0 -0.5491833,0 c 0,0 -0.3270128,-0.16623 -0.8237745,0.56 -0.7352314,1.074856 -0.2745912,0 -0.5491833,0.84 -0.2745912,0.840001 -0.2745912,1.12 -0.2745912,1.12 l 0.2745912,0.56 0.2745921,0.84 0.8237745,0.28 0.8237745,0.28 0.8237745,0 0.5491828,0.560001 0.2745915,0.84 0,0.84 0.2745918,1.68 0.2745916,0.279999 0.8237745,0.56 c 0,0 1.098366,0.560001 1.372956,0 0.274593,-0.56 0.274593,-0.56 0.274593,-0.56 l 0,-0.559999 0,-0.56 0.274591,-0.56 0,-0.56 0.549184,-0.56 0,-0.56 0.549183,-0.560001 0.300334,-0.455 0.248849,-0.385 0,-0.56 c 0,0 0,-0.28 -0.549183,0 -0.549183,0.28 -0.823774,0.28 -0.823774,0.28 l -0.274593,-0.56 0,-0.28 0.274593,-0.28 0.549183,-0.279999 0.549181,0 0.274593,0.279999 0.274591,0.28 0.549184,-0.28 0.274592,0.28 0.549182,0 0.549183,0 0.274591,0.56 0,0.28 0.274592,0.56 0.274591,0 0.549184,-0.84 0.274591,-2.24 -0.549184,-2.239999 -0.823774,-1.4 -1.647548,-1.96 -1.647549,-0.840001 z"
       id="path3662" />
    <path
       style="fill:url(#linearGradient4227);fill-opacity:1;fill-rule:evenodd;stroke:#2a2d64;stroke-width:0.5;stroke-linecap:butt;stroke-linejoin:miter;stroke-miterlimit:4;stroke-opacity:1;stroke-dasharray:none;display:inline"
       d="m 5.1841135,15.693543 -1.1052762,0.82896 -0.5526381,1.3816 0.276319,0.27632 0.2763191,0 0.5526381,-0.27632 0.5526381,-0.27632 0.5526381,-0.55264 0.276319,-0.55264 0,-0.27632 0,-0.27632 -0.8289571,-0.27632 z"
       id="path3656"
       sodipodi:nodetypes="cccccccccccc" />
    <path
       style="fill:url(#linearGradient4235);fill-opacity:1;fill-rule:evenodd;stroke:#2a2d64;stroke-width:0.5;stroke-linecap:butt;stroke-linejoin:miter;stroke-miterlimit:4;stroke-opacity:1;stroke-dasharray:none;display:inline"
       d="m 1.8510149,22.480653 c -0.1484135,0.01349 -0.2590491,0.12089 -0.2590491,0.12089 l -0.276319,1.10528 0.5526381,1.3816 0,-0.27632 0.276319,-0.55264 0.2763191,-0.27632 0.276319,-0.55264 0,-0.27632 -0.276319,-0.27632 c 0,0 0,0 -0.2763191,-0.27632 -0.1036196,-0.10362 -0.2045408,-0.128986 -0.293589,-0.12089 z"
       id="path3660"
       sodipodi:nodetypes="ccccccccccsc" />
    <path
       sodipodi:type="arc"
       style="fill:none;stroke:#3d6689;stroke-width:1.25822433;stroke-linecap:butt;stroke-linejoin:miter;stroke-miterlimit:4;stroke-opacity:1;stroke-dasharray:none;display:inline"
       id="path2883"
       sodipodi:cx="21.3125"
       sodipodi:cy="34.875"
       sodipodi:rx="13.5625"
       sodipodi:ry="22.28125"
       d="m 34.875,34.875 a 13.5625,22.28125 0 1 1 -27.125,0 13.5625,22.28125 0 1 1 27.125,0 z"
       transform="matrix(0.61121264,0.00697617,0,0.37204375,-3.4212512,9.754158)" />
    <path
       sodipodi:nodetypes="cccccccccccc"
       id="path4882"
       d="M 7.5939495,16.965377 7.5179585,17.524495 7.7611546,18.08144 7.920748,18.08034 8,18 8.078164,17.760067 8.156328,17.520135 8.154148,17.200948 8.072723,16.962137 7.992382,16.882887 7.9120431,16.8036 7.5939442,16.965367 z"
       style="fill:url(#linearGradient4884);fill-opacity:1;fill-rule:evenodd;stroke:#1d2559;stroke-width:0.40000001;stroke-miterlimit:4;stroke-opacity:1;stroke-dasharray:none;display:inline" />
    <path
       sodipodi:nodetypes="cccccccccccc"
       id="path4882-5"
       d="m 13,28 -0.07599,0.559118 0.243196,0.556945 0.159593,-0.0011 0.07925,-0.08034 0.07816,-0.239933 0.07816,-0.239932 -0.0022,-0.319187 -0.08142,-0.238811 -0.08034,-0.07925 -0.08034,-0.07929 -0.318099,0.161767 z"
       style="fill:url(#linearGradient4903);fill-opacity:1;fill-rule:evenodd;stroke:#1d2559;stroke-width:0.40000001;stroke-miterlimit:4;stroke-opacity:1;stroke-dasharray:none;display:inline" />
  </g>
  <g
     inkscape:groupmode="layer"
     id="layer5"
     inkscape:label="MIR background" />
  <g
     inkscape:groupmode="layer"
     id="layer3"
     inkscape:label="MIR">
    <g
       id="g3417"
       transform="matrix(0.82806969,0,0,0.82806969,1.8036741,4.6864309)">
      <rect
         rx="0.32522699"
         y="1.7764758"
         x="1.9105903"
         height="13"
         width="31"
         id="rect3411"
         style="opacity:1;fill:#e3e2db;fill-opacity:1;stroke:#e3e2db;stroke-width:2.08100009;stroke-miterlimit:4;stroke-dasharray:none;stroke-dashoffset:0;stroke-opacity:1" />
      <text
         transform="scale(0.98769802,1.0124552)"
         sodipodi:linespacing="125%"
         id="text3404"
         y="13.956435"
         x="2.8921459"
         style="font-style:normal;font-weight:normal;font-size:16.12913132px;line-height:125%;font-family:'Bitstream Vera Sans';letter-spacing:0px;word-spacing:0px;display:inline;fill:#008000;fill-opacity:1;stroke:#112b00;stroke-width:1.04501891px;stroke-linecap:butt;stroke-linejoin:miter;stroke-opacity:1"
         xml:space="preserve"><tspan
           style="font-weight:bold;stroke:#112b00;stroke-width:1.04501891px"
           y="13.956435"
           x="2.8921459"
           id="tspan3406"
           sodipodi:role="line">MIR</tspan></text>
    </g>
  </g>
</svg>
