<?xml version="1.0" encoding="UTF-8" standalone="no"?>
<!-- Created with Inkscape (http://www.inkscape.org/) -->

<svg
   xmlns:dc="http://purl.org/dc/elements/1.1/"
   xmlns:cc="http://creativecommons.org/ns#"
   xmlns:rdf="http://www.w3.org/1999/02/22-rdf-syntax-ns#"
   xmlns:svg="http://www.w3.org/2000/svg"
   xmlns="http://www.w3.org/2000/svg"
   xmlns:xlink="http://www.w3.org/1999/xlink"
   xmlns:sodipodi="http://sodipodi.sourceforge.net/DTD/sodipodi-0.dtd"
   xmlns:inkscape="http://www.inkscape.org/namespaces/inkscape"
   width="64"
   height="64"
   id="svg2"
   sodipodi:version="0.32"
   inkscape:version="0.91 r13725"
   version="1.0"
   sodipodi:docname="ECCHARTS.svg"
   inkscape:output_extension="org.inkscape.output.svg.inkscape"
   style="display:inline">
  <defs
     id="defs4">
    <linearGradient
       inkscape:collect="always"
       xlink:href="#linearGradient3134"
       id="linearGradient3157"
       gradientUnits="userSpaceOnUse"
       x1="4.3908644"
       y1="4.6571741"
       x2="73.456528"
       y2="103.58132"
       gradientTransform="matrix(0.30480267,0,0,0.21776032,8.7043815,42.651533)" />
    <linearGradient
       id="linearGradient3134">
      <stop
         style="stop-color:#ffffff;stop-opacity:1;"
         offset="0"
         id="stop3136" />
      <stop
         style="stop-color:#a6b1b4;stop-opacity:1;"
         offset="1"
         id="stop3138" />
    </linearGradient>
    <linearGradient
       y2="103.58132"
       x2="73.456528"
       y1="4.6571741"
       x1="4.3908644"
       gradientTransform="matrix(0.30480267,0,0,0.21776032,3.101299,51.933997)"
       gradientUnits="userSpaceOnUse"
       id="linearGradient3771"
       xlink:href="#linearGradient3134"
       inkscape:collect="always" />
    <linearGradient
       y2="103.58132"
       x2="73.456528"
       y1="4.6571741"
       x1="4.3908644"
       gradientTransform="matrix(0.30480267,0,0,0.21776032,-2.2880196,60.968449)"
       gradientUnits="userSpaceOnUse"
       id="linearGradient3771-0"
       xlink:href="#linearGradient3134"
       inkscape:collect="always" />
  </defs>
  <sodipodi:namedview
     id="base"
     pagecolor="#ffffff"
     bordercolor="#666666"
     borderopacity="1.0"
     gridtolerance="10000"
     guidetolerance="10"
     objecttolerance="10"
     inkscape:pageopacity="0.0"
     inkscape:pageshadow="2"
     inkscape:zoom="8.3743305"
     inkscape:cx="23.717516"
     inkscape:cy="29.450462"
     inkscape:document-units="px"
     inkscape:current-layer="layer1"
     width="64px"
     height="64px"
     inkscape:window-width="1574"
     inkscape:window-height="843"
     inkscape:window-x="685"
     inkscape:window-y="278"
     showgrid="true"
     inkscape:snap-grids="false"
     inkscape:window-maximized="0"
     inkscape:snap-to-guides="false"
     showguides="false">
    <inkscape:grid
       type="xygrid"
       id="grid2848"
       empspacing="5"
       visible="true"
       enabled="true"
       snapvisiblegridlinesonly="true" />
  </sodipodi:namedview>
  <metadata
     id="metadata7">
    <rdf:RDF>
      <cc:Work
         rdf:about="">
        <dc:format>image/svg+xml</dc:format>
        <dc:type
           rdf:resource="http://purl.org/dc/dcmitype/StillImage" />
        <dc:title></dc:title>
        <cc:license
           rdf:resource="Apache License 2.0" />
        <dc:creator>
          <cc:Agent>
            <dc:title />
          </cc:Agent>
        </dc:creator>
        <dc:publisher>
          <cc:Agent>
            <dc:title>ECMWF</dc:title>
          </cc:Agent>
        </dc:publisher>
        <dc:language>en-GB</dc:language>
        <dc:subject>
          <rdf:Bag>
            <rdf:li>Metview icon</rdf:li>
          </rdf:Bag>
        </dc:subject>
        <dc:description>Metview icon</dc:description>
      </cc:Work>
    </rdf:RDF>
  </metadata>
  <g
     inkscape:groupmode="layer"
     id="layer4"
     inkscape:label="logo"
     style="display:inline">
    <path
       class="cls-1"
       d="m 1.6644512,24.024201 15.0447918,0 0,-4.074905 -15.0447918,0 a 11.848702,11.848702 0 0 0 0,4.074905 z"
       id="path18"
       inkscape:connector-curvature="0"
       style="fill:#006ca6" />
    <path
       class="cls-1"
       d="M 51.770029,25.440797 A 17.92608,17.92608 0 0 1 34.281172,40.061484 19.237744,19.237744 0 0 1 26.89213,38.452508 17.882357,17.882357 0 0 1 19.301965,40.043995 17.781797,17.781797 0 0 1 1.821851,25.510753 l 10.969887,0 a 7.6382589,7.6382589 0 0 0 6.960566,4.477149 7.8699863,7.8699863 0 0 0 7.253503,-5.172331 7.7300754,7.7300754 0 0 0 14.323375,0.65146 z"
       id="path20"
       inkscape:connector-curvature="0"
       style="fill:#006ca6" />
    <path
       class="cls-1"
       d="M 51.770029,18.532699 A 17.92608,17.92608 0 0 0 34.25494,3.9120137 18.835501,18.835501 0 0 0 26.89213,5.525361 17.571931,17.571931 0 0 0 19.301965,3.9120137 17.777424,17.777424 0 0 0 1.8131065,18.462744 l 10.9698875,0 a 7.6338867,7.6338867 0 0 1 6.96931,-4.494637 7.8699863,7.8699863 0 0 1 7.253503,5.185446 7.7344476,7.7344476 0 0 1 14.327748,-0.647087 z"
       id="path22"
       inkscape:connector-curvature="0"
       style="fill:#006ca6" />
  </g>
  <g
     inkscape:groupmode="layer"
     id="layer1"
     inkscape:label="layers"
     style="display:inline">
    <rect
       style="display:inline;fill:url(#linearGradient3771-0);fill-opacity:1;fill-rule:evenodd;stroke:#24344d;stroke-width:2.00921011;stroke-linecap:butt;stroke-linejoin:round;stroke-miterlimit:4;stroke-dasharray:none;stroke-dashoffset:0;stroke-opacity:1"
       id="rect2161-6"
       width="18.689127"
       height="13.303662"
       x="-1.8238722"
       y="61.269848"
       transform="matrix(1,0,0.59652964,0.80259105,0,0)" />
    <rect
       style="display:inline;fill:url(#linearGradient3771);fill-opacity:1;fill-rule:evenodd;stroke:#24344d;stroke-width:2.00921011;stroke-linecap:butt;stroke-linejoin:round;stroke-miterlimit:4;stroke-dasharray:none;stroke-dashoffset:0;stroke-opacity:1"
       id="rect2161-8"
       width="18.689127"
       height="13.303662"
       x="3.5654461"
       y="52.235394"
       transform="matrix(1,0,0.59652964,0.80259105,0,0)" />
    <rect
       style="display:inline;fill:url(#linearGradient3157);fill-opacity:1;fill-rule:evenodd;stroke:#24344d;stroke-width:2.00921011;stroke-linecap:butt;stroke-linejoin:round;stroke-miterlimit:4;stroke-dasharray:none;stroke-dashoffset:0;stroke-opacity:1"
       id="rect2161"
       width="18.689127"
       height="13.303662"
       x="9.1685286"
       y="42.95293"
       transform="matrix(1,0,0.59652964,0.80259105,0,0)" />
  </g>
</svg>
