<?xml version="1.0" encoding="UTF-8" standalone="no"?>
<!-- Created with Inkscape (http://www.inkscape.org/) -->

<svg
   xmlns:dc="http://purl.org/dc/elements/1.1/"
   xmlns:cc="http://creativecommons.org/ns#"
   xmlns:rdf="http://www.w3.org/1999/02/22-rdf-syntax-ns#"
   xmlns:svg="http://www.w3.org/2000/svg"
   xmlns="http://www.w3.org/2000/svg"
   xmlns:xlink="http://www.w3.org/1999/xlink"
   xmlns:sodipodi="http://sodipodi.sourceforge.net/DTD/sodipodi-0.dtd"
   xmlns:inkscape="http://www.inkscape.org/namespaces/inkscape"
   width="64px"
   height="64px"
   id="svg3688"
   sodipodi:version="0.32"
   inkscape:version="0.47 r22583"
   sodipodi:docname="WMS_CLIENT.svg"
   inkscape:output_extension="org.inkscape.output.svg.inkscape"
   inkscape:export-filename="WMS_CLIENT.png"
   inkscape:export-xdpi="45"
   inkscape:export-ydpi="45"
   version="1.1">
  <defs
     id="defs3690">
    <linearGradient
       id="linearGradient4292">
      <stop
         style="stop-color:#e4a312;stop-opacity:1"
         offset="0"
         id="stop4294" />
      <stop
         id="stop4308"
         offset="0.5"
         style="stop-color:#dfae71;stop-opacity:1" />
      <stop
         style="stop-color:#ccd6c8;stop-opacity:1;"
         offset="1"
         id="stop4296" />
    </linearGradient>
    <linearGradient
       inkscape:collect="always"
       id="linearGradient4275">
      <stop
         style="stop-color:#c5e9eb;stop-opacity:1;"
         offset="0"
         id="stop4277" />
      <stop
         style="stop-color:#c5e9eb;stop-opacity:0;"
         offset="1"
         id="stop4279" />
    </linearGradient>
    <linearGradient
       inkscape:collect="always"
       id="linearGradient4229">
      <stop
         style="stop-color:#69c5b5;stop-opacity:1"
         offset="0"
         id="stop4231" />
      <stop
         style="stop-color:#000000;stop-opacity:0;"
         offset="1"
         id="stop4233" />
    </linearGradient>
    <linearGradient
       inkscape:collect="always"
       id="linearGradient4221">
      <stop
         style="stop-color:#7cc1b3;stop-opacity:1"
         offset="0"
         id="stop4223" />
      <stop
         style="stop-color:#000000;stop-opacity:0;"
         offset="1"
         id="stop4225" />
    </linearGradient>
    <linearGradient
       id="linearGradient3678">
      <stop
         style="stop-color:#d9dce6;stop-opacity:1;"
         offset="0"
         id="stop3680" />
      <stop
         style="stop-color:#324060;stop-opacity:1;"
         offset="1"
         id="stop3682" />
    </linearGradient>
    <linearGradient
       inkscape:collect="always"
       xlink:href="#linearGradient3678"
       id="linearGradient3684"
       x1="14.5655"
       y1="32.444444"
       x2="61.4345"
       y2="32.444444"
       gradientUnits="userSpaceOnUse"
       gradientTransform="translate(0.4153207,0.625)" />
    <linearGradient
       inkscape:collect="always"
       xlink:href="#linearGradient4221"
       id="linearGradient4227"
       x1="7.4365482"
       y1="14.912783"
       x2="17.436548"
       y2="14.912783"
       gradientUnits="userSpaceOnUse" />
    <linearGradient
       inkscape:collect="always"
       xlink:href="#linearGradient4229"
       id="linearGradient4235"
       x1="2.3853253"
       y1="34.659899"
       x2="8.3853253"
       y2="34.659899"
       gradientUnits="userSpaceOnUse" />
    <linearGradient
       inkscape:collect="always"
       xlink:href="#linearGradient4275"
       id="linearGradient4283"
       x1="7.75"
       y1="34.875"
       x2="34.875"
       y2="34.875"
       gradientUnits="userSpaceOnUse" />
    <linearGradient
       inkscape:collect="always"
       xlink:href="#linearGradient4292"
       id="linearGradient4298"
       x1="22.578678"
       y1="19.313492"
       x2="22.57868"
       y2="47.827412"
       gradientUnits="userSpaceOnUse"
       gradientTransform="matrix(1.6692699,0,0,1.4331683,9.6998665,-1.8254253)" />
  </defs>
  <sodipodi:namedview
     id="base"
     pagecolor="#ffffff"
     bordercolor="#666666"
     borderopacity="1.0"
     inkscape:pageopacity="0.0"
     inkscape:pageshadow="2"
     inkscape:zoom="12.3125"
     inkscape:cx="29.132049"
     inkscape:cy="32"
     inkscape:current-layer="layer2"
     showgrid="true"
     inkscape:document-units="px"
     inkscape:grid-bbox="true"
     inkscape:window-width="1400"
     inkscape:window-height="1001"
     inkscape:window-x="2083"
     inkscape:window-y="0">
    <inkscape:grid
       type="xygrid"
       id="grid3709" />
  </sodipodi:namedview>
  <metadata
     id="metadata7">
    <rdf:RDF>
      <cc:Work
         rdf:about="">
        <dc:format>image/svg+xml</dc:format>
        <dc:type
           rdf:resource="http://purl.org/dc/dcmitype/StillImage" />
        <dc:title />
        <cc:license
           rdf:resource="Apache License 2.0" />
        <dc:creator>
          <cc:Agent>
            <dc:title />
          </cc:Agent>
        </dc:creator>
        <dc:publisher>
          <cc:Agent>
            <dc:title>ECMWF</dc:title>
          </cc:Agent>
        </dc:publisher>
        <dc:language>en-GB</dc:language>
        <dc:subject>
          <rdf:Bag>
            <rdf:li>Metview icon</rdf:li>
          </rdf:Bag>
        </dc:subject>
        <dc:description>Metview icon</dc:description>
      </cc:Work>
    </rdf:RDF>
  </metadata>
  <g
     inkscape:groupmode="layer"
     id="layer4"
     inkscape:label="inner"
     style="display:inline"
     sodipodi:insensitive="true">
    <path
       sodipodi:type="arc"
       style="opacity:1;fill:url(#linearGradient4283);fill-opacity:1;stroke:none;stroke-width:1.18171751;stroke-linecap:butt;stroke-linejoin:miter;stroke-miterlimit:4;stroke-dasharray:none;stroke-opacity:1;display:inline"
       id="path4257"
       sodipodi:cx="21.3125"
       sodipodi:cy="34.875"
       sodipodi:rx="13.5625"
       sodipodi:ry="22.28125"
       d="M 34.875 34.875 A 13.5625 22.28125 0 1 1  7.75,34.875 A 13.5625 22.28125 0 1 1  34.875 34.875 z"
       transform="matrix(2.1392713,2.4415209e-2,0,1.3020788,-13.70766,-13.686692)" />
  </g>
  <g
     id="layer1"
     inkscape:label="map"
     inkscape:groupmode="layer"
     style="display:inline"
     sodipodi:insensitive="true">
    <path
       style="fill:url(#linearGradient3684);fill-opacity:1;fill-rule:evenodd;stroke:#2f642a;stroke-width:0.86900002;stroke-linecap:butt;stroke-linejoin:miter;stroke-miterlimit:4;stroke-dasharray:none;stroke-opacity:1;display:inline"
       d="M 44.415321,6.625 L 44.415321,9.625 L 43.415321,9.625 L 41.415321,9.625 C 41.415321,9.625 41.415321,9.625 40.415321,8.625 C 39.415321,7.625 37.415321,9.625 37.415321,9.625 L 36.415321,10.625 C 36.415321,10.625 34.415321,9.625 32.415321,13.625 C 30.415321,17.625 33.415321,14.625 33.415321,14.625 L 35.415321,13.625 L 35.415321,15.625 L 34.415321,17.625 L 33.415321,18.625 L 31.415321,17.625 L 29.415321,16.625 L 28.415321,16.625 L 28.415321,17.625 L 26.415321,18.625 L 25.415321,18.625 L 23.415321,19.625 L 24.415321,21.625 C 24.415321,21.625 23.415321,21.625 22.415321,21.625 C 21.415321,21.625 22.415321,23.625 22.415321,23.625 L 24.415321,23.625 L 26.415321,23.625 L 27.415321,22.625 L 27.415321,21.625 L 29.415321,21.625 L 30.415321,21.625 L 32.415321,23.625 L 33.415321,25.625 L 35.415321,26.625 L 36.415321,26.625 C 36.415321,26.625 36.415321,25.625 36.415321,24.625 C 36.415321,23.625 37.415321,23.625 37.415321,23.625 L 38.415321,21.625 L 40.415321,21.625 L 42.415321,22.625 L 42.415321,23.625 L 40.415321,24.625 L 40.415321,25.625 L 41.415321,25.625 L 40.415321,26.625 L 38.415321,27.625 L 36.415321,29.625 L 33.415321,30.625 L 31.415321,29.625 L 30.415321,28.625 L 28.415321,27.625 L 26.415321,25.625 L 23.415321,25.625 L 21.415321,25.625 C 21.415321,25.625 20.224414,25.031319 18.415321,27.625 C 15.737776,31.463773 17.415321,27.625 16.415321,30.625 C 15.415321,33.625 15.415321,34.625 15.415321,34.625 L 16.415321,36.625 L 17.415321,39.625 L 20.415321,40.625 L 23.415321,41.625 L 26.415321,41.625 L 28.415321,43.625 L 29.415321,46.625 L 29.415321,49.625 L 30.415321,55.625 L 31.415321,56.625 L 34.415321,58.625 C 34.415321,58.625 38.415321,60.625 39.415321,58.625 C 40.415321,56.625 40.415321,56.625 40.415321,56.625 L 40.415321,54.625 L 40.415321,52.625 L 41.415321,50.625 L 41.415321,48.625 L 43.415321,46.625 L 43.415321,44.625 L 45.415321,42.625 L 46.509071,41 L 47.415321,39.625 L 47.415321,37.625 C 47.415321,37.625 47.415321,36.625 45.415321,37.625 C 43.415321,38.625 42.415321,38.625 42.415321,38.625 L 41.415321,36.625 L 41.415321,35.625 L 42.415321,34.625 L 44.415321,33.625 L 46.415321,33.625 L 47.415321,34.625 L 48.415321,35.625 L 50.415321,34.625 L 51.415321,35.625 L 53.415321,35.625 L 55.415321,35.625 L 56.415321,37.625 L 56.415321,38.625 L 57.415321,40.625 L 58.415321,40.625 L 60.415321,37.625 L 61.415321,29.625 L 59.415321,21.625 L 56.415321,16.625 L 50.415321,9.625 L 44.415321,6.625 z "
       id="path3662" />
    <path
       style="fill:url(#linearGradient4227);fill-opacity:1;fill-rule:evenodd;stroke:#19691e;stroke-width:1px;stroke-linecap:butt;stroke-linejoin:miter;stroke-opacity:1;display:inline"
       d="M 13.936548,10.412783 L 9.9365482,13.412783 L 7.9365482,18.412783 L 8.9365482,19.412783 L 9.9365482,19.412783 L 11.936548,18.412783 L 13.936548,17.412783 L 15.936548,15.412783 L 16.936548,13.412783 L 16.936548,12.412783 L 16.936548,11.412783 L 13.936548,10.412783 z "
       id="path3656"
       sodipodi:nodetypes="cccccccccccc" />
    <path
       style="fill:url(#linearGradient4235);fill-opacity:1;fill-rule:evenodd;stroke:#2a611e;stroke-width:1px;stroke-linecap:butt;stroke-linejoin:miter;stroke-opacity:1;display:inline"
       d="M 4.8228253,29.943679 C 4.2857159,29.992507 3.8853253,30.381179 3.8853253,30.381179 L 2.8853253,34.381179 L 4.8853253,39.381179 L 4.8853253,38.381179 L 5.8853253,36.381179 L 6.8853253,35.381179 L 7.8853253,33.381179 L 7.8853253,32.381179 L 6.8853253,31.381179 C 6.8853253,31.381179 6.8853253,31.381179 5.8853253,30.381179 C 5.5103253,30.006179 5.1450909,29.914382 4.8228253,29.943679 z "
       id="path3660"
       sodipodi:nodetypes="ccccccccccsc" />
  </g>
  <g
     inkscape:groupmode="layer"
     id="layer3"
     inkscape:label="frame"
     style="display:inline"
     sodipodi:insensitive="true">
    <path
       sodipodi:type="arc"
       style="opacity:1;fill:none;fill-opacity:1;stroke:#3d6689;stroke-width:1.18171751;stroke-linecap:butt;stroke-linejoin:miter;stroke-miterlimit:4;stroke-dasharray:none;stroke-opacity:1;display:inline"
       id="path2883"
       sodipodi:cx="21.3125"
       sodipodi:cy="34.875"
       sodipodi:rx="13.5625"
       sodipodi:ry="22.28125"
       d="M 34.875 34.875 A 13.5625 22.28125 0 1 1  7.75,34.875 A 13.5625 22.28125 0 1 1  34.875 34.875 z"
       transform="matrix(2.1392713,2.4415209e-2,0,1.3020788,-13.418785,-13.599216)" />
  </g>
  <g
     inkscape:groupmode="layer"
     id="layer5"
     inkscape:label="arrow"
     style="display:inline">
    <path
       style="fill:url(#linearGradient4298);fill-opacity:1;fill-rule:evenodd;stroke:#8e6f2a;stroke-width:1.34681761px;stroke-linecap:butt;stroke-linejoin:miter;stroke-opacity:1"
       d="M 41.210335,32.420544 L 41.178416,46.902852 L 34.673409,46.902852 L 47.364239,61.326591 L 60.106142,46.902852 L 53.652201,46.902852 L 53.652201,32.303397 L 41.210335,32.420544 z "
       id="path4290"
       sodipodi:nodetypes="cccccccc" />
  </g>
  <g
     inkscape:groupmode="layer"
     id="layer6"
     inkscape:label="Text box"
     style="display:inline">
    <rect
       style="opacity:1;fill:#d8d7d5;fill-opacity:0.62121211;fill-rule:evenodd;stroke:#3c3c3c;stroke-width:1.30529547;stroke-linecap:round;stroke-linejoin:round;stroke-miterlimit:4;stroke-dasharray:none;stroke-opacity:1"
       id="rect3187"
       width="50.694908"
       height="19.100998"
       x="11.652648"
       y="7.2463541"
       ry="1.3877366" />
  </g>
  <g
     inkscape:groupmode="layer"
     id="layer2"
     inkscape:label="Title"
     style="display:inline">
    <text
       xml:space="preserve"
       style="font-size:17.45768166px;font-style:normal;font-variant:normal;font-weight:bold;font-stretch:normal;text-align:start;line-height:100%;writing-mode:lr-tb;text-anchor:start;fill:#dc243a;fill-opacity:1;stroke:none;stroke-width:1px;stroke-linecap:butt;stroke-linejoin:miter;stroke-opacity:1;font-family:Sans"
       x="14.945991"
       y="22.059835"
       id="text2211"
       sodipodi:linespacing="100%"
       transform="scale(0.9698713,1.0310647)"><tspan
         sodipodi:role="line"
         id="tspan2213"
         x="14.945991"
         y="22.059835">WMS</tspan></text>
  </g>
</svg>
