/* XPM */
static char *MAGML[] = {
/* columns rows colors chars-per-pixel */
"32 32 230 2",
"   c gray20",
".  c #343434",
"X  c gray22",
"o  c #393939",
"O  c #3C3C3C",
"+  c gray24",
"@  c gray25",
"#  c gray26",
"$  c #434343",
"%  c #444444",
"&  c #464646",
"*  c gray28",
"=  c #494949",
"-  c #4C4C4C",
";  c gray30",
":  c #4E4E4E",
">  c #505050",
",  c gray32",
"<  c #535353",
"1  c gray33",
"2  c #555555",
"3  c #565656",
"4  c #585858",
"5  c gray35",
"6  c #5A5A5A",
"7  c #5B5B5B",
"8  c gray36",
"9  c #5D5D5D",
"0  c gray37",
"q  c #5F5F5F",
"w  c #626262",
"e  c gray39",
"r  c #646464",
"t  c #656565",
"y  c gray40",
"u  c #676767",
"i  c #686868",
"p  c DimGray",
"a  c #6A6A6A",
"s  c gray42",
"d  c #6C6C6C",
"f  c #6F6F6F",
"g  c gray44",
"h  c #717171",
"j  c #747474",
"k  c gray46",
"l  c #767676",
"z  c #777777",
"x  c #797979",
"c  c gray49",
"v  c #7F7F7F",
"b  c #B31200",
"n  c #B41605",
"m  c #B51907",
"M  c #B71E0F",
"N  c #BA2518",
"B  c #BA2D1D",
"V  c #BB2E1E",
"C  c #BD2D22",
"Z  c #BC3122",
"A  c #BC3324",
"S  c #BF382B",
"D  c #C0342B",
"F  c #C23C35",
"G  c #C24034",
"H  c #C5473D",
"J  c #C84D45",
"K  c #C8504A",
"L  c #C9544E",
"P  c #D26A69",
"I  c #D26B6A",
"U  c #D26F6A",
"Y  c #D4716F",
"T  c #D77477",
"R  c #D77E7B",
"E  c #D87F7D",
"W  c #D87D7E",
"Q  c #D87B80",
"!  c #808080",
"~  c #818181",
"^  c gray51",
"/  c #838383",
"(  c #848484",
")  c gray52",
"_  c gray53",
"`  c #888888",
"'  c #898989",
"]  c gray54",
"[  c #8B8B8B",
"{  c #8E8E8E",
"}  c #909090",
"|  c gray57",
" . c gray58",
".. c #959595",
"X. c gray59",
"o. c #979797",
"O. c #989898",
"+. c #9A9A9A",
"@. c #9B9B9B",
"#. c #9D9D9D",
"$. c #9F9F9F",
"%. c gray63",
"&. c #A2A2A2",
"*. c gray64",
"=. c #A4A4A4",
"-. c #A5A5A5",
";. c gray65",
":. c #A7A7A7",
">. c gray66",
",. c #AAAAAA",
"<. c #ACACAC",
"1. c gray68",
"2. c #AEAEAE",
"3. c gray69",
"4. c #B2B2B2",
"5. c #B4B4B4",
"6. c gray71",
"7. c #B6B6B6",
"8. c #B7B7B7",
"9. c gray72",
"0. c #B9B9B9",
"q. c gray73",
"w. c #BBBBBB",
"e. c #BCBCBC",
"r. c gray74",
"t. c gray",
"y. c gray75",
"u. c #D98482",
"i. c #DB8188",
"p. c #DC8889",
"a. c #DC8C89",
"s. c #DD8C8D",
"d. c #DD8C90",
"f. c #DE8D91",
"g. c #E1919A",
"h. c #E2969D",
"j. c #E29E9D",
"k. c #E399A1",
"l. c #DEB3AE",
"z. c #E4A2A4",
"x. c #E5A1A8",
"c. c #E5A3A9",
"v. c #E6A0AB",
"b. c #E5A4A9",
"n. c #E5A6A8",
"m. c #E0B2AD",
"M. c #E1B3AE",
"N. c #E2B4AF",
"B. c #E8ABB2",
"V. c #E9ABB4",
"C. c #E3B5B0",
"Z. c #E4B6B1",
"A. c #E5B7B2",
"S. c #E6B9B4",
"D. c #E7BBB7",
"F. c #E9B4B8",
"G. c #E8BDBA",
"H. c #E9C1BE",
"J. c #EDBAC2",
"K. c #C0C0C0",
"L. c #C1C1C1",
"P. c gray76",
"I. c gray77",
"U. c #C5C5C5",
"Y. c gray78",
"T. c #C8C8C8",
"R. c #CACACA",
"E. c #CBCBCB",
"W. c gray80",
"Q. c gray81",
"!. c #D0D0D0",
"~. c gray82",
"^. c #D2D2D2",
"/. c #D5D5D5",
"(. c gray84",
"). c #D7D7D7",
"_. c #D8D8D8",
"`. c gray85",
"'. c #DADADA",
"]. c gray86",
"[. c gainsboro",
"{. c #DDDDDD",
"}. c gray87",
"|. c #DFDFDF",
" X c #EBC4C1",
".X c #EDC7C5",
"XX c #EEC9C8",
"oX c #EFCCCB",
"OX c #F0CECE",
"+X c #EFCDD3",
"@X c #F1D0D1",
"#X c #F1D3D8",
"$X c #F3D7D9",
"%X c #F4D8D9",
"&X c #F4D9DB",
"*X c #F4DADB",
"=X c #F5DBDE",
"-X c #F6DDE1",
";X c gray88",
":X c #E1E1E1",
">X c #E2E2E2",
",X c gray89",
"<X c #E4E4E4",
"1X c gray90",
"2X c #E6E6E6",
"3X c #E7E7E7",
"4X c gray91",
"5X c #E9E9E9",
"6X c #EAEAEA",
"7X c gray92",
"8X c #ECECEC",
"9X c gray93",
"0X c #EEEEEE",
"qX c #EFEFEF",
"wX c #F7EDEF",
"eX c gray94",
"rX c #F1F1F1",
"tX c gray95",
"yX c #F3F3F3",
"uX c #F4F4F4",
"iX c gray96",
"pX c #F6F6F6",
"aX c gray97",
"sX c #F8F8F8",
"dX c #F9F9F9",
"fX c gray98",
"gX c #FBFBFB",
"hX c gray99",
"jX c #FDFDFD",
"kX c gray100",
/* pixels */
"kX6X3X3X2X2X2X1X1X1X1X<X<X<X,X,X,X>X>X>X>X:X:X:X;X;X;X;X;X~.kXkX",
"kX3X#XV.k.h.i.Q T p.I E U L J H G S Z V V V V V V V B B A :XkXkX",
"kX3X+XJ.B.c.F.f.z.s.j.u.R F D C N M n b b b b b b b b b m :XkXkX",
"kX2X+Xv.g.x.b.d.n.W P Y a.K D C N M n b b b b b b b b b m :XkXkX",
"kX2XwX-X=X&X$X%X*X@XOXoXXX.X XH.G.D.S.A.Z.Z.C.N.N.M.M.m.l.;XkXkX",
"kX2XsX3X;X{.5X}.}.pXdX].2X2X,X`.[.8X2XaXaXpXiXuXyXtXrXrX8X;XkXkX",
"kX1XdX>X}.4X>X`.|.>X`.6X4X<X|.9XdXdXsXaXpXiXuXuXyXtXrXeX5X;XkXkX",
"kX1XtX`.5XkXkXkXjX`.,XjXhXhXgXfXdXsXaXpXpXiXuXyXtXrXrX0X4X;XkXkX",
"kX1X/.  2 iXtXeXe.  i uX9XeX9XuXeX,XuX8X7X5X0X0X<X7X0X6X5X;XkXkX",
"kX1X/.o 4 R.sXqXk w s 8XsX7X}.'.qX4X6X6XtX5X~.1X|.:X7X5X6X;XkXkX",
"kX<X/.o $.) hX2X% $.d rXpX7 3 < # w.1X0Xy.@ : = j c <X6X7X;XkXkX",
"kX<X(.o 3X& pX*.! >.i 0XrX{.yX3X>.> 7X2X; X.1X].% v 7X7X8X;XkXkX",
"kX<X(.o rXg 9.0 W.>.u 9XtX).,.^ j . }.^.. {.0X>Xh x <X8X9X;XkXkX",
"kX,X(.X tX6.5 , tX&.i tX9X* { 8.r.  {.Q.X ,X4XqX( v 9X9X9X;XkXkX",
"kX,X(.o kXhXw <.jX,.d fXK.9 sXaX0.  3XqXO L.eX0X2 v 0X0X0X;XkXkX",
"kX,X(.X sXdXtXtXeX%.d fX4XO :.=.e . 3XyX@.@ ' q 5 ! qXqXqX;XkXkX",
"kX>X5XX.uXsXrXrX0XE.,.pXyXI._ | ).} _.:X(.4...t.f [ 7XeXeX;XkXkX",
"kX>XfXtXyXpXqXuXsXh 8 W.0X8XtXQ.6 r 2X6X .f [.5.+ P.1X0XrX;XkXkX",
"kX>XdX}.0X7XuX7X8Xt 9 ' 5X}.;X .7 5 ,X3X~ - $ > #.;X|.qXtX;XkXkX",
"kX>XdXrXtXtXtXtXtXt o.3 8XtXrXq O.5 tXtX%.a tXrXeXtXtXtXtX;XkXkX",
"kX:XfX_.:X2X0X3X2Xw -.j 6.yXU.y t.5 yXyX&.a yXyXyXyXyXyXyX;XkXkX",
"kX:XfXuXuXuXuXyXuXt 1.7.z uX` =.y.5 uXuX&.a uXuXuXuXuXuXuX;XkXkX",
"kX:XfX{.).;X].2X3Xw %.~.2 U.1 {.3.4 8X9XO.t }.;X`.>X<X8X8X'.kXkX",
"kX;XgX).<X5X;X:X,Xt $.,X/ p k 1Xq.5 :X9Xo.w /.~.!.[.}.}.[.8.kXkX",
"kX;XhX7X5X;X,XqX5Xr ;.6XP.8 2.1X7.5 6X,X+.t 3X7X7XuXkXjX!.jXkXkX",
"kX;XhX`.tXyX4X2X5Xr 2.iXaXpXaXaXL.5 aXaX=.8 e.e.r.r.[.Q.jXkXkXkX",
"kX;XhXsXsXsXsXsXsX] L.sXsXsXsXsXQ.~ sXsX0.f l l l l $.jXkXkXkXkX",
"kX;XhX/.(.3XrX5X9XsXsXsXsXsXsXsXsXsXsXsXsX(.9X7X7XE.jXkXkXkXkXkX",
"kX;XhXaXsXsXdXdXdXdXdXdXdXdXdXdXdXdXdXdXdX(.4X1XT.jXkXkXkXkXkXkX",
"kX;XhXdXdXdXdXdXdXdXdXdXdXdXdXdXdXdXdXdXdX).,XU.jXkXkXkXkXkXkXkX",
"kX;XjXfXfXfXfXfXfXfXfXfXfXfXfXfXfXfXfXfXfX/.I.jXkXkXkXkXkXkXkXkX",
"kX5X|.}.}.}.}.}.}.}.}.}.}.}.}.}.}.}.}.}.}.Y.gXkXkXkXkXkXkXkXkXkX"
};
