<?xml version="1.0" encoding="UTF-8" standalone="no"?>
<!-- Created with Inkscape (http://www.inkscape.org/) -->

<svg
   xmlns:dc="http://purl.org/dc/elements/1.1/"
   xmlns:cc="http://creativecommons.org/ns#"
   xmlns:rdf="http://www.w3.org/1999/02/22-rdf-syntax-ns#"
   xmlns:svg="http://www.w3.org/2000/svg"
   xmlns="http://www.w3.org/2000/svg"
   xmlns:xlink="http://www.w3.org/1999/xlink"
   xmlns:sodipodi="http://sodipodi.sourceforge.net/DTD/sodipodi-0.dtd"
   xmlns:inkscape="http://www.inkscape.org/namespaces/inkscape"
   width="32"
   height="32"
   id="svg2"
   version="1.1"
   inkscape:version="0.48.2 r9819"
   sodipodi:docname="archive.svg">
  <defs
     id="defs4">
    <linearGradient
       id="linearGradient4073">
      <stop
         style="stop-color:#524630;stop-opacity:1;"
         offset="0"
         id="stop4075" />
      <stop
         style="stop-color:#563a06;stop-opacity:1;"
         offset="1"
         id="stop4077" />
    </linearGradient>
    <linearGradient
       id="linearGradient4060">
      <stop
         style="stop-color:#5e5e5e;stop-opacity:1;"
         offset="0"
         id="stop4062" />
      <stop
         style="stop-color:#b3b3b3;stop-opacity:1;"
         offset="1"
         id="stop4064" />
    </linearGradient>
    <linearGradient
       id="linearGradient4010">
      <stop
         style="stop-color:#d9c18d;stop-opacity:1;"
         offset="0"
         id="stop4012" />
      <stop
         style="stop-color:#c5a152;stop-opacity:1;"
         offset="1"
         id="stop4014" />
    </linearGradient>
    <linearGradient
       id="linearGradient3939">
      <stop
         style="stop-color:#b58232;stop-opacity:1;"
         offset="0"
         id="stop3941" />
      <stop
         style="stop-color:#dccc8a;stop-opacity:1;"
         offset="1"
         id="stop3943" />
    </linearGradient>
    <linearGradient
       id="linearGradient3931">
      <stop
         style="stop-color:#d4c872;stop-opacity:1;"
         offset="0"
         id="stop3933" />
      <stop
         style="stop-color:#dfd195;stop-opacity:1;"
         offset="1"
         id="stop3935" />
    </linearGradient>
    <inkscape:perspective
       sodipodi:type="inkscape:persp3d"
       inkscape:vp_x="38.871195 : 24.877412 : 1"
       inkscape:vp_y="0 : 1000 : 0"
       inkscape:vp_z="10.92453 : 27.810746 : 1"
       inkscape:persp3d-origin="-5.0754711 : 22.477413 : 1"
       id="perspective3871" />
    <linearGradient
       id="linearGradient3789">
      <stop
         style="stop-color:#d7e3f4;stop-opacity:1;"
         offset="0"
         id="stop3791" />
      <stop
         style="stop-color:#f7f7f7;stop-opacity:1;"
         offset="1"
         id="stop3793" />
    </linearGradient>
    <linearGradient
       id="linearGradient4000">
      <stop
         id="stop3783"
         offset="0"
         style="stop-color:#adcbdd;stop-opacity:1;" />
      <stop
         style="stop-color:#ffffff;stop-opacity:1;"
         offset="1"
         id="stop4004" />
    </linearGradient>
    <linearGradient
       inkscape:collect="always"
       xlink:href="#linearGradient3939"
       id="linearGradient3945"
       x1="14.750791"
       y1="26.042974"
       x2="4.8126822"
       y2="19.05831"
       gradientUnits="userSpaceOnUse"
       gradientTransform="matrix(1.1667599,0,0,1.3722561,-1.5619115,-11.299549)" />
    <linearGradient
       inkscape:collect="always"
       xlink:href="#linearGradient4010"
       id="linearGradient4016"
       x1="5"
       y1="12"
       x2="17"
       y2="24"
       gradientUnits="userSpaceOnUse"
       gradientTransform="translate(-20,21)" />
  </defs>
  <sodipodi:namedview
     id="base"
     pagecolor="#ffffff"
     bordercolor="#666666"
     borderopacity="1.0"
     inkscape:pageopacity="0.0"
     inkscape:pageshadow="2"
     inkscape:zoom="18.75"
     inkscape:cx="14.049912"
     inkscape:cy="16.5248"
     inkscape:document-units="px"
     inkscape:current-layer="layer3"
     showgrid="true"
     inkscape:snap-grids="true"
     inkscape:window-width="1599"
     inkscape:window-height="990"
     inkscape:window-x="96"
     inkscape:window-y="20"
     inkscape:window-maximized="0">
    <inkscape:grid
       type="xygrid"
       id="grid2816"
       empspacing="5"
       visible="true"
       enabled="true"
       snapvisiblegridlinesonly="true" />
  </sodipodi:namedview>
  <metadata
     id="metadata7">
    <rdf:RDF>
      <cc:Work
         rdf:about="">
        <dc:format>image/svg+xml</dc:format>
        <dc:type
           rdf:resource="http://purl.org/dc/dcmitype/StillImage" />
        <dc:title></dc:title>
        <cc:license
           rdf:resource="Apache License 2.0" />
        <dc:creator>
          <cc:Agent>
            <dc:title />
          </cc:Agent>
        </dc:creator>
        <dc:publisher>
          <cc:Agent>
            <dc:title>ECMWF</dc:title>
          </cc:Agent>
        </dc:publisher>
        <dc:language>en-GB</dc:language>
        <dc:subject>
          <rdf:Bag>
            <rdf:li>Metview icon</rdf:li>
          </rdf:Bag>
        </dc:subject>
        <dc:description>Metview icon</dc:description>
      </cc:Work>
    </rdf:RDF>
  </metadata>
  <g
     inkscape:groupmode="layer"
     id="layer4"
     inkscape:label="back" />
  <g
     inkscape:groupmode="layer"
     id="layer2"
     inkscape:label="left" />
  <g
     inkscape:groupmode="layer"
     id="layer1"
     inkscape:label="Layer">
    <path
       style="fill:url(#linearGradient3945);fill-opacity:1;stroke:#000000;stroke-width:0.5;stroke-linejoin:round;stroke-miterlimit:4;stroke-opacity:1"
       d="m 2.3733333,10.96 20.9999997,0 0,19 c 0,0 -9.333252,0.173333 -9.32,-1.106667 l -3,0 C 11.100003,30.065556 5.6533333,29.96 2.3733333,29.96 c -0.1066667,-3.035556 -0.5866667,-8.693334 0.68,-8.106667 l 0,-3 c -1.32,0.48 -1,-8 -0.68,-7.893333 z"
       id="rect3806"
       inkscape:connector-curvature="0"
       sodipodi:nodetypes="ccccccccc" />
    <path
       style="fill:#b28539;fill-opacity:1;stroke:#000000;stroke-width:0.5;stroke-linejoin:round;stroke-miterlimit:4;stroke-opacity:1;stroke-dasharray:none"
       d="M 9.3733333,2.96 C 11.617516,2.9422222 18.108239,2.5377778 18.053333,3.8533333 l 3,0 C 21.001773,2.4666667 26.097778,3 30,3 l -6.626667,7.96 c -3.89109,0.171868 -7.32,-0.106667 -9.32,0.893333 l -3,0 c -1.9999997,-1 -6.4695027,-0.966332 -8.733333,-1.000002 z"
       id="rect3868"
       inkscape:connector-curvature="0"
       sodipodi:nodetypes="ccccccccc" />
  </g>
  <g
     inkscape:groupmode="layer"
     id="layer3"
     inkscape:label="right">
    <path
       style="fill:#6e5223;fill-opacity:1;stroke:#000000;stroke-width:0.5;stroke-linejoin:round;stroke-miterlimit:4;stroke-opacity:1;stroke-dasharray:none"
       d="m 23.373333,10.96 6.573333,-7.7333333 c 0,0 0.366657,8.5618613 -0.893333,8.6266663 l 0,3 c 1.50996,-1.195844 1.159999,7.04 1.159999,7.04 l -6.84,8.066667 c 0,0 0.426667,-8 -1.32,-8.106667 l 0,-3 c 1.32,-0.48 1.32,-7.893333 1.320001,-7.893333 z"
       id="rect3808-3"
       inkscape:connector-curvature="0"
       sodipodi:nodetypes="ccccccccc" />
  </g>
  <g
     inkscape:groupmode="layer"
     id="layer5"
     inkscape:label="edge" />
  <g
     inkscape:groupmode="layer"
     id="layer7"
     inkscape:label="strip1">
    <path
       sodipodi:nodetypes="ccssscc"
       inkscape:connector-curvature="0"
       id="path4039"
       d="m 11.053333,11.853333 c 1.901035,-3.3682091 3.821518,-5.4410082 7,-7.9999997 0.392901,-0.5892306 3.301572,-0.350017 3,0 0,0 -6.211577,6.2549737 -7,7.9999997 -0.675247,1.494533 -0.492523,13.149644 -0.16,17 0.07536,0.872653 -3.449035,0.106667 -2.786667,0.106667 -0.24284,-4.892354 -0.71596,-11.932156 -0.05333,-17.106667 z"
       style="fill:#c8c4b7;stroke:#6c3c1a;stroke-width:0.55166680000000001;stroke-linecap:butt;stroke-linejoin:round;stroke-miterlimit:4;stroke-opacity:1;stroke-dasharray:none" />
    <path
       style="fill:#00112b;stroke:none"
       d="m 11.319999,11.959999 c 1.901035,-3.3682084 3.768185,-5.3343408 6.946667,-7.8933324 0.392901,-0.5892305 1.541572,-0.510017 1.24,-0.16 0,0 -6.158243,6.4149734 -6.946666,8.1599994 -0.675247,1.494533 -0.43919,12.776312 -0.106663,16.626668 0.07536,0.872653 -1.742369,-0.05333 -1.080001,-0.05333 -0.24284,-4.892354 -0.71596,-11.50549 -0.05334,-16.680002 z"
       id="path4083"
       inkscape:connector-curvature="0"
       sodipodi:nodetypes="ccssscc" />
  </g>
  <g
     inkscape:groupmode="layer"
     id="layer6"
     inkscape:label="strip">
    <path
       style="fill:#aca793;fill-opacity:1;stroke:#6c3c1a;stroke-width:0.54893386;stroke-linecap:butt;stroke-linejoin:round;stroke-miterlimit:4;stroke-opacity:1;stroke-dasharray:none"
       d="m 3.105464,21.96 c 6.905659,0.576498 10.645378,0.477304 19.116977,-0.03051 2.003073,-1.150801 5.204447,-4.948645 6.871483,-7.196159 0.419301,-0.565306 0.378061,-3.682807 -0.05393,-2.893334 -0.819792,1.498185 -5.559834,6.767453 -6.884934,7.195893 C 20.525936,18.98784 9.5703946,19.862176 3.1587943,18.96 c -0.619725,0 -0.6700466,2.948515 -0.05333,3 z"
       id="path4018"
       inkscape:connector-curvature="0"
       sodipodi:nodetypes="scssccs" />
    <path
       sodipodi:nodetypes="scssccs"
       inkscape:connector-curvature="0"
       id="path4081"
       d="m 3.3721307,21.853333 c 6.9056593,0.576498 10.5920443,0.370638 19.0636433,-0.137173 2.003073,-1.150801 4.991114,-4.895312 6.65815,-7.142826 0.419301,-0.565306 0.164728,-1.65614 -0.267263,-0.866667 -0.819792,1.498185 -5.186501,6.607452 -6.511601,7.035892 -1.629127,-0.04805 -12.8513357,0.666286 -19.2629354,-0.23589 -0.619725,0 -0.2967132,1.295182 0.3200061,1.346664 z"
       style="fill:#00112b;fill-opacity:1;stroke:none" />
  </g>
</svg>
