<?xml version="1.0" encoding="UTF-8" standalone="no"?>
<svg
   xmlns:dc="http://purl.org/dc/elements/1.1/"
   xmlns:cc="http://creativecommons.org/ns#"
   xmlns:rdf="http://www.w3.org/1999/02/22-rdf-syntax-ns#"
   xmlns:svg="http://www.w3.org/2000/svg"
   xmlns="http://www.w3.org/2000/svg"
   xmlns:xlink="http://www.w3.org/1999/xlink"
   xmlns:sodipodi="http://sodipodi.sourceforge.net/DTD/sodipodi-0.dtd"
   xmlns:inkscape="http://www.inkscape.org/namespaces/inkscape"
   viewBox="0 0 32 32"
   sodipodi:docname="block_reset.svg"
   inkscape:version="1.0 (4035a4f, 2020-05-01)"
   version="1.1"
   id="svg2"
   height="34.133335"
   width="34.133335">
  <defs
     id="defs4">
    <linearGradient
       id="linearGradient3852">
      <stop
         id="stop3854"
         offset="0"
         style="stop-color:#467b3c;stop-opacity:1;" />
      <stop
         id="stop3856"
         offset="1"
         style="stop-color:#3d9f3d;stop-opacity:0.99215686;" />
    </linearGradient>
    <linearGradient
       id="linearGradient3799">
      <stop
         id="stop3801"
         offset="0"
         style="stop-color:#aae1be;stop-opacity:1;" />
      <stop
         id="stop3803"
         offset="1"
         style="stop-color:#4bc82b;stop-opacity:1;" />
    </linearGradient>
    <linearGradient
       id="linearGradient3777">
      <stop
         id="stop3779"
         offset="0"
         style="stop-color:#0000ad;stop-opacity:1;" />
      <stop
         id="stop3781"
         offset="1"
         style="stop-color:#25d4ce;stop-opacity:1;" />
    </linearGradient>
    <linearGradient
       id="linearGradient3756">
      <stop
         style="stop-color:#519aed;stop-opacity:1;"
         offset="0"
         id="stop3758" />
      <stop
         style="stop-color:#e9dddd;stop-opacity:0;"
         offset="1"
         id="stop3760" />
    </linearGradient>
    <linearGradient
       id="linearGradient3728">
      <stop
         id="stop3730"
         offset="0"
         style="stop-color:#f1f3fb;stop-opacity:1;" />
      <stop
         id="stop3732"
         offset="1"
         style="stop-color:#273df9;stop-opacity:0;" />
    </linearGradient>
    <linearGradient
       y2="18.883736"
       x2="15.941438"
       y1="3.4795053"
       x1="15.413333"
       gradientTransform="matrix(-1.2610607,0,0,-1.4171918,34.864183,41.732028)"
       gradientUnits="userSpaceOnUse"
       id="linearGradient3710"
       xlink:href="#linearGradient3728"
       inkscape:collect="always" />
    <linearGradient
       y2="18.883736"
       x2="15.941438"
       y1="3.4853487"
       x1="24.437176"
       gradientTransform="matrix(-1.2610607,0,0,-1.4171918,34.864183,41.732028)"
       gradientUnits="userSpaceOnUse"
       id="linearGradient3720"
       xlink:href="#linearGradient3756"
       inkscape:collect="always" />
    <linearGradient
       gradientTransform="matrix(1.0279887,0,0,1.0323478,7.1553463,-2.2096664)"
       gradientUnits="userSpaceOnUse"
       y2="16.374115"
       x2="28.440672"
       y1="16.374115"
       x1="1.4276053"
       id="linearGradient3783"
       xlink:href="#linearGradient3777"
       inkscape:collect="always" />
  </defs>
  <sodipodi:namedview
     inkscape:document-rotation="0"
     inkscape:window-maximized="0"
     inkscape:window-y="86"
     inkscape:window-x="230"
     inkscape:window-height="1095"
     inkscape:window-width="1920"
     inkscape:snap-grids="false"
     showgrid="true"
     inkscape:current-layer="layer2"
     inkscape:document-units="px"
     inkscape:cy="3.3498816"
     inkscape:cx="-11.085313"
     inkscape:zoom="13.258252"
     inkscape:pageshadow="2"
     inkscape:pageopacity="0.0"
     borderopacity="1.0"
     bordercolor="#666666"
     pagecolor="#ffffff"
     id="base">
    <inkscape:grid
       spacingy="1"
       spacingx="1"
       originy="0"
       originx="0"
       snapvisiblegridlinesonly="true"
       enabled="true"
       visible="true"
       empspacing="5"
       id="grid2816"
       type="xygrid" />
  </sodipodi:namedview>
  <metadata
     id="metadata7">
    <rdf:RDF>
      <cc:Work
         rdf:about="">
        <dc:format>image/svg+xml</dc:format>
        <dc:type
           rdf:resource="http://purl.org/dc/dcmitype/StillImage" />
        <dc:title />
        <cc:license
           rdf:resource="Apache License 2.0" />
        <dc:creator>
          <cc:Agent>
            <dc:title />
          </cc:Agent>
        </dc:creator>
        <dc:publisher>
          <cc:Agent>
            <dc:title>ECMWF</dc:title>
          </cc:Agent>
        </dc:publisher>
        <dc:language>en-GB</dc:language>
        <dc:subject>
          <rdf:Bag>
            <rdf:li>Metview icon</rdf:li>
          </rdf:Bag>
        </dc:subject>
        <dc:description>Metview icon</dc:description>
      </cc:Work>
    </rdf:RDF>
  </metadata>
  <g
     style="display:inline"
     inkscape:label="circle"
     id="layer3"
     inkscape:groupmode="layer">
    <path
       sodipodi:nodetypes="cc"
       inkscape:connector-curvature="0"
       id="path3695"
       d="m 31.4505,25.082504 c 2.407124,7.327263 1.203562,3.663633 0,0 z"
       style="fill:url(#linearGradient3710);fill-opacity:1;fill-rule:evenodd;stroke:url(#linearGradient3720);stroke-width:1.04565;stroke-linecap:butt;stroke-linejoin:miter;stroke-miterlimit:4;stroke-dasharray:none;stroke-dashoffset:0;stroke-opacity:1" />
  </g>
  <g
     style="display:inline"
     inkscape:label="item"
     id="layer2"
     inkscape:groupmode="layer">
    <path
       sodipodi:nodetypes="cssssc"
       inkscape:connector-curvature="0"
       id="path3010"
       d="m 8.3204999,25.3067 c 0,0 5.0563821,4.896097 12.4348421,2.966987 4.053187,-1.059711 7.730863,-5.957411 8.329559,-10.17253 C 29.651933,14.108959 27.900992,9.7393868 24.920122,7.0809152 21.663101,4.1761589 18.118379,3.5882082 14.805659,4.1744778 9.7563934,5.0680726 6.8330811,9.5634975 6.8330811,9.5634975"
       style="fill:none;stroke:#1a1a1a;stroke-width:3.7499998;stroke-linecap:butt;stroke-linejoin:miter;stroke-miterlimit:4;stroke-dasharray:none;stroke-opacity:1" />
    <path
       sodipodi:nodetypes="cccc"
       inkscape:connector-curvature="0"
       id="path3012"
       d="M 14.736821,14.650092 0.66068103,4.0763354 2.1412672,16.097145 Z"
       inkscape:transform-center-y="-1.2038621"
       inkscape:transform-center-x="-0.71033003"
       style="fill:#1a1a1a;fill-opacity:1;fill-rule:evenodd;stroke:none;stroke-width:1.00993" />
  </g>
  <g
     sodipodi:insensitive="true"
     style="display:none"
     inkscape:label="top"
     id="layer4"
     inkscape:groupmode="layer">
    <ellipse
       ry="13.706667"
       rx="13.973333"
       cy="17.973333"
       cx="16.213333"
       transform="matrix(1.0376908,0,0,1.0578794,-0.937761,-2.9536141)"
       id="path3786"
       style="fill:none;stroke:#2f6ab7;stroke-width:1.24077;stroke-linecap:butt;stroke-linejoin:miter;stroke-miterlimit:4;stroke-dasharray:none;stroke-dashoffset:0;stroke-opacity:1" />
  </g>
</svg>
