<?xml version="1.0" encoding="UTF-8" standalone="no"?>
<!-- Created with Inkscape (http://www.inkscape.org/) -->

<svg
   xmlns:dc="http://purl.org/dc/elements/1.1/"
   xmlns:cc="http://creativecommons.org/ns#"
   xmlns:rdf="http://www.w3.org/1999/02/22-rdf-syntax-ns#"
   xmlns:svg="http://www.w3.org/2000/svg"
   xmlns="http://www.w3.org/2000/svg"
   xmlns:xlink="http://www.w3.org/1999/xlink"
   xmlns:sodipodi="http://sodipodi.sourceforge.net/DTD/sodipodi-0.dtd"
   xmlns:inkscape="http://www.inkscape.org/namespaces/inkscape"
   width="12"
   height="12"
   id="svg2"
   version="1.1"
   inkscape:version="0.48.2 r9819"
   sodipodi:docname="cursor_fdiag.svg">
  <defs
     id="defs4">
    <linearGradient
       id="linearGradient3851">
      <stop
         style="stop-color:#fafafa;stop-opacity:1;"
         offset="0"
         id="stop3853" />
      <stop
         style="stop-color:#e6e6e6;stop-opacity:1;"
         offset="1"
         id="stop3855" />
    </linearGradient>
    <linearGradient
       inkscape:collect="always"
       xlink:href="#linearGradient3851-1"
       id="linearGradient3935"
       gradientUnits="userSpaceOnUse"
       gradientTransform="matrix(1.9202257,0,0,2.5990709,-3.6450585,-45.649231)"
       x1="4.3920174"
       y1="20.106667"
       x2="14.933549"
       y2="27.622316" />
    <linearGradient
       id="linearGradient3851-1">
      <stop
         style="stop-color:#fafafa;stop-opacity:1;"
         offset="0"
         id="stop3853-7" />
      <stop
         style="stop-color:#c1cdd4;stop-opacity:1;"
         offset="1"
         id="stop3855-4" />
    </linearGradient>
    <linearGradient
       id="linearGradient3685-4-4">
      <stop
         id="stop3687-6-7"
         offset="0"
         style="stop-color:#c78e5b;stop-opacity:1;" />
      <stop
         id="stop3689-9-3"
         offset="1"
         style="stop-color:#cf7d3e;stop-opacity:1;" />
    </linearGradient>
    <linearGradient
       id="linearGradient3675-2-5">
      <stop
         id="stop3677-2-6"
         offset="0"
         style="stop-color:#e6bc10;stop-opacity:1;" />
      <stop
         id="stop3679-4-1"
         offset="1"
         style="stop-color:#dbe683;stop-opacity:1;" />
    </linearGradient>
    <linearGradient
       y2="15.711069"
       x2="24.332083"
       y1="3.2495306"
       x1="8.3320827"
       gradientTransform="matrix(1.0001759,0,0,1.0001946,0.997537,-0.4039633)"
       gradientUnits="userSpaceOnUse"
       id="linearGradient3879"
       xlink:href="#linearGradient3665-7-6"
       inkscape:collect="always" />
    <linearGradient
       id="linearGradient3665-7-6">
      <stop
         id="stop3667-7-5"
         offset="0"
         style="stop-color:#b7b7b7;stop-opacity:1;" />
      <stop
         id="stop3669-5-1"
         offset="1"
         style="stop-color:#f1f1f1;stop-opacity:0.99215686;" />
    </linearGradient>
    <linearGradient
       y2="27.622316"
       x2="14.933549"
       y1="20.106667"
       x1="4.3920174"
       gradientTransform="matrix(1.4281186,0,0,1.9641936,-0.66675033,-27.802407)"
       gradientUnits="userSpaceOnUse"
       id="linearGradient4468-2"
       xlink:href="#linearGradient3851-1-7"
       inkscape:collect="always" />
    <linearGradient
       id="linearGradient3851-1-7">
      <stop
         style="stop-color:#fafafa;stop-opacity:1;"
         offset="0"
         id="stop3853-7-6" />
      <stop
         style="stop-color:#c1cdd4;stop-opacity:1;"
         offset="1"
         id="stop3855-4-1" />
    </linearGradient>
  </defs>
  <sodipodi:namedview
     id="base"
     pagecolor="#ffffff"
     bordercolor="#666666"
     borderopacity="1.0"
     inkscape:pageopacity="0.0"
     inkscape:pageshadow="2"
     inkscape:zoom="69.75"
     inkscape:cx="8.2468621"
     inkscape:cy="6.415046"
     inkscape:document-units="px"
     inkscape:current-layer="layer4"
     showgrid="true"
     inkscape:snap-grids="false"
     inkscape:window-width="1881"
     inkscape:window-height="1026"
     inkscape:window-x="-8"
     inkscape:window-y="-8"
     inkscape:window-maximized="1"
     inkscape:snap-to-guides="true"
     showguides="true"
     inkscape:guide-bbox="true">
    <inkscape:grid
       type="xygrid"
       id="grid2816"
       empspacing="5"
       visible="true"
       enabled="true"
       snapvisiblegridlinesonly="true" />
    <sodipodi:guide
       orientation="1,0"
       position="8.3010753,9.390681"
       id="guide6044" />
    <sodipodi:guide
       orientation="1,0"
       position="3.5555556,10.824373"
       id="guide6046" />
    <sodipodi:guide
       orientation="0,1"
       position="-0.20071685,5.9784946"
       id="guide6048" />
    <sodipodi:guide
       orientation="0,1"
       position="0.3297491,7.7849462"
       id="guide6050" />
    <sodipodi:guide
       orientation="0,1"
       position="1.6774194,4.0143369"
       id="guide6054" />
  </sodipodi:namedview>
  <metadata
     id="metadata7">
    <rdf:RDF>
      <cc:Work
         rdf:about="">
        <dc:format>image/svg+xml</dc:format>
        <dc:type
           rdf:resource="http://purl.org/dc/dcmitype/StillImage" />
        <dc:title></dc:title>
        <cc:license
           rdf:resource="Apache License 2.0" />
        <dc:creator>
          <cc:Agent>
            <dc:title />
          </cc:Agent>
        </dc:creator>
        <dc:publisher>
          <cc:Agent>
            <dc:title>ECMWF</dc:title>
          </cc:Agent>
        </dc:publisher>
        <dc:language>en-GB</dc:language>
        <dc:subject>
          <rdf:Bag>
            <rdf:li>Metview icon</rdf:li>
          </rdf:Bag>
        </dc:subject>
        <dc:description>Metview icon</dc:description>
      </cc:Work>
    </rdf:RDF>
  </metadata>
  <g
     inkscape:groupmode="layer"
     id="layer4"
     inkscape:label="page"
     style="display:inline"
     transform="translate(0,-20)">
    <path
       style="fill:#000000;stroke:#000000;stroke-width:0.5;stroke-linecap:butt;stroke-linejoin:miter;stroke-miterlimit:4;stroke-opacity:1;stroke-dasharray:none"
       d="m 2.1418204,29.880783 -0.6557182,-4.958112 1.5305302,1.53536 3.3608722,-3.350298 -1.5811407,-1.586131 5.1076751,0.621384 0.54861,5.052753 -1.4131253,-1.417585 -3.3608722,3.350298 1.4232452,1.427737 z"
       id="path6042"
       inkscape:connector-curvature="0"
       sodipodi:nodetypes="ccccccccccc" />
  </g>
</svg>
