<?xml version="1.0" encoding="UTF-8" standalone="no"?>
<svg
   xmlns:dc="http://purl.org/dc/elements/1.1/"
   xmlns:cc="http://creativecommons.org/ns#"
   xmlns:rdf="http://www.w3.org/1999/02/22-rdf-syntax-ns#"
   xmlns:svg="http://www.w3.org/2000/svg"
   xmlns="http://www.w3.org/2000/svg"
   xmlns:sodipodi="http://sodipodi.sourceforge.net/DTD/sodipodi-0.dtd"
   xmlns:inkscape="http://www.inkscape.org/namespaces/inkscape"
   viewBox="0 0 32 32"
   sodipodi:docname="editcut.svg"
   inkscape:version="0.91 r13725"
   version="1.1"
   id="svg2"
   height="34.133335"
   width="34.133335">
  <defs
     id="defs4">
    <linearGradient
       id="linearGradient3961">
      <stop
         id="stop3963"
         offset="0"
         style="stop-color:#df2026;stop-opacity:1;" />
      <stop
         id="stop3965"
         offset="1"
         style="stop-color:#ee8689;stop-opacity:1;" />
    </linearGradient>
    <linearGradient
       id="linearGradient3885">
      <stop
         id="stop3887"
         offset="0"
         style="stop-color:#ffffff;stop-opacity:1;" />
      <stop
         id="stop3889"
         offset="1"
         style="stop-color:#ebebeb;stop-opacity:1;" />
    </linearGradient>
    <linearGradient
       id="linearGradient3885-4">
      <stop
         id="stop3887-1"
         offset="0"
         style="stop-color:#ffffff;stop-opacity:1;" />
      <stop
         id="stop3889-7"
         offset="1"
         style="stop-color:#ebebeb;stop-opacity:1;" />
    </linearGradient>
  </defs>
  <sodipodi:namedview
     inkscape:document-rotation="0"
     inkscape:window-maximized="0"
     inkscape:window-y="28"
     inkscape:window-x="0"
     inkscape:window-height="792"
     inkscape:window-width="1440"
     inkscape:snap-grids="false"
     showgrid="true"
     inkscape:current-layer="layer6"
     inkscape:document-units="px"
     inkscape:cy="17.066668"
     inkscape:cx="5.8117395"
     inkscape:zoom="17.636718"
     inkscape:pageshadow="2"
     inkscape:pageopacity="0.0"
     borderopacity="1.0"
     bordercolor="#666666"
     pagecolor="#ffffff"
     id="base">
    <inkscape:grid
       spacingy="1"
       spacingx="1"
       originy="0"
       originx="0"
       snapvisiblegridlinesonly="true"
       enabled="true"
       visible="true"
       empspacing="5"
       id="grid2816"
       type="xygrid" />
  </sodipodi:namedview>
  <metadata
     id="metadata7">
    <rdf:RDF>
      <cc:Work
         rdf:about="">
        <dc:format>image/svg+xml</dc:format>
        <dc:type
           rdf:resource="http://purl.org/dc/dcmitype/StillImage" />
        <dc:title />
        <cc:license
           rdf:resource="Apache License 2.0" />
        <dc:creator>
          <cc:Agent>
            <dc:title />
          </cc:Agent>
        </dc:creator>
        <dc:publisher>
          <cc:Agent>
            <dc:title>ECMWF</dc:title>
          </cc:Agent>
        </dc:publisher>
        <dc:language>en-GB</dc:language>
        <dc:subject>
          <rdf:Bag>
            <rdf:li>Metview icon</rdf:li>
          </rdf:Bag>
        </dc:subject>
        <dc:description>Metview icon</dc:description>
      </cc:Work>
    </rdf:RDF>
  </metadata>
  <g
     inkscape:label="Layer"
     id="layer6"
     inkscape:groupmode="layer">
    <path
       sodipodi:nodetypes="ccsssssscccscsssc"
       id="path3865"
       d="m 18.25395,15.33201 -1.85832,2.087635 c 0,0 2.553078,2.148288 3.065913,3.210575 0.773279,1.60177 -0.10361,3.881952 0.652571,5.295922 1.105756,2.067637 3.678215,4.809379 6.369676,4.24816 1.094569,-0.228236 2.54978,-1.57872 2.712531,-2.68448 0.220716,-1.499587 -0.269923,-3.789582 -1.08806,-5.06577 C 27.529699,21.52157 26.23164,20.64325 25.301628,20.109654 24.525423,19.6643 22.69812,19.010708 22.69812,19.010708 Z m 5.421601,6.538561 c 0.499058,0.09591 1.021836,0.53355 1.424902,0.799132 0.712745,0.469629 1.515008,2.0168 1.515008,2.0168 0,0 0.596294,2.151699 -0.227577,2.641288 -1.353486,0.80431 -3.113087,-1.182909 -3.895253,-2.548935 -0.45967,-0.8028 -0.731627,-1.989857 -0.02629,-2.588628 0.220778,-0.187421 0.909775,-0.37721 1.20921,-0.319657 z"
       style="fill:#333333;fill-opacity:1;stroke:none;stroke-width:0.5;stroke-linecap:butt;stroke-linejoin:miter;stroke-miterlimit:4;stroke-dasharray:none;stroke-opacity:1" />
    <path
       sodipodi:nodetypes="caccc"
       id="path3873"
       d="m 12.975942,14.066067 c 0,0 -5.0855945,-4.1543792 -6.0937522,-7.1078758 C 6.3433378,5.3795716 7.1365193,1.960499 7.1365193,1.960499 l 7.3919217,9.919258 z"
       style="fill:#333333;fill-opacity:1;stroke:none;stroke-width:0.6;stroke-linecap:butt;stroke-linejoin:miter;stroke-miterlimit:4;stroke-dasharray:none;stroke-opacity:1" />
  </g>
  <g
     inkscape:label="left"
     id="layer7"
     inkscape:groupmode="layer">
    <path
       sodipodi:nodetypes="csssssssscccscsssc"
       id="path3865-9"
       d="m 22.995132,2.0608224 c 0,0 -0.701371,-0.5971785 0.0932,0.047263 0.373171,0.302662 1.001189,1.6781334 -0.195676,5.2177729 -2.03046,6.0049337 -9.725516,10.7753827 -10.534,13.6492447 -0.42118,1.497141 1.269173,2.875329 0.03617,5.136981 -1.122346,2.058679 -3.6782157,4.809379 -6.3696767,4.248161 -1.094569,-0.228236 -2.54978,-1.578721 -2.712531,-2.684481 -0.220716,-1.499586 0.2167669,-3.68327 1.0349039,-4.959458 0.578562,-0.902482 1.9297771,-1.887114 2.8597891,-2.42071 0.776205,-0.445354 2.6035083,-1.098946 2.6035083,-1.098946 z M 8.8333923,22.056513 c -0.499058,0.09591 -1.021836,0.53355 -1.424902,0.799132 -0.712745,0.469629 -1.515008,2.0168 -1.515008,2.0168 0,0 -0.596294,2.151699 0.227577,2.641288 1.353486,0.80431 3.113087,-1.182909 3.8952537,-2.548935 0.45967,-0.8028 0.731627,-1.989857 0.02629,-2.588628 C 9.8218246,22.188749 9.1328273,21.99896 8.8333923,22.056513 Z"
       style="fill:#333333;fill-opacity:1;stroke:none;stroke-width:0.5;stroke-linecap:butt;stroke-linejoin:miter;stroke-miterlimit:4;stroke-dasharray:none;stroke-opacity:1" />
  </g>
  <g
     inkscape:label="screw"
     id="layer8"
     inkscape:groupmode="layer" />
</svg>
