<?xml version="1.0" encoding="UTF-8" standalone="no"?>
<!-- Created with Inkscape (http://www.inkscape.org/) -->

<svg
   xmlns:dc="http://purl.org/dc/elements/1.1/"
   xmlns:cc="http://creativecommons.org/ns#"
   xmlns:rdf="http://www.w3.org/1999/02/22-rdf-syntax-ns#"
   xmlns:svg="http://www.w3.org/2000/svg"
   xmlns="http://www.w3.org/2000/svg"
   xmlns:xlink="http://www.w3.org/1999/xlink"
   xmlns:sodipodi="http://sodipodi.sourceforge.net/DTD/sodipodi-0.dtd"
   xmlns:inkscape="http://www.inkscape.org/namespaces/inkscape"
   width="32"
   height="32"
   id="svg2"
   version="1.1"
   inkscape:version="0.47 r22583"
   sodipodi:docname="embedded.svg">
  <defs
     id="defs4">
    <linearGradient
       id="linearGradient3608">
      <stop
         style="stop-color:#e2780c;stop-opacity:1;"
         offset="0"
         id="stop3610" />
      <stop
         style="stop-color:#f8942d;stop-opacity:1;"
         offset="1"
         id="stop3612" />
    </linearGradient>
    <linearGradient
       id="linearGradient3600">
      <stop
         style="stop-color:#cd631d;stop-opacity:1;"
         offset="0"
         id="stop3602" />
      <stop
         style="stop-color:#ffb27f;stop-opacity:1;"
         offset="1"
         id="stop3604" />
    </linearGradient>
    <inkscape:perspective
       sodipodi:type="inkscape:persp3d"
       inkscape:vp_x="0 : 16 : 1"
       inkscape:vp_y="0 : 1000 : 0"
       inkscape:vp_z="32 : 16 : 1"
       inkscape:persp3d-origin="16 : 10.666667 : 1"
       id="perspective14" />
    <linearGradient
       id="linearGradient3759">
      <stop
         style="stop-color:#0f1934;stop-opacity:1;"
         offset="0"
         id="stop3761" />
      <stop
         style="stop-color:#0f1123;stop-opacity:1;"
         offset="1"
         id="stop3763" />
    </linearGradient>
    <linearGradient
       inkscape:collect="always"
       xlink:href="#linearGradient3600"
       id="linearGradient3606"
       x1="18.803423"
       y1="32.618954"
       x2="21.075436"
       y2="3.58284"
       gradientUnits="userSpaceOnUse" />
    <linearGradient
       inkscape:collect="always"
       xlink:href="#linearGradient3608"
       id="linearGradient3616"
       x1="-17.578337"
       y1="3.473701"
       x2="-17.578337"
       y2="31.616526"
       gradientUnits="userSpaceOnUse" />
  </defs>
  <sodipodi:namedview
     id="base"
     pagecolor="#ffffff"
     bordercolor="#666666"
     borderopacity="1.0"
     inkscape:pageopacity="0.0"
     inkscape:pageshadow="2"
     inkscape:zoom="16.15625"
     inkscape:cx="-0.52526343"
     inkscape:cy="13.610401"
     inkscape:document-units="px"
     inkscape:current-layer="layer1"
     showgrid="true"
     inkscape:snap-grids="false"
     inkscape:snap-to-guides="false"
     inkscape:window-width="1885"
     inkscape:window-height="1144"
     inkscape:window-x="1916"
     inkscape:window-y="31"
     inkscape:window-maximized="1">
    <inkscape:grid
       type="xygrid"
       id="grid2985"
       empspacing="5"
       visible="true"
       enabled="true"
       snapvisiblegridlinesonly="true" />
  </sodipodi:namedview>
  <metadata
     id="metadata7">
    <rdf:RDF>
      <cc:Work
         rdf:about="">
        <dc:format>image/svg+xml</dc:format>
        <dc:type
           rdf:resource="http://purl.org/dc/dcmitype/StillImage" />
        <dc:title />
        <cc:license
           rdf:resource="Apache License 2.0" />
        <dc:creator>
          <cc:Agent>
            <dc:title />
          </cc:Agent>
        </dc:creator>
        <dc:publisher>
          <cc:Agent>
            <dc:title>ECMWF</dc:title>
          </cc:Agent>
        </dc:publisher>
        <dc:language>en-GB</dc:language>
        <dc:subject>
          <rdf:Bag>
            <rdf:li>Metview icon</rdf:li>
          </rdf:Bag>
        </dc:subject>
        <dc:description>Metview icon</dc:description>
      </cc:Work>
    </rdf:RDF>
  </metadata>
  <g
     inkscape:label="Layer 1"
     inkscape:groupmode="layer"
     id="layer1"
     transform="translate(0,-1020.3622)">
    <path
       style="fill:#ffffff;fill-opacity:1;stroke:none"
       d="m -12.956486,1043.667 0.0032,-20.5743 -20.32,0.053 6.924043,6.9976 c 0,0 -2.972593,2.8778 -3.632973,6.177 -0.478694,2.3918 -0.9246,8.6718 7.538261,12.6139 -1.914006,-5.1063 -1.9566,-7.2031 -0.929791,-9.6974 0.828566,-2.0127 3.035543,-2.9301 3.035543,-2.9301 2.661727,2.6493 4.682965,4.7519 7.381263,7.3634 z"
       id="path3757"
       inkscape:connector-curvature="0"
       sodipodi:nodetypes="ccccscsccc" />
    <path
       sodipodi:type="arc"
       style="fill:url(#linearGradient3606);fill-opacity:1;fill-rule:evenodd;stroke:#f9f9f9;stroke-width:1.96768378999999993;stroke-miterlimit:4;stroke-opacity:1;stroke-dasharray:none"
       id="path2820"
       sodipodi:cx="21.075436"
       sodipodi:cy="18.785299"
       sodipodi:rx="14.32882"
       sodipodi:ry="13.833655"
       d="m 35.404256,18.785299 a 14.32882,13.833655 0 1 1 -28.6576406,0 14.32882,13.833655 0 1 1 28.6576406,0 z"
       transform="matrix(0.89693839,0,0,0.93297877,-2.7867861,1018.899)" />
    <text
       xml:space="preserve"
       style="font-size:20px;font-style:normal;font-variant:normal;font-weight:bold;font-stretch:normal;fill:#ffffff;fill-opacity:1;stroke:none;font-family:Arial Black;-inkscape-font-specification:'Arial Black, Bold'"
       x="8.9129601"
       y="1043.635"
       id="text2822"><tspan
         sodipodi:role="line"
         id="tspan2824"
         x="8.9129601"
         y="1043.635"
         style="font-size:20px;font-style:normal;font-variant:normal;font-weight:bold;font-stretch:normal;fill:#ffffff;font-family:Arial Black;-inkscape-font-specification:'Arial Black, Bold'">E</tspan></text>
    <path
       sodipodi:type="arc"
       style="fill:none;stroke:url(#linearGradient3616);stroke-width:1.11313628999999992;stroke-linecap:round;stroke-linejoin:miter;stroke-miterlimit:4;stroke-opacity:1;stroke-dasharray:none;stroke-dashoffset:0"
       id="path3598"
       sodipodi:cx="-17.578337"
       sodipodi:cy="18.135397"
       sodipodi:rx="13.49323"
       sodipodi:ry="12.936171"
       d="m -4.0851068,18.135397 a 13.49323,12.936171 0 1 1 -26.9864602,0 13.49323,12.936171 0 1 1 26.9864602,0 z"
       transform="matrix(1.0555475,0,0,1.1010017,34.654384,1016.4193)" />
  </g>
</svg>
