<?xml version="1.0" encoding="UTF-8" standalone="no"?>
<svg
   xmlns:dc="http://purl.org/dc/elements/1.1/"
   xmlns:cc="http://creativecommons.org/ns#"
   xmlns:rdf="http://www.w3.org/1999/02/22-rdf-syntax-ns#"
   xmlns:svg="http://www.w3.org/2000/svg"
   xmlns="http://www.w3.org/2000/svg"
   xmlns:sodipodi="http://sodipodi.sourceforge.net/DTD/sodipodi-0.dtd"
   xmlns:inkscape="http://www.inkscape.org/namespaces/inkscape"
   width="34.133335"
   height="34.133335"
   id="svg2"
   sodipodi:version="0.32"
   inkscape:version="1.0 (4035a4f, 2020-05-01)"
   version="1.0"
   sodipodi:docname="filesave.svg"
   inkscape:export-xdpi="90"
   inkscape:export-ydpi="90"
   inkscape:output_extension="org.inkscape.output.svg.inkscape"
   viewBox="0 0 32 32">
  <defs
     id="defs4" />
  <sodipodi:namedview
     showguides="false"
     id="base"
     pagecolor="#efefef"
     bordercolor="#666666"
     borderopacity="1.0"
     inkscape:pageopacity="1"
     inkscape:pageshadow="2"
     inkscape:zoom="20.256433"
     inkscape:cx="17.116035"
     inkscape:cy="19.090716"
     inkscape:document-units="px"
     inkscape:current-layer="layer1"
     inkscape:showpageshadow="false"
     showborder="true"
     borderlayer="top"
     showgrid="true"
     inkscape:grid-points="false"
     inkscape:window-width="1440"
     inkscape:window-height="794"
     inkscape:window-x="156"
     inkscape:window-y="27"
     width="32px"
     height="32px"
     inkscape:window-maximized="0"
     inkscape:snap-grids="false"
     inkscape:document-rotation="0">
    <inkscape:grid
       id="GridFromPre046Settings"
       type="xygrid"
       originx="0"
       originy="0"
       spacingx="0.99999995"
       spacingy="0.99999995"
       color="#9f9f9f"
       empcolor="#9f9f9f"
       opacity="0.10196078"
       empopacity="0.25490196"
       empspacing="10" />
  </sodipodi:namedview>
  <metadata
     id="metadata7">
    <rdf:RDF>
      <cc:Work
         rdf:about="">
        <dc:format>image/svg+xml</dc:format>
        <dc:type
           rdf:resource="http://purl.org/dc/dcmitype/StillImage" />
        <dc:title />
        <cc:license
           rdf:resource="Apache License 2.0" />
        <dc:creator>
          <cc:Agent>
            <dc:title />
          </cc:Agent>
        </dc:creator>
        <dc:publisher>
          <cc:Agent>
            <dc:title>ECMWF</dc:title>
          </cc:Agent>
        </dc:publisher>
        <dc:language>en-GB</dc:language>
        <dc:subject>
          <rdf:Bag>
            <rdf:li>Metview icon</rdf:li>
          </rdf:Bag>
        </dc:subject>
        <dc:description>Metview icon</dc:description>
      </cc:Work>
    </rdf:RDF>
  </metadata>
  <g
     inkscape:label="Layer 1"
     inkscape:groupmode="layer"
     id="layer1"
     style="display:inline">
    <path
       sodipodi:nodetypes="cccccccccccccccc"
       d="M 2.5431391,30.126602 2.5724361,2.3289709 30.292149,2.2173425 l 0.0567,27.8757715 -5.330266,0.07831 z m 4.7673831,-1.873933 18.0289148,0.0083 -0.06131,-8.085669 -17.9925875,0.09256 z M 26.084451,15.091981 26.049837,4.6565279 6.5607682,4.7706966 6.6833836,15.136939 Z"
       style="fill:#666666;stroke:none;stroke-width:0.942403px;stroke-linecap:butt;stroke-linejoin:miter;stroke-opacity:1"
       id="path3227" />
    <g
       inkscape:groupmode="layer"
       id="layer3"
       inkscape:label="white"
       style="display:inline" />
    <g
       inkscape:groupmode="layer"
       id="layer2"
       inkscape:label="label"
       style="display:inline" />
    <path
       sodipodi:nodetypes="cc"
       id="path3243"
       d="m 11.40946,22.291586 v 6.145695"
       style="fill:#808080;stroke:#666666;stroke-width:2.19039;stroke-linecap:butt;stroke-linejoin:miter;stroke-miterlimit:4;stroke-dasharray:none;stroke-opacity:1" />
  </g>
  <g
     inkscape:label="top"
     id="layer5"
     inkscape:groupmode="layer" />
</svg>
