<?xml version="1.0" encoding="UTF-8" standalone="no"?>
<!-- Created with Inkscape (http://www.inkscape.org/) -->

<svg
   xmlns:dc="http://purl.org/dc/elements/1.1/"
   xmlns:cc="http://creativecommons.org/ns#"
   xmlns:rdf="http://www.w3.org/1999/02/22-rdf-syntax-ns#"
   xmlns:svg="http://www.w3.org/2000/svg"
   xmlns="http://www.w3.org/2000/svg"
   xmlns:xlink="http://www.w3.org/1999/xlink"
   xmlns:sodipodi="http://sodipodi.sourceforge.net/DTD/sodipodi-0.dtd"
   xmlns:inkscape="http://www.inkscape.org/namespaces/inkscape"
   width="64px"
   height="64px"
   id="svg2985"
   version="1.1"
   inkscape:version="0.47 r22583"
   sodipodi:docname="foldergroup.svg"
   sodipodi:version="0.32"
   inkscape:output_extension="org.inkscape.output.svg.inkscape">
  <title
     id="title2993">Metview icon</title>
  <defs
     id="defs2987">
    <inkscape:perspective
       sodipodi:type="inkscape:persp3d"
       inkscape:vp_x="0 : 32 : 1"
       inkscape:vp_y="0 : 1000 : 0"
       inkscape:vp_z="64 : 32 : 1"
       inkscape:persp3d-origin="32 : 21.333333 : 1"
       id="perspective15" />
    <linearGradient
       id="linearGradient3753">
      <stop
         style="stop-color:#e2c36e;stop-opacity:1;"
         offset="0"
         id="stop3755" />
      <stop
         style="stop-color:#ffef8a;stop-opacity:0.34210527;"
         offset="1"
         id="stop3757" />
    </linearGradient>
    <linearGradient
       inkscape:collect="always"
       xlink:href="#linearGradient3753"
       id="linearGradient3759"
       x1="20.381924"
       y1="25.776665"
       x2="36.550461"
       y2="-0.56834435"
       gradientUnits="userSpaceOnUse"
       gradientTransform="matrix(1.0942429,0,0,1.0732344,-1.9950829,-1.8776448)" />
  </defs>
  <sodipodi:namedview
     id="base"
     pagecolor="#ffffff"
     bordercolor="#666666"
     borderopacity="1.0"
     inkscape:pageopacity="1"
     inkscape:pageshadow="2"
     inkscape:zoom="10.27"
     inkscape:cx="14.271484"
     inkscape:cy="29.889877"
     inkscape:current-layer="layer1"
     showgrid="true"
     inkscape:document-units="px"
     inkscape:grid-bbox="true"
     inkscape:window-width="1920"
     inkscape:window-height="1179"
     inkscape:window-x="1916"
     inkscape:window-y="-4"
     inkscape:window-maximized="1"
     inkscape:snap-from-guide="false"
     objecttolerance="2"
     gridtolerance="2"
     guidetolerance="2">
    <inkscape:grid
       type="xygrid"
       id="grid2995"
       empspacing="5"
       visible="true"
       enabled="true"
       snapvisiblegridlinesonly="true" />
  </sodipodi:namedview>
  <metadata
     id="metadata7">
    <rdf:RDF>
      <cc:Work
         rdf:about="">
        <dc:format>image/svg+xml</dc:format>
        <dc:type
           rdf:resource="http://purl.org/dc/dcmitype/StillImage" />
        <dc:title />
        <cc:license
           rdf:resource="Apache License 2.0" />
        <dc:creator>
          <cc:Agent>
            <dc:title />
          </cc:Agent>
        </dc:creator>
        <dc:publisher>
          <cc:Agent>
            <dc:title>ECMWF</dc:title>
          </cc:Agent>
        </dc:publisher>
        <dc:language>en-GB</dc:language>
        <dc:subject>
          <rdf:Bag>
            <rdf:li>Metview icon</rdf:li>
          </rdf:Bag>
        </dc:subject>
        <dc:description>Metview icon</dc:description>
      </cc:Work>
    </rdf:RDF>
  </metadata>
  <g
     id="layer1"
     inkscape:label="Layer 1"
     inkscape:groupmode="layer">
    <path
       style="fill:url(#linearGradient3759);fill-opacity:1;stroke:#000000;stroke-width:0.91029769000000005;stroke-miterlimit:4;stroke-opacity:1;stroke-dasharray:none;stroke-dashoffset:0"
       d="m 15,11 1.581791,-6.9553125 12.469348,3.7367772 2.255924,-3.4100421 9.343738,2.403001 -0.330091,4.3734044 c 7.786256,2.404387 11.284931,2.859172 19.842246,4.961637 L 51.55289,61.721726 7.8648109,40.823438 4.7046001,8.1600399 24.33753,14.182435 l -0.156955,3.272483 11.16368,3.580674 0.959165,-3.353576 13.555361,3.888862 1.763869,39.771774"
       id="rect2984"
       inkscape:connector-curvature="0"
       sodipodi:nodetypes="cccccccccccccccc" />
    <path
       style="fill:#0056c8;fill-opacity:1;stroke:#0056c8;stroke-width:0.89524412;stroke-miterlimit:4;stroke-opacity:1;stroke-dashoffset:0"
       d="M 31.5222,5.3369036 39.610516,7.4558961 39.486855,11 30,8 31.5222,5.3369036 z"
       id="rect3761"
       inkscape:connector-curvature="0"
       sodipodi:nodetypes="ccccc" />
    <flowRoot
       xml:space="preserve"
       id="flowRoot2821"
       style="font-size:24px;font-style:normal;font-weight:normal;fill:#2c5aa0;fill-opacity:1;stroke:none;font-family:Courier New KOI-8;-inkscape-font-specification:Courier New KOI-8"
       transform="matrix(2.0162786,0,0,2.0090514,-35.222794,-50.187092)"><flowRegion
         id="flowRegion2823"><rect
           id="rect2825"
           width="38.753651"
           height="26.77702"
           x="21.032133"
           y="30.796495"
           style="font-size:24px;fill:#2c5aa0" /></flowRegion><flowPara
         id="flowPara2827"
         style="font-size:24px;fill:#2c5aa0;font-family:Arial;-inkscape-font-specification:Arial">G</flowPara></flowRoot>  </g>
</svg>
