<?xml version="1.0" encoding="UTF-8" standalone="no"?>
<svg
   xmlns:dc="http://purl.org/dc/elements/1.1/"
   xmlns:cc="http://creativecommons.org/ns#"
   xmlns:rdf="http://www.w3.org/1999/02/22-rdf-syntax-ns#"
   xmlns:svg="http://www.w3.org/2000/svg"
   xmlns="http://www.w3.org/2000/svg"
   xmlns:xlink="http://www.w3.org/1999/xlink"
   xmlns:sodipodi="http://sodipodi.sourceforge.net/DTD/sodipodi-0.dtd"
   xmlns:inkscape="http://www.inkscape.org/namespaces/inkscape"
   viewBox="0 0 32 32"
   sodipodi:docname="fontsize_up.svg"
   inkscape:version="1.0 (4035a4f, 2020-05-01)"
   version="1.1"
   id="svg2"
   height="34.133335"
   width="34.133335">
  <defs
     id="defs4">
    <linearGradient
       id="linearGradient3756">
      <stop
         style="stop-color:#519aed;stop-opacity:1;"
         offset="0"
         id="stop3758" />
      <stop
         style="stop-color:#e9dddd;stop-opacity:0;"
         offset="1"
         id="stop3760" />
    </linearGradient>
    <linearGradient
       id="linearGradient3728">
      <stop
         id="stop3730"
         offset="0"
         style="stop-color:#f1f3fb;stop-opacity:1;" />
      <stop
         id="stop3732"
         offset="1"
         style="stop-color:#273df9;stop-opacity:0;" />
    </linearGradient>
    <linearGradient
       id="linearGradient3614">
      <stop
         id="stop3616"
         offset="0"
         style="stop-color:#2c71d9;stop-opacity:1;" />
      <stop
         id="stop3618"
         offset="1"
         style="stop-color:#ececec;stop-opacity:1;" />
    </linearGradient>
    <linearGradient
       id="linearGradient3602">
      <stop
         id="stop3604"
         offset="0"
         style="stop-color:#f5f5f5;stop-opacity:1;" />
      <stop
         id="stop3606"
         offset="1"
         style="stop-color:#141bc6;stop-opacity:1;" />
    </linearGradient>
    <linearGradient
       y2="31.085577"
       x2="15.413333"
       y1="12.89746"
       x1="15.413333"
       gradientUnits="userSpaceOnUse"
       id="linearGradient3691"
       xlink:href="#linearGradient3614"
       inkscape:collect="always" />
    <linearGradient
       y2="31.085577"
       x2="15.413333"
       y1="2.2337441"
       x1="15.413333"
       gradientUnits="userSpaceOnUse"
       id="linearGradient3693"
       xlink:href="#linearGradient3602"
       inkscape:collect="always" />
    <linearGradient
       y2="18.883736"
       x2="15.941438"
       y1="3.4795053"
       x1="15.413333"
       gradientTransform="matrix(1.0688752,0,0,-1.1672542,-31.566354,35.860667)"
       gradientUnits="userSpaceOnUse"
       id="linearGradient3710"
       xlink:href="#linearGradient3728"
       inkscape:collect="always" />
    <linearGradient
       y2="18.883736"
       x2="15.941438"
       y1="3.4853487"
       x1="24.437176"
       gradientTransform="matrix(1.0688752,0,0,-1.1672542,-31.566354,35.860667)"
       gradientUnits="userSpaceOnUse"
       id="linearGradient3720"
       xlink:href="#linearGradient3756"
       inkscape:collect="always" />
  </defs>
  <sodipodi:namedview
     inkscape:document-rotation="0"
     inkscape:guide-bbox="true"
     showguides="true"
     inkscape:window-maximized="0"
     inkscape:window-y="25"
     inkscape:window-x="32"
     inkscape:window-height="846"
     inkscape:window-width="1495"
     inkscape:snap-grids="true"
     showgrid="true"
     inkscape:current-layer="layer2"
     inkscape:document-units="px"
     inkscape:cy="15.545747"
     inkscape:cx="4.4262693"
     inkscape:zoom="18.75"
     inkscape:pageshadow="2"
     inkscape:pageopacity="0.0"
     borderopacity="1.0"
     bordercolor="#666666"
     pagecolor="#ffffff"
     id="base">
    <inkscape:grid
       spacingy="1"
       spacingx="1"
       originy="0"
       originx="0"
       snapvisiblegridlinesonly="true"
       enabled="true"
       visible="true"
       empspacing="5"
       id="grid2816"
       type="xygrid" />
  </sodipodi:namedview>
  <metadata
     id="metadata7">
    <rdf:RDF>
      <cc:Work
         rdf:about="">
        <dc:format>image/svg+xml</dc:format>
        <dc:type
           rdf:resource="http://purl.org/dc/dcmitype/StillImage" />
        <dc:title />
        <cc:license
           rdf:resource="Apache License 2.0" />
        <dc:creator>
          <cc:Agent>
            <dc:title />
          </cc:Agent>
        </dc:creator>
        <dc:publisher>
          <cc:Agent>
            <dc:title>ECMWF</dc:title>
          </cc:Agent>
        </dc:publisher>
        <dc:language>en-GB</dc:language>
        <dc:subject>
          <rdf:Bag>
            <rdf:li>Metview icon</rdf:li>
          </rdf:Bag>
        </dc:subject>
        <dc:description>Metview icon</dc:description>
      </cc:Work>
    </rdf:RDF>
  </metadata>
  <g
     style="display:inline"
     inkscape:label="bg"
     id="layer3"
     inkscape:groupmode="layer" />
  <g
     style="display:inline"
     inkscape:label="item"
     id="layer2"
     inkscape:groupmode="layer">
    <text
       id="text3783"
       y="21.973333"
       x="3.8399999"
       style="font-style:normal;font-weight:normal;line-height:0%;font-family:Calibri;-inkscape-font-specification:Calibri;fill:#ffffff;fill-opacity:1;stroke:none"
       xml:space="preserve"><tspan
         style="font-size:20px;line-height:1.25"
         y="21.973333"
         x="3.8399999"
         id="tspan3785"
         sodipodi:role="line"> </tspan></text>
    <text
       id="text3787"
       y="15.146667"
       x="7.2533331"
       style="font-style:normal;font-weight:normal;line-height:0%;font-family:'Bitstream Vera Sans';fill:#000000;fill-opacity:1;stroke:none"
       xml:space="preserve"><tspan
         style="font-size:40px;line-height:1.25"
         y="15.146667"
         x="7.2533331"
         id="tspan3789"
         sodipodi:role="line"> </tspan></text>
    <text
       transform="scale(1.0238296,0.97672504)"
       id="text3791"
       y="29.691059"
       x="0.97672504"
       style="font-style:normal;font-variant:normal;font-weight:normal;font-stretch:normal;line-height:0%;font-family:'Times New Roman';-inkscape-font-specification:'Times New Roman';fill:#333333;fill-opacity:1;stroke:none;"
       xml:space="preserve"><tspan
         style="font-style:normal;font-variant:normal;font-weight:normal;font-stretch:normal;font-size:34px;line-height:1.25;font-family:'Times New Roman';-inkscape-font-specification:'Times New Roman';fill:#333333;"
         y="29.691059"
         x="0.97672504"
         id="tspan3793"
         sodipodi:role="line">A</tspan></text>
    <path
       sodipodi:nodetypes="cccc"
       inkscape:connector-curvature="0"
       id="path3006-1"
       d="M 20.146667,8.893335 25.571392,1.2324821 31.08,8.893335 Z"
       inkscape:transform-center-y="-1.2991354"
       inkscape:transform-center-x="-0.034736359"
       style="display:inline;fill:#333333;fill-opacity:1;fill-rule:evenodd;stroke:none" />
  </g>
</svg>
