<?xml version="1.0" encoding="UTF-8" standalone="no"?>
<svg
   xmlns:dc="http://purl.org/dc/elements/1.1/"
   xmlns:cc="http://creativecommons.org/ns#"
   xmlns:rdf="http://www.w3.org/1999/02/22-rdf-syntax-ns#"
   xmlns:svg="http://www.w3.org/2000/svg"
   xmlns="http://www.w3.org/2000/svg"
   xmlns:sodipodi="http://sodipodi.sourceforge.net/DTD/sodipodi-0.dtd"
   xmlns:inkscape="http://www.inkscape.org/namespaces/inkscape"
   width="34.133335"
   height="34.133335"
   id="svg1455"
   sodipodi:version="0.32"
   inkscape:version="0.91 r13725"
   sodipodi:docname="monitor.svg"
   inkscape:export-xdpi="120.00000"
   inkscape:export-ydpi="120.00000"
   version="1.1"
   style="display:inline"
   viewBox="0 0 32 32">
  <defs
     id="defs3">
    <linearGradient
       id="linearGradient3756">
      <stop
         style="stop-color:#0ce83c;stop-opacity:1"
         offset="0"
         id="stop3758" />
      <stop
         style="stop-color:#00c600;stop-opacity:1"
         offset="1"
         id="stop3760" />
    </linearGradient>
    <linearGradient
       id="linearGradient3750">
      <stop
         id="stop3752"
         offset="0"
         style="stop-color:#727272;stop-opacity:1;" />
      <stop
         style="stop-color:#0e0d0d;stop-opacity:1;"
         offset="0.31103334"
         id="stop3798" />
      <stop
         id="stop3754"
         offset="1"
         style="stop-color:#919191;stop-opacity:1;" />
    </linearGradient>
  </defs>
  <sodipodi:namedview
     id="base"
     pagecolor="#ffffff"
     bordercolor="#666666"
     borderopacity="1.0"
     inkscape:pageopacity="0.0"
     inkscape:pageshadow="2"
     inkscape:zoom="17.695312"
     inkscape:cx="-5.0295799"
     inkscape:cy="17.066668"
     inkscape:current-layer="layer6"
     showgrid="true"
     inkscape:document-units="px"
     inkscape:grid-bbox="true"
     inkscape:window-width="1438"
     inkscape:window-height="794"
     inkscape:window-x="38"
     inkscape:window-y="25"
     inkscape:window-maximized="0"
     inkscape:snap-smooth-nodes="false"
     inkscape:object-nodes="false"
     inkscape:snap-grids="false"
     inkscape:document-rotation="0">
    <inkscape:grid
       type="xygrid"
       id="grid3734"
       empspacing="5"
       visible="true"
       enabled="true"
       snapvisiblegridlinesonly="true"
       originx="0"
       originy="0"
       spacingx="1"
       spacingy="1" />
  </sodipodi:namedview>
  <metadata
     id="metadata7">
    <rdf:RDF>
      <cc:Work
         rdf:about="">
        <dc:format>image/svg+xml</dc:format>
        <dc:type
           rdf:resource="http://purl.org/dc/dcmitype/StillImage" />
        <dc:title />
        <cc:license
           rdf:resource="Apache License 2.0" />
        <dc:creator>
          <cc:Agent>
            <dc:title />
          </cc:Agent>
        </dc:creator>
        <dc:publisher>
          <cc:Agent>
            <dc:title>ECMWF</dc:title>
          </cc:Agent>
        </dc:publisher>
        <dc:language>en-GB</dc:language>
        <dc:subject>
          <rdf:Bag>
            <rdf:li>Metview icon</rdf:li>
          </rdf:Bag>
        </dc:subject>
        <dc:description>Metview icon</dc:description>
      </cc:Work>
    </rdf:RDF>
  </metadata>
  <g
     inkscape:groupmode="layer"
     id="layer2"
     inkscape:label="base">
    <path
       style="display:inline;fill:#333333;fill-opacity:1;stroke:none;stroke-width:1px;stroke-linecap:butt;stroke-linejoin:round;stroke-opacity:1"
       d="m 6.2782394,29.481434 19.4815696,0.04267 c 0,0 -4.188195,-1.05274 -5.704064,-2.432351 -0.601832,-0.547735 -1.140812,-2.133642 -1.140812,-2.133642 l -5.704063,1e-6 c 0,0 -0.736849,1.61742 -1.404078,2.176314 -1.523569,1.276198 -4.0367207,1.650016 -5.5285526,2.347006 z"
       id="path3765"
       sodipodi:nodetypes="ccaccac" />
  </g>
  <g
     id="layer1"
     inkscape:label="screen"
     inkscape:groupmode="layer"
     transform="translate(0,-16)"
     style="display:inline">
    <rect
       style="fill:none;fill-opacity:1;fill-rule:evenodd;stroke:#333333;stroke-width:1.65776;stroke-linecap:butt;stroke-linejoin:miter;stroke-miterlimit:4;stroke-dasharray:none;stroke-dashoffset:0;stroke-opacity:1"
       id="rect3740"
       width="29.154793"
       height="21.490376"
       x="1.7031591"
       y="19.225155"
       ry="3.1177735" />
  </g>
  <g
     inkscape:groupmode="layer"
     id="layer6"
     inkscape:label="graph"
     style="display:inline">
    <path
       style="fill:none;stroke:#41a041;stroke-width:1.75218;stroke-linecap:butt;stroke-linejoin:miter;stroke-miterlimit:4;stroke-dasharray:none;stroke-opacity:1"
       d="m 5.2227665,16.601034 c 0,0 2.2505819,2.349636 2.2505819,2.349636 0,0 1.9941461,-3.344776 1.9941461,-3.344776 0,0 1.6455815,2.79192 1.6455815,2.79192 0,0 3.865428,-5.639128 3.865428,-5.639128 0,0 4.630894,6.800125 4.630894,6.800125 0,0 2.753877,-6.24727 4.130815,-9.370904 0.968605,2.893278 1.93721,5.786557 2.905815,8.679835"
       id="path3720"
       sodipodi:nodetypes="cccccccc" />
  </g>
</svg>
