<?xml version="1.0" encoding="UTF-8" standalone="no"?>
<svg
   xmlns:dc="http://purl.org/dc/elements/1.1/"
   xmlns:cc="http://creativecommons.org/ns#"
   xmlns:rdf="http://www.w3.org/1999/02/22-rdf-syntax-ns#"
   xmlns:svg="http://www.w3.org/2000/svg"
   xmlns="http://www.w3.org/2000/svg"
   xmlns:xlink="http://www.w3.org/1999/xlink"
   xmlns:sodipodi="http://sodipodi.sourceforge.net/DTD/sodipodi-0.dtd"
   xmlns:inkscape="http://www.inkscape.org/namespaces/inkscape"
   viewBox="0 0 32 32"
   style="display:inline"
   version="1.1"
   inkscape:export-ydpi="120.00000"
   inkscape:export-xdpi="120.00000"
   sodipodi:docname="overwrite_steps.svg"
   inkscape:version="1.0 (4035a4f, 2020-05-01)"
   sodipodi:version="0.32"
   id="svg1455"
   height="34.133335"
   width="34.133335">
  <defs
     id="defs3">
    <linearGradient
       id="linearGradient3630">
      <stop
         id="stop3632"
         offset="0"
         style="stop-color:#f6e1c0;stop-opacity:1;" />
      <stop
         id="stop3634"
         offset="1"
         style="stop-color:#f5e7d1;stop-opacity:1;" />
    </linearGradient>
    <linearGradient
       y2="10.200515"
       x2="22.446272"
       y1="7.0745502"
       x1="19.055012"
       gradientTransform="matrix(1.0884669,-0.47416089,0.46157136,1.1181553,-7.8141323,11.773461)"
       gradientUnits="userSpaceOnUse"
       id="linearGradient3031"
       xlink:href="#linearGradient3869-6-3"
       inkscape:collect="always" />
    <linearGradient
       id="linearGradient3869-6-3">
      <stop
         id="stop3871-9-9"
         offset="0"
         style="stop-color:#ffad02;stop-opacity:1;" />
      <stop
         id="stop3873-2-4"
         offset="1"
         style="stop-color:#c4ba4a;stop-opacity:1;" />
    </linearGradient>
    <linearGradient
       gradientUnits="userSpaceOnUse"
       y2="13.355288"
       x2="18.328623"
       y1="14.127702"
       x1="20.204853"
       id="linearGradient3835"
       xlink:href="#linearGradient3829-9"
       inkscape:collect="always" />
    <linearGradient
       id="linearGradient3829-9">
      <stop
         id="stop3831-5"
         offset="0"
         style="stop-color:#786535;stop-opacity:1;" />
      <stop
         id="stop3833-5"
         offset="1"
         style="stop-color:#cd6938;stop-opacity:1;" />
    </linearGradient>
    <linearGradient
       inkscape:collect="always"
       xlink:href="#linearGradient3821-7"
       id="linearGradient4051"
       gradientUnits="userSpaceOnUse"
       x1="13.555334"
       y1="23.807344"
       x2="15.984475"
       y2="19.714443" />
    <linearGradient
       id="linearGradient3821-7">
      <stop
         id="stop3823-3"
         offset="0"
         style="stop-color:#050505;stop-opacity:1;" />
      <stop
         id="stop3825-9"
         offset="1"
         style="stop-color:#949494;stop-opacity:1;" />
    </linearGradient>
    <linearGradient
       id="linearGradient11462">
      <stop
         style="stop-color:#b3caff;stop-opacity:1;"
         offset="0"
         id="stop11464" />
      <stop
         style="stop-color:#5a98ec;stop-opacity:1;"
         offset="1"
         id="stop11466" />
    </linearGradient>
  </defs>
  <sodipodi:namedview
     inkscape:document-rotation="0"
     inkscape:snap-grids="false"
     inkscape:object-nodes="false"
     inkscape:snap-smooth-nodes="false"
     inkscape:window-maximized="0"
     inkscape:window-y="26"
     inkscape:window-x="-5"
     inkscape:window-height="795"
     inkscape:window-width="1440"
     inkscape:grid-bbox="true"
     inkscape:document-units="px"
     showgrid="true"
     inkscape:current-layer="layer3"
     inkscape:cy="17.066668"
     inkscape:cx="17.066668"
     inkscape:zoom="17.724608"
     inkscape:pageshadow="2"
     inkscape:pageopacity="0.0"
     borderopacity="1.0"
     bordercolor="#666666"
     pagecolor="#ffffff"
     id="base">
    <inkscape:grid
       spacingy="1"
       spacingx="1"
       originy="0"
       originx="0"
       snapvisiblegridlinesonly="true"
       enabled="true"
       visible="true"
       empspacing="5"
       id="grid3734"
       type="xygrid" />
  </sodipodi:namedview>
  <metadata
     id="metadata7">
    <rdf:RDF>
      <cc:Work
         rdf:about="">
        <dc:format>image/svg+xml</dc:format>
        <dc:type
           rdf:resource="http://purl.org/dc/dcmitype/StillImage" />
        <dc:title />
        <cc:license
           rdf:resource="Apache License 2.0" />
        <dc:creator>
          <cc:Agent>
            <dc:title />
          </cc:Agent>
        </dc:creator>
        <dc:publisher>
          <cc:Agent>
            <dc:title>ECMWF</dc:title>
          </cc:Agent>
        </dc:publisher>
        <dc:language>en-GB</dc:language>
        <dc:subject>
          <rdf:Bag>
            <rdf:li>Metview icon</rdf:li>
          </rdf:Bag>
        </dc:subject>
        <dc:description>Metview icon</dc:description>
      </cc:Work>
    </rdf:RDF>
  </metadata>
  <g
     inkscape:label="Layer"
     id="layer3"
     inkscape:groupmode="layer">
    <path
       sodipodi:nodetypes="cccccccc"
       id="path4788"
       d="M 15.27158,15.575055 8.307287,10.394667 8.346239,13.395014 H 0.78190862 l 0.0389502,4.476762 7.40853758,0.03217 v 2.811337 z"
       style="display:inline;fill:#1a1a1a;fill-opacity:1;stroke:none;stroke-width:0.744258;stroke-linecap:butt;stroke-linejoin:round;stroke-miterlimit:4;stroke-dasharray:none;stroke-opacity:1" />
    <path
       id="path1464"
       d="M 19.62314,3.2793389 19.570247,28.244629"
       style="fill:none;stroke:#1a1a1a;stroke-width:1.40625;stroke-linecap:butt;stroke-linejoin:miter;stroke-miterlimit:4;stroke-dasharray:none;stroke-opacity:1" />
    <path
       style="fill:none;stroke:#1a1a1a;stroke-width:1.40625;stroke-linecap:butt;stroke-linejoin:miter;stroke-miterlimit:4;stroke-dasharray:none;stroke-opacity:1"
       d="M 24.647934,3.2793388 24.595044,28.244628"
       id="path1466" />
    <path
       id="path1468"
       d="M 29.355373,3.2264462 29.30248,28.191735"
       style="fill:none;stroke:#1a1a1a;stroke-width:1.40625;stroke-linecap:butt;stroke-linejoin:miter;stroke-miterlimit:4;stroke-dasharray:none;stroke-opacity:1" />
  </g>
  <g
     inkscape:label="pencil"
     id="layer4"
     inkscape:groupmode="layer" />
</svg>
