<?xml version="1.0" encoding="UTF-8" standalone="no"?>
<svg
   xmlns:dc="http://purl.org/dc/elements/1.1/"
   xmlns:cc="http://creativecommons.org/ns#"
   xmlns:rdf="http://www.w3.org/1999/02/22-rdf-syntax-ns#"
   xmlns:svg="http://www.w3.org/2000/svg"
   xmlns="http://www.w3.org/2000/svg"
   xmlns:sodipodi="http://sodipodi.sourceforge.net/DTD/sodipodi-0.dtd"
   xmlns:inkscape="http://www.inkscape.org/namespaces/inkscape"
   sodipodi:docname="page_select_all.svg"
   inkscape:version="1.0 (4035a4f, 2020-05-01)"
   version="1.1"
   id="svg2"
   height="32"
   width="32">
  <defs
     id="defs4">
    <linearGradient
       id="linearGradient3851-1">
      <stop
         id="stop3853-7"
         offset="0"
         style="stop-color:#ffffff;stop-opacity:1;" />
      <stop
         id="stop3855-4"
         offset="1"
         style="stop-color:#c5c5c5;stop-opacity:1;" />
    </linearGradient>
  </defs>
  <sodipodi:namedview
     inkscape:document-rotation="0"
     inkscape:window-maximized="1"
     inkscape:window-y="25"
     inkscape:window-x="0"
     inkscape:window-height="1091"
     inkscape:window-width="1920"
     inkscape:snap-grids="false"
     showgrid="true"
     inkscape:current-layer="svg2"
     inkscape:document-units="px"
     inkscape:cy="17.129053"
     inkscape:cx="16.067469"
     inkscape:zoom="28.016169"
     inkscape:pageshadow="2"
     inkscape:pageopacity="0.0"
     borderopacity="1.0"
     bordercolor="#666666"
     pagecolor="#ffffff"
     id="base">
    <inkscape:grid
       snapvisiblegridlinesonly="true"
       enabled="true"
       visible="true"
       empspacing="5"
       id="grid2816"
       type="xygrid" />
  </sodipodi:namedview>
  <metadata
     id="metadata7">
    <rdf:RDF>
      <cc:Work
         rdf:about="">
        <dc:format>image/svg+xml</dc:format>
        <dc:type
           rdf:resource="http://purl.org/dc/dcmitype/StillImage" />
        <dc:title />
        <cc:license
           rdf:resource="Apache License 2.0" />
        <dc:creator>
          <cc:Agent>
            <dc:title />
          </cc:Agent>
        </dc:creator>
        <dc:publisher>
          <cc:Agent>
            <dc:title>ECMWF</dc:title>
          </cc:Agent>
        </dc:publisher>
        <dc:language>en-GB</dc:language>
        <dc:subject>
          <rdf:Bag>
            <rdf:li>Metview icon</rdf:li>
          </rdf:Bag>
        </dc:subject>
        <dc:description>Metview icon</dc:description>
      </cc:Work>
    </rdf:RDF>
  </metadata>
  <rect
     y="21.984877"
     x="7.2409496"
     height="4.38201"
     width="16.82477"
     id="rect3933"
     style="fill:none;fill-opacity:1;stroke:#333333;stroke-width:1.5;stroke-miterlimit:4;stroke-opacity:1;stroke-dasharray:none" />
  <rect
     style="fill:none;fill-opacity:1;stroke:#333333;stroke-width:1.5;stroke-miterlimit:4;stroke-opacity:1;stroke-dasharray:none"
     id="rect3100"
     width="16.797997"
     height="4.3865709"
     x="7.094336"
     y="13.80693" />
  <rect
     y="5.7002635"
     x="7.094336"
     height="4.3865709"
     width="16.797997"
     id="rect4663"
     style="fill:none;fill-opacity:1;stroke:#333333;stroke-width:1.5;stroke-miterlimit:4;stroke-opacity:1;stroke-dasharray:none" />
  <rect
     y="0.053333335"
     x="-0.053333335"
     height="1.9733334"
     width="3.9466667"
     id="rect3055"
     style="fill:#333333;fill-opacity:1;stroke:none" />
  <rect
     style="fill:#333333;fill-opacity:1;stroke:none"
     id="rect3825"
     width="3.9466667"
     height="1.9733334"
     x="7.04"
     y="1.2914398e-009" />
  <rect
     y="0.053333335"
     x="14.026667"
     height="1.9733334"
     width="3.9466667"
     id="rect3827"
     style="fill:#333333;fill-opacity:1;stroke:none" />
  <rect
     style="fill:#333333;fill-opacity:1;stroke:none"
     id="rect3829"
     width="3.9466667"
     height="1.9733334"
     x="21.066668"
     y="1.2914327e-009" />
  <rect
     y="0.053333335"
     x="28.053333"
     height="1.9733334"
     width="3.9466667"
     id="rect3831"
     style="fill:#333333;fill-opacity:1;stroke:none" />
  <rect
     style="fill:#333333;fill-opacity:1;stroke:none"
     id="rect3833"
     width="3.9466667"
     height="1.9733334"
     x="-1.2914327e-009"
     y="30.186666" />
  <rect
     y="30.133333"
     x="7.0933332"
     height="1.9733334"
     width="3.9466667"
     id="rect3835"
     style="fill:#333333;fill-opacity:1;stroke:none" />
  <rect
     style="fill:#333333;fill-opacity:1;stroke:none"
     id="rect3837"
     width="3.9466667"
     height="1.9733334"
     x="14.08"
     y="30.186666" />
  <rect
     y="30.133333"
     x="21.120001"
     height="1.9733334"
     width="3.9466667"
     id="rect3839"
     style="fill:#333333;fill-opacity:1;stroke:none" />
  <rect
     style="fill:#333333;fill-opacity:1;stroke:none"
     id="rect3841"
     width="3.9466667"
     height="1.9733334"
     x="28.106667"
     y="30.186666" />
  <rect
     transform="matrix(-8.2627909e-4,-0.99999966,0.99999966,-8.2627909e-4,0,0)"
     style="fill:#333333;fill-opacity:1;stroke:none"
     id="rect3845"
     width="3.9466667"
     height="1.9733334"
     x="-28.987036"
     y="-0.043239538" />
  <rect
     transform="matrix(-8.2627909e-4,-0.99999966,0.99999966,-8.2627909e-4,0,0)"
     y="0.010093745"
     x="-22.00037"
     height="1.9733334"
     width="3.9466667"
     id="rect3847"
     style="fill:#333333;fill-opacity:1;stroke:none" />
  <rect
     transform="matrix(-8.2627909e-4,-0.99999966,0.99999966,-8.2627909e-4,0,0)"
     style="fill:#333333;fill-opacity:1;stroke:none"
     id="rect3849"
     width="3.9466667"
     height="1.9733334"
     x="-14.960369"
     y="-0.043239538" />
  <rect
     transform="matrix(-8.2627909e-4,-0.99999966,0.99999966,-8.2627909e-4,0,0)"
     y="0.010093745"
     x="-7.9737"
     height="1.9733334"
     width="3.9466667"
     id="rect3851"
     style="fill:#333333;fill-opacity:1;stroke:none" />
  <rect
     y="30.143593"
     x="-28.798645"
     height="1.9733334"
     width="3.9466667"
     id="rect3853"
     style="fill:#333333;fill-opacity:1;stroke:none"
     transform="matrix(-8.2627909e-4,-0.99999966,0.99999966,-8.2627909e-4,0,0)" />
  <rect
     style="fill:#333333;fill-opacity:1;stroke:none"
     id="rect3855"
     width="3.9466667"
     height="1.9733334"
     x="-21.811979"
     y="30.196926"
     transform="matrix(-8.2627909e-4,-0.99999966,0.99999966,-8.2627909e-4,0,0)" />
  <rect
     y="30.143593"
     x="-14.771978"
     height="1.9733334"
     width="3.9466667"
     id="rect3857"
     style="fill:#333333;fill-opacity:1;stroke:none"
     transform="matrix(-8.2627909e-4,-0.99999966,0.99999966,-8.2627909e-4,0,0)" />
  <rect
     style="fill:#333333;fill-opacity:1;stroke:none"
     id="rect3859"
     width="3.9466667"
     height="1.9733334"
     x="-7.7853093"
     y="30.196926"
     transform="matrix(-8.2627909e-4,-0.99999966,0.99999966,-8.2627909e-4,0,0)" />
</svg>
