<?xml version="1.0" encoding="UTF-8" standalone="no"?>
<svg
   xmlns:dc="http://purl.org/dc/elements/1.1/"
   xmlns:cc="http://creativecommons.org/ns#"
   xmlns:rdf="http://www.w3.org/1999/02/22-rdf-syntax-ns#"
   xmlns:svg="http://www.w3.org/2000/svg"
   xmlns="http://www.w3.org/2000/svg"
   xmlns:xlink="http://www.w3.org/1999/xlink"
   xmlns:sodipodi="http://sodipodi.sourceforge.net/DTD/sodipodi-0.dtd"
   xmlns:inkscape="http://www.inkscape.org/namespaces/inkscape"
   width="16"
   height="16"
   id="svg2"
   version="1.1"
   inkscape:version="1.0 (4035a4f, 2020-05-01)"
   sodipodi:docname="panel_search.svg">
  <defs
     id="defs4">
    <linearGradient
       id="linearGradient3792">
      <stop
         style="stop-color:#eceded;stop-opacity:1;"
         offset="0"
         id="stop3794" />
      <stop
         style="stop-color:#b5c6d0;stop-opacity:1;"
         offset="1"
         id="stop3796" />
    </linearGradient>
    <linearGradient
       id="linearGradient3804">
      <stop
         style="stop-color:#464c90;stop-opacity:1;"
         offset="0"
         id="stop3806" />
      <stop
         style="stop-color:#355560;stop-opacity:1;"
         offset="1"
         id="stop3808" />
    </linearGradient>
    <linearGradient
       id="linearGradient3796">
      <stop
         style="stop-color:#545d96;stop-opacity:1;"
         offset="0"
         id="stop3798" />
      <stop
         style="stop-color:#76a1ab;stop-opacity:1;"
         offset="1"
         id="stop3800" />
    </linearGradient>
    <inkscape:perspective
       sodipodi:type="inkscape:persp3d"
       inkscape:vp_x="0 : 16 : 1"
       inkscape:vp_y="0 : 1000 : 0"
       inkscape:vp_z="32 : 16 : 1"
       inkscape:persp3d-origin="16 : 10.666667 : 1"
       id="perspective35" />
    <linearGradient
       id="linearGradient3852">
      <stop
         style="stop-color:#467b3c;stop-opacity:1;"
         offset="0"
         id="stop3854" />
      <stop
         style="stop-color:#3d9f3d;stop-opacity:0.99215686;"
         offset="1"
         id="stop3856" />
    </linearGradient>
    <linearGradient
       id="linearGradient3799">
      <stop
         style="stop-color:#aae1be;stop-opacity:1;"
         offset="0"
         id="stop3801" />
      <stop
         style="stop-color:#4bc82b;stop-opacity:1;"
         offset="1"
         id="stop3803" />
    </linearGradient>
    <linearGradient
       id="linearGradient3777">
      <stop
         style="stop-color:#5b7db3;stop-opacity:1;"
         offset="0"
         id="stop3779" />
      <stop
         style="stop-color:#2589ce;stop-opacity:1;"
         offset="1"
         id="stop3781" />
    </linearGradient>
    <linearGradient
       id="linearGradient3756">
      <stop
         id="stop3758"
         offset="0"
         style="stop-color:#519aed;stop-opacity:1;" />
      <stop
         id="stop3760"
         offset="1"
         style="stop-color:#e9dddd;stop-opacity:0;" />
    </linearGradient>
    <linearGradient
       id="linearGradient3728">
      <stop
         style="stop-color:#f1f3fb;stop-opacity:1;"
         offset="0"
         id="stop3730" />
      <stop
         style="stop-color:#273df9;stop-opacity:0;"
         offset="1"
         id="stop3732" />
    </linearGradient>
    <linearGradient
       inkscape:collect="always"
       xlink:href="#linearGradient3728"
       id="linearGradient3710"
       gradientUnits="userSpaceOnUse"
       gradientTransform="matrix(0.4057742,0,0,-0.45657261,0.07287404,33.882272)"
       x1="15.413333"
       y1="3.4795053"
       x2="15.941438"
       y2="18.883736" />
    <linearGradient
       inkscape:collect="always"
       xlink:href="#linearGradient3756"
       id="linearGradient3720"
       gradientUnits="userSpaceOnUse"
       gradientTransform="matrix(0.4057742,0,0,-0.45657261,0.07287404,33.882272)"
       x1="24.437176"
       y1="3.4853487"
       x2="15.941438"
       y2="18.883736" />
    <linearGradient
       inkscape:collect="always"
       xlink:href="#linearGradient3777"
       id="linearGradient3783"
       x1="1.4276053"
       y1="16.374115"
       x2="28.440672"
       y2="16.374115"
       gradientUnits="userSpaceOnUse"
       gradientTransform="matrix(1.0279887,0,0,1.0323478,7.1553463,-2.2096664)" />
    <linearGradient
       inkscape:collect="always"
       xlink:href="#linearGradient3799"
       id="linearGradient3834"
       x1="-9.2158766"
       y1="17.617861"
       x2="36.303471"
       y2="17.617861"
       gradientUnits="userSpaceOnUse" />
    <linearGradient
       inkscape:collect="always"
       xlink:href="#linearGradient3852"
       id="linearGradient3858"
       x1="4.4050612"
       y1="16.300755"
       x2="23.3321"
       y2="16.521189"
       gradientUnits="userSpaceOnUse"
       gradientTransform="matrix(0.96778437,0,0,0.96778437,1.3383248,1.0794304)" />
    <inkscape:perspective
       id="perspective2935"
       inkscape:persp3d-origin="0.5 : 0.33333333 : 1"
       inkscape:vp_z="1 : 0.5 : 1"
       inkscape:vp_y="0 : 1000 : 0"
       inkscape:vp_x="0 : 0.5 : 1"
       sodipodi:type="inkscape:persp3d" />
    <linearGradient
       inkscape:collect="always"
       xlink:href="#linearGradient4026"
       id="linearGradient4032"
       x1="16.804222"
       y1="14.95285"
       x2="27.970543"
       y2="14.95285"
       gradientUnits="userSpaceOnUse"
       gradientTransform="matrix(1.7702794,0,0,1.4225865,-38.983045,1.405527)" />
    <linearGradient
       id="linearGradient4026">
      <stop
         style="stop-color:#f30e1e;stop-opacity:1;"
         offset="0"
         id="stop4028" />
      <stop
         style="stop-color:#ba2f39;stop-opacity:1;"
         offset="1"
         id="stop4030" />
    </linearGradient>
    <linearGradient
       id="linearGradient3975">
      <stop
         style="stop-color:#565c64;stop-opacity:1;"
         offset="0"
         id="stop3977" />
      <stop
         style="stop-color:#99a4b4;stop-opacity:1;"
         offset="1"
         id="stop3979" />
    </linearGradient>
  </defs>
  <sodipodi:namedview
     id="base"
     pagecolor="#ffffff"
     bordercolor="#666666"
     borderopacity="1.0"
     inkscape:pageopacity="0.0"
     inkscape:pageshadow="2"
     inkscape:zoom="28.668359"
     inkscape:cx="-0.61170851"
     inkscape:cy="13.037037"
     inkscape:document-units="px"
     inkscape:current-layer="layer3"
     showgrid="true"
     inkscape:snap-grids="false"
     inkscape:window-width="1440"
     inkscape:window-height="795"
     inkscape:window-x="0"
     inkscape:window-y="25"
     inkscape:window-maximized="1"
     inkscape:document-rotation="0">
    <inkscape:grid
       type="xygrid"
       id="grid2816"
       empspacing="5"
       visible="true"
       enabled="true"
       snapvisiblegridlinesonly="true" />
  </sodipodi:namedview>
  <metadata
     id="metadata7">
    <rdf:RDF>
      <cc:Work
         rdf:about="">
        <dc:format>image/svg+xml</dc:format>
        <dc:type
           rdf:resource="http://purl.org/dc/dcmitype/StillImage" />
        <dc:title />
        <cc:license
           rdf:resource="Apache License 2.0" />
        <dc:creator>
          <cc:Agent>
            <dc:title />
          </cc:Agent>
        </dc:creator>
        <dc:publisher>
          <cc:Agent>
            <dc:title>ECMWF</dc:title>
          </cc:Agent>
        </dc:publisher>
        <dc:language>en-GB</dc:language>
        <dc:subject>
          <rdf:Bag>
            <rdf:li>Metview icon</rdf:li>
          </rdf:Bag>
        </dc:subject>
        <dc:description>Metview icon</dc:description>
      </cc:Work>
    </rdf:RDF>
  </metadata>
  <g
     inkscape:groupmode="layer"
     id="layer3"
     inkscape:label="circle"
     style="display:inline"
     transform="translate(0,-16)">
    <path
       style="fill:url(#linearGradient3710);fill-opacity:1;fill-rule:evenodd;stroke:url(#linearGradient3720);stroke-width:0.38534608;stroke-linecap:butt;stroke-linejoin:miter;stroke-miterlimit:4;stroke-opacity:1;stroke-dasharray:none;stroke-dashoffset:0"
       d="m 1.171302,28.518341 c -0.77454518,2.360603 -0.38727254,1.180301 0,0 z"
       id="path3695"
       inkscape:connector-curvature="0"
       sodipodi:nodetypes="cc" />
    <ellipse
       id="use1642"
       style="fill:none;fill-opacity:1;fill-rule:evenodd;stroke:#1a1a1a;stroke-width:1;stroke-linecap:butt;stroke-linejoin:miter;stroke-miterlimit:4;stroke-dasharray:none;stroke-dashoffset:0;stroke-opacity:1"
       cx="6.2564068"
       cy="21.783934"
       rx="4.3288097"
       ry="4.5191288" />
    <path
       style="fill:#1a1a1a;stroke:#1a1a1a;stroke-width:0.43641000000000002px;stroke-linecap:butt;stroke-linejoin:miter;stroke-opacity:1"
       d="m 9.0369866,25.498358 5.1623714,5.168823 0.723697,-0.958123 -5.0658789,-5.219251 z"
       id="use1644"
       sodipodi:nodetypes="ccccc" />
  </g>
  <g
     inkscape:groupmode="layer"
     id="layer2"
     inkscape:label="item"
     style="display:inline"
     transform="translate(0,-16)" />
</svg>
