<?xml version="1.0" encoding="UTF-8" standalone="no"?>
<svg
   xmlns:dc="http://purl.org/dc/elements/1.1/"
   xmlns:cc="http://creativecommons.org/ns#"
   xmlns:rdf="http://www.w3.org/1999/02/22-rdf-syntax-ns#"
   xmlns:svg="http://www.w3.org/2000/svg"
   xmlns="http://www.w3.org/2000/svg"
   xmlns:xlink="http://www.w3.org/1999/xlink"
   xmlns:sodipodi="http://sodipodi.sourceforge.net/DTD/sodipodi-0.dtd"
   xmlns:inkscape="http://www.inkscape.org/namespaces/inkscape"
   viewBox="0 0 32 32"
   sodipodi:docname="info_light.svg"
   inkscape:version="1.0 (4035a4f, 2020-05-01)"
   version="1.1"
   id="svg2"
   height="34.133335"
   width="34.133335">
  <defs
     id="defs4">
    <linearGradient
       id="linearGradient3756">
      <stop
         style="stop-color:#e8e8e8;stop-opacity:1;"
         offset="0"
         id="stop3758" />
      <stop
         style="stop-color:#60838c;stop-opacity:0;"
         offset="1"
         id="stop3760" />
    </linearGradient>
    <linearGradient
       id="linearGradient3728">
      <stop
         id="stop3730"
         offset="0"
         style="stop-color:#e2eaed;stop-opacity:1;" />
      <stop
         id="stop3732"
         offset="1"
         style="stop-color:#b9bfec;stop-opacity:0;" />
    </linearGradient>
    <linearGradient
       id="linearGradient3614">
      <stop
         id="stop3616"
         offset="0"
         style="stop-color:#ffffff;stop-opacity:1;" />
      <stop
         id="stop3618"
         offset="1"
         style="stop-color:#e6e7e8;stop-opacity:1;" />
    </linearGradient>
    <linearGradient
       id="linearGradient3602">
      <stop
         id="stop3604"
         offset="0"
         style="stop-color:#f5f5f5;stop-opacity:1;" />
      <stop
         id="stop3606"
         offset="1"
         style="stop-color:#ececec;stop-opacity:1" />
    </linearGradient>
    <linearGradient
       y2="25.49161"
       x2="6.7754312"
       y1="28.983076"
       x1="3.5563364"
       gradientUnits="userSpaceOnUse"
       id="linearGradient3693"
       xlink:href="#linearGradient3602"
       inkscape:collect="always" />
    <linearGradient
       y2="18.883736"
       x2="15.941438"
       y1="3.4795053"
       x1="15.413333"
       gradientTransform="matrix(1.0083092,0,0,-1.0648754,-31.614004,39.369806)"
       gradientUnits="userSpaceOnUse"
       id="linearGradient3710"
       xlink:href="#linearGradient3728"
       inkscape:collect="always" />
    <linearGradient
       y2="18.883736"
       x2="15.941438"
       y1="3.4853487"
       x1="24.437176"
       gradientTransform="matrix(1.0083092,0,0,-1.0648754,-31.614004,39.369806)"
       gradientUnits="userSpaceOnUse"
       id="linearGradient3720"
       xlink:href="#linearGradient3756"
       inkscape:collect="always" />
  </defs>
  <sodipodi:namedview
     inkscape:document-rotation="0"
     inkscape:window-maximized="0"
     inkscape:window-y="25"
     inkscape:window-x="32"
     inkscape:window-height="794"
     inkscape:window-width="1408"
     inkscape:snap-grids="false"
     showgrid="true"
     inkscape:current-layer="layer2"
     inkscape:document-units="px"
     inkscape:cy="17.066668"
     inkscape:cx="17.066668"
     inkscape:zoom="17.695312"
     inkscape:pageshadow="2"
     inkscape:pageopacity="0.0"
     borderopacity="1.0"
     bordercolor="#666666"
     pagecolor="#ffffff"
     id="base">
    <inkscape:grid
       spacingy="1"
       spacingx="1"
       originy="0"
       originx="0"
       snapvisiblegridlinesonly="true"
       enabled="true"
       visible="true"
       empspacing="5"
       id="grid2816"
       type="xygrid" />
  </sodipodi:namedview>
  <metadata
     id="metadata7">
    <rdf:RDF>
      <cc:Work
         rdf:about="">
        <dc:format>image/svg+xml</dc:format>
        <dc:type
           rdf:resource="http://purl.org/dc/dcmitype/StillImage" />
        <dc:title />
        <cc:license
           rdf:resource="Apache License 2.0" />
        <dc:creator>
          <cc:Agent>
            <dc:title />
          </cc:Agent>
        </dc:creator>
        <dc:publisher>
          <cc:Agent>
            <dc:title>ECMWF</dc:title>
          </cc:Agent>
        </dc:publisher>
        <dc:language>en-GB</dc:language>
        <dc:subject>
          <rdf:Bag>
            <rdf:li>Metview icon</rdf:li>
          </rdf:Bag>
        </dc:subject>
        <dc:description>Metview icon</dc:description>
      </cc:Work>
    </rdf:RDF>
  </metadata>
  <g
     style="display:inline"
     inkscape:label="circle"
     id="layer3"
     inkscape:groupmode="layer">
    <ellipse
       ry="12.613334"
       rx="13.76"
       cy="16.559999"
       cx="15.413333"
       transform="matrix(1.0422539,0,0,-1.0928961,-0.06606908,34.015663)"
       id="path2820"
       style="fill:none;fill-opacity:1;fill-rule:evenodd;stroke:url(#linearGradient3693);stroke-width:0.936966;stroke-linecap:butt;stroke-linejoin:miter;stroke-miterlimit:4;stroke-dasharray:none;stroke-dashoffset:0;stroke-opacity:1" />
  </g>
  <g
     style="display:inline"
     inkscape:label="item"
     id="layer2"
     inkscape:groupmode="layer">
    <text
       id="text3783"
       y="21.973333"
       x="3.8399999"
       style="font-style:normal;font-weight:normal;line-height:0%;font-family:Calibri;-inkscape-font-specification:Calibri;fill:#ffffff;fill-opacity:1;stroke:none"
       xml:space="preserve"><tspan
         style="font-size:20px;line-height:1.25"
         y="21.973333"
         x="3.8399999"
         id="tspan3785"
         sodipodi:role="line"> </tspan></text>
    <text
       id="text3787"
       y="15.146667"
       x="7.2533331"
       style="font-style:normal;font-weight:normal;line-height:0%;font-family:'Bitstream Vera Sans';fill:none;fill-opacity:1;stroke:none;"
       xml:space="preserve"><tspan
         style="font-size:40px;line-height:1.25;fill:none;"
         y="15.146667"
         x="7.2533331"
         id="tspan3789"
         sodipodi:role="line"> </tspan></text>
    <text
       transform="scale(1.0152922,0.98493813)"
       id="text3791"
       y="25.751377"
       x="11.96041"
       style="font-style:normal;font-variant:normal;font-weight:bold;font-stretch:normal;line-height:0%;font-family:'DejaVu Serif';-inkscape-font-specification:'DejaVu Serif';fill:#4d4d4d;fill-opacity:1;stroke:none"
       xml:space="preserve"><tspan
         style="font-style:normal;font-variant:normal;font-weight:bold;font-stretch:normal;font-size:26.605px;line-height:1.25;font-family:'DejaVu Serif';-inkscape-font-specification:'DejaVu Serif';fill:#4d4d4d"
         y="25.751377"
         x="11.96041"
         id="tspan3793"
         sodipodi:role="line">i</tspan></text>
  </g>
  <g
     inkscape:label="top"
     id="layer4"
     inkscape:groupmode="layer">
    <ellipse
       ry="13.706667"
       rx="13.973333"
       cy="17.973333"
       cx="16.213333"
       transform="matrix(1.0263416,0,0,1.0057195,-0.7537525,-2.0427931)"
       id="path3786"
       style="fill:none;stroke:#4d4d4d;stroke-width:1.38413392;stroke-linecap:butt;stroke-linejoin:miter;stroke-miterlimit:4;stroke-dasharray:none;stroke-dashoffset:0;stroke-opacity:1" />
  </g>
</svg>
