<?xml version="1.0" encoding="UTF-8" standalone="no"?>
<!-- Created with Inkscape (http://www.inkscape.org/) -->

<svg
   xmlns:dc="http://purl.org/dc/elements/1.1/"
   xmlns:cc="http://creativecommons.org/ns#"
   xmlns:rdf="http://www.w3.org/1999/02/22-rdf-syntax-ns#"
   xmlns:svg="http://www.w3.org/2000/svg"
   xmlns="http://www.w3.org/2000/svg"
   xmlns:xlink="http://www.w3.org/1999/xlink"
   xmlns:sodipodi="http://sodipodi.sourceforge.net/DTD/sodipodi-0.dtd"
   xmlns:inkscape="http://www.inkscape.org/namespaces/inkscape"
   width="32"
   height="32"
   id="svg2"
   sodipodi:version="0.32"
   inkscape:version="0.47 r22583"
   version="1.0"
   sodipodi:docname="profile_import.svg"
   inkscape:export-xdpi="90"
   inkscape:export-ydpi="90"
   inkscape:output_extension="org.inkscape.output.svg.inkscape">
  <defs
     id="defs4">
    <linearGradient
       id="linearGradient5790"
       gradientUnits="userSpaceOnUse"
       x1="51.9683"
       y1="98.746101"
       x2="43.653599"
       y2="71.243797">
      <stop
         offset="0"
         style="stop-color:#ffffff;stop-opacity:1"
         id="stop5792" />
      <stop
         offset="1"
         style="stop-color:#d1d1d1;stop-opacity:1;"
         id="stop5800" />
    </linearGradient>
    <linearGradient
       id="linearGradient5774">
      <stop
         style="stop-color:#304fdc;stop-opacity:1;"
         offset="0"
         id="stop5776" />
      <stop
         style="stop-color:#8fbac7;stop-opacity:1;"
         offset="1"
         id="stop5778" />
    </linearGradient>
    <linearGradient
       y2="5.3949285"
       x2="-2.1777394"
       y1="5.868176"
       x1="34.234921"
       gradientTransform="matrix(0.7653975,0,0,0.5168907,0.7536402,0.5021448)"
       gradientUnits="userSpaceOnUse"
       id="linearGradient3776"
       xlink:href="#linearGradient5774"
       inkscape:collect="always" />
    <linearGradient
       y2="37.150795"
       x2="14.976191"
       y1="6.0793653"
       x1="15.444444"
       gradientTransform="matrix(0.7390913,0,0,0.8159919,1.1716091,0.9970213)"
       gradientUnits="userSpaceOnUse"
       id="linearGradient3774"
       xlink:href="#linearGradient5790"
       inkscape:collect="always" />
    <linearGradient
       id="linearGradient11462">
      <stop
         id="stop11464"
         offset="0"
         style="stop-color:#91ff44;stop-opacity:1;" />
      <stop
         id="stop11466"
         offset="1"
         style="stop-color:#3b9d12;stop-opacity:1;" />
    </linearGradient>
    <linearGradient
       inkscape:collect="always"
       xlink:href="#linearGradient11462"
       id="linearGradient4796"
       x1="-0.5"
       y1="13.5"
       x2="25.5"
       y2="13.5"
       gradientUnits="userSpaceOnUse"
       gradientTransform="translate(5.7083333,5.0000003)" />
  </defs>
  <sodipodi:namedview
     id="base"
     pagecolor="#efefef"
     bordercolor="#666666"
     borderopacity="1.0"
     inkscape:pageopacity="1"
     inkscape:pageshadow="2"
     inkscape:zoom="24"
     inkscape:cx="12.661122"
     inkscape:cy="16"
     inkscape:document-units="px"
     inkscape:current-layer="layer7"
     inkscape:showpageshadow="false"
     showborder="true"
     borderlayer="top"
     showgrid="true"
     inkscape:grid-points="false"
     inkscape:window-width="1445"
     inkscape:window-height="978"
     inkscape:window-x="2009"
     inkscape:window-y="37"
     width="32px"
     height="32px"
     showguides="true"
     inkscape:guide-bbox="true"
     inkscape:window-maximized="0"
     inkscape:snap-grids="false">
    <inkscape:grid
       id="GridFromPre046Settings"
       type="xygrid"
       originx="0px"
       originy="0px"
       spacingx="1px"
       spacingy="1px"
       color="#9f9f9f"
       empcolor="#9f9f9f"
       opacity="0.10196078"
       empopacity="0.25490196"
       empspacing="10" />
    <sodipodi:guide
       orientation="horizontal"
       position="8.1666667"
       id="guide3153" />
  </sodipodi:namedview>
  <metadata
     id="metadata7">
    <rdf:RDF>
      <cc:Work
         rdf:about="">
        <dc:format>image/svg+xml</dc:format>
        <dc:type
           rdf:resource="http://purl.org/dc/dcmitype/StillImage" />
        <dc:title />
        <cc:license
           rdf:resource="Apache License 2.0" />
        <dc:creator>
          <cc:Agent>
            <dc:title />
          </cc:Agent>
        </dc:creator>
        <dc:publisher>
          <cc:Agent>
            <dc:title>ECMWF</dc:title>
          </cc:Agent>
        </dc:publisher>
        <dc:language>en-GB</dc:language>
        <dc:subject>
          <rdf:Bag>
            <rdf:li>Metview icon</rdf:li>
          </rdf:Bag>
        </dc:subject>
        <dc:description>Metview icon</dc:description>
      </cc:Work>
    </rdf:RDF>
  </metadata>
  <g
     inkscape:groupmode="layer"
     id="layer14"
     inkscape:label="rect"
     style="display:inline">
    <g
       inkscape:label="rect"
       id="g5164"
       transform="matrix(1.1753472,0,0,1.0441511,0.21674688,1.0540567)">
      <g
         transform="translate(20.375001,9.3333312)"
         id="g3744">
        <g
           style="display:inline"
           inkscape:label="rect"
           id="g3760"
           transform="translate(-20.375001,-8.8071128)">
          <g
             transform="translate(2.6328225,1)"
             id="g3762">
            <g
               id="g3764"
               inkscape:label="rect">
              <g
                 transform="translate(-2.6346456,-1.002738)"
                 id="g3766"
                 inkscape:label="rect#1"
                 style="display:inline">
                <rect
                   style="fill:url(#linearGradient3774);fill-opacity:1;fill-rule:evenodd;stroke:#353193;stroke-width:1.09593046;stroke-linecap:butt;stroke-linejoin:miter;stroke-miterlimit:4;stroke-opacity:1;stroke-dasharray:none;stroke-dashoffset:0"
                   id="rect3768"
                   width="22.910055"
                   height="25.300268"
                   x="1.5449734"
                   y="1.4027575" />
                <rect
                   style="fill:url(#linearGradient3776);fill-opacity:1;fill-rule:evenodd;stroke:#3a358c;stroke-width:1.03807104;stroke-linecap:butt;stroke-linejoin:miter;stroke-miterlimit:4;stroke-opacity:1;stroke-dasharray:none;stroke-dashoffset:0"
                   id="rect3770"
                   width="22.961929"
                   height="4.1520081"
                   x="1.519037"
                   y="1.0190356" />
              </g>
            </g>
            <g
               inkscape:label="Layer 1"
               id="g3772"
               style="display:inline" />
          </g>
        </g>
      </g>
    </g>
  </g>
  <g
     inkscape:groupmode="layer"
     id="layer7"
     inkscape:label="arrow"
     style="display:inline">
    <path
       style="fill:url(#linearGradient4796);fill-opacity:1.0;stroke:#257e31;stroke-width:1.29999994999999990;stroke-linecap:butt;stroke-linejoin:round;stroke-miterlimit:4;stroke-opacity:1;stroke-dasharray:none"
       d="m 5.7083333,18 9.9999997,-8 0,3 15,0 0,10.833333 -15,0 0,3.166667 -9.9999997,-9 z"
       id="path4788" />
  </g>
</svg>
