<?xml version="1.0" encoding="UTF-8" standalone="no"?>
<!-- Created with Inkscape (http://www.inkscape.org/) -->

<svg
   xmlns:dc="http://purl.org/dc/elements/1.1/"
   xmlns:cc="http://creativecommons.org/ns#"
   xmlns:rdf="http://www.w3.org/1999/02/22-rdf-syntax-ns#"
   xmlns:svg="http://www.w3.org/2000/svg"
   xmlns="http://www.w3.org/2000/svg"
   xmlns:xlink="http://www.w3.org/1999/xlink"
   xmlns:sodipodi="http://sodipodi.sourceforge.net/DTD/sodipodi-0.dtd"
   xmlns:inkscape="http://www.inkscape.org/namespaces/inkscape"
   width="300"
   height="200"
   id="svg2"
   version="1.1"
   inkscape:version="0.48.2 r9819"
   sodipodi:docname="splash_screen.svg"
   inkscape:export-xdpi="90"
   inkscape:export-ydpi="90">
  <defs
     id="defs4">
    <linearGradient
       id="linearGradient3837">
      <stop
         style="stop-color:#00a0e2;stop-opacity:1;"
         offset="0"
         id="stop3839" />
      <stop
         style="stop-color:#6ca3b9;stop-opacity:1"
         offset="1"
         id="stop3841" />
    </linearGradient>
    <linearGradient
       id="linearGradient3755">
      <stop
         id="stop3763"
         offset="0"
         style="stop-color:#4471a6;stop-opacity:1;" />
      <stop
         style="stop-color:#cdd6de;stop-opacity:1;"
         offset="1"
         id="stop3759" />
    </linearGradient>
    <linearGradient
       inkscape:collect="always"
       xlink:href="#linearGradient3755"
       id="linearGradient3761"
       x1="131.57895"
       y1="1.9138784"
       x2="130.14354"
       y2="183.73206"
       gradientUnits="userSpaceOnUse"
       gradientTransform="matrix(1.0806175,0,0,1.0294118,0.03857296,852.36218)" />
    <filter
       inkscape:collect="always"
       id="filter3825"
       x="-0.08313741"
       width="1.1662748"
       y="-0.15224844"
       height="1.3044969">
      <feGaussianBlur
         inkscape:collect="always"
         stdDeviation="3.1394306"
         id="feGaussianBlur3827" />
    </filter>
    <linearGradient
       inkscape:collect="always"
       xlink:href="#linearGradient3837"
       id="linearGradient3843"
       x1="114.31874"
       y1="78.254387"
       x2="154.7113"
       y2="159.10545"
       gradientUnits="userSpaceOnUse"
       gradientTransform="translate(-0.77369385,0.38684724)" />
  </defs>
  <sodipodi:namedview
     id="base"
     pagecolor="#ffffff"
     bordercolor="#666666"
     borderopacity="1.0"
     inkscape:pageopacity="0.0"
     inkscape:pageshadow="2"
     inkscape:zoom="2.585"
     inkscape:cx="150"
     inkscape:cy="100"
     inkscape:document-units="px"
     inkscape:current-layer="layer1"
     showgrid="false"
     width="200px"
     inkscape:window-width="1366"
     inkscape:window-height="706"
     inkscape:window-x="-8"
     inkscape:window-y="-8"
     inkscape:window-maximized="1" />
  <metadata
     id="metadata7">
    <rdf:RDF>
      <cc:Work
         rdf:about="">
        <dc:format>image/svg+xml</dc:format>
        <dc:type
           rdf:resource="http://purl.org/dc/dcmitype/StillImage" />
        <dc:title></dc:title>
      </cc:Work>
    </rdf:RDF>
  </metadata>
  <g
     inkscape:label="bg"
     inkscape:groupmode="layer"
     id="layer1"
     transform="translate(0,-852.36218)">
    <rect
       style="fill:url(#linearGradient3761);fill-opacity:1;stroke:none"
       id="rect2985"
       width="301.43539"
       height="200.95694"
       x="-0.47846889"
       y="852.36218" />
    <rect
       style="fill:#425c7a;fill-opacity:1;stroke:none"
       id="rect3765"
       width="301.37759"
       height="29.607269"
       x="-0.61869133"
       y="1023.1756" />
    <rect
       style="fill:#6f899f;fill-opacity:1;stroke:none"
       id="rect3776"
       width="264.99033"
       height="4.2553191"
       x="8.8974857"
       y="85.106384"
       transform="translate(0,852.36218)" />
  </g>
  <g
     inkscape:groupmode="layer"
     id="layer4"
     inkscape:label="logo shadow">
    <path
       style="fill:#181f22;fill-opacity:1;stroke:none;stroke-width:1.60142027999999990;stroke-linecap:butt;stroke-linejoin:miter;stroke-miterlimit:4;stroke-opacity:1;stroke-dasharray:none;display:inline;filter:url(#filter3825)"
       d="m 102.998,146.93595 c 0.0423,-8.42373 -0.28656,-17.1743 -0.0825,-27.20912 1.9508,-5.33144 9.07107,-10.67746 15.76307,-10.47359 8.11254,-0.0279 8.72161,4.74915 12.65039,4.75989 3.92879,0.0107 5.64597,-3.96254 9.45516,-4.88958 3.9315,-0.9568 12.86465,-0.75632 16.43914,6.66939 4.1407,8.60194 12.32994,25.67525 12.32994,25.67525 0,0 9.20981,-18.31317 14.30353,-29.82416 0.70722,-1.59822 3.76338,-2.90097 6.65685,-1.79916 2.89346,1.10181 3.37444,3.13775 2.68423,4.67358 -5.7231,12.73497 -18.08507,38.01048 -20.1417,42.11035 -0.48869,0.9742 -1.95864,1.55504 -3.18723,1.57744 -1.3276,0.0242 -3.05675,-0.7128 -3.52667,-1.57744 -2.93005,-5.39127 -12.05138,-24.24225 -17.59705,-34.85169 -1.26412,-2.41838 -4.0829,-3.70693 -6.68538,-3.49291 -2.47437,0.20348 -5.48931,2.02051 -5.49225,4.29535 -0.0109,8.47593 0.069,16.90954 0,24.3564 -0.018,1.94106 -2.9747,3.75543 -5.25435,3.72802 -2.2058,-0.0265 -4.94037,-1.84989 -4.96245,-3.72802 -0.048,-4.0811 -0.21073,-8.91932 -0.17995,-13.78739 0.0237,-3.75272 0.0305,-3.68473 0.0689,-10.62843 0.0132,-2.38958 -3.89254,-4.26997 -6.67263,-4.26021 -2.84936,0.01 -6.83732,2.08159 -6.79643,4.41419 0.14755,8.41499 0.13611,16.62755 0.18085,24.32126 0.0113,1.9411 -2.5076,3.87218 -4.69907,3.91714 -2.34269,0.048 -5.26438,-1.98141 -5.25436,-3.97656 z"
       id="path3790-1"
       inkscape:connector-curvature="0"
       sodipodi:nodetypes="scczsscszssassassasssassas" />
  </g>
  <g
     inkscape:groupmode="layer"
     id="layer2"
     inkscape:label="text">
    <flowRoot
       xml:space="preserve"
       id="flowRoot3768"
       style="font-size:40px;font-style:normal;font-weight:normal;line-height:125%;letter-spacing:0px;word-spacing:0px;fill:#e8e8eb;fill-opacity:1;stroke:none;font-family:Sans"
       transform="translate(7.2146999e-8,-7.7369443)"><flowRegion
         id="flowRegion3770"><rect
           id="rect3772"
           width="240.2321"
           height="86.65377"
           x="20.502901"
           y="41.005802"
           style="fill:#e8e8eb;fill-opacity:1;stroke:none" /></flowRegion><flowPara
         id="flowPara3774"
         style="font-size:56px;font-style:normal;font-variant:normal;font-weight:bold;font-stretch:normal;fill:#e8e8eb;fill-opacity:1;stroke:none;font-family:Arial;-inkscape-font-specification:Arial Bold">Metview</flowPara></flowRoot>  </g>
  <g
     inkscape:groupmode="layer"
     id="layer3"
     inkscape:label="logo"
     style="display:inline">
    <path
       style="fill:url(#linearGradient3843);fill-opacity:1;stroke:#294099;stroke-width:1.60142028;stroke-linecap:butt;stroke-linejoin:miter;stroke-miterlimit:4;stroke-opacity:1;stroke-dasharray:none"
       d="m 99.795396,139.6971 c 0.0423,-8.42373 -0.28656,-17.1743 -0.0825,-27.20912 1.950804,-5.33144 9.071074,-10.67746 15.763074,-10.47359 8.11254,-0.0279 8.72161,4.74915 12.65039,4.75989 3.92879,0.0107 5.64597,-3.96254 9.45516,-4.88958 3.9315,-0.9568 12.86465,-0.75632 16.43914,6.66939 4.1407,8.60194 12.32994,25.67525 12.32994,25.67525 0,0 9.20981,-18.31317 14.30353,-29.82416 0.70722,-1.59822 3.76338,-2.90097 6.65685,-1.79916 2.89346,1.10181 3.37444,3.13775 2.68423,4.67358 -5.7231,12.73497 -18.08507,38.01048 -20.1417,42.11035 -0.48869,0.9742 -1.95864,1.55504 -3.18723,1.57744 -1.3276,0.0242 -3.05675,-0.7128 -3.52667,-1.57744 -2.93005,-5.39127 -12.05138,-24.24225 -17.59705,-34.85169 -1.26412,-2.41838 -4.0829,-3.70693 -6.68538,-3.49291 -2.47437,0.20348 -5.48931,2.02051 -5.49225,4.29535 -0.0109,8.47593 0.069,16.90954 0,24.3564 -0.018,1.94106 -2.9747,3.75543 -5.25435,3.72802 -2.2058,-0.0265 -4.94037,-1.84989 -4.96245,-3.72802 -0.048,-4.0811 -0.21073,-8.91932 -0.17995,-13.78739 0.0237,-3.75272 0.0305,-3.68473 0.0689,-10.62843 0.0132,-2.38958 -3.89254,-4.26997 -6.67263,-4.26021 -2.84936,0.01 -6.83732,2.08159 -6.79643,4.41419 0.14755,8.41499 0.13611,16.62755 0.18085,24.32126 0.0113,1.9411 -2.5076,3.87218 -4.69907,3.91714 -2.34269,0.048 -5.264374,-1.98141 -5.254354,-3.97656 z"
       id="path3790"
       inkscape:connector-curvature="0"
       sodipodi:nodetypes="scczsscszssassassasssassas" />
  </g>
</svg>
