<?xml version="1.0" encoding="UTF-8" standalone="no"?>
<!-- Created with Inkscape (http://www.inkscape.org/) -->

<svg
   xmlns:dc="http://purl.org/dc/elements/1.1/"
   xmlns:cc="http://creativecommons.org/ns#"
   xmlns:rdf="http://www.w3.org/1999/02/22-rdf-syntax-ns#"
   xmlns:svg="http://www.w3.org/2000/svg"
   xmlns="http://www.w3.org/2000/svg"
   xmlns:xlink="http://www.w3.org/1999/xlink"
   xmlns:sodipodi="http://sodipodi.sourceforge.net/DTD/sodipodi-0.dtd"
   xmlns:inkscape="http://www.inkscape.org/namespaces/inkscape"
   width="32"
   height="32"
   id="svg2"
   version="1.1"
   inkscape:version="0.48.2 r9819"
   sodipodi:docname="videowall.svg">
  <defs
     id="defs4">
    <linearGradient
       id="linearGradient5256">
      <stop
         style="stop-color:#cedcdd;stop-opacity:1;"
         offset="0"
         id="stop5258" />
      <stop
         style="stop-color:#7199cb;stop-opacity:1;"
         offset="1"
         id="stop5260" />
    </linearGradient>
    <linearGradient
       id="linearGradient5222">
      <stop
         style="stop-color:#91b3e7;stop-opacity:1;"
         offset="0"
         id="stop5224" />
      <stop
         style="stop-color:#e5f5ff;stop-opacity:1;"
         offset="1"
         id="stop5226" />
    </linearGradient>
    <linearGradient
       id="linearGradient5194">
      <stop
         style="stop-color:#204492;stop-opacity:1;"
         offset="0"
         id="stop5196" />
      <stop
         style="stop-color:#81a2d2;stop-opacity:1;"
         offset="1"
         id="stop5198" />
    </linearGradient>
    <linearGradient
       id="linearGradient5186">
      <stop
         style="stop-color:#eba34c;stop-opacity:1;"
         offset="0"
         id="stop5188" />
      <stop
         style="stop-color:#f9f9f9;stop-opacity:1;"
         offset="1"
         id="stop5190" />
    </linearGradient>
    <linearGradient
       id="linearGradient3795">
      <stop
         style="stop-color:#c53143;stop-opacity:1;"
         offset="0"
         id="stop3797" />
      <stop
         style="stop-color:#b8382b;stop-opacity:0;"
         offset="1"
         id="stop3799" />
    </linearGradient>
    <linearGradient
       id="linearGradient3728">
      <stop
         style="stop-color:#fa0c1e;stop-opacity:1;"
         offset="0"
         id="stop3730" />
      <stop
         style="stop-color:#d9afb1;stop-opacity:0;"
         offset="1"
         id="stop3732" />
    </linearGradient>
    <linearGradient
       id="linearGradient3614">
      <stop
         style="stop-color:#e8220f;stop-opacity:1;"
         offset="0"
         id="stop3616" />
      <stop
         style="stop-color:#ececec;stop-opacity:1;"
         offset="1"
         id="stop3618" />
    </linearGradient>
    <linearGradient
       id="linearGradient3602">
      <stop
         style="stop-color:#932626;stop-opacity:1;"
         offset="0"
         id="stop3604" />
      <stop
         style="stop-color:#bc4343;stop-opacity:1;"
         offset="1"
         id="stop3606" />
    </linearGradient>
    <linearGradient
       inkscape:collect="always"
       xlink:href="#linearGradient5256"
       id="linearGradient5262"
       x1="-5.8968949"
       y1="8.2935667"
       x2="-5.5726938"
       y2="4.0554204"
       gradientUnits="userSpaceOnUse"
       gradientTransform="matrix(1.1587301,0,0,1.299435,14.55492,0.92896427)" />
    <linearGradient
       inkscape:collect="always"
       xlink:href="#linearGradient5256"
       id="linearGradient5266"
       gradientUnits="userSpaceOnUse"
       gradientTransform="translate(13.173333,13.813334)"
       x1="-6.1533332"
       y1="7.3333344"
       x2="-5.5266666"
       y2="3.9733334" />
    <linearGradient
       inkscape:collect="always"
       xlink:href="#linearGradient5256"
       id="linearGradient5270"
       gradientUnits="userSpaceOnUse"
       gradientTransform="translate(30.026666,20.213334)"
       x1="-6.5266666"
       y1="3.4400015"
       x2="-6.1133332"
       y2="0.18666674" />
    <linearGradient
       inkscape:collect="always"
       xlink:href="#linearGradient5256"
       id="linearGradient5274"
       gradientUnits="userSpaceOnUse"
       gradientTransform="translate(26.826667,5.3333334)"
       x1="-6.5266666"
       y1="9.0933342"
       x2="-5.5266666"
       y2="3.9733334" />
  </defs>
  <sodipodi:namedview
     id="base"
     pagecolor="#ffffff"
     bordercolor="#666666"
     borderopacity="1.0"
     inkscape:pageopacity="0.0"
     inkscape:pageshadow="2"
     inkscape:zoom="18.75"
     inkscape:cx="10.772358"
     inkscape:cy="15.459013"
     inkscape:document-units="px"
     inkscape:current-layer="layer2"
     showgrid="true"
     inkscape:snap-grids="false"
     inkscape:window-width="1469"
     inkscape:window-height="966"
     inkscape:window-x="214"
     inkscape:window-y="0"
     inkscape:window-maximized="0"
     inkscape:snap-to-guides="false">
    <inkscape:grid
       type="xygrid"
       id="grid2816"
       empspacing="5"
       visible="true"
       enabled="true"
       snapvisiblegridlinesonly="true" />
  </sodipodi:namedview>
  <metadata
     id="metadata7">
    <rdf:RDF>
      <cc:Work
         rdf:about="">
        <dc:format>image/svg+xml</dc:format>
        <dc:type
           rdf:resource="http://purl.org/dc/dcmitype/StillImage" />
        <dc:title></dc:title>
        <cc:license
           rdf:resource="Apache License 2.0" />
        <dc:creator>
          <cc:Agent>
            <dc:title />
          </cc:Agent>
        </dc:creator>
        <dc:publisher>
          <cc:Agent>
            <dc:title>ECMWF</dc:title>
          </cc:Agent>
        </dc:publisher>
        <dc:language>en-GB</dc:language>
        <dc:subject>
          <rdf:Bag>
            <rdf:li>Metview icon</rdf:li>
          </rdf:Bag>
        </dc:subject>
        <dc:description>Metview icon</dc:description>
      </cc:Work>
    </rdf:RDF>
  </metadata>
  <g
     inkscape:groupmode="layer"
     id="layer2"
     inkscape:label="item"
     style="display:inline">
    <text
       xml:space="preserve"
       style="font-size:20px;font-style:normal;font-weight:normal;fill:#ffffff;fill-opacity:1;stroke:none;font-family:Calibri;-inkscape-font-specification:Calibri"
       x="3.8399999"
       y="21.973333"
       id="text3783"><tspan
         sodipodi:role="line"
         id="tspan3785"
         x="3.8399999"
         y="21.973333" /></text>
    <text
       xml:space="preserve"
       style="font-size:40px;font-style:normal;font-weight:normal;fill:#000000;fill-opacity:1;stroke:none;font-family:Bitstream Vera Sans"
       x="7.2533331"
       y="15.146667"
       id="text3787"><tspan
         sodipodi:role="line"
         id="tspan3789"
         x="7.2533331"
         y="15.146667" /></text>
    <path
       style="fill:none;stroke:#000000;stroke-width:0.98199999;stroke-linecap:butt;stroke-linejoin:miter;stroke-miterlimit:4;stroke-opacity:1;stroke-dasharray:none"
       d="m 1.7199999,2.6933334 26.9999991,2.5333333 0,16.9066673 0,8.56 -26.9999991,-5.8 z"
       id="path5218"
       inkscape:connector-curvature="0"
       sodipodi:nodetypes="cccccc" />
    <path
       style="fill:none;stroke:#000000;stroke-width:2;stroke-linecap:butt;stroke-linejoin:miter;stroke-miterlimit:4;stroke-opacity:1;stroke-dasharray:none"
       d="m 14.426666,15.819874 c -0.03556,3.702307 0.08889,7.937947 0.05333,11.640254"
       id="path5230"
       inkscape:connector-curvature="0"
       sodipodi:nodetypes="cc" />
    <path
       style="fill:none;stroke:#00000e;stroke-width:2;stroke-linecap:butt;stroke-linejoin:miter;stroke-miterlimit:4;stroke-opacity:1;stroke-dasharray:none"
       d="m 1.8799999,13.586667 23.7096861,3.533711 3.39698,0.506289"
       id="path5232"
       inkscape:connector-curvature="0"
       sodipodi:nodetypes="ccc" />
    <path
       style="fill:#333333;stroke:none"
       d="M 1.1866665,2.12 3.7066666,0.83999997 30.813332,3.0533333 29.093332,4.96 z"
       id="path5234"
       inkscape:connector-curvature="0"
       sodipodi:nodetypes="ccccc" />
    <path
       sodipodi:nodetypes="ccccc"
       inkscape:connector-curvature="0"
       id="path5236"
       d="m 29.186666,31.400001 -0.04,-26.4533346 1.613332,-1.8933327 0.200001,26.1733343 z"
       style="fill:#333333;stroke:none" />
    <path
       style="fill:url(#linearGradient5262);fill-opacity:1;stroke:none"
       d="m 2.1333333,3.1466668 0.1151283,9.5484752 26.0546044,3.78486 0.01694,-10.9185708 z"
       id="path5238"
       inkscape:connector-curvature="0"
       sodipodi:nodetypes="ccccc" />
    <path
       sodipodi:nodetypes="ccccc"
       inkscape:connector-curvature="0"
       id="path5264"
       d="m 2.1866666,14.613335 0.05333,9.866666 11.2000024,2.453333 0.106669,-10.666666 z"
       style="fill:url(#linearGradient5266);fill-opacity:1;stroke:none" />
    <path
       style="fill:url(#linearGradient5270);fill-opacity:1;stroke:none"
       d="m 15.413332,16.480001 0.106664,10.88 12.693334,2.666667 5e-6,-11.466667 z"
       id="path5268"
       inkscape:connector-curvature="0"
       sodipodi:nodetypes="ccccc" />
  </g>
  <g
     inkscape:groupmode="layer"
     id="layer4"
     inkscape:label="top"
     style="display:inline" />
</svg>
