<?xml version="1.0" encoding="UTF-8" standalone="no"?>
<svg
   xmlns:dc="http://purl.org/dc/elements/1.1/"
   xmlns:cc="http://creativecommons.org/ns#"
   xmlns:rdf="http://www.w3.org/1999/02/22-rdf-syntax-ns#"
   xmlns:svg="http://www.w3.org/2000/svg"
   xmlns="http://www.w3.org/2000/svg"
   xmlns:xlink="http://www.w3.org/1999/xlink"
   xmlns:sodipodi="http://sodipodi.sourceforge.net/DTD/sodipodi-0.dtd"
   xmlns:inkscape="http://www.inkscape.org/namespaces/inkscape"
   viewBox="0 0 32 32"
   sodipodi:docname="view_grid.svg"
   inkscape:version="1.0 (4035a4f, 2020-05-01)"
   version="1.1"
   id="svg2"
   height="34.133335"
   width="34.133335">
  <defs
     id="defs4">
    <linearGradient
       id="linearGradient3852">
      <stop
         id="stop3854"
         offset="0"
         style="stop-color:#467b3c;stop-opacity:1;" />
      <stop
         id="stop3856"
         offset="1"
         style="stop-color:#3d9f3d;stop-opacity:0.99215686;" />
    </linearGradient>
    <linearGradient
       id="linearGradient3799">
      <stop
         id="stop3801"
         offset="0"
         style="stop-color:#aae1be;stop-opacity:1;" />
      <stop
         id="stop3803"
         offset="1"
         style="stop-color:#4bc82b;stop-opacity:1;" />
    </linearGradient>
    <linearGradient
       id="linearGradient3777">
      <stop
         id="stop3779"
         offset="0"
         style="stop-color:#0000ad;stop-opacity:1;" />
      <stop
         id="stop3781"
         offset="1"
         style="stop-color:#25d4ce;stop-opacity:1;" />
    </linearGradient>
    <linearGradient
       id="linearGradient3756">
      <stop
         style="stop-color:#519aed;stop-opacity:1;"
         offset="0"
         id="stop3758" />
      <stop
         style="stop-color:#e9dddd;stop-opacity:0;"
         offset="1"
         id="stop3760" />
    </linearGradient>
    <linearGradient
       id="linearGradient3728">
      <stop
         id="stop3730"
         offset="0"
         style="stop-color:#f1f3fb;stop-opacity:1;" />
      <stop
         id="stop3732"
         offset="1"
         style="stop-color:#273df9;stop-opacity:0;" />
    </linearGradient>
    <linearGradient
       y2="18.883736"
       x2="15.941438"
       y1="3.4795053"
       x1="15.413333"
       gradientTransform="matrix(1.1066784,0,0,-1.2085368,0.23065739,37.26001)"
       gradientUnits="userSpaceOnUse"
       id="linearGradient3710"
       xlink:href="#linearGradient3728"
       inkscape:collect="always" />
    <linearGradient
       y2="18.883736"
       x2="15.941438"
       y1="3.4853487"
       x1="24.437176"
       gradientTransform="matrix(1.1066784,0,0,-1.2085368,0.23065739,37.26001)"
       gradientUnits="userSpaceOnUse"
       id="linearGradient3720"
       xlink:href="#linearGradient3756"
       inkscape:collect="always" />
    <linearGradient
       gradientTransform="matrix(1.0279887,0,0,1.0323478,7.1553463,-2.2096664)"
       gradientUnits="userSpaceOnUse"
       y2="16.374115"
       x2="28.440672"
       y1="16.374115"
       x1="1.4276053"
       id="linearGradient3783"
       xlink:href="#linearGradient3777"
       inkscape:collect="always" />
    <linearGradient
       gradientUnits="userSpaceOnUse"
       y2="17.617861"
       x2="36.303471"
       y1="17.617861"
       x1="-9.2158766"
       id="linearGradient3834"
       xlink:href="#linearGradient3799"
       inkscape:collect="always" />
    <linearGradient
       gradientTransform="matrix(0.96778437,0,0,0.96778437,1.3383248,1.0794304)"
       gradientUnits="userSpaceOnUse"
       y2="16.521189"
       x2="23.3321"
       y1="16.300755"
       x1="4.4050612"
       id="linearGradient3858"
       xlink:href="#linearGradient3852"
       inkscape:collect="always" />
    <linearGradient
       inkscape:collect="always"
       xlink:href="#linearGradient3821-7"
       id="linearGradient3851"
       gradientUnits="userSpaceOnUse"
       gradientTransform="matrix(0.97315279,0,0,0.73574929,-6.8879173,8.7581518)"
       x1="18.113333"
       y1="7.04"
       x2="27.966665"
       y2="17.066668" />
    <linearGradient
       id="linearGradient3821-7">
      <stop
         id="stop3823-4"
         offset="0"
         style="stop-color:#ffffff;stop-opacity:1;" />
      <stop
         id="stop3825-0"
         offset="1"
         style="stop-color:#c5c5c5;stop-opacity:1;" />
    </linearGradient>
  </defs>
  <sodipodi:namedview
     inkscape:document-rotation="0"
     inkscape:window-maximized="1"
     inkscape:window-y="25"
     inkscape:window-x="0"
     inkscape:window-height="1091"
     inkscape:window-width="1920"
     inkscape:snap-grids="false"
     showgrid="true"
     inkscape:current-layer="svg2"
     inkscape:document-units="px"
     inkscape:cy="19.808208"
     inkscape:cx="-0.45264602"
     inkscape:zoom="18.75"
     inkscape:pageshadow="2"
     inkscape:pageopacity="0.0"
     borderopacity="1.0"
     bordercolor="#666666"
     pagecolor="#ffffff"
     id="base">
    <inkscape:grid
       spacingy="1"
       spacingx="1"
       originy="0"
       originx="0"
       snapvisiblegridlinesonly="true"
       enabled="true"
       visible="true"
       empspacing="5"
       id="grid2816"
       type="xygrid" />
  </sodipodi:namedview>
  <metadata
     id="metadata7">
    <rdf:RDF>
      <cc:Work
         rdf:about="">
        <dc:format>image/svg+xml</dc:format>
        <dc:type
           rdf:resource="http://purl.org/dc/dcmitype/StillImage" />
        <dc:title />
        <cc:license
           rdf:resource="Apache License 2.0" />
        <dc:creator>
          <cc:Agent>
            <dc:title />
          </cc:Agent>
        </dc:creator>
        <dc:publisher>
          <cc:Agent>
            <dc:title>ECMWF</dc:title>
          </cc:Agent>
        </dc:publisher>
        <dc:language>en-GB</dc:language>
        <dc:subject>
          <rdf:Bag>
            <rdf:li>Metview icon</rdf:li>
          </rdf:Bag>
        </dc:subject>
        <dc:description>Metview icon</dc:description>
      </cc:Work>
    </rdf:RDF>
  </metadata>
  <path
     inkscape:connector-curvature="0"
     id="path3057-4"
     d="m 4.8266667,1.0933339 c 0,29.8666661 0,29.8666661 0,29.8666661"
     style="fill:none;stroke:#333333;stroke-width:1px;stroke-linecap:butt;stroke-linejoin:miter;stroke-opacity:1" />
  <path
     style="fill:none;stroke:#333333;stroke-width:1px;stroke-linecap:butt;stroke-linejoin:miter;stroke-opacity:1"
     d="m 29.253332,1.4133338 c 0,29.8666652 0,29.8666652 0,29.8666652"
     id="path3831-8"
     inkscape:connector-curvature="0" />
  <path
     style="fill:none;stroke:#333333;stroke-width:1px;stroke-linecap:butt;stroke-linejoin:miter;stroke-opacity:1"
     d="m 0.71999967,6.8000006 c 29.86666733,0 29.86666733,0 29.86666733,0"
     id="path3833-8"
     inkscape:connector-curvature="0" />
  <path
     style="fill:none;stroke:#333333;stroke-width:1px;stroke-linecap:butt;stroke-linejoin:miter;stroke-opacity:1"
     d="m 0.82666667,13.893333 c 29.86666733,0 29.86666733,0 29.86666733,0"
     id="path3837-2"
     inkscape:connector-curvature="0" />
  <path
     inkscape:connector-curvature="0"
     id="path3839-4"
     d="m 0.66666567,28.453333 c 29.86666833,0 29.86666833,0 29.86666833,0"
     style="fill:none;stroke:#333333;stroke-width:1px;stroke-linecap:butt;stroke-linejoin:miter;stroke-opacity:1" />
  <path
     style="fill:none;stroke:#333333;stroke-width:1px;stroke-linecap:butt;stroke-linejoin:miter;stroke-opacity:1"
     d="m 12.88,1.0400005 c 0,29.8666655 0,29.8666655 0,29.8666655"
     id="path3832"
     inkscape:connector-curvature="0" />
  <path
     inkscape:connector-curvature="0"
     id="path3906"
     d="m 21.146667,1.0400006 c 0,29.8666664 0,29.8666664 0,29.8666664"
     style="fill:none;stroke:#333333;stroke-width:1px;stroke-linecap:butt;stroke-linejoin:miter;stroke-opacity:1" />
  <path
     inkscape:connector-curvature="0"
     id="path3910"
     d="m 0.66666667,21.039999 c 29.86666733,0 29.86666733,0 29.86666733,0"
     style="fill:none;stroke:#333333;stroke-width:1px;stroke-linecap:butt;stroke-linejoin:miter;stroke-opacity:1" />
</svg>
