<?xml version="1.0" encoding="UTF-8" standalone="no"?>
<svg
   xmlns:dc="http://purl.org/dc/elements/1.1/"
   xmlns:cc="http://creativecommons.org/ns#"
   xmlns:rdf="http://www.w3.org/1999/02/22-rdf-syntax-ns#"
   xmlns:svg="http://www.w3.org/2000/svg"
   xmlns="http://www.w3.org/2000/svg"
   xmlns:xlink="http://www.w3.org/1999/xlink"
   xmlns:sodipodi="http://sodipodi.sourceforge.net/DTD/sodipodi-0.dtd"
   xmlns:inkscape="http://www.inkscape.org/namespaces/inkscape"
   viewBox="0 0 32 32"
   sodipodi:docname="visualise.svg"
   inkscape:version="1.0 (4035a4f, 2020-05-01)"
   version="1.1"
   id="svg2"
   height="34.133335"
   width="34.133335">
  <defs
     id="defs4">
    <inkscape:perspective
       id="perspective35"
       inkscape:persp3d-origin="15.999999 : 12.800001 : 1"
       inkscape:vp_z="31.999998 : 18.133334 : 1"
       inkscape:vp_y="0 : 999.99995 : 0"
       inkscape:vp_x="0 : 18.133334 : 1"
       sodipodi:type="inkscape:persp3d" />
    <linearGradient
       id="linearGradient3852">
      <stop
         id="stop3854"
         offset="0"
         style="stop-color:#467b3c;stop-opacity:1;" />
      <stop
         id="stop3856"
         offset="1"
         style="stop-color:#3d9f3d;stop-opacity:0.99215686;" />
    </linearGradient>
    <linearGradient
       id="linearGradient3799">
      <stop
         id="stop3801"
         offset="0"
         style="stop-color:#aae1be;stop-opacity:1;" />
      <stop
         id="stop3803"
         offset="1"
         style="stop-color:#4bc82b;stop-opacity:1;" />
    </linearGradient>
    <linearGradient
       id="linearGradient3777">
      <stop
         id="stop3779"
         offset="0"
         style="stop-color:#5b7db3;stop-opacity:1;" />
      <stop
         id="stop3781"
         offset="1"
         style="stop-color:#2589ce;stop-opacity:1;" />
    </linearGradient>
    <linearGradient
       id="linearGradient3756">
      <stop
         style="stop-color:#519aed;stop-opacity:1;"
         offset="0"
         id="stop3758" />
      <stop
         style="stop-color:#e9dddd;stop-opacity:0;"
         offset="1"
         id="stop3760" />
    </linearGradient>
    <linearGradient
       id="linearGradient3728">
      <stop
         id="stop3730"
         offset="0"
         style="stop-color:#f1f3fb;stop-opacity:1;" />
      <stop
         id="stop3732"
         offset="1"
         style="stop-color:#273df9;stop-opacity:0;" />
    </linearGradient>
    <linearGradient
       y2="18.883736"
       x2="15.941438"
       y1="3.4795053"
       x1="15.413333"
       gradientTransform="matrix(1.1066784,0,0,-1.2085368,0.23065739,37.26001)"
       gradientUnits="userSpaceOnUse"
       id="linearGradient3710"
       xlink:href="#linearGradient3728"
       inkscape:collect="always" />
    <linearGradient
       y2="18.883736"
       x2="15.941438"
       y1="3.4853487"
       x1="24.437176"
       gradientTransform="matrix(1.1066784,0,0,-1.2085368,0.23065739,37.26001)"
       gradientUnits="userSpaceOnUse"
       id="linearGradient3720"
       xlink:href="#linearGradient3756"
       inkscape:collect="always" />
    <linearGradient
       gradientTransform="matrix(1.0279887,0,0,1.0323478,7.1553463,-2.2096664)"
       gradientUnits="userSpaceOnUse"
       y2="16.374115"
       x2="28.440672"
       y1="16.374115"
       x1="1.4276053"
       id="linearGradient3783"
       xlink:href="#linearGradient3777"
       inkscape:collect="always" />
    <linearGradient
       gradientUnits="userSpaceOnUse"
       y2="17.617861"
       x2="36.303471"
       y1="17.617861"
       x1="-9.2158766"
       id="linearGradient3834"
       xlink:href="#linearGradient3799"
       inkscape:collect="always" />
    <linearGradient
       gradientTransform="matrix(0.96778437,0,0,0.96778437,1.3383248,1.0794304)"
       gradientUnits="userSpaceOnUse"
       y2="16.521189"
       x2="23.3321"
       y1="16.300755"
       x1="4.4050612"
       id="linearGradient3858"
       xlink:href="#linearGradient3852"
       inkscape:collect="always" />
    <inkscape:perspective
       sodipodi:type="inkscape:persp3d"
       inkscape:vp_x="0 : 2.6333349 : 1"
       inkscape:vp_y="0 : 999.99995 : 0"
       inkscape:vp_z="0.99999995 : 2.6333349 : 1"
       inkscape:persp3d-origin="0.49999998 : 2.4666683 : 1"
       id="perspective2935" />
    <linearGradient
       id="linearGradient4026">
      <stop
         id="stop4028"
         offset="0"
         style="stop-color:#f30e1e;stop-opacity:1;" />
      <stop
         id="stop4030"
         offset="1"
         style="stop-color:#ba2f39;stop-opacity:1;" />
    </linearGradient>
    <linearGradient
       id="linearGradient3975">
      <stop
         id="stop3977"
         offset="0"
         style="stop-color:#565c64;stop-opacity:1;" />
      <stop
         id="stop3979"
         offset="1"
         style="stop-color:#99a4b4;stop-opacity:1;" />
    </linearGradient>
  </defs>
  <sodipodi:namedview
     inkscape:document-rotation="0"
     inkscape:window-maximized="0"
     inkscape:window-y="25"
     inkscape:window-x="-101"
     inkscape:window-height="768"
     inkscape:window-width="1417"
     inkscape:snap-grids="false"
     showgrid="true"
     inkscape:current-layer="layer2"
     inkscape:document-units="px"
     inkscape:cy="17.066668"
     inkscape:cx="5.6987321"
     inkscape:zoom="16.933593"
     inkscape:pageshadow="2"
     inkscape:pageopacity="0.0"
     borderopacity="1.0"
     bordercolor="#666666"
     pagecolor="#ffffff"
     id="base">
    <inkscape:grid
       spacingy="1"
       spacingx="1"
       originy="0"
       originx="0"
       snapvisiblegridlinesonly="true"
       enabled="true"
       visible="true"
       empspacing="5"
       id="grid2816"
       type="xygrid" />
  </sodipodi:namedview>
  <metadata
     id="metadata7">
    <rdf:RDF>
      <cc:Work
         rdf:about="">
        <dc:format>image/svg+xml</dc:format>
        <dc:type
           rdf:resource="http://purl.org/dc/dcmitype/StillImage" />
        <dc:title />
        <cc:license
           rdf:resource="Apache License 2.0" />
        <dc:creator>
          <cc:Agent>
            <dc:title />
          </cc:Agent>
        </dc:creator>
        <dc:publisher>
          <cc:Agent>
            <dc:title>ECMWF</dc:title>
          </cc:Agent>
        </dc:publisher>
        <dc:language>en-GB</dc:language>
        <dc:subject>
          <rdf:Bag>
            <rdf:li>Metview icon</rdf:li>
          </rdf:Bag>
        </dc:subject>
        <dc:description>Metview icon</dc:description>
      </cc:Work>
    </rdf:RDF>
  </metadata>
  <g
     style="display:inline"
     inkscape:label="item"
     id="layer2"
     inkscape:groupmode="layer">
    <path
       sodipodi:nodetypes="ccaccac"
       id="path3765"
       d="m 6.1827123,28.932647 18.6039507,0.06093 c 0,0 -3.999523,-1.503247 -5.447104,-3.473242 C 18.76484,24.738204 18.25014,22.473632 18.25014,22.473632 h -5.447102 c 0,0 -0.703656,2.309571 -1.340827,3.107638 -1.454934,1.822329 -3.8548717,2.356117 -5.2794987,3.351374 z"
       style="display:inline;fill:#0044aa;fill-opacity:1;stroke:none;stroke-width:1.44277;stroke-linecap:butt;stroke-linejoin:round;stroke-miterlimit:4;stroke-dasharray:none;stroke-opacity:1" />
    <rect
       ry="2.6015334"
       y="4.167346"
       x="2.2978456"
       height="17.932005"
       width="26.889114"
       id="rect3740"
       style="display:inline;fill:none;fill-opacity:1;fill-rule:evenodd;stroke:#0044aa;stroke-width:1.8749999;stroke-linecap:butt;stroke-linejoin:miter;stroke-miterlimit:4;stroke-dasharray:none;stroke-dashoffset:0;stroke-opacity:1" />
  </g>
</svg>
