<?xml version="1.0" encoding="UTF-8" standalone="no"?>
<!-- Created with Inkscape (http://www.inkscape.org/) -->

<svg
   xmlns:dc="http://purl.org/dc/elements/1.1/"
   xmlns:cc="http://creativecommons.org/ns#"
   xmlns:rdf="http://www.w3.org/1999/02/22-rdf-syntax-ns#"
   xmlns:svg="http://www.w3.org/2000/svg"
   xmlns="http://www.w3.org/2000/svg"
   xmlns:xlink="http://www.w3.org/1999/xlink"
   xmlns:sodipodi="http://sodipodi.sourceforge.net/DTD/sodipodi-0.dtd"
   xmlns:inkscape="http://www.inkscape.org/namespaces/inkscape"
   width="32"
   height="32"
   id="svg2"
   version="1.1"
   inkscape:version="0.48.2 r9819"
   sodipodi:docname="wall_screen.svg">
  <defs
     id="defs4">
    <linearGradient
       inkscape:collect="always"
       id="linearGradient5204">
      <stop
         style="stop-color:#1e2b39;stop-opacity:1;"
         offset="0"
         id="stop5206" />
      <stop
         style="stop-color:#1e2b39;stop-opacity:0;"
         offset="1"
         id="stop5208" />
    </linearGradient>
    <linearGradient
       id="linearGradient5194">
      <stop
         style="stop-color:#204492;stop-opacity:1;"
         offset="0"
         id="stop5196" />
      <stop
         style="stop-color:#81a2d2;stop-opacity:1;"
         offset="1"
         id="stop5198" />
    </linearGradient>
    <linearGradient
       id="linearGradient5186">
      <stop
         style="stop-color:#0879ff;stop-opacity:1;"
         offset="0"
         id="stop5188" />
      <stop
         style="stop-color:#bcf4ff;stop-opacity:1;"
         offset="1"
         id="stop5190" />
    </linearGradient>
    <linearGradient
       id="linearGradient3795">
      <stop
         style="stop-color:#c53143;stop-opacity:1;"
         offset="0"
         id="stop3797" />
      <stop
         style="stop-color:#b8382b;stop-opacity:0;"
         offset="1"
         id="stop3799" />
    </linearGradient>
    <linearGradient
       id="linearGradient3728">
      <stop
         style="stop-color:#fa0c1e;stop-opacity:1;"
         offset="0"
         id="stop3730" />
      <stop
         style="stop-color:#d9afb1;stop-opacity:0;"
         offset="1"
         id="stop3732" />
    </linearGradient>
    <linearGradient
       id="linearGradient3614">
      <stop
         style="stop-color:#e8220f;stop-opacity:1;"
         offset="0"
         id="stop3616" />
      <stop
         style="stop-color:#ececec;stop-opacity:1;"
         offset="1"
         id="stop3618" />
    </linearGradient>
    <linearGradient
       id="linearGradient3602">
      <stop
         style="stop-color:#932626;stop-opacity:1;"
         offset="0"
         id="stop3604" />
      <stop
         style="stop-color:#bc4343;stop-opacity:1;"
         offset="1"
         id="stop3606" />
    </linearGradient>
    <linearGradient
       inkscape:collect="always"
       xlink:href="#linearGradient5186"
       id="linearGradient5192"
       x1="20.887331"
       y1="14.621915"
       x2="-1.6798856"
       y2="10.869921"
       gradientUnits="userSpaceOnUse"
       gradientTransform="matrix(0.19678843,1.0995515,-1.0218195,0.21175855,32.839809,-0.20128421)" />
    <radialGradient
       inkscape:collect="always"
       xlink:href="#linearGradient5204"
       id="radialGradient5210"
       cx="16.118987"
       cy="16.293334"
       fx="16.118987"
       fy="16.293334"
       r="16.148118"
       gradientTransform="matrix(1,0,0,0.88859467,-5.1733333,0.32183087)"
       gradientUnits="userSpaceOnUse" />
  </defs>
  <sodipodi:namedview
     id="base"
     pagecolor="#ffffff"
     bordercolor="#666666"
     borderopacity="1.0"
     inkscape:pageopacity="0.0"
     inkscape:pageshadow="2"
     inkscape:zoom="18.75"
     inkscape:cx="10.772358"
     inkscape:cy="15.367291"
     inkscape:document-units="px"
     inkscape:current-layer="layer2"
     showgrid="true"
     inkscape:snap-grids="false"
     inkscape:window-width="1469"
     inkscape:window-height="966"
     inkscape:window-x="214"
     inkscape:window-y="0"
     inkscape:window-maximized="0"
     inkscape:snap-to-guides="false">
    <inkscape:grid
       type="xygrid"
       id="grid2816"
       empspacing="5"
       visible="true"
       enabled="true"
       snapvisiblegridlinesonly="true" />
  </sodipodi:namedview>
  <metadata
     id="metadata7">
    <rdf:RDF>
      <cc:Work
         rdf:about="">
        <dc:format>image/svg+xml</dc:format>
        <dc:type
           rdf:resource="http://purl.org/dc/dcmitype/StillImage" />
        <dc:title />
        <cc:license
           rdf:resource="Apache License 2.0" />
        <dc:creator>
          <cc:Agent>
            <dc:title />
          </cc:Agent>
        </dc:creator>
        <dc:publisher>
          <cc:Agent>
            <dc:title>ECMWF</dc:title>
          </cc:Agent>
        </dc:publisher>
        <dc:language>en-GB</dc:language>
        <dc:subject>
          <rdf:Bag>
            <rdf:li>Metview icon</rdf:li>
          </rdf:Bag>
        </dc:subject>
        <dc:description>Metview icon</dc:description>
      </cc:Work>
    </rdf:RDF>
  </metadata>
  <g
     inkscape:groupmode="layer"
     id="layer2"
     inkscape:label="item"
     style="display:inline">
    <text
       xml:space="preserve"
       style="font-size:20px;font-style:normal;font-weight:normal;fill:#ffffff;fill-opacity:1;stroke:none;font-family:Calibri;-inkscape-font-specification:Calibri"
       x="3.8399999"
       y="21.973333"
       id="text3783"><tspan
         sodipodi:role="line"
         id="tspan3785"
         x="3.8399999"
         y="21.973333" /></text>
    <text
       xml:space="preserve"
       style="font-size:40px;font-style:normal;font-weight:normal;fill:#000000;fill-opacity:1;stroke:none;font-family:Bitstream Vera Sans"
       x="7.2533331"
       y="15.146667"
       id="text3787"><tspan
         sodipodi:role="line"
         id="tspan3789"
         x="7.2533331"
         y="15.146667" /></text>
    <rect
       style="fill:#247fd4;fill-opacity:1;stroke:#3a3a3a;stroke-width:2.18179011;stroke-linecap:round;stroke-linejoin:miter;stroke-miterlimit:4;stroke-opacity:1;stroke-dasharray:none;stroke-dashoffset:0"
       id="rect4674"
       width="29.934303"
       height="30.058758"
       x="1.0543216"
       y="0.99728853"
       ry="0" />
    <path
       style="fill:url(#linearGradient5192);fill-opacity:1;stroke:none"
       d="M 29.893354,2.0533333 10,2.1067685 c 0.0124,-0.022885 6.882858,27.8398975 6.882858,27.8398975 l 13.014325,-0.04034 z"
       id="path5184"
       inkscape:connector-curvature="0"
       sodipodi:nodetypes="ccccc" />
  </g>
  <g
     inkscape:groupmode="layer"
     id="layer4"
     inkscape:label="top"
     style="display:inline" />
</svg>
