<?xml version="1.0" encoding="UTF-8" standalone="no"?>
<!-- Created with Inkscape (http://www.inkscape.org/) -->

<svg
   xmlns:dc="http://purl.org/dc/elements/1.1/"
   xmlns:cc="http://creativecommons.org/ns#"
   xmlns:rdf="http://www.w3.org/1999/02/22-rdf-syntax-ns#"
   xmlns:svg="http://www.w3.org/2000/svg"
   xmlns="http://www.w3.org/2000/svg"
   xmlns:xlink="http://www.w3.org/1999/xlink"
   xmlns:sodipodi="http://sodipodi.sourceforge.net/DTD/sodipodi-0.dtd"
   xmlns:inkscape="http://www.inkscape.org/namespaces/inkscape"
   width="32"
   height="32"
   id="svg1455"
   sodipodi:version="0.32"
   inkscape:version="0.47 r22583"
   sodipodi:docname="wizard.svg"
   inkscape:export-xdpi="120.00000"
   inkscape:export-ydpi="120.00000"
   version="1.1">
  <defs
     id="defs3">
    <linearGradient
       id="linearGradient3667">
      <stop
         style="stop-color:#363636;stop-opacity:1;"
         offset="0"
         id="stop3669" />
      <stop
         style="stop-color:#fdfdfd;stop-opacity:1;"
         offset="1"
         id="stop3671" />
    </linearGradient>
    <linearGradient
       id="linearGradient3657">
      <stop
         style="stop-color:#fcfdd1;stop-opacity:1;"
         offset="0"
         id="stop3659" />
      <stop
         style="stop-color:#ffd203;stop-opacity:1;"
         offset="1"
         id="stop3661" />
    </linearGradient>
    <linearGradient
       inkscape:collect="always"
       xlink:href="#linearGradient3657"
       id="linearGradient3663"
       x1="11"
       y1="11"
       x2="16"
       y2="3"
       gradientUnits="userSpaceOnUse"
       gradientTransform="matrix(1.1014799,0,0,1.1014799,-1.3186478,1.034797)" />
    <linearGradient
       inkscape:collect="always"
       xlink:href="#linearGradient3667"
       id="linearGradient3673"
       x1="-7.1498078"
       y1="30.5"
       x2="-3.8501922"
       y2="30.5"
       gradientUnits="userSpaceOnUse"
       gradientTransform="matrix(0.94324744,-1.6333833e-8,1.6333833e-8,0.94324744,4.8821097,13.62446)" />
  </defs>
  <sodipodi:namedview
     id="base"
     pagecolor="#ffffff"
     bordercolor="#666666"
     borderopacity="1.0"
     inkscape:pageopacity="0.0"
     inkscape:pageshadow="2"
     inkscape:zoom="13.90625"
     inkscape:cx="13.303371"
     inkscape:cy="16"
     inkscape:current-layer="layer1"
     showgrid="true"
     inkscape:document-units="px"
     inkscape:grid-bbox="true"
     inkscape:window-width="1020"
     inkscape:window-height="690"
     inkscape:window-x="157"
     inkscape:window-y="5"
     inkscape:window-maximized="0"
     inkscape:snap-smooth-nodes="false"
     inkscape:object-nodes="false">
    <inkscape:grid
       type="xygrid"
       id="grid3734"
       empspacing="5"
       visible="true"
       enabled="true"
       snapvisiblegridlinesonly="true" />
  </sodipodi:namedview>
  <metadata
     id="metadata7">
    <rdf:RDF>
      <cc:Work
         rdf:about="">
        <dc:format>image/svg+xml</dc:format>
        <dc:type
           rdf:resource="http://purl.org/dc/dcmitype/StillImage" />
        <dc:title />
        <cc:license
           rdf:resource="Apache License 2.0" />
        <dc:creator>
          <cc:Agent>
            <dc:title />
          </cc:Agent>
        </dc:creator>
        <dc:publisher>
          <cc:Agent>
            <dc:title>ECMWF</dc:title>
          </cc:Agent>
        </dc:publisher>
        <dc:language>en-GB</dc:language>
        <dc:subject>
          <rdf:Bag>
            <rdf:li>Metview icon</rdf:li>
          </rdf:Bag>
        </dc:subject>
        <dc:description>Metview icon</dc:description>
      </cc:Work>
    </rdf:RDF>
  </metadata>
  <g
     id="layer1"
     inkscape:label="Layer 1"
     inkscape:groupmode="layer"
     transform="translate(0,-16)">
    <rect
       style="fill:url(#linearGradient3673);fill-opacity:1;stroke:#363636;stroke-width:0.28261161;stroke-miterlimit:4;stroke-opacity:1;stroke-dasharray:none"
       id="rect3665"
       width="2.8297427"
       height="19.808197"
       x="-1.7206225"
       y="32.489407"
       ry="0.94324756"
       transform="matrix(0.88327725,-0.46885105,0.46885105,0.88327725,0,0)" />
  </g>
  <g
     inkscape:groupmode="layer"
     id="layer2"
     inkscape:label="star">
    <path
       sodipodi:type="star"
       style="fill:#ffffff;fill-opacity:1;stroke:none"
       id="path3743"
       sodipodi:sides="3"
       sodipodi:cx="-17"
       sodipodi:cy="16"
       sodipodi:r1="8.6023253"
       sodipodi:r2="4.3011625"
       sodipodi:arg1="0.62024949"
       sodipodi:arg2="1.667447"
       inkscape:flatsided="false"
       inkscape:rounded="0"
       inkscape:randomized="0"
       d="M -9.9999999,21 -17.415063,20.281089 -24.830127,19.562178 -20.5,13.5 -16.169873,7.437822 -13.084936,14.218911 -9.9999999,21 z" />
    <path
       style="fill:url(#linearGradient3663);fill-opacity:1;stroke:#ba590b;stroke-width:0.44059196;stroke-miterlimit:4;stroke-opacity:1;stroke-dasharray:none"
       d="m 22.470695,14.50455 -6.734744,0.136502 -3.816056,5.4659 L 9.8364621,13.928039 3.3795547,12.197187 8.8266661,8.2419167 8.6521298,1.7062922 14.102071,5.4407165 20.451095,3.1323225 18.372226,9.3955984 22.470695,14.50455 z"
       id="path2882"
       sodipodi:nodetypes="ccccccccccc" />
  </g>
</svg>
