<?xml version="1.0" encoding="UTF-8" standalone="no"?>
<!-- Created with Inkscape (http://www.inkscape.org/) -->

<svg
   xmlns:dc="http://purl.org/dc/elements/1.1/"
   xmlns:cc="http://creativecommons.org/ns#"
   xmlns:rdf="http://www.w3.org/1999/02/22-rdf-syntax-ns#"
   xmlns:svg="http://www.w3.org/2000/svg"
   xmlns="http://www.w3.org/2000/svg"
   xmlns:sodipodi="http://sodipodi.sourceforge.net/DTD/sodipodi-0.dtd"
   xmlns:inkscape="http://www.inkscape.org/namespaces/inkscape"
   inkscape:export-ydpi="180"
   inkscape:export-xdpi="180"
   width="32"
   height="32"
   id="svg11300"
   sodipodi:version="0.32"
   inkscape:version="0.92.2 (5c3e80d, 2017-08-06)"
   sodipodi:docname="FRONTOGENESE_new.svg"
   inkscape:output_extension="org.inkscape.output.svg.inkscape"
   version="1.0"
   style="display:inline">
  <sodipodi:namedview
     stroke="#3465a4"
     fill="#729fcf"
     id="base"
     pagecolor="#ffffff"
     bordercolor="#666666"
     borderopacity="0.25490196"
     inkscape:pageopacity="0.0"
     inkscape:pageshadow="2"
     inkscape:zoom="12.25"
     inkscape:cx="12.602939"
     inkscape:cy="17.238832"
     inkscape:current-layer="layer3"
     showgrid="true"
     inkscape:grid-bbox="false"
     inkscape:document-units="px"
     inkscape:showpageshadow="false"
     inkscape:window-width="1920"
     inkscape:window-height="981"
     inkscape:window-x="0"
     inkscape:window-y="28"
     gridtolerance="50"
     inkscape:grid-points="false"
     showguides="true"
     inkscape:guide-bbox="true"
     objecttolerance="0.4"
     inkscape:object-paths="true"
     width="32px"
     height="32px"
     inkscape:window-maximized="1"
     inkscape:snap-grids="true"
     inkscape:snap-to-guides="true"
     inkscape:object-nodes="true"
     inkscape:measure-start="0,0"
     inkscape:measure-end="0,0"
     inkscape:snap-midpoints="true"
     inkscape:snap-intersection-paths="true"
     inkscape:snap-bbox="true"
     inkscape:snap-nodes="true"
     inkscape:snap-others="true"
     inkscape:lockguides="true"
     inkscape:snap-smooth-nodes="true"
     inkscape:snap-object-midpoints="true"
     inkscape:snap-center="true"
     inkscape:snap-text-baseline="true"
     inkscape:snap-page="true">
    <sodipodi:guide
       orientation="horizontal"
       position="50.977307"
       id="guide9112"
       inkscape:locked="true" />
    <inkscape:grid
       type="xygrid"
       id="grid2849" />
  </sodipodi:namedview>
  <metadata
     id="metadata7">
    <rdf:RDF>
      <cc:Work
         rdf:about="">
        <dc:format>image/svg+xml</dc:format>
        <dc:type
           rdf:resource="http://purl.org/dc/dcmitype/StillImage" />
        <dc:title></dc:title>
        <cc:license
           rdf:resource="Apache License 2.0" />
        <dc:creator>
          <cc:Agent>
            <dc:title />
          </cc:Agent>
        </dc:creator>
        <dc:publisher>
          <cc:Agent>
            <dc:title>ECMWF</dc:title>
          </cc:Agent>
        </dc:publisher>
        <dc:language>en-GB</dc:language>
        <dc:subject>
          <rdf:Bag>
            <rdf:li>Metview icon</rdf:li>
          </rdf:Bag>
        </dc:subject>
        <dc:description>Metview icon</dc:description>
      </cc:Work>
    </rdf:RDF>
  </metadata>
  <defs
     id="defs3">
    <inkscape:path-effect
       effect="bspline"
       id="path-effect9816"
       is_visible="true"
       weight="33.333333"
       steps="2"
       helper_size="0"
       apply_no_weight="true"
       apply_with_weight="true"
       only_selected="false" />
    <linearGradient
       id="linearGradient3869">
      <stop
         style="stop-color:#fffa02;stop-opacity:1;"
         offset="0"
         id="stop3871" />
      <stop
         style="stop-color:#dddb31;stop-opacity:1;"
         offset="1"
         id="stop3873" />
    </linearGradient>
    <linearGradient
       id="linearGradient3889-7-1-2-9">
      <stop
         style="stop-color:#cfc0af;stop-opacity:1;"
         offset="0"
         id="stop3891-7-1-5-2" />
      <stop
         style="stop-color:#ffe2ab;stop-opacity:1;"
         offset="1"
         id="stop3893-5-0-8-24" />
    </linearGradient>
    <linearGradient
       id="linearGradient3889-8-5-7">
      <stop
         style="stop-color:#cfc0af;stop-opacity:1;"
         offset="0"
         id="stop3891-0-0-5" />
      <stop
         style="stop-color:#ffe2ab;stop-opacity:1;"
         offset="1"
         id="stop3893-2-6-4" />
    </linearGradient>
    <inkscape:path-effect
       effect="bspline"
       id="path-effect9816-9"
       is_visible="true"
       weight="33.333333"
       steps="2"
       helper_size="0"
       apply_no_weight="true"
       apply_with_weight="true"
       only_selected="false" />
    <inkscape:path-effect
       effect="bspline"
       id="path-effect9816-3"
       is_visible="true"
       weight="33.333333"
       steps="2"
       helper_size="0"
       apply_no_weight="true"
       apply_with_weight="true"
       only_selected="false" />
    <inkscape:path-effect
       effect="bspline"
       id="path-effect9816-7"
       is_visible="true"
       weight="33.333333"
       steps="2"
       helper_size="0"
       apply_no_weight="true"
       apply_with_weight="true"
       only_selected="false" />
    <inkscape:path-effect
       effect="bspline"
       id="path-effect9816-7-0"
       is_visible="true"
       weight="33.333333"
       steps="2"
       helper_size="0"
       apply_no_weight="true"
       apply_with_weight="true"
       only_selected="false" />
  </defs>
  <g
     inkscape:groupmode="layer"
     id="layer3"
     inkscape:label="frame"
     style="display:inline">
    <path
       style="fill:#3431ca;fill-opacity:1;stroke:#3431ca;stroke-width:0.41757542;stroke-linecap:butt;stroke-linejoin:miter;stroke-miterlimit:4;stroke-dasharray:none;stroke-opacity:1"
       d="M 7.7494456,3.4438628 13.690001,1.3273027 12,6.7826833 Z"
       id="path4837"
       inkscape:connector-curvature="0"
       sodipodi:nodetypes="cccc" />
    <path
       style="opacity:0;fill:#4542c8;fill-opacity:1;stroke:#4542c8;stroke-width:0.2;stroke-linecap:round;stroke-miterlimit:4;stroke-dasharray:none;stroke-opacity:1"
       id="path4854"
       d="m 18.365544,14.497961 c 0.17357,-0.04387 0.350189,-0.07252 0.528543,-0.08657 0.158096,7.14e-4 0.302353,-0.06794 0.453984,-0.103442 -0.06629,0.0711 0.308683,-0.144365 0.214176,-0.09005 -0.23698,0.136199 -0.474516,0.271429 -0.712003,0.406742 -0.02327,0.01326 0.04609,-0.0273 0.06934,-0.04058 0.283571,-0.161902 0.567424,-0.323308 0.851135,-0.484962 0.134633,-0.03395 0.255435,-0.101765 0.385805,-0.147147 0.123241,-0.03798 0.252353,-0.04387 0.380287,-0.04759 0.12529,-0.0016 0.246747,0.01176 0.364746,-0.03573 0,0 -0.72675,0.559137 -0.72675,0.559137 v 0 c -0.124949,0.02217 -0.251279,0.01238 -0.377639,0.01928 -0.123365,0.008 -0.246723,0.02241 -0.361985,0.07034 -0.125769,0.05259 -0.253729,0.09882 -0.378166,0.154032 0.2386,-0.138404 0.4772,-0.276808 0.715801,-0.415212 -0.0233,0.01347 -0.04656,0.02702 -0.0699,0.04042 -0.361177,0.207384 -0.682194,0.465035 -1.082303,0.567975 -0.151308,0.04151 -0.300652,0.09044 -0.459691,0.09033 -0.176955,0.0204 -0.352949,0.05055 -0.523405,0.103547 0,0 0.728016,-0.560537 0.728016,-0.560537 z"
       inkscape:connector-curvature="0" />
    <path
       style="opacity:0;fill:#4542c8;fill-opacity:1;stroke:#4542c8;stroke-width:0.2;stroke-linecap:round;stroke-miterlimit:4;stroke-dasharray:none;stroke-opacity:1"
       id="path4856"
       d="m 18.008847,14.090017 c 0.225208,0.0049 0.451486,-0.04114 0.669551,-0.09485 0.142209,-0.06238 0.285098,-0.116703 0.438868,-0.140533 0.114185,-0.0086 0.206505,-0.07803 0.316777,-0.107167 0.0816,-0.0088 0.155203,-0.0266 0.229441,-0.06139 0,0 -0.722166,0.565184 -0.722166,0.565184 v 0 c -0.07725,0.02231 -0.156519,0.03428 -0.233134,0.05884 -0.105991,0.04051 -0.206532,0.09163 -0.322449,0.09785 -0.147246,0.035 -0.284288,0.09875 -0.430491,0.137323 -0.227042,0.04574 -0.456365,0.08774 -0.688958,0.08424 0,0 0.742561,-0.539502 0.742561,-0.539502 z"
       inkscape:connector-curvature="0" />
    <path
       style="fill:#3431ca;fill-opacity:1;stroke:#3431ca;stroke-width:0.36409974;stroke-linecap:butt;stroke-linejoin:miter;stroke-miterlimit:4;stroke-dasharray:none;stroke-opacity:1"
       d="m 17.39113,11.677008 c 5.776949,-1.081663 5.776949,-1.081663 5.776949,-1.081663 l -2.31131,5.841518 z"
       id="path4860"
       inkscape:connector-curvature="0" />
    <path
       style="fill:#3431ca;fill-opacity:1;stroke:#3431ca;stroke-width:0.54061675;stroke-linecap:butt;stroke-linejoin:miter;stroke-miterlimit:4;stroke-dasharray:none;stroke-opacity:1"
       d="m 24.877559,23.455404 1.69115,5.991723 4.270704,-4.834319 z"
       id="path4862"
       inkscape:connector-curvature="0"
       inkscape:transform-center-x="0.14151438"
       inkscape:transform-center-y="1.451266"
       sodipodi:nodetypes="cccc" />
    <path
       style="fill:none;stroke:#3431ca;stroke-width:0.82099998;stroke-linecap:butt;stroke-linejoin:miter;stroke-miterlimit:4;stroke-dasharray:none;stroke-opacity:1"
       d="M 5.4521283,2.7101333 C 9.009394,3.8003086 11.036883,5.5510574 13.1193,8.1878259 10.009057,3.8815948 7.7944628,3.5326764 5.4521283,2.7101333 Z"
       id="path869"
       inkscape:connector-curvature="0"
       sodipodi:nodetypes="ccc" />
    <path
       style="display:inline;fill:none;stroke:#3431ca;stroke-width:0.82099998;stroke-linecap:butt;stroke-linejoin:miter;stroke-miterlimit:4;stroke-dasharray:none;stroke-opacity:1"
       d="m 16,11 c 1.874922,1.959371 3.521947,2.833071 5.212581,7.104876 C 19.109421,13.64575 17.495338,12.283717 16,11 Z"
       id="path869-2"
       inkscape:connector-curvature="0"
       sodipodi:nodetypes="ccc" />
    <path
       style="display:inline;fill:none;stroke:#3431ca;stroke-width:0.82099998;stroke-linecap:butt;stroke-linejoin:miter;stroke-miterlimit:4;stroke-dasharray:none;stroke-opacity:1"
       d="M 23.577335,22.018518 C 25.226304,24.89749 26.501675,27.574066 27,31 25.674047,26.053771 25.144264,24.049337 23.577335,22.018518 Z"
       id="path869-4"
       inkscape:connector-curvature="0"
       sodipodi:nodetypes="ccc" />
    <ellipse
       style="opacity:0;fill:#3431ca;fill-opacity:1;stroke:#3431ca;stroke-width:0.821;stroke-linecap:round;stroke-miterlimit:4;stroke-dasharray:none;stroke-opacity:1"
       id="path967"
       cx="-5.5705996"
       cy="15.319149"
       rx="0.92843324"
       ry="1.1450677" />
    <ellipse
       style="opacity:0;fill:#3431ca;fill-opacity:1;stroke:#3431ca;stroke-width:0.82099998;stroke-linecap:round;stroke-miterlimit:4;stroke-dasharray:none;stroke-opacity:1"
       id="path969"
       cx="-3.3733075"
       cy="17.454546"
       rx="0.83558995"
       ry="1.1760155" />
    <ellipse
       style="opacity:0;fill:#3431ca;fill-opacity:1;stroke:#3431ca;stroke-width:0.82099998;stroke-linecap:round;stroke-miterlimit:4;stroke-dasharray:none;stroke-opacity:1"
       id="path971"
       cx="-1.9806577"
       cy="23.025145"
       rx="0.55705994"
       ry="1.4854932" />
    <ellipse
       style="opacity:0;fill:#3431ca;fill-opacity:1;stroke:#3431ca;stroke-width:0.82099998;stroke-linecap:round;stroke-miterlimit:4;stroke-dasharray:none;stroke-opacity:1"
       id="path973"
       cx="-2.6924565"
       cy="14.390716"
       rx="0.7736944"
       ry="1.3926499" />
    <path
       style="opacity:0;fill:#3431ca;fill-opacity:1;stroke:#3431ca;stroke-width:0.82099998;stroke-linecap:round;stroke-miterlimit:4;stroke-dasharray:none;stroke-opacity:1"
       id="path975"
       sodipodi:type="arc"
       sodipodi:cx="-7.9226308"
       sodipodi:cy="23.334623"
       sodipodi:rx="1.9187621"
       sodipodi:ry="2.4139266"
       sodipodi:start="0"
       sodipodi:end="1.5722231"
       d="m -6.0038687,23.334623 a 1.9187621,2.4139266 0 0 1 -0.5629606,1.708121 1.9187621,2.4139266 0 0 1 -1.3585391,0.705803"
       sodipodi:open="true" />
    <path
       style="opacity:0;fill:#3431ca;fill-opacity:1;stroke:#3431ca;stroke-width:0.82099998;stroke-linecap:round;stroke-miterlimit:4;stroke-dasharray:none;stroke-opacity:1"
       id="path977"
       sodipodi:type="arc"
       sodipodi:cx="-5.911025"
       sodipodi:cy="27.326885"
       sodipodi:rx="0.7736944"
       sodipodi:ry="0.95938104"
       sodipodi:start="0"
       sodipodi:end="1.5722223"
       sodipodi:open="true"
       d="m -5.1373307,27.326885 a 0.7736944,0.95938104 0 0 1 -0.227,0.678869 0.7736944,0.95938104 0 0 1 -0.5477976,0.280511" />
    <ellipse
       style="opacity:0;fill:#3431ca;fill-opacity:1;stroke:#3431ca;stroke-width:0.82099998;stroke-linecap:round;stroke-miterlimit:4;stroke-dasharray:none;stroke-opacity:1"
       id="path979"
       cx="-6.3133464"
       cy="24.386847"
       rx="1.4235977"
       ry="2.4139266" />
    <path
       style="opacity:0;fill:#3431ca;fill-opacity:1;stroke:#3431ca;stroke-width:0.82099998;stroke-linecap:round;stroke-miterlimit:4;stroke-dasharray:none;stroke-opacity:1"
       id="path981"
       sodipodi:type="arc"
       sodipodi:cx="-6.7156672"
       sodipodi:cy="18.321083"
       sodipodi:rx="0.6499033"
       sodipodi:ry="1.4235977"
       sodipodi:start="1.6111005"
       sodipodi:end="0.20013205"
       d="m -6.741854,19.743525 a 0.6499033,1.4235977 0 0 1 -0.5922528,-0.984857 0.6499033,1.4235977 0 0 1 0.2173187,-1.55768 0.6499033,1.4235977 0 0 1 0.7424081,-0.09141 0.6499033,1.4235977 0 0 1 0.2956442,1.494518 l -0.6369314,-0.28301 z" />
    <path
       style="opacity:0;fill:#3431ca;fill-opacity:1;stroke:#3431ca;stroke-width:0.82099998;stroke-linecap:round;stroke-miterlimit:4;stroke-dasharray:none;stroke-opacity:1"
       id="path983"
       sodipodi:type="arc"
       sodipodi:cx="-4.9516439"
       sodipodi:cy="18.321083"
       sodipodi:rx="6.065764"
       sodipodi:ry="2.5377176"
       sodipodi:start="1.6111012"
       sodipodi:end="0.20013167"
       d="m -5.1960576,20.85674 a 6.065764,2.5377176 0 0 1 -5.5276894,-1.755616 6.065764,2.5377176 0 0 1 2.0283094,-2.776732 6.065764,2.5377176 0 0 1 6.9291402,-0.162954 6.065764,2.5377176 0 0 1 2.75934725,2.664139 L -4.9516439,18.321083 Z" />
    <path
       style="opacity:0;fill:#3431ca;fill-opacity:1;stroke:#3431ca;stroke-width:0.82099998;stroke-linecap:round;stroke-miterlimit:4;stroke-dasharray:none;stroke-opacity:1"
       id="path985"
       sodipodi:type="arc"
       sodipodi:cx="0.80464214"
       sodipodi:cy="19.311413"
       sodipodi:rx="1.4235977"
       sodipodi:ry="0.24758221"
       sodipodi:start="1.6111012"
       sodipodi:end="0.20013167"
       d="m 0.74727975,19.558794 a 1.4235977,0.24758221 0 0 1 -1.29731489,-0.17128 1.4235977,0.24758221 0 0 1 0.47603181,-0.2709 1.4235977,0.24758221 0 0 1 1.62622683,-0.0159 1.4235977,0.24758221 0 0 1 0.6476019,0.259916 l -1.39518326,-0.04922 z" />
    <path
       style="opacity:0;fill:#3431ca;fill-opacity:1;stroke:#3431ca;stroke-width:0.82099998;stroke-linecap:round;stroke-miterlimit:4;stroke-dasharray:none;stroke-opacity:1"
       id="path987"
       sodipodi:type="arc"
       sodipodi:cx="0.55769438"
       sodipodi:cy="19.555241"
       sodipodi:rx="2.0415621"
       sodipodi:ry="1.996052"
       sodipodi:start="1.4808245"
       sodipodi:end="0.037258533"
       d="M 0.74112973,21.543219 A 2.0415621,1.996052 0 0 1 -1.279857,20.425006 2.0415621,1.996052 0 0 1 -0.92345074,18.181505 2.0415621,1.996052 0 0 1 1.349236,17.71532 2.0415621,1.996052 0 0 1 2.5978396,19.629593"
       sodipodi:open="true" />
    <ellipse
       style="opacity:0;fill:#3431ca;fill-opacity:1;stroke:#3431ca;stroke-width:0.82099998;stroke-linecap:round;stroke-miterlimit:4;stroke-dasharray:none;stroke-opacity:1"
       id="path993"
       cx="10.893617"
       cy="23.520309"
       rx="2.352031"
       ry="2.0425532" />
    <ellipse
       style="opacity:0;fill:#3431ca;fill-opacity:1;stroke:#3431ca;stroke-width:0.82099998;stroke-linecap:round;stroke-miterlimit:4;stroke-dasharray:none;stroke-opacity:1"
       id="path999"
       cx="5.7872343"
       cy="27.636364"
       rx="2.0116055"
       ry="1.7640233" />
    <path
       style="opacity:0;fill:#341dca;fill-opacity:1;stroke:#3431ac;stroke-width:0.82099998;stroke-linecap:round;stroke-miterlimit:4;stroke-dasharray:none;stroke-opacity:1"
       id="path1001"
       sodipodi:type="arc"
       sodipodi:cx="11.54352"
       sodipodi:cy="7.1489372"
       sodipodi:rx="2.5686653"
       sodipodi:ry="0.34042555"
       sodipodi:start="0"
       sodipodi:end="1.6075649"
       d="m 14.112185,7.1489372 a 2.5686653,0.34042555 0 0 1 -0.786041,0.2451017 2.5686653,0.34042555 0 0 1 -1.877049,0.095094 l 0.09442,-0.3401955 z" />
    <path
       style="opacity:0;fill:#341dca;fill-opacity:1;stroke:#3431ac;stroke-width:0.82099998;stroke-linecap:round;stroke-miterlimit:4;stroke-dasharray:none;stroke-opacity:1"
       id="path1003"
       sodipodi:type="arc"
       sodipodi:cx="6.6228242"
       sodipodi:cy="8.820116"
       sodipodi:rx="0.18568665"
       sodipodi:ry="1.7640232"
       sodipodi:start="0"
       sodipodi:end="1.6075652"
       d="m 6.8085108,8.820116 a 0.18568665,1.7640232 0 0 1 -0.056822,1.270073 0.18568665,1.7640232 0 0 1 -0.1356903,0.492758 l 0.00683,-1.762831 z" />
    <ellipse
       style="opacity:0;fill:#341dca;fill-opacity:1;stroke:#3431ac;stroke-width:0.82099998;stroke-linecap:round;stroke-miterlimit:4;stroke-dasharray:none;stroke-opacity:1"
       id="path1005"
       cx="9.7485495"
       cy="18.444874"
       rx="4.2398453"
       ry="6.7466149" />
    <ellipse
       style="opacity:0;fill:#341dca;fill-opacity:1;stroke:#3431ac;stroke-width:0.82099998;stroke-linecap:round;stroke-miterlimit:4;stroke-dasharray:none;stroke-opacity:1"
       id="path1007"
       cx="6.1276598"
       cy="18.785299"
       rx="1.3617021"
       ry="3.0638299" />
    <ellipse
       style="opacity:0;fill:#341dca;fill-opacity:1;stroke:#3431ac;stroke-width:0.821;stroke-linecap:round;stroke-miterlimit:4;stroke-dasharray:none;stroke-opacity:1"
       id="path1009"
       cx="10.584139"
       cy="24.758221"
       rx="4.5183754"
       ry="6.065764" />
    <ellipse
       style="opacity:0;fill:#346cca;fill-opacity:1;stroke:#3a31ac;stroke-width:0.82099998;stroke-linecap:round;stroke-miterlimit:4;stroke-dasharray:none;stroke-opacity:1"
       id="path1086"
       cx="8.6963253"
       cy="24.3559"
       rx="4.2398453"
       ry="4.9206963" />
    <ellipse
       style="opacity:0;fill:#346cca;fill-opacity:1;stroke:#3a31ac;stroke-width:0.82099998;stroke-linecap:round;stroke-miterlimit:4;stroke-dasharray:none;stroke-opacity:1"
       id="path1088"
       cx="4.9206963"
       cy="14.297873"
       rx="3.3733075"
       ry="3.589942" />
    <ellipse
       style="opacity:0;fill:#346cca;fill-opacity:1;stroke:#3a31ac;stroke-width:0.82099998;stroke-linecap:round;stroke-miterlimit:4;stroke-dasharray:none;stroke-opacity:1"
       id="path1109"
       cx="7.5"
       cy="23"
       rx="1.5"
       ry="3" />
    <circle
       style="opacity:0;fill:#346cca;fill-opacity:1;stroke:#3a31ac;stroke-width:0.82099998;stroke-linecap:round;stroke-miterlimit:4;stroke-dasharray:none;stroke-opacity:1"
       id="path1111"
       cx="8"
       cy="21"
       r="3" />
    <ellipse
       style="opacity:0;fill:#346cca;fill-opacity:1;stroke:#3a31ac;stroke-width:0.82099998;stroke-linecap:round;stroke-miterlimit:4;stroke-dasharray:none;stroke-opacity:1"
       id="path1113"
       cx="8"
       cy="19.5"
       rx="4"
       ry="4.5" />
    <path
       style="opacity:0;fill:#3a3fca;fill-opacity:1;stroke:#3a31ac;stroke-width:3.51799989;stroke-linecap:round;stroke-miterlimit:4.0999999;stroke-dasharray:none;stroke-opacity:1"
       id="path9510"
       sodipodi:type="arc"
       sodipodi:cx="10.5"
       sodipodi:cy="24"
       sodipodi:rx="5.5"
       sodipodi:ry="5"
       sodipodi:start="0.11743283"
       sodipodi:end="0.11701671"
       d="m 15.96212,24.585816 a 5.5,5 0 0 1 -6.1059489,4.379808 5.5,5 0 0 1 -4.8184248,-5.550406 5.5,5 0 0 1 6.1049457,-4.380964 5.5,5 0 0 1 4.819695,5.549495 L 10.5,24 Z" />
    <path
       style="opacity:0;fill:#3a3fca;fill-opacity:1;stroke:#3a31ac;stroke-width:3.51799989;stroke-linecap:round;stroke-miterlimit:4.0999999;stroke-dasharray:none;stroke-opacity:1"
       id="path9512"
       sodipodi:type="arc"
       sodipodi:cx="12"
       sodipodi:cy="24"
       sodipodi:rx="2"
       sodipodi:ry="2"
       sodipodi:start="0.11743291"
       sodipodi:end="0.11701665"
       d="m 13.986225,24.234326 a 2,2 0 0 1 -2.220345,1.751924 2,2 0 0 1 -1.752154,-2.220163 2,2 0 0 1 2.21998,-1.752385 2,2 0 0 1 1.752617,2.219798 L 12,24 Z" />
  </g>
  <g
     inkscape:groupmode="layer"
     id="layer17"
     inkscape:label="wmo"
     style="display:inline">
    <ellipse
       style="display:inline;opacity:0;fill:#341dca;fill-opacity:1;stroke:#3431ac;stroke-width:0.82099998;stroke-linecap:round;stroke-miterlimit:4;stroke-dasharray:none;stroke-opacity:1"
       id="path1013"
       cx="12.131528"
       cy="24.696325"
       rx="3.8994198"
       ry="4.8278532" />
    <ellipse
       style="opacity:0.01000001;fill:#341dca;fill-opacity:1;stroke:#3431ac;stroke-width:0.82099998;stroke-linecap:round;stroke-miterlimit:4;stroke-dasharray:none;stroke-opacity:1"
       id="path1024"
       cx="-3.8684719"
       cy="15.071567"
       rx="0.40232107"
       ry="0.5261122" />
    <ellipse
       style="opacity:0;fill:#346cca;fill-opacity:1;stroke:#3a31ac;stroke-width:0.82099998;stroke-linecap:round;stroke-miterlimit:4;stroke-dasharray:none;stroke-opacity:1"
       id="path1115"
       cx="2.5"
       cy="20"
       rx="2.5"
       ry="5" />
    <ellipse
       style="display:inline;opacity:0;fill:#3a3fca;fill-opacity:1;stroke:#3a31ac;stroke-width:3.51799989;stroke-linecap:round;stroke-miterlimit:4.0999999;stroke-dasharray:none;stroke-opacity:1"
       id="path9514"
       cx="11"
       cy="18"
       rx="1.0285085"
       ry="0.66428947" />
    <ellipse
       style="opacity:0;fill:#3a3fca;fill-opacity:1;stroke:#3a31ac;stroke-width:3.51799989;stroke-linecap:round;stroke-miterlimit:4.0999999;stroke-dasharray:none;stroke-opacity:1"
       id="path9812"
       cx="7.5"
       cy="18"
       rx="0.5"
       ry="1" />
    <path
       style="display:inline;fill:#3431ca;fill-opacity:1;stroke:#3431ca;stroke-width:2.39244103;stroke-linecap:round;stroke-linejoin:miter;stroke-miterlimit:4;stroke-dasharray:none;stroke-opacity:1;paint-order:normal"
       d="m 23,20 c 0,0 0,0 0,0"
       id="path9814-6"
       inkscape:connector-curvature="0"
       inkscape:original-d="m 23,20 v 0"
       sodipodi:nodetypes="cc"
       inkscape:path-effect="#path-effect9816-7"
       inkscape:transform-center-x="-1" />
    <path
       style="display:inline;fill:#3431ca;fill-opacity:1;stroke:#3431ca;stroke-width:2.39244103;stroke-linecap:round;stroke-linejoin:miter;stroke-miterlimit:4;stroke-dasharray:none;stroke-opacity:1;paint-order:normal"
       d="m 15,9 c 0,0 0,0 0,0"
       id="path9814-6-4"
       inkscape:connector-curvature="0"
       inkscape:original-d="M 15,9 V 9"
       sodipodi:nodetypes="cc"
       inkscape:path-effect="#path-effect9816-7-0"
       inkscape:transform-center-x="-1" />
  </g>
  <g
     inkscape:groupmode="layer"
     id="layer13"
     inkscape:label="pencil"
     style="display:none">
    <path
       style="fill:none;stroke:#000000;stroke-width:1px;stroke-linecap:butt;stroke-linejoin:miter;stroke-opacity:1"
       d="M 14.179196,20.830806 Z"
       id="path3885"
       inkscape:connector-curvature="0" />
    <path
       style="display:inline;opacity:0;fill:#0000a5;fill-opacity:1;fill-rule:evenodd;stroke:#0000ba;stroke-width:0.2;stroke-linecap:round;stroke-linejoin:miter;stroke-miterlimit:4;stroke-dasharray:none;stroke-opacity:1"
       d="M 4.9516441,7.6750484 24.758221,26.800774"
       id="path4762"
       inkscape:connector-type="polyline"
       inkscape:connector-curvature="0" />
    <ellipse
       style="display:inline;opacity:0.01000001;fill:#341dca;fill-opacity:1;stroke:#3431ac;stroke-width:1.13073635;stroke-linecap:round;stroke-miterlimit:4;stroke-dasharray:none;stroke-opacity:1"
       id="path1032"
       cx="7.6441011"
       cy="20.147001"
       rx="2.4137971"
       ry="2.6613796" />
    <ellipse
       style="display:inline;opacity:0.01000001;fill:#346cca;fill-opacity:1;stroke:#3a31ac;stroke-width:0.82099998;stroke-linecap:round;stroke-miterlimit:4;stroke-dasharray:none;stroke-opacity:1"
       id="path1055"
       cx="7.3655701"
       cy="18.630562"
       rx="2.909091"
       ry="3.3423598" />
    <ellipse
       ry="3.3423598"
       rx="2.909091"
       cy="18.630562"
       cx="7.3655701"
       id="ellipse1076"
       style="display:inline;opacity:0.01000001;fill:#346cca;fill-opacity:1;stroke:#3a31ac;stroke-width:0.82099998;stroke-linecap:round;stroke-miterlimit:4;stroke-dasharray:none;stroke-opacity:1" />
  </g>
  <g
     inkscape:groupmode="layer"
     id="layer2"
     inkscape:label="hand"
     style="display:inline">
    <rect
       style="opacity:0.53603599;fill:none;stroke:none;display:inline"
       id="rect2939"
       width="2.2622108"
       height="7.7326479"
       x="28.70981"
       y="19.224838" />
    <text
       xml:space="preserve"
       style="font-style:normal;font-weight:normal;font-size:21.33333333px;line-height:1.25;font-family:sans-serif;letter-spacing:0px;word-spacing:0px;fill:#000000;fill-opacity:1;stroke:none;"
       x="13.307544"
       y="12.93617"
       id="text3823"><tspan
         sodipodi:role="line"
         id="tspan3821"
         x="13.307544"
         y="48.326794" /></text>
    <ellipse
       style="opacity:0;fill:#346cca;fill-opacity:1;stroke:#3a31ac;stroke-width:0.82099998;stroke-linecap:round;stroke-miterlimit:4;stroke-dasharray:none;stroke-opacity:1"
       id="path1117"
       cx="4"
       cy="25.5"
       rx="6"
       ry="5.5" />
  </g>
  <g
     inkscape:groupmode="layer"
     id="layer4"
     inkscape:label="top frame"
     style="display:inline">
    <ellipse
       style="opacity:0;fill:#341dca;fill-opacity:1;stroke:#4331ac;stroke-width:0.82099998;stroke-linecap:round;stroke-miterlimit:4;stroke-dasharray:none;stroke-opacity:1"
       id="path1073"
       cx="10.491296"
       cy="25.872341"
       rx="4.4255319"
       ry="4.9516439" />
    <ellipse
       style="opacity:0;fill:#346cca;fill-opacity:1;stroke:#3a31ac;stroke-width:0.82099998;stroke-linecap:round;stroke-miterlimit:4;stroke-dasharray:none;stroke-opacity:1"
       id="path1078"
       cx="5.9729209"
       cy="27.234043"
       rx="2.7543521"
       ry="5.5705996" />
    <ellipse
       style="opacity:0;fill:#346cca;fill-opacity:1;stroke:#3a31ac;stroke-width:0.82099998;stroke-linecap:round;stroke-miterlimit:4;stroke-dasharray:none;stroke-opacity:1"
       id="path1080"
       cx="1.7021277"
       cy="27.172148"
       rx="1.1450677"
       ry="0.18568665" />
    <ellipse
       style="opacity:0;fill:#346cca;fill-opacity:1;stroke:#3a31ac;stroke-width:0.82099998;stroke-linecap:round;stroke-miterlimit:4;stroke-dasharray:none;stroke-opacity:1"
       id="path1082"
       cx="8.3868475"
       cy="24.20116"
       rx="2.1353965"
       ry="3.2185686" />
    <ellipse
       style="opacity:0;fill:#346cca;fill-opacity:1;stroke:#3a31ac;stroke-width:0.82099998;stroke-linecap:round;stroke-miterlimit:4;stroke-dasharray:none;stroke-opacity:1"
       id="path1119"
       cx="3"
       cy="18"
       rx="3"
       ry="4" />
    <ellipse
       style="opacity:0;fill:#346cca;fill-opacity:1;stroke:#3a31ac;stroke-width:0.82099998;stroke-linecap:round;stroke-miterlimit:4;stroke-dasharray:none;stroke-opacity:1"
       id="path1121"
       cx="8.5"
       cy="28"
       rx="5.5"
       ry="4" />
    <ellipse
       style="opacity:0;fill:#346cca;fill-opacity:1;stroke:#3a31ac;stroke-width:0.82099998;stroke-linecap:round;stroke-miterlimit:4;stroke-dasharray:none;stroke-opacity:1"
       id="path1123"
       cx="2"
       cy="20"
       rx="2"
       ry="1" />
    <ellipse
       style="opacity:0;fill:#346cca;fill-opacity:1;stroke:#3a31ac;stroke-width:0.82099998;stroke-linecap:round;stroke-miterlimit:4;stroke-dasharray:none;stroke-opacity:1"
       id="path1127"
       cx="-8"
       cy="19"
       rx="3"
       ry="2" />
    <circle
       style="opacity:0;fill:#346cca;fill-opacity:1;stroke:#3a31ac;stroke-width:0.82099998;stroke-linecap:round;stroke-miterlimit:4;stroke-dasharray:none;stroke-opacity:1"
       id="path1129"
       cx="7"
       cy="21"
       r="5" />
    <path
       style="opacity:0;fill:#346cca;fill-opacity:1;stroke:#3a31ac;stroke-width:0.82099998;stroke-linecap:round;stroke-miterlimit:4;stroke-dasharray:none;stroke-opacity:1"
       id="path1701"
       sodipodi:type="arc"
       sodipodi:cx="4"
       sodipodi:cy="14"
       sodipodi:rx="2"
       sodipodi:ry="3"
       sodipodi:start="5.7840211"
       sodipodi:end="2.9461158"
       d="M 5.7559659,12.563924 A 2,3 0 0 1 5.5930599,15.813797 2,3 0 0 1 3.5500979,16.92311 2,3 0 0 1 2.0380897,14.582703 L 4,14 Z" />
    <path
       style="opacity:0;fill:#346cca;fill-opacity:1;stroke:#3a31ac;stroke-width:0.82099998;stroke-linecap:round;stroke-miterlimit:4;stroke-dasharray:none;stroke-opacity:1"
       id="path1705"
       sodipodi:type="arc"
       sodipodi:cx="6.5"
       sodipodi:cy="19.5"
       sodipodi:rx="2.5"
       sodipodi:ry="3.5"
       sodipodi:start="5.7840211"
       sodipodi:end="2.9461158"
       d="M 8.6949574,17.824578 A 2.5,3.5 0 0 1 8.4913248,21.616097 2.5,3.5 0 0 1 5.9376224,22.910295 2.5,3.5 0 0 1 4.0476121,20.17982 L 6.5,19.5 Z" />
    <path
       style="opacity:0;fill:#346cca;fill-opacity:1;stroke:#3a31ac;stroke-width:0.82099998;stroke-linecap:round;stroke-miterlimit:4;stroke-dasharray:none;stroke-opacity:1"
       id="path1707"
       sodipodi:type="arc"
       sodipodi:cx="7.5"
       sodipodi:cy="22"
       sodipodi:rx="4.5"
       sodipodi:ry="6"
       sodipodi:start="5.7840211"
       sodipodi:end="2.9461158"
       d="M 11.450923,19.127849 A 4.5,6 0 0 1 11.084385,25.627595 4.5,6 0 0 1 6.4877202,27.84622 4.5,6 0 0 1 3.0857018,23.165406 L 7.5,22 Z" />
    <path
       style="opacity:0;fill:#346cca;fill-opacity:1;stroke:#3a31ac;stroke-width:0.82099998;stroke-linecap:round;stroke-miterlimit:4;stroke-dasharray:none;stroke-opacity:1"
       id="path1709"
       sodipodi:type="arc"
       sodipodi:cx="7"
       sodipodi:cy="23"
       sodipodi:rx="3"
       sodipodi:ry="4"
       sodipodi:start="5.7840211"
       sodipodi:end="2.9461158"
       d="M 9.6339489,21.085232 A 3,4 0 0 1 9.3895898,25.418396 3,4 0 0 1 6.3251468,26.89748 3,4 0 0 1 4.0571345,23.776937 L 7,23 Z" />
    <path
       style="opacity:0;fill:#346cca;fill-opacity:1;stroke:#3a31ac;stroke-width:0.82099998;stroke-linecap:round;stroke-miterlimit:4;stroke-dasharray:none;stroke-opacity:1"
       id="path1711"
       sodipodi:type="arc"
       sodipodi:cx="6"
       sodipodi:cy="26.5"
       sodipodi:rx="1"
       sodipodi:ry="0.5"
       sodipodi:start="5.7840211"
       sodipodi:end="2.9461158"
       d="M 6.877983,26.260654 A 1,0.5 0 0 1 6.7965299,26.8023 1,0.5 0 0 1 5.7750489,26.987185 1,0.5 0 0 1 5.0190448,26.597117 L 6,26.5 Z" />
    <path
       style="opacity:0;fill:#346cca;fill-opacity:1;stroke:#3a31ac;stroke-width:0.82099998;stroke-linecap:round;stroke-miterlimit:4;stroke-dasharray:none;stroke-opacity:1"
       id="path1713"
       sodipodi:type="arc"
       sodipodi:cx="10"
       sodipodi:cy="25.5"
       sodipodi:rx="4"
       sodipodi:ry="3.5"
       sodipodi:start="5.7840211"
       sodipodi:end="2.9461158"
       d="M 13.511932,23.824578 A 4,3.5 0 0 1 13.18612,27.616097 4,3.5 0 0 1 9.1001958,28.910295 4,3.5 0 0 1 6.0761794,26.17982 L 10,25.5 Z" />
    <ellipse
       style="opacity:0;fill:#346cca;fill-opacity:1;stroke:#3a31ac;stroke-width:0.82099998;stroke-linecap:round;stroke-miterlimit:4;stroke-dasharray:none;stroke-opacity:1"
       id="path1715"
       cx="-1"
       cy="21"
       rx="5"
       ry="7" />
    <ellipse
       style="opacity:0;fill:#346cca;fill-opacity:1;stroke:#3a31ac;stroke-width:0.82099998;stroke-linecap:round;stroke-miterlimit:4;stroke-dasharray:none;stroke-opacity:1"
       id="path1717"
       cx="-2"
       cy="21.5"
       rx="3"
       ry="2.5" />
    <ellipse
       style="opacity:0;fill:#346cca;fill-opacity:1;stroke:#3a31ac;stroke-width:0.82099998;stroke-linecap:round;stroke-miterlimit:4;stroke-dasharray:none;stroke-opacity:1"
       id="path1735"
       cx="7"
       cy="19.5"
       rx="6"
       ry="5.5" />
  </g>
</svg>
