<?xml version="1.0" encoding="UTF-8" standalone="no"?>
<!-- Created with Inkscape (http://www.inkscape.org/) -->

<svg
   xmlns:dc="http://purl.org/dc/elements/1.1/"
   xmlns:cc="http://creativecommons.org/ns#"
   xmlns:rdf="http://www.w3.org/1999/02/22-rdf-syntax-ns#"
   xmlns:svg="http://www.w3.org/2000/svg"
   xmlns="http://www.w3.org/2000/svg"
   xmlns:sodipodi="http://sodipodi.sourceforge.net/DTD/sodipodi-0.dtd"
   xmlns:inkscape="http://www.inkscape.org/namespaces/inkscape"
   inkscape:export-ydpi="180"
   inkscape:export-xdpi="180"
   width="32"
   height="32"
   id="svg11300"
   sodipodi:version="0.32"
   inkscape:version="0.92.2 (5c3e80d, 2017-08-06)"
   sodipodi:docname="ALTAPRESSAO.svg"
   inkscape:output_extension="org.inkscape.output.svg.inkscape"
   version="1.0"
   style="display:inline">
  <sodipodi:namedview
     stroke="#3465a4"
     fill="#729fcf"
     id="base"
     pagecolor="#ffffff"
     bordercolor="#666666"
     borderopacity="0.25490196"
     inkscape:pageopacity="0.0"
     inkscape:pageshadow="2"
     inkscape:zoom="16.15625"
     inkscape:cx="-7.862021"
     inkscape:cy="16.108318"
     inkscape:current-layer="layer3"
     showgrid="true"
     inkscape:grid-bbox="false"
     inkscape:document-units="px"
     inkscape:showpageshadow="false"
     inkscape:window-width="1920"
     inkscape:window-height="981"
     inkscape:window-x="0"
     inkscape:window-y="28"
     gridtolerance="50"
     inkscape:grid-points="false"
     showguides="true"
     inkscape:guide-bbox="true"
     objecttolerance="0.4"
     inkscape:object-paths="true"
     width="32px"
     height="32px"
     inkscape:window-maximized="1"
     inkscape:snap-grids="false"
     inkscape:snap-to-guides="false">
    <sodipodi:guide
       orientation="horizontal"
       position="50.977307"
       id="guide9112"
       inkscape:locked="false" />
    <inkscape:grid
       type="xygrid"
       id="grid2849" />
  </sodipodi:namedview>
  <metadata
     id="metadata7">
    <rdf:RDF>
      <cc:Work
         rdf:about="">
        <dc:format>image/svg+xml</dc:format>
        <dc:type
           rdf:resource="http://purl.org/dc/dcmitype/StillImage" />
        <dc:title></dc:title>
        <cc:license
           rdf:resource="Apache License 2.0" />
        <dc:creator>
          <cc:Agent>
            <dc:title />
          </cc:Agent>
        </dc:creator>
        <dc:publisher>
          <cc:Agent>
            <dc:title>ECMWF</dc:title>
          </cc:Agent>
        </dc:publisher>
        <dc:language>en-GB</dc:language>
        <dc:subject>
          <rdf:Bag>
            <rdf:li>Metview icon</rdf:li>
          </rdf:Bag>
        </dc:subject>
        <dc:description>Metview icon</dc:description>
      </cc:Work>
    </rdf:RDF>
  </metadata>
  <defs
     id="defs3">
    <linearGradient
       id="linearGradient3869">
      <stop
         style="stop-color:#fffa02;stop-opacity:1;"
         offset="0"
         id="stop3871" />
      <stop
         style="stop-color:#dddb31;stop-opacity:1;"
         offset="1"
         id="stop3873" />
    </linearGradient>
    <linearGradient
       id="linearGradient3889-7-1-2-9">
      <stop
         style="stop-color:#cfc0af;stop-opacity:1;"
         offset="0"
         id="stop3891-7-1-5-2" />
      <stop
         style="stop-color:#ffe2ab;stop-opacity:1;"
         offset="1"
         id="stop3893-5-0-8-24" />
    </linearGradient>
    <linearGradient
       id="linearGradient3889-8-5-7">
      <stop
         style="stop-color:#cfc0af;stop-opacity:1;"
         offset="0"
         id="stop3891-0-0-5" />
      <stop
         style="stop-color:#ffe2ab;stop-opacity:1;"
         offset="1"
         id="stop3893-2-6-4" />
    </linearGradient>
  </defs>
  <g
     inkscape:groupmode="layer"
     id="layer3"
     inkscape:label="frame"
     style="display:inline">
    <path
       style="fill:#ffffcc;fill-opacity:1;stroke:#bbc7be;stroke-width:0.89999998000000003;stroke-linecap:butt;stroke-linejoin:miter;stroke-miterlimit:4;stroke-opacity:1;stroke-dashoffset:0"
       d="m 4.5449877,0.41131106 27.0025713,0 0,31.15167094 -31.13624794,0 L 0.45244217,4.4293064 4.5449877,0.41131106 z"
       id="rect2911"
       sodipodi:nodetypes="cccccc"
       inkscape:connector-curvature="0" />
    <path
       style="fill:#ffb000;fill-opacity:1;fill-rule:evenodd;stroke:none"
       d="M 4.5512958,0.13221218 4.54329,4.7628311 -0.02205053,4.7234594 4.5512958,0.13221218 z"
       id="path4199"
       sodipodi:nodetypes="cccc"
       inkscape:connector-curvature="0" />
  </g>
  <g
     inkscape:groupmode="layer"
     id="layer17"
     inkscape:label="wmo"
     style="display:inline" />
  <g
     inkscape:groupmode="layer"
     id="layer13"
     inkscape:label="pencil"
     style="display:inline">
    <path
       style="fill:none;stroke:#000000;stroke-width:1px;stroke-linecap:butt;stroke-linejoin:miter;stroke-opacity:1"
       d="m 14.179196,20.830806 0,0 z"
       id="path3885"
       inkscape:connector-curvature="0" />
  </g>
  <g
     inkscape:groupmode="layer"
     id="layer2"
     inkscape:label="hand"
     style="display:inline">
    <rect
       style="opacity:0.53603599;fill:none;stroke:none;display:inline"
       id="rect2939"
       width="2.2622108"
       height="7.7326479"
       x="28.70981"
       y="19.224838" />
    <text
       xml:space="preserve"
       style="font-style:normal;font-weight:normal;font-size:21.33333333px;line-height:1.25;font-family:sans-serif;letter-spacing:0px;word-spacing:0px;fill:#000000;fill-opacity:1;stroke:none;"
       x="13.307544"
       y="12.93617"
       id="text3823"><tspan
         sodipodi:role="line"
         id="tspan3821"
         x="13.307544"
         y="48.326794"></tspan></text>
    <text
       xml:space="preserve"
       style="font-style:normal;font-weight:normal;font-size:27.65625763px;line-height:1.25;font-family:sans-serif;letter-spacing:0px;word-spacing:0px;fill:#0000a4;fill-opacity:1;stroke:none;stroke-width:1.15234399"
       x="6.344595"
       y="27.058491"
       id="text3829"
       transform="scale(1.0286205,0.97217585)"><tspan
         sodipodi:role="line"
         id="tspan3827"
         x="6.344595"
         y="27.058491"
         style="fill:#0000a4;fill-opacity:1;stroke-width:1.15234399">A</tspan></text>
  </g>
  <g
     inkscape:groupmode="layer"
     id="layer4"
     inkscape:label="top frame">
    <path
       style="fill:none;stroke:#ffb000;stroke-width:0.89999998;stroke-linecap:butt;stroke-linejoin:miter;stroke-miterlimit:4;stroke-opacity:1;stroke-dashoffset:0;display:inline"
       d="m 4.4915743,0.46375148 27.0025707,0 0,31.15167152 -31.13624765,0 0.04113,-27.1336762 4.09254595,-4.01799532 z"
       id="rect2911-2"
       sodipodi:nodetypes="cccccc"
       inkscape:connector-curvature="0" />
  </g>
</svg>
