<?xml version="1.0" encoding="UTF-8" standalone="no"?>
<svg
   xmlns:dc="http://purl.org/dc/elements/1.1/"
   xmlns:cc="http://creativecommons.org/ns#"
   xmlns:rdf="http://www.w3.org/1999/02/22-rdf-syntax-ns#"
   xmlns:svg="http://www.w3.org/2000/svg"
   xmlns="http://www.w3.org/2000/svg"
   xmlns:sodipodi="http://sodipodi.sourceforge.net/DTD/sodipodi-0.dtd"
   xmlns:inkscape="http://www.inkscape.org/namespaces/inkscape"
   inkscape:export-ydpi="180"
   inkscape:export-xdpi="180"
   width="32"
   height="32"
   id="svg11300"
   sodipodi:version="0.32"
   inkscape:version="1.0 (4035a4f, 2020-05-01)"
   sodipodi:docname="quasi_stationary.svg"
   inkscape:output_extension="org.inkscape.output.svg.inkscape"
   version="1.0"
   style="display:inline">
  <sodipodi:namedview
     stroke="#3465a4"
     fill="#729fcf"
     id="base"
     pagecolor="#ffffff"
     bordercolor="#666666"
     borderopacity="0.25490196"
     inkscape:pageopacity="0.0"
     inkscape:pageshadow="2"
     inkscape:zoom="16.15625"
     inkscape:cx="13.664881"
     inkscape:cy="15.860736"
     inkscape:current-layer="layer3"
     showgrid="true"
     inkscape:grid-bbox="false"
     inkscape:document-units="px"
     inkscape:showpageshadow="false"
     inkscape:window-width="1440"
     inkscape:window-height="794"
     inkscape:window-x="51"
     inkscape:window-y="25"
     gridtolerance="50"
     inkscape:grid-points="false"
     showguides="true"
     inkscape:guide-bbox="true"
     objecttolerance="0.4"
     inkscape:object-paths="true"
     width="32px"
     height="32px"
     inkscape:window-maximized="0"
     inkscape:snap-grids="false"
     inkscape:snap-to-guides="true"
     inkscape:object-nodes="true"
     inkscape:measure-start="0,0"
     inkscape:measure-end="0,0"
     inkscape:snap-midpoints="true"
     inkscape:snap-intersection-paths="false"
     inkscape:snap-bbox="true"
     inkscape:snap-nodes="true"
     inkscape:document-rotation="0">
    <sodipodi:guide
       orientation="horizontal"
       position="50.977307"
       id="guide9112"
       inkscape:locked="false" />
    <inkscape:grid
       type="xygrid"
       id="grid2849" />
  </sodipodi:namedview>
  <metadata
     id="metadata7">
    <rdf:RDF>
      <cc:Work
         rdf:about="">
        <dc:format>image/svg+xml</dc:format>
        <dc:type
           rdf:resource="http://purl.org/dc/dcmitype/StillImage" />
        <dc:title />
        <cc:license
           rdf:resource="Apache License 2.0" />
        <dc:creator>
          <cc:Agent>
            <dc:title />
          </cc:Agent>
        </dc:creator>
        <dc:publisher>
          <cc:Agent>
            <dc:title>ECMWF</dc:title>
          </cc:Agent>
        </dc:publisher>
        <dc:language>en-GB</dc:language>
        <dc:subject>
          <rdf:Bag>
            <rdf:li>Metview icon</rdf:li>
          </rdf:Bag>
        </dc:subject>
        <dc:description>Metview icon</dc:description>
      </cc:Work>
    </rdf:RDF>
  </metadata>
  <defs
     id="defs3">
    <linearGradient
       id="linearGradient3869">
      <stop
         style="stop-color:#fffa02;stop-opacity:1;"
         offset="0"
         id="stop3871" />
      <stop
         style="stop-color:#dddb31;stop-opacity:1;"
         offset="1"
         id="stop3873" />
    </linearGradient>
    <linearGradient
       id="linearGradient3889-7-1-2-9">
      <stop
         style="stop-color:#cfc0af;stop-opacity:1;"
         offset="0"
         id="stop3891-7-1-5-2" />
      <stop
         style="stop-color:#ffe2ab;stop-opacity:1;"
         offset="1"
         id="stop3893-5-0-8-24" />
    </linearGradient>
    <linearGradient
       id="linearGradient3889-8-5-7">
      <stop
         style="stop-color:#cfc0af;stop-opacity:1;"
         offset="0"
         id="stop3891-0-0-5" />
      <stop
         style="stop-color:#ffe2ab;stop-opacity:1;"
         offset="1"
         id="stop3893-2-6-4" />
    </linearGradient>
  </defs>
  <g
     inkscape:groupmode="layer"
     id="layer3"
     inkscape:label="frame"
     style="display:inline">
    <path
       sodipodi:nodetypes="cccc"
       inkscape:connector-curvature="0"
       id="path4837"
       d="M 2.9693377,21.393531 8.3932737,10.995225 13.763752,21.359674 Z"
       style="display:inline;fill:#0044aa;fill-opacity:1;stroke:#0044aa;stroke-width:0.690787;stroke-linecap:butt;stroke-linejoin:miter;stroke-miterlimit:4;stroke-dasharray:none;stroke-opacity:1" />
    <rect
       y="21.65851"
       x="1.0212784"
       height="2.7852998"
       width="30.019341"
       id="rect866"
       style="display:inline;opacity:1;fill:#0044aa;stroke-width:4.01944;stroke-linecap:round;stroke-linejoin:round;paint-order:fill markers stroke" />
    <rect
       y="13.33232"
       x="28.740761"
       height="7.7326479"
       width="2.2622108"
       id="rect2939-2"
       style="display:inline;opacity:0.536036;fill:none;stroke:none" />
    <path
       style="display:inline;fill:#e2002d;stroke-width:5.21743;stroke-linecap:round;stroke-linejoin:round;paint-order:fill markers stroke"
       id="path1696"
       sodipodi:type="arc"
       sodipodi:cx="23.458414"
       sodipodi:cy="24.015472"
       sodipodi:rx="6.0038686"
       sodipodi:ry="6.5252681"
       sodipodi:start="0"
       sodipodi:end="3.1237921"
       sodipodi:arc-type="arc"
       d="m 29.462283,24.015472 a 6.0038686,6.5252681 0 0 1 -5.950434,6.52501 6.0038686,6.5252681 0 0 1 -6.056352,-6.408862"
       sodipodi:open="true" />
    <rect
       style="display:inline;opacity:1;fill:#e2002d;stroke-width:2.87423;stroke-linecap:round;stroke-linejoin:round;paint-order:fill markers stroke"
       id="rect2945"
       width="15.350095"
       height="2.7852998"
       x="15.690524"
       y="21.65851" />
  </g>
  <g
     inkscape:groupmode="layer"
     id="layer17"
     inkscape:label="wmo"
     style="display:inline" />
  <g
     inkscape:groupmode="layer"
     id="layer13"
     inkscape:label="pencil"
     style="display:none">
    <path
       style="fill:none;stroke:#000000;stroke-width:1px;stroke-linecap:butt;stroke-linejoin:miter;stroke-opacity:1"
       d="M 14.179196,20.830806 Z"
       id="path3885"
       inkscape:connector-curvature="0" />
    <path
       style="display:inline;opacity:0;fill:#0000a5;fill-opacity:1;fill-rule:evenodd;stroke:#0000ba;stroke-width:0.2;stroke-linecap:round;stroke-linejoin:miter;stroke-miterlimit:4;stroke-dasharray:none;stroke-opacity:1"
       d="M 4.9516441,7.6750484 24.758221,26.800774"
       id="path4762"
       inkscape:connector-type="polyline"
       inkscape:connector-curvature="0" />
  </g>
  <g
     inkscape:groupmode="layer"
     id="layer2"
     inkscape:label="hand"
     style="display:inline">
    <rect
       style="display:inline;opacity:0.536036;fill:none;stroke:none"
       id="rect2939"
       width="2.2622108"
       height="7.7326479"
       x="28.524124"
       y="17.429867" />
    <text
       xml:space="preserve"
       style="font-style:normal;font-weight:normal;font-size:21.3333px;line-height:1.25;font-family:sans-serif;letter-spacing:0px;word-spacing:0px;fill:#000000;fill-opacity:1;stroke:none"
       x="13.307544"
       y="12.93617"
       id="text3823" />
  </g>
  <g
     inkscape:groupmode="layer"
     id="layer4"
     inkscape:label="top frame" />
</svg>
