<?xml version="1.0" encoding="UTF-8" standalone="no"?>
<svg
   xmlns:dc="http://purl.org/dc/elements/1.1/"
   xmlns:cc="http://creativecommons.org/ns#"
   xmlns:rdf="http://www.w3.org/1999/02/22-rdf-syntax-ns#"
   xmlns:svg="http://www.w3.org/2000/svg"
   xmlns="http://www.w3.org/2000/svg"
   xmlns:sodipodi="http://sodipodi.sourceforge.net/DTD/sodipodi-0.dtd"
   xmlns:inkscape="http://www.inkscape.org/namespaces/inkscape"
   style="display:inline"
   version="1.0"
   inkscape:output_extension="org.inkscape.output.svg.inkscape"
   sodipodi:docname="text.svg"
   inkscape:version="1.0 (4035a4f, 2020-05-01)"
   sodipodi:version="0.32"
   id="svg11300"
   height="32"
   width="32"
   inkscape:export-xdpi="180"
   inkscape:export-ydpi="180">
  <sodipodi:namedview
     inkscape:document-rotation="0"
     inkscape:snap-nodes="true"
     inkscape:snap-bbox="true"
     inkscape:snap-intersection-paths="false"
     inkscape:snap-midpoints="true"
     inkscape:measure-end="0,0"
     inkscape:measure-start="0,0"
     inkscape:object-nodes="true"
     inkscape:snap-to-guides="true"
     inkscape:snap-grids="false"
     inkscape:window-maximized="0"
     height="32px"
     width="32px"
     inkscape:object-paths="true"
     objecttolerance="0.4"
     inkscape:guide-bbox="true"
     showguides="true"
     inkscape:grid-points="false"
     gridtolerance="50"
     inkscape:window-y="43"
     inkscape:window-x="45"
     inkscape:window-height="794"
     inkscape:window-width="1440"
     inkscape:showpageshadow="false"
     inkscape:document-units="px"
     inkscape:grid-bbox="false"
     showgrid="true"
     inkscape:current-layer="layer3"
     inkscape:cy="15.922631"
     inkscape:cx="25.982096"
     inkscape:zoom="16.15625"
     inkscape:pageshadow="2"
     inkscape:pageopacity="0.0"
     borderopacity="0.25490196"
     bordercolor="#666666"
     pagecolor="#ffffff"
     id="base"
     fill="#729fcf"
     stroke="#3465a4">
    <sodipodi:guide
       inkscape:locked="false"
       id="guide9112"
       position="50.977307"
       orientation="horizontal" />
    <inkscape:grid
       id="grid2849"
       type="xygrid" />
  </sodipodi:namedview>
  <metadata
     id="metadata7">
    <rdf:RDF>
      <cc:Work
         rdf:about="">
        <dc:format>image/svg+xml</dc:format>
        <dc:type
           rdf:resource="http://purl.org/dc/dcmitype/StillImage" />
        <dc:title></dc:title>
        <cc:license
           rdf:resource="Apache License 2.0" />
        <dc:creator>
          <cc:Agent>
            <dc:title />
          </cc:Agent>
        </dc:creator>
        <dc:publisher>
          <cc:Agent>
            <dc:title>ECMWF</dc:title>
          </cc:Agent>
        </dc:publisher>
        <dc:language>en-GB</dc:language>
        <dc:subject>
          <rdf:Bag>
            <rdf:li>Metview icon</rdf:li>
          </rdf:Bag>
        </dc:subject>
        <dc:description>Metview icon</dc:description>
      </cc:Work>
    </rdf:RDF>
  </metadata>
  <defs
     id="defs3">
    <linearGradient
       id="linearGradient3869">
      <stop
         id="stop3871"
         offset="0"
         style="stop-color:#fffa02;stop-opacity:1;" />
      <stop
         id="stop3873"
         offset="1"
         style="stop-color:#dddb31;stop-opacity:1;" />
    </linearGradient>
    <linearGradient
       id="linearGradient3889-7-1-2-9">
      <stop
         id="stop3891-7-1-5-2"
         offset="0"
         style="stop-color:#cfc0af;stop-opacity:1;" />
      <stop
         id="stop3893-5-0-8-24"
         offset="1"
         style="stop-color:#ffe2ab;stop-opacity:1;" />
    </linearGradient>
    <linearGradient
       id="linearGradient3889-8-5-7">
      <stop
         id="stop3891-0-0-5"
         offset="0"
         style="stop-color:#cfc0af;stop-opacity:1;" />
      <stop
         id="stop3893-2-6-4"
         offset="1"
         style="stop-color:#ffe2ab;stop-opacity:1;" />
    </linearGradient>
  </defs>
  <g
     style="display:inline"
     inkscape:label="frame"
     id="layer3"
     inkscape:groupmode="layer">
    <path
       inkscape:connector-curvature="0"
       d="m 18.365544,14.497961 c 0.17357,-0.04387 0.350189,-0.07252 0.528543,-0.08657 0.158096,7.14e-4 0.302353,-0.06794 0.453984,-0.103442 -0.06629,0.0711 0.308683,-0.144365 0.214176,-0.09005 -0.23698,0.136199 -0.474516,0.271429 -0.712003,0.406742 -0.02327,0.01326 0.04609,-0.0273 0.06934,-0.04058 0.283571,-0.161902 0.567424,-0.323308 0.851135,-0.484962 0.134633,-0.03395 0.255435,-0.101765 0.385805,-0.147147 0.123241,-0.03798 0.252353,-0.04387 0.380287,-0.04759 0.12529,-0.0016 0.246747,0.01176 0.364746,-0.03573 0,0 -0.72675,0.559137 -0.72675,0.559137 v 0 c -0.124949,0.02217 -0.251279,0.01238 -0.377639,0.01928 -0.123365,0.008 -0.246723,0.02241 -0.361985,0.07034 -0.125769,0.05259 -0.253729,0.09882 -0.378166,0.154032 0.2386,-0.138404 0.4772,-0.276808 0.715801,-0.415212 -0.0233,0.01347 -0.04656,0.02702 -0.0699,0.04042 -0.361177,0.207384 -0.682194,0.465035 -1.082303,0.567975 -0.151308,0.04151 -0.300652,0.09044 -0.459691,0.09033 -0.176955,0.0204 -0.352949,0.05055 -0.523405,0.103547 0,0 0.728016,-0.560537 0.728016,-0.560537 z"
       id="path4854"
       style="opacity:0;fill:#4542c8;fill-opacity:1;stroke:#4542c8;stroke-width:0.2;stroke-linecap:round;stroke-miterlimit:4;stroke-dasharray:none;stroke-opacity:1" />
    <path
       inkscape:connector-curvature="0"
       d="m 18.008847,14.090017 c 0.225208,0.0049 0.451486,-0.04114 0.669551,-0.09485 0.142209,-0.06238 0.285098,-0.116703 0.438868,-0.140533 0.114185,-0.0086 0.206505,-0.07803 0.316777,-0.107167 0.0816,-0.0088 0.155203,-0.0266 0.229441,-0.06139 0,0 -0.722166,0.565184 -0.722166,0.565184 v 0 c -0.07725,0.02231 -0.156519,0.03428 -0.233134,0.05884 -0.105991,0.04051 -0.206532,0.09163 -0.322449,0.09785 -0.147246,0.035 -0.284288,0.09875 -0.430491,0.137323 -0.227042,0.04574 -0.456365,0.08774 -0.688958,0.08424 0,0 0.742561,-0.539502 0.742561,-0.539502 z"
       id="path4856"
       style="opacity:0;fill:#4542c8;fill-opacity:1;stroke:#4542c8;stroke-width:0.2;stroke-linecap:round;stroke-miterlimit:4;stroke-dasharray:none;stroke-opacity:1" />
    <text
       id="text883"
       y="27.419729"
       x="6.6228247"
       style="font-style:normal;font-variant:normal;font-weight:normal;font-stretch:normal;font-size:32px;line-height:1.25;font-family:Times;-inkscape-font-specification:Times;fill:#000000;fill-opacity:1;stroke:none"
       xml:space="preserve"><tspan
         y="27.419729"
         x="6.6228247"
         id="tspan881"
         sodipodi:role="line">T</tspan></text>
  </g>
  <g
     style="display:inline"
     inkscape:label="wmo"
     id="layer17"
     inkscape:groupmode="layer" />
  <g
     style="display:none"
     inkscape:label="pencil"
     id="layer13"
     inkscape:groupmode="layer">
    <path
       inkscape:connector-curvature="0"
       id="path3885"
       d="M 14.179196,20.830806 Z"
       style="fill:none;stroke:#000000;stroke-width:1px;stroke-linecap:butt;stroke-linejoin:miter;stroke-opacity:1" />
    <path
       inkscape:connector-curvature="0"
       inkscape:connector-type="polyline"
       id="path4762"
       d="M 4.9516441,7.6750484 24.758221,26.800774"
       style="display:inline;opacity:0;fill:#0000a5;fill-opacity:1;fill-rule:evenodd;stroke:#0000ba;stroke-width:0.2;stroke-linecap:round;stroke-linejoin:miter;stroke-miterlimit:4;stroke-dasharray:none;stroke-opacity:1" />
  </g>
  <g
     style="display:inline"
     inkscape:label="hand"
     id="layer2"
     inkscape:groupmode="layer">
    <rect
       y="19.224838"
       x="28.70981"
       height="7.7326479"
       width="2.2622108"
       id="rect2939"
       style="opacity:0.53603599;fill:none;stroke:none;display:inline" />
    <text
       id="text3823"
       y="12.93617"
       x="13.307544"
       style="font-style:normal;font-weight:normal;font-size:21.3333px;line-height:1.25;font-family:sans-serif;letter-spacing:0px;word-spacing:0px;fill:#000000;fill-opacity:1;stroke:none"
       xml:space="preserve" />
  </g>
  <g
     inkscape:label="top frame"
     id="layer4"
     inkscape:groupmode="layer" />
</svg>
