/* XPM */
static char *noname[] = {
/* width height ncolors chars_per_pixel */
"32 32 18 1",
/* colors */
"` c #000000",
"a c #777777",
"b c #333333",
"c c #ADD8E6",
"d c #6CA632",
"e c #CCCCCC",
"f c #BEBEBE",
"g c #B2B2B2",
"h c #B0C4DE",
"i c #7E7E7E",
"j c #CEE6E6",
"k c #FFFFFF",
"l c #947A4A",
"m c #663B20",
"n c #E5E5E5",
"o c #665433",
"p c #7CBD76",
"q c #6C7B8B",
/* pixels */
"kkkkkkkkkkkkkkkkkkkkkkkkkkkkkkkk",
"kkkkkkkkkkknngqiiiainkkkkkkkkkkk",
"kkkkkkkkkngaqiqqqqqaboaekkkkkkkk",
"kkkkkkkngaaqaaqqqqqqabbbikkkkkkk",
"kkkkkkfoaoaaoaboqaqaobbbbogkkkkk",
"kkkkkfogiaaaoioqqqqqaobbbbbgkkkk",
"kkkkfoigiiiiaaqqqaaoobbbbbbmnkkk",
"kkknoaiaqqaioaaqqqbbbbbbbbobakkk",
"kkkpaaaogiaqqaoqqabbbbbbbboooikk",
"kkedigaagqqqqqqaqabbobbooboobbnk",
"kkpogpqiqqqqqqqaoqooaoooooooobik",
"knogjfaqiqqqqqqabqooooooooooobok",
"kjpccggqqqqqqqaabbboooooobbbobbn",
"kchhggqiqqqqqqqqabbbooooabbbbmbo",
"kghgggqqqqqqqqqqaobbbbbboboooobb",
"kggggqqqqqqqqqqbbbbaoobbbboombbo",
"eiggqqqqqqqqqqabbbabbqoaabooobbo",
"khggqqqqqqaqqqabbobbaqaaaboooooa",
"kigqqqqqqqqqqqqbbbbboooooooooooa",
"kigqqqqaqqqaqqoooooloooooomooooq",
"kgqiqqqqqqqqaoooollllooooooooban",
"keoqqqqqqqqqaoooolooloooooobbbak",
"kkoaqqqqaqqqboollloolooooobbbbgk",
"kkgbqqqqqqaqboooolloooooooobbonk",
"kkkaoqqaqqaabooooooooooooobmogkk",
"kkkeboqqqqqqbbboooooobobbbbbakkk",
"kkkkgboqqqqqqbbbbbbbbbbbbbmbfkkk",
"kkkkkgboaqaqaabbaaab`bb``bbgkkkk",
"kkkkkkgbaaaaqaaaaaaabbbbbogkkkkk",
"kkkkkkkngaaaaaaaaaaaabboikkkkkkk",
"kkkkkkkkkfqaaaaaaaaaooinkkkkkkkk",
"kkkkkkkkkkknfaaaaaaafnkkkkkkkkkk"
};
