/* XPM */
static char * VECTORS_icon[] = {
"32 32 12 1",
" 	c #FFFFFFFFFFFF",
".	c #00000000DDDD",
"X	c #9999FFFFFFFF",
"o	c #00009999FFFF",
"O	c #555555555555",
"+	c #EEEEEEEEEEEE",
"@	c #3333FFFF9999",
"#	c #333399996666",
"$	c #0000BBBB0000",
"%	c #FFFFCCCC9999",
"&	c #FFFF66663333",
"*	c #DDDD00000000",
"    .                           ",
"   Xo.                          ",
"  XXo..OOOOOOOOOOOOOOOOOOOOOOO  ",
" XXooo..+++++++++++++++++++++O  ",
"XXooooo..++++++++++++++++++++O  ",
" O+Xo.++++++++++++++@@@@@@#++O  ",
" O+Xo.+++++++++++++++@@@$$#++O  ",
" O+Xo.++++++++++++++++$$$$#++O  ",
" O+Xo.++++++++++++++++@$$##++O  ",
" O+Xo.+++++++++++++++@$#$##++O  ",
" O+Xo.++++++++++++++@$#++##++O  ",
" O+Xo.+++++++++++++@$#++++#++O  ",
" O+Xo.++++++++++++@$#++++++++O  ",
" O+Xo.+++++++++++@$#+++++++++O  ",
" O+Xo.++++++++++@$#++++++++++O  ",
" O+Xo.+++++++++@$#+++++++++++O  ",
" O+Xo.++++++++@$#++++++++++++O  ",
" O+Xo.+++++++@$#+++++++++++++O  ",
" O+Xo.++++++@$#++++++++++++++O  ",
" O+Xo.+++++@$#+++++++++++++++O  ",
" O+Xo.++++@$#++++++++++++++++O  ",
" O+Xo.+++@$#+++++++++++++++++O  ",
" O+Xo.++@$#++++++++++++++++++O  ",
" O+Xo.+@$#+++++++++++++++++%+O  ",
" O+Xo.@$#++++++++++++++++++%%O  ",
" O+Xo@$#+++++++++++++++++++&%%  ",
"%%%%@$#%%%%%%%%%%%%%%%%%%%%&&%% ",
"&&&@$#&&&&&&&&&&&&&&&&&&&&&&&&&*",
"**@$#**********************&&** ",
" @$#o.+++++++++++++++++++++&**  ",
"@$#Xo.OOOOOOOOOOOOOOOOOOOOO**   ",
"$# Xo.                     *    "};
